%!PS-Adobe-3.0 EPSF-3.0
%%Creator: MATLAB, The Mathworks, Inc. Version 7.9.0.529 (R2009b). Operating System: Linux 2.6.16.60-0.21-smp #1 SMP Tue May 6 12:41:02 UTC 2008 x86_64.
%%Title: /home/btpp/btpp05/MassConservation.eps
%%CreationDate: 12/17/2010  17:20:31
%%DocumentNeededFonts: Helvetica
%%+ Helvetica-Bold
%%DocumentProcessColors: Cyan Magenta Yellow Black
%%LanguageLevel: 2
%%Pages: 1
%%BoundingBox:    84   249   509   593
%%EndComments

%%BeginProlog
% MathWorks dictionary
/MathWorks 160 dict begin
% definition operators
/bdef {bind def} bind def
/ldef {load def} bind def
/xdef {exch def} bdef
/xstore {exch store} bdef
% operator abbreviations
/c  /clip ldef
/cc /concat ldef
/cp /closepath ldef
/gr /grestore ldef
/gs /gsave ldef
/mt /moveto ldef
/np /newpath ldef
/cm /currentmatrix ldef
/sm /setmatrix ldef
/rm /rmoveto ldef
/rl /rlineto ldef
/s {show newpath} bdef
/sc {setcmykcolor} bdef
/sr /setrgbcolor ldef
/sg /setgray ldef
/w /setlinewidth ldef
/j /setlinejoin ldef
/cap /setlinecap ldef
/rc {rectclip} bdef
/rf {rectfill} bdef
% page state control
/pgsv () def
/bpage {/pgsv save def} bdef
/epage {pgsv restore} bdef
/bplot /gsave ldef
/eplot {stroke grestore} bdef
% orientation switch
/portraitMode 0 def /landscapeMode 1 def /rotateMode 2 def
% coordinate system mappings
/dpi2point 0 def
% font control
/FontSize 0 def
/FMS {/FontSize xstore findfont [FontSize 0 0 FontSize neg 0 0]
  makefont setfont} bdef
/reencode {exch dup where {pop load} {pop StandardEncoding} ifelse
  exch dup 3 1 roll findfont dup length dict begin
  { 1 index /FID ne {def}{pop pop} ifelse } forall
  /Encoding exch def currentdict end definefont pop} bdef
/isroman {findfont /CharStrings get /Agrave known} bdef
/FMSR {3 1 roll 1 index dup isroman {reencode} {pop pop} ifelse
  exch FMS} bdef
/csm {1 dpi2point div -1 dpi2point div scale neg translate
 dup landscapeMode eq {pop -90 rotate}
  {rotateMode eq {90 rotate} if} ifelse} bdef
% line types: solid, dotted, dashed, dotdash
/SO { [] 0 setdash } bdef
/DO { [.5 dpi2point mul 4 dpi2point mul] 0 setdash } bdef
/DA { [6 dpi2point mul] 0 setdash } bdef
/DD { [.5 dpi2point mul 4 dpi2point mul 6 dpi2point mul 4
  dpi2point mul] 0 setdash } bdef
% macros for lines and objects
/L {lineto stroke} bdef
/MP {3 1 roll moveto 1 sub {rlineto} repeat} bdef
/AP {{rlineto} repeat} bdef
/PDlw -1 def
/W {/PDlw currentlinewidth def setlinewidth} def
/PP {closepath eofill} bdef
/DP {closepath stroke} bdef
/MR {4 -2 roll moveto dup  0 exch rlineto exch 0 rlineto
  neg 0 exch rlineto closepath} bdef
/FR {MR stroke} bdef
/PR {MR fill} bdef
/L1i {{currentfile picstr readhexstring pop} image} bdef
/tMatrix matrix def
/MakeOval {newpath tMatrix currentmatrix pop translate scale
0 0 1 0 360 arc tMatrix setmatrix} bdef
/FO {MakeOval stroke} bdef
/PO {MakeOval fill} bdef
/PD {currentlinewidth 2 div 0 360 arc fill
   PDlw -1 eq not {PDlw w /PDlw -1 def} if} def
/FA {newpath tMatrix currentmatrix pop translate scale
  0 0 1 5 -2 roll arc tMatrix setmatrix stroke} bdef
/PA {newpath tMatrix currentmatrix pop	translate 0 0 moveto scale
  0 0 1 5 -2 roll arc closepath tMatrix setmatrix fill} bdef
/FAn {newpath tMatrix currentmatrix pop translate scale
  0 0 1 5 -2 roll arcn tMatrix setmatrix stroke} bdef
/PAn {newpath tMatrix currentmatrix pop translate 0 0 moveto scale
  0 0 1 5 -2 roll arcn closepath tMatrix setmatrix fill} bdef
/vradius 0 def /hradius 0 def /lry 0 def
/lrx 0 def /uly 0 def /ulx 0 def /rad 0 def
/MRR {/vradius xdef /hradius xdef /lry xdef /lrx xdef /uly xdef
  /ulx xdef newpath tMatrix currentmatrix pop ulx hradius add uly
  vradius add translate hradius vradius scale 0 0 1 180 270 arc 
  tMatrix setmatrix lrx hradius sub uly vradius add translate
  hradius vradius scale 0 0 1 270 360 arc tMatrix setmatrix
  lrx hradius sub lry vradius sub translate hradius vradius scale
  0 0 1 0 90 arc tMatrix setmatrix ulx hradius add lry vradius sub
  translate hradius vradius scale 0 0 1 90 180 arc tMatrix setmatrix
  closepath} bdef
/FRR {MRR stroke } bdef
/PRR {MRR fill } bdef
/MlrRR {/lry xdef /lrx xdef /uly xdef /ulx xdef /rad lry uly sub 2 div def
  newpath tMatrix currentmatrix pop ulx rad add uly rad add translate
  rad rad scale 0 0 1 90 270 arc tMatrix setmatrix lrx rad sub lry rad
  sub translate rad rad scale 0 0 1 270 90 arc tMatrix setmatrix
  closepath} bdef
/FlrRR {MlrRR stroke } bdef
/PlrRR {MlrRR fill } bdef
/MtbRR {/lry xdef /lrx xdef /uly xdef /ulx xdef /rad lrx ulx sub 2 div def
  newpath tMatrix currentmatrix pop ulx rad add uly rad add translate
  rad rad scale 0 0 1 180 360 arc tMatrix setmatrix lrx rad sub lry rad
  sub translate rad rad scale 0 0 1 0 180 arc tMatrix setmatrix
  closepath} bdef
/FtbRR {MtbRR stroke } bdef
/PtbRR {MtbRR fill } bdef
/stri 6 array def /dtri 6 array def
/smat 6 array def /dmat 6 array def
/tmat1 6 array def /tmat2 6 array def /dif 3 array def
/asub {/ind2 exch def /ind1 exch def dup dup
  ind1 get exch ind2 get sub exch } bdef
/tri_to_matrix {
  2 0 asub 3 1 asub 4 0 asub 5 1 asub
  dup 0 get exch 1 get 7 -1 roll astore } bdef
/compute_transform {
  dmat dtri tri_to_matrix tmat1 invertmatrix 
  smat stri tri_to_matrix tmat2 concatmatrix } bdef
/ds {stri astore pop} bdef
/dt {dtri astore pop} bdef
/db {2 copy /cols xdef /rows xdef mul dup 3 mul string
  currentfile 
  3 index 0 eq {/ASCIIHexDecode filter}
  {/ASCII85Decode filter 3 index 2 eq {/RunLengthDecode filter} if }
  ifelse exch readstring pop
  dup 0 3 index getinterval /rbmap xdef
  dup 2 index dup getinterval /gbmap xdef
  1 index dup 2 mul exch getinterval /bbmap xdef pop pop}bdef
/it {gs np dtri aload pop moveto lineto lineto cp c
  cols rows 8 compute_transform 
  rbmap gbmap bbmap true 3 colorimage gr}bdef
/il {newpath moveto lineto stroke}bdef
currentdict end def
%%EndProlog

%%BeginSetup
MathWorks begin

0 cap

end
%%EndSetup

%%Page: 1 1
%%BeginPageSetup
%%PageBoundingBox:    84   249   509   593
MathWorks begin
bpage
%%EndPageSetup

%%BeginObject: obj1
bplot

/dpi2point 12 def
portraitMode 1008 7116 csm

    0     0  5108  4120 rc
85 dict begin %Colortable dictionary
/c0 { 0.000000 0.000000 0.000000 sr} bdef
/c1 { 1.000000 1.000000 1.000000 sr} bdef
/c2 { 0.900000 0.000000 0.000000 sr} bdef
/c3 { 0.000000 0.820000 0.000000 sr} bdef
/c4 { 0.000000 0.000000 0.800000 sr} bdef
/c5 { 0.910000 0.820000 0.320000 sr} bdef
/c6 { 1.000000 0.260000 0.820000 sr} bdef
/c7 { 0.000000 0.820000 0.820000 sr} bdef
c0
1 j
1 sg
   0    0 5109 4121 rf
6 w
0 3358 3924 0 0 -3358 699 3667 4 MP
PP
-3924 0 0 3358 3924 0 0 -3358 699 3667 5 MP stroke
4 w
DO
SO
6 w
0 sg
 699 3667 mt 4623 3667 L
 699  309 mt 4623  309 L
 699 3667 mt  699  309 L
4623 3667 mt 4623  309 L
 699 3667 mt 4623 3667 L
 699 3667 mt  699  309 L
 699 3667 mt  699 3627 L
 699  309 mt  699  348 L
%%IncludeResource: font Helvetica-Bold
/Helvetica-Bold /ISOLatin1Encoding 144 FMSR

 659 3839 mt 
(0) s
1342 3667 mt 1342 3627 L
1342  309 mt 1342  348 L
1222 3839 mt 
(500) s
1985 3667 mt 1985 3627 L
1985  309 mt 1985  348 L
1825 3839 mt 
(1000) s
2628 3667 mt 2628 3627 L
2628  309 mt 2628  348 L
2468 3839 mt 
(1500) s
3272 3667 mt 3272 3627 L
3272  309 mt 3272  348 L
3112 3839 mt 
(2000) s
3915 3667 mt 3915 3627 L
3915  309 mt 3915  348 L
3755 3839 mt 
(2500) s
4558 3667 mt 4558 3627 L
4558  309 mt 4558  348 L
4398 3839 mt 
(3000) s
 699 3667 mt  738 3667 L
4623 3667 mt 4583 3667 L
 304 3722 mt 
(0.015) s
 699 3331 mt  738 3331 L
4623 3331 mt 4583 3331 L
 224 3386 mt 
(0.0155) s
 699 2995 mt  738 2995 L
4623 2995 mt 4583 2995 L
 304 3050 mt 
(0.016) s
 699 2659 mt  738 2659 L
4623 2659 mt 4583 2659 L
 224 2714 mt 
(0.0165) s
 699 2323 mt  738 2323 L
4623 2323 mt 4583 2323 L
 304 2378 mt 
(0.017) s
 699 1987 mt  738 1987 L
4623 1987 mt 4583 1987 L
 224 2042 mt 
(0.0175) s
 699 1652 mt  738 1652 L
4623 1652 mt 4583 1652 L
 304 1707 mt 
(0.018) s
 699 1316 mt  738 1316 L
4623 1316 mt 4583 1316 L
 224 1371 mt 
(0.0185) s
 699  980 mt  738  980 L
4623  980 mt 4583  980 L
 304 1035 mt 
(0.019) s
 699  644 mt  738  644 L
4623  644 mt 4583  644 L
 224  699 mt 
(0.0195) s
 699  309 mt  738  309 L
4623  309 mt 4583  309 L
 384  364 mt 
(0.02) s
 699 3667 mt 4623 3667 L
 699  309 mt 4623  309 L
 699 3667 mt  699  309 L
4623 3667 mt 4623  309 L
gs 699 309 3925 3359 rc
/c8 { 1.000000 0.000000 0.000000 sr} bdef
c8
8 0 7 0 8 1 8 0 7 0 8 1 8 0 8 0 
7 1 8 0 8 0 7 1 8 0 8 0 8 0 7 1 
8 0 8 0 7 1 8 0 8 0 8 1 7 0 8 0 
8 0 8 1 7 0 8 0 8 1 7 0 8 0 8 1 
8 0 7 0 8 1 8 0 7 0 8 0 8 1 8 0 
7 0 8 1 8 0 7 0 8 1 8 0 8 0 7 1 
8 0 8 0 8 0 7 1 8 0 8 0 7 1 8 0 
8 0 8 1 7 0 8 0 8 0 7 1 8 0 8 0 
8 1 7 0 8 0 8 1 7 0 8 0 8 1 8 0 
7 0 8 0 8 1 7 0 8 0 8 1 8 0 7 0 
8 1 8 0 8 0 7 1 8 0 8 0 7 0 8 1 
8 0 8 0 7 1 8 0 8 0 7 1 8 0 8 0 
8 1 7 0 8 0 8 0 7 1 8 0 8 0 8 1 
7 0 8 0 8 1 8 0 7 0 8 1 8 0 7 0 
8 0 8 1 8 0 7 0 8 1 8 0 7 0 8 1 
8 0 8 0 7 1 8 0 8 0 7 0 8 1 8 0 
8 0 7 1 8 0 8 0 8 1 7 0 8 0 8 1 
7 0 8 0 8 0 8 1 7 0 8 0 8 1 7 0 
8 0 8 1 8 0 7 0 8 1 8 0 7 0 8 1 
8 0 8 0 7 0 8 1 8 0 7 0 8 1 8 0 
8 0 7 1 8 0 8 0 8 1 7 0 8 0 8 1 
7 0 8 0 8 1 8 0 7 0 8 0 8 1 7 0 
8 0 8 1 8 0 7 0 8 1 8 0 7 0 8 1 
8 0 8 0 7 1 8 0 8 0 8 1 7 0 8 0 
8 0 7 1 8 0 8 0 8 1 7 0 8 0 8 1 
7 0 8 0 8 1 8 0 7 0 8 1 8 0 7 0 
8 1 8 0 8 0 7 1 8 0 8 0 7 1 8 0 
8 0 8 1 7 0 8 0 8 1 8 0 7 0 8 1 
8 0 7 0 8 1 8 0 8 0 7 1 8 0 8 0 
7 1 8 0 8 0 8 1 7 0 8 0 8 1 7 0 
8 0 8 1 8 0 7 1 8 0 8 0 8 1 7 0 
8 0 8 1 7 0 8 0 8 1 8 0 7 0 8 1 
8 0 7 1 8 0 8 0 8 1 7 0 8 0 8 1 
7 0 8 1 8 0 8 0 7 1 8 0 8 0 7 1 
8 0 8 1 8 0 7 0 8 1 8 0 8 1 7 0 
8 0 8 1 7 0 8 1 8 0 8 0 7 1 8 0 
8 1 7 0 8 1 8 0 8 0 7 1 8 0 8 1 
7 0 8 1 8 0 2250 1609 300 MP stroke
8 1 7 0 8 1 8 0 8 0 7 1 8 0 8 1 
7 0 8 1 8 0 8 1 7 0 8 1 8 0 7 1 
8 0 8 1 8 1 7 0 8 1 8 0 7 1 8 0 
8 1 8 0 7 1 8 1 8 0 7 1 8 0 8 1 
8 1 7 0 8 1 8 0 8 1 7 1 8 0 8 1 
7 1 8 0 8 1 8 1 7 1 8 0 8 1 7 1 
8 1 8 0 8 1 7 1 8 1 8 0 7 1 8 1 
8 1 8 1 7 1 8 0 8 1 8 1 7 1 8 1 
8 1 7 1 8 1 8 1 8 1 7 1 8 1 8 1 
7 1 8 1 8 1 8 2 7 1 8 1 8 1 7 1 
8 2 8 1 8 1 7 1 8 2 8 1 7 1 8 2 
8 1 8 2 7 1 8 2 8 1 8 2 7 1 8 2 
8 2 7 1 8 2 8 2 8 2 7 2 8 1 8 2 
7 2 8 2 8 2 8 2 7 2 8 3 8 2 7 2 
8 2 8 3 8 2 7 3 8 2 8 3 8 2 7 3 
8 3 8 3 7 3 8 3 8 3 8 3 7 3 8 3 
8 3 7 4 8 3 8 4 8 3 7 4 8 4 8 4 
7 4 8 4 8 4 8 4 7 5 8 4 8 5 7 5 
8 5 8 5 8 5 7 5 8 5 8 6 8 6 7 6 
8 5 8 7 7 6 8 6 8 7 8 7 7 7 8 7 
8 8 7 7 8 8 8 8 8 8 7 9 8 9 8 9 
7 9 8 9 8 10 8 10 7 11 8 10 8 11 8 12 
7 12 8 12 8 12 7 13 8 13 8 14 8 14 7 15 
8 15 8 16 7 16 8 17 8 18 8 19 7 19 8 20 
8 21 7 23 8 24 8 25 8 28 7 30 8 34 8 41 
706 675 201 MP stroke
/c9 { 0.000000 0.000000 1.000000 sr} bdef
c9
8 0 7 0 8 0 8 0 7 0 8 0 8 0 8 0 
7 0 8 0 8 0 7 0 8 0 8 0 8 0 7 0 
8 0 8 0 7 0 8 0 8 0 8 0 7 0 8 0 
8 0 8 0 7 0 8 0 8 0 7 0 8 0 8 0 
8 0 7 0 8 0 8 0 7 0 8 0 8 0 8 0 
7 0 8 0 8 0 7 0 8 0 8 0 8 0 7 0 
8 0 8 0 8 0 7 0 8 0 8 0 7 0 8 0 
8 0 8 0 7 0 8 0 8 0 7 0 8 0 8 0 
8 0 7 0 8 0 8 0 7 0 8 0 8 0 8 0 
7 0 8 0 8 0 7 0 8 0 8 0 8 0 7 0 
8 0 8 0 8 0 7 0 8 0 8 0 7 0 8 0 
8 0 8 0 7 0 8 0 8 0 7 0 8 0 8 0 
8 0 7 0 8 0 8 0 7 0 8 0 8 0 8 0 
7 0 8 0 8 0 8 0 7 0 8 0 8 0 7 0 
8 0 8 0 8 0 7 0 8 0 8 0 7 0 8 0 
8 0 8 0 7 0 8 0 8 0 7 0 8 0 8 0 
8 0 7 0 8 0 8 0 8 0 7 0 8 0 8 0 
7 0 8 0 8 0 8 0 7 0 8 0 8 0 7 0 
8 0 8 0 8 0 7 0 8 0 8 0 7 0 8 0 
8 0 8 0 7 0 8 0 8 0 7 0 8 0 8 0 
8 0 7 0 8 0 8 0 8 0 7 0 8 0 8 0 
7 0 8 0 8 0 8 0 7 0 8 0 8 0 7 0 
8 0 8 0 8 0 7 0 8 0 8 0 7 0 8 0 
8 0 8 0 7 0 8 0 8 0 8 0 7 0 8 0 
8 0 7 0 8 0 8 0 8 0 7 0 8 0 8 0 
7 0 8 0 8 0 8 0 7 0 8 0 8 0 7 0 
8 0 8 0 8 0 7 0 8 0 8 0 7 0 8 0 
8 0 8 0 7 0 8 0 8 0 8 0 7 0 8 0 
8 0 7 0 8 0 8 0 8 0 7 0 8 0 8 0 
7 0 8 0 8 0 8 0 7 0 8 0 8 0 7 0 
8 0 8 0 8 0 7 0 8 0 8 0 8 0 7 0 
8 0 8 0 7 0 8 0 8 0 8 0 7 0 8 0 
8 0 7 0 8 0 8 0 8 0 7 0 8 0 8 0 
7 0 8 0 8 0 8 0 7 0 8 0 8 0 7 0 
8 0 8 0 8 0 7 0 8 0 8 0 8 0 7 0 
8 0 8 0 7 0 8 0 8 0 8 0 7 0 8 0 
8 0 7 0 8 0 8 0 8 0 7 0 8 0 8 0 
7 0 8 0 8 0 2250 623 300 MP stroke
8 0 7 0 8 0 8 0 8 0 7 0 8 0 8 0 
7 0 8 0 8 0 8 0 7 0 8 0 8 0 7 0 
8 0 8 0 8 0 7 0 8 0 8 0 7 0 8 0 
8 0 8 0 7 0 8 0 8 0 7 0 8 0 8 0 
8 0 7 0 8 0 8 0 8 0 7 0 8 0 8 0 
7 0 8 0 8 0 8 0 7 0 8 0 8 0 7 0 
8 0 8 0 8 0 7 0 8 0 8 0 7 0 8 0 
8 0 8 0 7 0 8 0 8 0 8 0 7 0 8 0 
8 0 7 0 8 0 8 0 8 0 7 0 8 0 8 0 
7 0 8 0 8 0 8 0 7 0 8 0 8 0 7 0 
8 0 8 0 8 0 7 0 8 0 8 0 7 0 8 0 
8 0 8 0 7 0 8 0 8 0 8 0 7 0 8 0 
8 0 7 0 8 0 8 0 8 0 7 0 8 0 8 0 
7 0 8 0 8 0 8 0 7 0 8 0 8 0 7 0 
8 0 8 0 8 0 7 0 8 0 8 0 8 0 7 0 
8 0 8 0 7 0 8 0 8 0 8 0 7 0 8 0 
8 0 7 0 8 0 8 0 8 0 7 0 8 0 8 0 
7 0 8 0 8 0 8 0 7 0 8 0 8 0 7 0 
8 0 8 0 8 0 7 0 8 0 8 0 8 0 7 0 
8 0 8 0 7 0 8 0 8 0 8 0 7 0 8 0 
8 0 7 0 8 0 8 0 8 0 7 0 8 0 8 0 
7 0 8 0 8 0 8 0 7 0 8 0 8 0 8 0 
7 0 8 0 8 0 7 0 8 0 8 0 8 0 7 0 
8 0 8 0 7 0 8 0 8 0 8 0 7 0 8 0 
8 0 7 0 8 0 8 0 8 0 7 0 8 0 8 0 
706 623 201 MP stroke
gr

c9
0 sg
%%IncludeResource: font Helvetica
/Helvetica /ISOLatin1Encoding 168 FMSR

2179 3983 mt 
(Time [t R/v) s
%%IncludeResource: font Helvetica
/Helvetica /ISOLatin1Encoding 132 FMSR

2991 4067 mt 
(th) s
%%IncludeResource: font Helvetica
/Helvetica /ISOLatin1Encoding 168 FMSR

3101 3983 mt 
(]) s
%%IncludeResource: font Helvetica
/Helvetica /ISOLatin1Encoding 144 FMSR

 137 2625 mt  -90 rotate
(Electron mass [a.u.]) s
90 rotate

end %%Color Dict

eplot
%%EndObject

epage
end

showpage

%%Trailer
%%EOF
