%!PS-Adobe-3.0 EPSF-3.0
%%Creator: MATLAB, The Mathworks, Inc. Version 7.3.0.298 (R2006b). Operating System: Linux 2.6.18.8-0.5-default #1 SMP Fri Jun 22 12:17:53 UTC 2007 i686.
%%Title: /home/space/phsfar/codes/gkw/doc/cyc_dgkw_2.eps
%%CreationDate: 10/09/2007  21:55:29
%%DocumentNeededFonts: Helvetica
%%DocumentProcessColors: Cyan Magenta Yellow Black
%%LanguageLevel: 2
%%Pages: 1
%%BoundingBox:    94   294   499   546
%%EndComments

%%BeginProlog
% MathWorks dictionary
/MathWorks 160 dict begin
% definition operators
/bdef {bind def} bind def
/ldef {load def} bind def
/xdef {exch def} bdef
/xstore {exch store} bdef
% operator abbreviations
/c  /clip ldef
/cc /concat ldef
/cp /closepath ldef
/gr /grestore ldef
/gs /gsave ldef
/mt /moveto ldef
/np /newpath ldef
/cm /currentmatrix ldef
/sm /setmatrix ldef
/rm /rmoveto ldef
/rl /rlineto ldef
/s {show newpath} bdef
/sc {setcmykcolor} bdef
/sr /setrgbcolor ldef
/sg /setgray ldef
/w /setlinewidth ldef
/j /setlinejoin ldef
/cap /setlinecap ldef
/rc {rectclip} bdef
/rf {rectfill} bdef
% page state control
/pgsv () def
/bpage {/pgsv save def} bdef
/epage {pgsv restore} bdef
/bplot /gsave ldef
/eplot {stroke grestore} bdef
% orientation switch
/portraitMode 0 def /landscapeMode 1 def /rotateMode 2 def
% coordinate system mappings
/dpi2point 0 def
% font control
/FontSize 0 def
/FMS {/FontSize xstore findfont [FontSize 0 0 FontSize neg 0 0]
  makefont setfont} bdef
/reencode {exch dup where {pop load} {pop StandardEncoding} ifelse
  exch dup 3 1 roll findfont dup length dict begin
  { 1 index /FID ne {def}{pop pop} ifelse } forall
  /Encoding exch def currentdict end definefont pop} bdef
/isroman {findfont /CharStrings get /Agrave known} bdef
/FMSR {3 1 roll 1 index dup isroman {reencode} {pop pop} ifelse
  exch FMS} bdef
/csm {1 dpi2point div -1 dpi2point div scale neg translate
 dup landscapeMode eq {pop -90 rotate}
  {rotateMode eq {90 rotate} if} ifelse} bdef
% line types: solid, dotted, dashed, dotdash
/SO { [] 0 setdash } bdef
/DO { [.5 dpi2point mul 4 dpi2point mul] 0 setdash } bdef
/DA { [6 dpi2point mul] 0 setdash } bdef
/DD { [.5 dpi2point mul 4 dpi2point mul 6 dpi2point mul 4
  dpi2point mul] 0 setdash } bdef
% macros for lines and objects
/L {lineto stroke} bdef
/MP {3 1 roll moveto 1 sub {rlineto} repeat} bdef
/AP {{rlineto} repeat} bdef
/PDlw -1 def
/W {/PDlw currentlinewidth def setlinewidth} def
/PP {closepath eofill} bdef
/DP {closepath stroke} bdef
/MR {4 -2 roll moveto dup  0 exch rlineto exch 0 rlineto
  neg 0 exch rlineto closepath} bdef
/FR {MR stroke} bdef
/PR {MR fill} bdef
/L1i {{currentfile picstr readhexstring pop} image} bdef
/tMatrix matrix def
/MakeOval {newpath tMatrix currentmatrix pop translate scale
0 0 1 0 360 arc tMatrix setmatrix} bdef
/FO {MakeOval stroke} bdef
/PO {MakeOval fill} bdef
/PD {currentlinewidth 2 div 0 360 arc fill
   PDlw -1 eq not {PDlw w /PDlw -1 def} if} def
/FA {newpath tMatrix currentmatrix pop translate scale
  0 0 1 5 -2 roll arc tMatrix setmatrix stroke} bdef
/PA {newpath tMatrix currentmatrix pop	translate 0 0 moveto scale
  0 0 1 5 -2 roll arc closepath tMatrix setmatrix fill} bdef
/FAn {newpath tMatrix currentmatrix pop translate scale
  0 0 1 5 -2 roll arcn tMatrix setmatrix stroke} bdef
/PAn {newpath tMatrix currentmatrix pop translate 0 0 moveto scale
  0 0 1 5 -2 roll arcn closepath tMatrix setmatrix fill} bdef
/vradius 0 def /hradius 0 def /lry 0 def
/lrx 0 def /uly 0 def /ulx 0 def /rad 0 def
/MRR {/vradius xdef /hradius xdef /lry xdef /lrx xdef /uly xdef
  /ulx xdef newpath tMatrix currentmatrix pop ulx hradius add uly
  vradius add translate hradius vradius scale 0 0 1 180 270 arc 
  tMatrix setmatrix lrx hradius sub uly vradius add translate
  hradius vradius scale 0 0 1 270 360 arc tMatrix setmatrix
  lrx hradius sub lry vradius sub translate hradius vradius scale
  0 0 1 0 90 arc tMatrix setmatrix ulx hradius add lry vradius sub
  translate hradius vradius scale 0 0 1 90 180 arc tMatrix setmatrix
  closepath} bdef
/FRR {MRR stroke } bdef
/PRR {MRR fill } bdef
/MlrRR {/lry xdef /lrx xdef /uly xdef /ulx xdef /rad lry uly sub 2 div def
  newpath tMatrix currentmatrix pop ulx rad add uly rad add translate
  rad rad scale 0 0 1 90 270 arc tMatrix setmatrix lrx rad sub lry rad
  sub translate rad rad scale 0 0 1 270 90 arc tMatrix setmatrix
  closepath} bdef
/FlrRR {MlrRR stroke } bdef
/PlrRR {MlrRR fill } bdef
/MtbRR {/lry xdef /lrx xdef /uly xdef /ulx xdef /rad lrx ulx sub 2 div def
  newpath tMatrix currentmatrix pop ulx rad add uly rad add translate
  rad rad scale 0 0 1 180 360 arc tMatrix setmatrix lrx rad sub lry rad
  sub translate rad rad scale 0 0 1 0 180 arc tMatrix setmatrix
  closepath} bdef
/FtbRR {MtbRR stroke } bdef
/PtbRR {MtbRR fill } bdef
/stri 6 array def /dtri 6 array def
/smat 6 array def /dmat 6 array def
/tmat1 6 array def /tmat2 6 array def /dif 3 array def
/asub {/ind2 exch def /ind1 exch def dup dup
  ind1 get exch ind2 get sub exch } bdef
/tri_to_matrix {
  2 0 asub 3 1 asub 4 0 asub 5 1 asub
  dup 0 get exch 1 get 7 -1 roll astore } bdef
/compute_transform {
  dmat dtri tri_to_matrix tmat1 invertmatrix 
  smat stri tri_to_matrix tmat2 concatmatrix } bdef
/ds {stri astore pop} bdef
/dt {dtri astore pop} bdef
/db {2 copy /cols xdef /rows xdef mul dup 3 mul string
  currentfile 
  3 index 0 eq {/ASCIIHexDecode filter}
  {/ASCII85Decode filter 3 index 2 eq {/RunLengthDecode filter} if }
  ifelse exch readstring pop
  dup 0 3 index getinterval /rbmap xdef
  dup 2 index dup getinterval /gbmap xdef
  1 index dup 2 mul exch getinterval /bbmap xdef pop pop}bdef
/it {gs np dtri aload pop moveto lineto lineto cp c
  cols rows 8 compute_transform 
  rbmap gbmap bbmap true 3 colorimage gr}bdef
/il {newpath moveto lineto stroke}bdef
currentdict end def
%%EndProlog

%%BeginSetup
MathWorks begin

0 cap

end
%%EndSetup

%%Page: 1 1
%%BeginPageSetup
%%PageBoundingBox:    94   294   499   546
MathWorks begin
bpage
%%EndPageSetup

%%BeginObject: obj1
bplot

/dpi2point 12 def
portraitMode 1128 6552 csm

    0     0  4868  3016 rc
85 dict begin %Colortable dictionary
/c0 { 0.000000 0.000000 0.000000 sr} bdef
/c1 { 1.000000 1.000000 1.000000 sr} bdef
/c2 { 0.900000 0.000000 0.000000 sr} bdef
/c3 { 0.000000 0.820000 0.000000 sr} bdef
/c4 { 0.000000 0.000000 0.800000 sr} bdef
/c5 { 0.910000 0.820000 0.320000 sr} bdef
/c6 { 1.000000 0.260000 0.820000 sr} bdef
/c7 { 0.000000 0.820000 0.820000 sr} bdef
c0
1 j
1 sg
   0    0 4869 3017 rf
6 w
0 2318 3773 0 0 -2318 633 2544 4 MP
PP
-3773 0 0 2318 3773 0 0 -2318 633 2544 5 MP stroke
4 w
DO
SO
6 w
0 sg
 633 2544 mt 4406 2544 L
 633  226 mt 4406  226 L
 633 2544 mt  633  226 L
4406 2544 mt 4406  226 L
 633 2544 mt 4406 2544 L
 633 2544 mt  633  226 L
 633 2544 mt  633 2506 L
 633  226 mt  633  263 L
%%IncludeResource: font Helvetica
/Helvetica /ISOLatin1Encoding 168 FMSR

 587 2734 mt 
(0) s
1576 2544 mt 1576 2506 L
1576  226 mt 1576  263 L
1530 2734 mt 
(5) s
2519 2544 mt 2519 2506 L
2519  226 mt 2519  263 L
2426 2734 mt 
(10) s
3462 2544 mt 3462 2506 L
3462  226 mt 3462  263 L
3369 2734 mt 
(15) s
4406 2544 mt 4406 2506 L
4406  226 mt 4406  263 L
4313 2734 mt 
(20) s
 633 2544 mt  670 2544 L
4406 2544 mt 4368 2544 L
 505 2606 mt 
(0) s
 633 2080 mt  670 2080 L
4406 2080 mt 4368 2080 L
 505 2142 mt 
(2) s
 633 1616 mt  670 1616 L
4406 1616 mt 4368 1616 L
 505 1678 mt 
(4) s
 633 1153 mt  670 1153 L
4406 1153 mt 4368 1153 L
 505 1215 mt 
(6) s
 633  689 mt  670  689 L
4406  689 mt 4368  689 L
 505  751 mt 
(8) s
 633  226 mt  670  226 L
4406  226 mt 4368  226 L
 412  288 mt 
(10) s
 633 2544 mt 4406 2544 L
 633  226 mt 4406  226 L
 633 2544 mt  633  226 L
4406 2544 mt 4406  226 L
gs 633 226 3774 2319 rc
gs 1861 690 1709 1404 rc
0 j
0 -58 -58 0 0 58 58 0 1905 1991 5 MP
/c8 { 1.000000 0.000000 0.000000 sr} bdef
c8
DP
0 -58 -58 0 0 58 58 0 2166 1573 5 MP
DP
0 -58 -58 0 0 58 58 0 2556 1084 5 MP
DP
0 -58 -58 0 0 58 58 0 2950 822 5 MP
DP
0 -58 -58 0 0 58 58 0 3467 734 5 MP
DP
gr

c8
gs 1813 642 1805 1500 rc
0 j
0 -94 -94 0 0 94 94 0 1887 1973 5 MP
DP
0 -94 -94 0 0 94 94 0 2148 1555 5 MP
DP
0 -94 -94 0 0 94 94 0 2538 1066 5 MP
DP
0 -94 -94 0 0 94 94 0 2932 804 5 MP
DP
0 -94 -94 0 0 94 94 0 3449 716 5 MP
DP
gr

24 w
0 sg
16 -5 26 -11 27 -11 27 -11 26 -11 27 -11 27 -11 26 -12 
27 -12 27 -12 27 -12 26 -13 27 -13 27 -13 26 -13 27 -13 
27 -14 26 -14 27 -14 27 -15 26 -15 27 -15 27 -16 26 -15 
27 -16 27 -17 26 -17 27 -17 27 -17 26 -18 27 -19 27 -18 
26 -20 27 -19 27 -20 26 -21 27 -21 27 -21 26 -22 27 -23 
27 -23 27 -24 26 -24 27 -25 27 -25 26 -27 27 -27 27 -27 
26 -29 27 -29 27 -30 26 -31 27 -32 27 -33 26 -34 27 -35 
27 -36 26 -37 27 -38 27 -39 26 -41 27 -42 27 -44 26 -45 
27 -47 27 -48 26 -50 27 -53 27 -54 26 -56 27 -58 27 -61 
27 -63 26 -66 27 -69 27 -72 26 -75 27 -78 27 -83 1764 2544 80 MP stroke
gr

24 w
%%IncludeResource: font Helvetica
/Helvetica /ISOLatin1Encoding 192 FMSR

2326 2886 mt 
(R/L) s
%%IncludeResource: font Helvetica
/Helvetica /ISOLatin1Encoding 144 FMSR

2624 2982 mt 
(T) s
%%IncludeResource: font Symbol
/Symbol /ISOLatin1Encoding 192 FMSR

 229 1543 mt  -90 rotate
(c) s
90 rotate
%%IncludeResource: font Helvetica
/Helvetica /ISOLatin1Encoding 144 FMSR

 325 1438 mt  -90 rotate
(GB) s
90 rotate
gs 633 226 3774 2319 rc
6 w
/c9 { 0.000000 0.000000 1.000000 sr} bdef
c9
1 0 189 0 189 0 188 0 189 0 189 0 188 0 189 0 
189 0 188 0 189 0 189 0 188 0 189 0 189 0 188 0 
189 0 189 0 188 0 189 0 821 2544 21 MP stroke
gs 1861 690 1709 1404 rc
0 j
0 -58 -58 0 0 58 58 0 1905 1991 5 MP
c8
DP
0 -58 -58 0 0 58 58 0 2166 1573 5 MP
DP
0 -58 -58 0 0 58 58 0 2556 1084 5 MP
DP
0 -58 -58 0 0 58 58 0 2950 822 5 MP
DP
0 -58 -58 0 0 58 58 0 3467 734 5 MP
DP
gr

c8
gs 1861 646 1709 1436 rc
c9
  36   36 1934 2008 FO
  36   36 2195 1598 FO
  36   36 2585 1183 FO
  36   36 2979 1007 FO
  36   36 3496  719 FO
gr

c9
c8
0 -47 1934 2043 2 MP stroke
0 -55 2195 1630 2 MP stroke
0 -79 2585 1153 2 MP stroke
0 -83 2979 893 2 MP stroke
0 -74 3496 800 2 MP stroke
0 sg
16 -5 26 -11 27 -11 27 -11 26 -11 27 -11 27 -11 26 -12 
27 -12 27 -12 27 -12 26 -13 27 -13 27 -13 26 -13 27 -13 
27 -14 26 -14 27 -14 27 -15 26 -15 27 -15 27 -16 26 -15 
27 -16 27 -17 26 -17 27 -17 27 -17 26 -18 27 -19 27 -18 
26 -20 27 -19 27 -20 26 -21 27 -21 27 -21 26 -22 27 -23 
27 -23 27 -24 26 -24 27 -25 27 -25 26 -27 27 -27 27 -27 
26 -29 27 -29 27 -30 26 -31 27 -32 27 -33 26 -34 27 -35 
27 -36 26 -37 27 -38 27 -39 26 -41 27 -42 27 -44 26 -45 
27 -47 27 -48 26 -50 27 -53 27 -54 26 -56 27 -58 27 -61 
27 -63 26 -66 27 -69 27 -72 26 -75 27 -78 27 -83 1764 2544 80 MP stroke
gs 1861 690 1709 1404 rc
0 j
0 -58 -58 0 0 58 58 0 1905 1991 5 MP
c8
DP
0 -58 -58 0 0 58 58 0 2166 1573 5 MP
DP
0 -58 -58 0 0 58 58 0 2556 1084 5 MP
DP
0 -58 -58 0 0 58 58 0 2950 822 5 MP
DP
0 -58 -58 0 0 58 58 0 3467 734 5 MP
DP
gr

c8
gs 1861 646 1709 1436 rc
c9
  36   36 1934 2008 FO
  36   36 2195 1598 FO
  36   36 2585 1183 FO
  36   36 2979 1007 FO
  36   36 3496  719 FO
gr

c9
c8
0 -47 1934 2043 2 MP stroke
0 -55 2195 1630 2 MP stroke
0 -79 2585 1153 2 MP stroke
0 -83 2979 893 2 MP stroke
0 -74 3496 800 2 MP stroke
0 sg
16 -5 26 -11 27 -11 27 -11 26 -11 27 -11 27 -11 26 -12 
27 -12 27 -12 27 -12 26 -13 27 -13 27 -13 26 -13 27 -13 
27 -14 26 -14 27 -14 27 -15 26 -15 27 -15 27 -16 26 -15 
27 -16 27 -17 26 -17 27 -17 27 -17 26 -18 27 -19 27 -18 
26 -20 27 -19 27 -20 26 -21 27 -21 27 -21 26 -22 27 -23 
27 -23 27 -24 26 -24 27 -25 27 -25 26 -27 27 -27 27 -27 
26 -29 27 -29 27 -30 26 -31 27 -32 27 -33 26 -34 27 -35 
27 -36 26 -37 27 -38 27 -39 26 -41 27 -42 27 -44 26 -45 
27 -47 27 -48 26 -50 27 -53 27 -54 26 -56 27 -58 27 -61 
27 -63 26 -66 27 -69 27 -72 26 -75 27 -78 27 -83 1764 2544 80 MP stroke
gr

6 w

end %%Color Dict

eplot
%%EndObject

epage
end

showpage

%%Trailer
%%EOF
