%!PS-Adobe-3.0 EPSF-3.0
%%Creator: MATLAB, The Mathworks, Inc. Version 7.9.0.529 (R2009b). Operating System: Linux 2.6.32.36-0.5-default #1 SMP 2011-04-14 10:12:31 +0200 x86_64.
%%Title: /afs/ipp-garching.mpg.de/home/f/fjc/runs/gkw/bench_ee/bench_ee_sa_all.eps
%%CreationDate: 10/04/2011  20:05:27
%%DocumentNeededFonts: Helvetica
%%DocumentProcessColors: Cyan Magenta Yellow Black
%%LanguageLevel: 2
%%Pages: 1
%%BoundingBox:    17   279   593   512
%%EndComments

%%BeginProlog
% MathWorks dictionary
/MathWorks 160 dict begin
% definition operators
/bdef {bind def} bind def
/ldef {load def} bind def
/xdef {exch def} bdef
/xstore {exch store} bdef
% operator abbreviations
/c  /clip ldef
/cc /concat ldef
/cp /closepath ldef
/gr /grestore ldef
/gs /gsave ldef
/mt /moveto ldef
/np /newpath ldef
/cm /currentmatrix ldef
/sm /setmatrix ldef
/rm /rmoveto ldef
/rl /rlineto ldef
/s {show newpath} bdef
/sc {setcmykcolor} bdef
/sr /setrgbcolor ldef
/sg /setgray ldef
/w /setlinewidth ldef
/j /setlinejoin ldef
/cap /setlinecap ldef
/rc {rectclip} bdef
/rf {rectfill} bdef
% page state control
/pgsv () def
/bpage {/pgsv save def} bdef
/epage {pgsv restore} bdef
/bplot /gsave ldef
/eplot {stroke grestore} bdef
% orientation switch
/portraitMode 0 def /landscapeMode 1 def /rotateMode 2 def
% coordinate system mappings
/dpi2point 0 def
% font control
/FontSize 0 def
/FMS {/FontSize xstore findfont [FontSize 0 0 FontSize neg 0 0]
  makefont setfont} bdef
/reencode {exch dup where {pop load} {pop StandardEncoding} ifelse
  exch dup 3 1 roll findfont dup length dict begin
  { 1 index /FID ne {def}{pop pop} ifelse } forall
  /Encoding exch def currentdict end definefont pop} bdef
/isroman {findfont /CharStrings get /Agrave known} bdef
/FMSR {3 1 roll 1 index dup isroman {reencode} {pop pop} ifelse
  exch FMS} bdef
/csm {1 dpi2point div -1 dpi2point div scale neg translate
 dup landscapeMode eq {pop -90 rotate}
  {rotateMode eq {90 rotate} if} ifelse} bdef
% line types: solid, dotted, dashed, dotdash
/SO { [] 0 setdash } bdef
/DO { [.5 dpi2point mul 4 dpi2point mul] 0 setdash } bdef
/DA { [6 dpi2point mul] 0 setdash } bdef
/DD { [.5 dpi2point mul 4 dpi2point mul 6 dpi2point mul 4
  dpi2point mul] 0 setdash } bdef
% macros for lines and objects
/L {lineto stroke} bdef
/MP {3 1 roll moveto 1 sub {rlineto} repeat} bdef
/AP {{rlineto} repeat} bdef
/PDlw -1 def
/W {/PDlw currentlinewidth def setlinewidth} def
/PP {closepath eofill} bdef
/DP {closepath stroke} bdef
/MR {4 -2 roll moveto dup  0 exch rlineto exch 0 rlineto
  neg 0 exch rlineto closepath} bdef
/FR {MR stroke} bdef
/PR {MR fill} bdef
/L1i {{currentfile picstr readhexstring pop} image} bdef
/tMatrix matrix def
/MakeOval {newpath tMatrix currentmatrix pop translate scale
0 0 1 0 360 arc tMatrix setmatrix} bdef
/FO {MakeOval stroke} bdef
/PO {MakeOval fill} bdef
/PD {currentlinewidth 2 div 0 360 arc fill
   PDlw -1 eq not {PDlw w /PDlw -1 def} if} def
/FA {newpath tMatrix currentmatrix pop translate scale
  0 0 1 5 -2 roll arc tMatrix setmatrix stroke} bdef
/PA {newpath tMatrix currentmatrix pop	translate 0 0 moveto scale
  0 0 1 5 -2 roll arc closepath tMatrix setmatrix fill} bdef
/FAn {newpath tMatrix currentmatrix pop translate scale
  0 0 1 5 -2 roll arcn tMatrix setmatrix stroke} bdef
/PAn {newpath tMatrix currentmatrix pop translate 0 0 moveto scale
  0 0 1 5 -2 roll arcn closepath tMatrix setmatrix fill} bdef
/vradius 0 def /hradius 0 def /lry 0 def
/lrx 0 def /uly 0 def /ulx 0 def /rad 0 def
/MRR {/vradius xdef /hradius xdef /lry xdef /lrx xdef /uly xdef
  /ulx xdef newpath tMatrix currentmatrix pop ulx hradius add uly
  vradius add translate hradius vradius scale 0 0 1 180 270 arc 
  tMatrix setmatrix lrx hradius sub uly vradius add translate
  hradius vradius scale 0 0 1 270 360 arc tMatrix setmatrix
  lrx hradius sub lry vradius sub translate hradius vradius scale
  0 0 1 0 90 arc tMatrix setmatrix ulx hradius add lry vradius sub
  translate hradius vradius scale 0 0 1 90 180 arc tMatrix setmatrix
  closepath} bdef
/FRR {MRR stroke } bdef
/PRR {MRR fill } bdef
/MlrRR {/lry xdef /lrx xdef /uly xdef /ulx xdef /rad lry uly sub 2 div def
  newpath tMatrix currentmatrix pop ulx rad add uly rad add translate
  rad rad scale 0 0 1 90 270 arc tMatrix setmatrix lrx rad sub lry rad
  sub translate rad rad scale 0 0 1 270 90 arc tMatrix setmatrix
  closepath} bdef
/FlrRR {MlrRR stroke } bdef
/PlrRR {MlrRR fill } bdef
/MtbRR {/lry xdef /lrx xdef /uly xdef /ulx xdef /rad lrx ulx sub 2 div def
  newpath tMatrix currentmatrix pop ulx rad add uly rad add translate
  rad rad scale 0 0 1 180 360 arc tMatrix setmatrix lrx rad sub lry rad
  sub translate rad rad scale 0 0 1 0 180 arc tMatrix setmatrix
  closepath} bdef
/FtbRR {MtbRR stroke } bdef
/PtbRR {MtbRR fill } bdef
/stri 6 array def /dtri 6 array def
/smat 6 array def /dmat 6 array def
/tmat1 6 array def /tmat2 6 array def /dif 3 array def
/asub {/ind2 exch def /ind1 exch def dup dup
  ind1 get exch ind2 get sub exch } bdef
/tri_to_matrix {
  2 0 asub 3 1 asub 4 0 asub 5 1 asub
  dup 0 get exch 1 get 7 -1 roll astore } bdef
/compute_transform {
  dmat dtri tri_to_matrix tmat1 invertmatrix 
  smat stri tri_to_matrix tmat2 concatmatrix } bdef
/ds {stri astore pop} bdef
/dt {dtri astore pop} bdef
/db {2 copy /cols xdef /rows xdef mul dup 3 mul string
  currentfile 
  3 index 0 eq {/ASCIIHexDecode filter}
  {/ASCII85Decode filter 3 index 2 eq {/RunLengthDecode filter} if }
  ifelse exch readstring pop
  dup 0 3 index getinterval /rbmap xdef
  dup 2 index dup getinterval /gbmap xdef
  1 index dup 2 mul exch getinterval /bbmap xdef pop pop}bdef
/it {gs np dtri aload pop moveto lineto lineto cp c
  cols rows 8 compute_transform 
  rbmap gbmap bbmap true 3 colorimage gr}bdef
/il {newpath moveto lineto stroke}bdef
currentdict end def
%%EndProlog

%%BeginSetup
MathWorks begin

0 cap

end
%%EndSetup

%%Page: 1 1
%%BeginPageSetup
%%PageBoundingBox:    17   279   593   512
MathWorks begin
bpage
%%EndPageSetup

%%BeginObject: obj1
bplot

/dpi2point 12 def
portraitMode 0204 6144 csm

    0     0  6921  2785 rc
86 dict begin %Colortable dictionary
/c0 { 0.000000 0.000000 0.000000 sr} bdef
/c1 { 1.000000 1.000000 1.000000 sr} bdef
/c2 { 0.900000 0.000000 0.000000 sr} bdef
/c3 { 0.000000 0.820000 0.000000 sr} bdef
/c4 { 0.000000 0.000000 0.800000 sr} bdef
/c5 { 0.910000 0.820000 0.320000 sr} bdef
/c6 { 1.000000 0.260000 0.820000 sr} bdef
/c7 { 0.000000 0.820000 0.820000 sr} bdef
c0
1 j
1 sg
   0    0 6922 2786 rf
6 w
0 2094 1688 0 0 -2094 668 2257 4 MP
PP
-1688 0 0 2094 1688 0 0 -2094 668 2257 5 MP stroke
4 w
DO
SO
6 w
0 sg
 668 2257 mt 2356 2257 L
 668  163 mt 2356  163 L
 668 2257 mt  668  163 L
2356 2257 mt 2356  163 L
 668 2257 mt 2356 2257 L
 668 2257 mt  668  163 L
 687 2257 mt  687 2241 L
 687  163 mt  687  178 L
 668 2257 mt  668 2241 L
 668  163 mt  668  178 L
 687 2257 mt  687 2225 L
 687  163 mt  687  194 L
%%IncludeResource: font Helvetica
/Helvetica /ISOLatin1Encoding 120 FMSR

 575 2439 mt 
(10) s
%%IncludeResource: font Helvetica
/Helvetica /ISOLatin1Encoding 80 FMSR

 708 2365 mt 
(-5) s
 812 2257 mt  812 2241 L
 812  163 mt  812  178 L
 886 2257 mt  886 2241 L
 886  163 mt  886  178 L
 938 2257 mt  938 2241 L
 938  163 mt  938  178 L
 978 2257 mt  978 2241 L
 978  163 mt  978  178 L
1011 2257 mt 1011 2241 L
1011  163 mt 1011  178 L
1039 2257 mt 1039 2241 L
1039  163 mt 1039  178 L
1063 2257 mt 1063 2241 L
1063  163 mt 1063  178 L
1085 2257 mt 1085 2241 L
1085  163 mt 1085  178 L
1104 2257 mt 1104 2241 L
1104  163 mt 1104  178 L
1104 2257 mt 1104 2225 L
1104  163 mt 1104  194 L
%%IncludeResource: font Helvetica
/Helvetica /ISOLatin1Encoding 120 FMSR

 992 2439 mt 
(10) s
%%IncludeResource: font Helvetica
/Helvetica /ISOLatin1Encoding 80 FMSR

1125 2365 mt 
(-4) s
1229 2257 mt 1229 2241 L
1229  163 mt 1229  178 L
1303 2257 mt 1303 2241 L
1303  163 mt 1303  178 L
1355 2257 mt 1355 2241 L
1355  163 mt 1355  178 L
1395 2257 mt 1395 2241 L
1395  163 mt 1395  178 L
1428 2257 mt 1428 2241 L
1428  163 mt 1428  178 L
1456 2257 mt 1456 2241 L
1456  163 mt 1456  178 L
1481 2257 mt 1481 2241 L
1481  163 mt 1481  178 L
1502 2257 mt 1502 2241 L
1502  163 mt 1502  178 L
1521 2257 mt 1521 2241 L
1521  163 mt 1521  178 L
1521 2257 mt 1521 2225 L
1521  163 mt 1521  194 L
%%IncludeResource: font Helvetica
/Helvetica /ISOLatin1Encoding 120 FMSR

1409 2439 mt 
(10) s
%%IncludeResource: font Helvetica
/Helvetica /ISOLatin1Encoding 80 FMSR

1542 2365 mt 
(-3) s
1647 2257 mt 1647 2241 L
1647  163 mt 1647  178 L
1720 2257 mt 1720 2241 L
1720  163 mt 1720  178 L
1772 2257 mt 1772 2241 L
1772  163 mt 1772  178 L
1813 2257 mt 1813 2241 L
1813  163 mt 1813  178 L
1846 2257 mt 1846 2241 L
1846  163 mt 1846  178 L
1874 2257 mt 1874 2241 L
1874  163 mt 1874  178 L
1898 2257 mt 1898 2241 L
1898  163 mt 1898  178 L
1919 2257 mt 1919 2241 L
1919  163 mt 1919  178 L
1938 2257 mt 1938 2241 L
1938  163 mt 1938  178 L
1938 2257 mt 1938 2225 L
1938  163 mt 1938  194 L
%%IncludeResource: font Helvetica
/Helvetica /ISOLatin1Encoding 120 FMSR

1826 2439 mt 
(10) s
%%IncludeResource: font Helvetica
/Helvetica /ISOLatin1Encoding 80 FMSR

1959 2365 mt 
(-2) s
2064 2257 mt 2064 2241 L
2064  163 mt 2064  178 L
2137 2257 mt 2137 2241 L
2137  163 mt 2137  178 L
2189 2257 mt 2189 2241 L
2189  163 mt 2189  178 L
2230 2257 mt 2230 2241 L
2230  163 mt 2230  178 L
2263 2257 mt 2263 2241 L
2263  163 mt 2263  178 L
2291 2257 mt 2291 2241 L
2291  163 mt 2291  178 L
2315 2257 mt 2315 2241 L
2315  163 mt 2315  178 L
2336 2257 mt 2336 2241 L
2336  163 mt 2336  178 L
2356 2257 mt 2356 2241 L
2356  163 mt 2356  178 L
2356 2257 mt 2356 2225 L
2356  163 mt 2356  194 L
%%IncludeResource: font Helvetica
/Helvetica /ISOLatin1Encoding 120 FMSR

2244 2439 mt 
(10) s
%%IncludeResource: font Helvetica
/Helvetica /ISOLatin1Encoding 80 FMSR

2377 2365 mt 
(-1) s
 668 2257 mt  699 2257 L
2356 2257 mt 2324 2257 L
%%IncludeResource: font Helvetica
/Helvetica /ISOLatin1Encoding 120 FMSR

 467 2301 mt 
(0.1) s
 668 2204 mt  683 2204 L
2356 2204 mt 2340 2204 L
 668 2152 mt  683 2152 L
2356 2152 mt 2340 2152 L
 668 2099 mt  683 2099 L
2356 2099 mt 2340 2099 L
 668 2047 mt  683 2047 L
2356 2047 mt 2340 2047 L
 668 1995 mt  683 1995 L
2356 1995 mt 2340 1995 L
 668 1942 mt  683 1942 L
2356 1942 mt 2340 1942 L
 668 1890 mt  683 1890 L
2356 1890 mt 2340 1890 L
 668 1838 mt  683 1838 L
2356 1838 mt 2340 1838 L
 668 1785 mt  683 1785 L
2356 1785 mt 2340 1785 L
 668 1733 mt  699 1733 L
2356 1733 mt 2324 1733 L
 467 1777 mt 
(0.2) s
 668 1681 mt  683 1681 L
2356 1681 mt 2340 1681 L
 668 1628 mt  683 1628 L
2356 1628 mt 2340 1628 L
 668 1576 mt  683 1576 L
2356 1576 mt 2340 1576 L
 668 1524 mt  683 1524 L
2356 1524 mt 2340 1524 L
 668 1471 mt  683 1471 L
2356 1471 mt 2340 1471 L
 668 1419 mt  683 1419 L
2356 1419 mt 2340 1419 L
 668 1367 mt  683 1367 L
2356 1367 mt 2340 1367 L
 668 1314 mt  683 1314 L
2356 1314 mt 2340 1314 L
 668 1262 mt  683 1262 L
2356 1262 mt 2340 1262 L
 668 1209 mt  699 1209 L
2356 1209 mt 2324 1209 L
 467 1253 mt 
(0.3) s
 668 1157 mt  683 1157 L
2356 1157 mt 2340 1157 L
 668 1105 mt  683 1105 L
2356 1105 mt 2340 1105 L
 668 1052 mt  683 1052 L
2356 1052 mt 2340 1052 L
 668 1000 mt  683 1000 L
2356 1000 mt 2340 1000 L
 668  948 mt  683  948 L
2356  948 mt 2340  948 L
 668  895 mt  683  895 L
2356  895 mt 2340  895 L
 668  843 mt  683  843 L
2356  843 mt 2340  843 L
 668  791 mt  683  791 L
2356  791 mt 2340  791 L
 668  738 mt  683  738 L
2356  738 mt 2340  738 L
 668  686 mt  699  686 L
2356  686 mt 2324  686 L
 467  730 mt 
(0.4) s
 668  634 mt  683  634 L
2356  634 mt 2340  634 L
 668  581 mt  683  581 L
2356  581 mt 2340  581 L
 668  529 mt  683  529 L
2356  529 mt 2340  529 L
 668  477 mt  683  477 L
2356  477 mt 2340  477 L
 668  424 mt  683  424 L
2356  424 mt 2340  424 L
 668  372 mt  683  372 L
2356  372 mt 2340  372 L
 668  320 mt  683  320 L
2356  320 mt 2340  320 L
 668  267 mt  683  267 L
2356  267 mt 2340  267 L
 668  215 mt  683  215 L
2356  215 mt 2340  215 L
 668  163 mt  699  163 L
2356  163 mt 2324  163 L
 467  207 mt 
(0.5) s
 668 2257 mt 2356 2257 L
 668  163 mt 2356  163 L
 668 2257 mt  668  163 L
2356 2257 mt 2356  163 L
%%IncludeResource: font Symbol
/Symbol /ISOLatin1Encoding 144 FMSR

1219 2555 mt 
(n) s
%%IncludeResource: font Helvetica
/Helvetica /ISOLatin1Encoding 108 FMSR

1294 2627 mt 
(ii) s
%%IncludeResource: font Helvetica
/Helvetica /ISOLatin1Encoding 144 FMSR

1341 2555 mt 
( \(v) s
%%IncludeResource: font Helvetica
/Helvetica /ISOLatin1Encoding 108 FMSR

1500 2627 mt 
(thi) s
%%IncludeResource: font Helvetica
/Helvetica /ISOLatin1Encoding 144 FMSR

1614 2555 mt 
(/R\)) s
%%IncludeResource: font Symbol
/Symbol /ISOLatin1Encoding 144 FMSR

 245 1527 mt  -90 rotate
(g) s
90 rotate
%%IncludeResource: font Helvetica
/Helvetica /ISOLatin1Encoding 144 FMSR

 245 1468 mt  -90 rotate
( \(v) s
90 rotate
%%IncludeResource: font Helvetica
/Helvetica /ISOLatin1Encoding 108 FMSR

 317 1309 mt  -90 rotate
(thi) s
90 rotate
%%IncludeResource: font Helvetica
/Helvetica /ISOLatin1Encoding 144 FMSR

 245 1195 mt  -90 rotate
(/R\)) s
90 rotate
%%IncludeResource: font Helvetica
/Helvetica /ISOLatin1Encoding 120 FMSR

 651 2300 mt 
( ) s
2340  204 mt 
( ) s
gs 668 162 1689 2096 rc
/c8 { 0.000000 0.000000 1.000000 sr} bdef
c8
127 14 126 64 166 144 125 152 126 176 166 266 126 219 291 445 
417 313 687 312 10 MP stroke
gr

c8
gs 614 239 1817 1958 rc
24 W
687 312 PD
24 W
1104 625 PD
24 W
1395 1070 PD
24 W
1521 1289 PD
24 W
1687 1555 PD
24 W
1813 1731 PD
24 W
1938 1883 PD
24 W
2104 2027 PD
24 W
2230 2091 PD
gr

gs 668 162 1689 2096 rc
1 0 -1 0 2357 2123 3 MP stroke
gr

gs 614 239 1817 1958 rc
24 W
2356 2123 PD
gr

gs 668 162 1689 2096 rc
/c9 { 0.000000 0.498039 0.000000 sr} bdef
c9
127 41 126 98 166 182 125 170 126 197 166 293 126 219 291 379 
417 218 687 270 10 MP stroke
gr

c9
gs 614 197 1817 1965 rc
24 W
687 270 PD
24 W
1104 488 PD
24 W
1395 867 PD
24 W
1521 1086 PD
24 W
1687 1379 PD
24 W
1813 1576 PD
24 W
1938 1746 PD
24 W
2104 1928 PD
24 W
2230 2026 PD
gr

gs 668 162 1689 2096 rc
1 0 -1 0 2357 2088 3 MP stroke
gr

gs 614 197 1817 1965 rc
24 W
2356 2088 PD
gr

gs 668 162 1689 2096 rc
/c10 { 1.000000 0.000000 0.000000 sr} bdef
c10
127 79 126 121 166 204 125 206 126 249 166 322 126 194 291 257 
417 105 687 232 10 MP stroke
gr

c10
gs 614 159 1817 1903 rc
24 W
687 232 PD
24 W
1104 337 PD
24 W
1395 594 PD
24 W
1521 788 PD
24 W
1687 1110 PD
24 W
1813 1359 PD
24 W
1938 1565 PD
24 W
2104 1769 PD
24 W
2230 1890 PD
gr

gs 668 162 1689 2096 rc
1 1 -1 -1 2357 1988 3 MP stroke
gr

gs 614 159 1817 1903 rc
24 W
2356 1987 PD
gr

gs 668 162 1689 2096 rc
gr

gs 614 361 1398 1567 rc
0 j
-41 71 -41 -71 82 0 646 458 4 MP
c8
DP
-41 71 -41 -71 82 0 1063 696 4 MP
DP
-41 71 -41 -71 82 0 1354 1104 4 MP
DP
-41 71 -41 -71 82 0 1480 1313 4 MP
DP
-41 71 -41 -71 82 0 1646 1569 4 MP
DP
-41 71 -41 -71 82 0 1772 1736 4 MP
DP
-41 71 -41 -71 82 0 1897 1878 4 MP
DP
gr

c8
gs 668 162 1689 2096 rc
gr

gs 614 343 1564 1626 rc
0 j
41 71 -82 0 41 -71 687 463 4 MP
/c11 { 0.000000 0.500000 0.000000 sr} bdef
c11
DP
41 71 -82 0 41 -71 1104 603 4 MP
DP
41 71 -82 0 41 -71 1395 934 4 MP
DP
41 71 -82 0 41 -71 1521 1139 4 MP
DP
41 71 -82 0 41 -71 1687 1421 4 MP
DP
41 71 -82 0 41 -71 1813 1610 4 MP
DP
41 71 -82 0 41 -71 1938 1771 4 MP
DP
41 71 -82 0 41 -71 2104 1942 4 MP
DP
gr

c11
gs 668 162 1689 2096 rc
gr

gs 614 335 1690 1591 rc
0 j
0 -58 -58 0 0 58 58 0 658 379 5 MP
c10
DP
0 -58 -58 0 0 58 58 0 1075 424 5 MP
DP
0 -58 -58 0 0 58 58 0 1366 611 5 MP
DP
0 -58 -58 0 0 58 58 0 1492 780 5 MP
DP
0 -58 -58 0 0 58 58 0 1658 1079 5 MP
DP
0 -58 -58 0 0 58 58 0 1784 1316 5 MP
DP
0 -58 -58 0 0 58 58 0 1909 1518 5 MP
DP
0 -58 -58 0 0 58 58 0 2075 1713 5 MP
DP
0 -58 -58 0 0 58 58 0 2201 1823 5 MP
DP
gr

c10
gs 668 162 1689 2096 rc
gr

1 sg
0 2101 1637 0 0 -2101 2974 2255 4 MP
PP
-1637 0 0 2101 1637 0 0 -2101 2974 2255 5 MP stroke
4 w
DO
SO
6 w
0 sg
2974 2255 mt 4611 2255 L
2974  154 mt 4611  154 L
2974 2255 mt 2974  154 L
4611 2255 mt 4611  154 L
2974 2255 mt 4611 2255 L
2974 2255 mt 2974  154 L
2992 2255 mt 2992 2239 L
2992  154 mt 2992  169 L
2974 2255 mt 2974 2239 L
2974  154 mt 2974  169 L
2992 2255 mt 2992 2223 L
2992  154 mt 2992  185 L
2880 2437 mt 
(10) s
%%IncludeResource: font Helvetica
/Helvetica /ISOLatin1Encoding 80 FMSR

3013 2363 mt 
(-5) s
3114 2255 mt 3114 2239 L
3114  154 mt 3114  169 L
3185 2255 mt 3185 2239 L
3185  154 mt 3185  169 L
3236 2255 mt 3236 2239 L
3236  154 mt 3236  169 L
3275 2255 mt 3275 2239 L
3275  154 mt 3275  169 L
3307 2255 mt 3307 2239 L
3307  154 mt 3307  169 L
3334 2255 mt 3334 2239 L
3334  154 mt 3334  169 L
3357 2255 mt 3357 2239 L
3357  154 mt 3357  169 L
3378 2255 mt 3378 2239 L
3378  154 mt 3378  169 L
3397 2255 mt 3397 2239 L
3397  154 mt 3397  169 L
3397 2255 mt 3397 2223 L
3397  154 mt 3397  185 L
%%IncludeResource: font Helvetica
/Helvetica /ISOLatin1Encoding 120 FMSR

3285 2437 mt 
(10) s
%%IncludeResource: font Helvetica
/Helvetica /ISOLatin1Encoding 80 FMSR

3418 2363 mt 
(-4) s
3518 2255 mt 3518 2239 L
3518  154 mt 3518  169 L
3590 2255 mt 3590 2239 L
3590  154 mt 3590  169 L
3640 2255 mt 3640 2239 L
3640  154 mt 3640  169 L
3679 2255 mt 3679 2239 L
3679  154 mt 3679  169 L
3711 2255 mt 3711 2239 L
3711  154 mt 3711  169 L
3739 2255 mt 3739 2239 L
3739  154 mt 3739  169 L
3762 2255 mt 3762 2239 L
3762  154 mt 3762  169 L
3783 2255 mt 3783 2239 L
3783  154 mt 3783  169 L
3801 2255 mt 3801 2239 L
3801  154 mt 3801  169 L
3801 2255 mt 3801 2223 L
3801  154 mt 3801  185 L
%%IncludeResource: font Helvetica
/Helvetica /ISOLatin1Encoding 120 FMSR

3689 2437 mt 
(10) s
%%IncludeResource: font Helvetica
/Helvetica /ISOLatin1Encoding 80 FMSR

3822 2363 mt 
(-3) s
3923 2255 mt 3923 2239 L
3923  154 mt 3923  169 L
3994 2255 mt 3994 2239 L
3994  154 mt 3994  169 L
4045 2255 mt 4045 2239 L
4045  154 mt 4045  169 L
4084 2255 mt 4084 2239 L
4084  154 mt 4084  169 L
4116 2255 mt 4116 2239 L
4116  154 mt 4116  169 L
4143 2255 mt 4143 2239 L
4143  154 mt 4143  169 L
4167 2255 mt 4167 2239 L
4167  154 mt 4167  169 L
4187 2255 mt 4187 2239 L
4187  154 mt 4187  169 L
4206 2255 mt 4206 2239 L
4206  154 mt 4206  169 L
4206 2255 mt 4206 2223 L
4206  154 mt 4206  185 L
%%IncludeResource: font Helvetica
/Helvetica /ISOLatin1Encoding 120 FMSR

4094 2437 mt 
(10) s
%%IncludeResource: font Helvetica
/Helvetica /ISOLatin1Encoding 80 FMSR

4227 2363 mt 
(-2) s
4328 2255 mt 4328 2239 L
4328  154 mt 4328  169 L
4399 2255 mt 4399 2239 L
4399  154 mt 4399  169 L
4449 2255 mt 4449 2239 L
4449  154 mt 4449  169 L
4489 2255 mt 4489 2239 L
4489  154 mt 4489  169 L
4521 2255 mt 4521 2239 L
4521  154 mt 4521  169 L
4548 2255 mt 4548 2239 L
4548  154 mt 4548  169 L
4571 2255 mt 4571 2239 L
4571  154 mt 4571  169 L
4592 2255 mt 4592 2239 L
4592  154 mt 4592  169 L
4611 2255 mt 4611 2239 L
4611  154 mt 4611  169 L
4611 2255 mt 4611 2223 L
4611  154 mt 4611  185 L
%%IncludeResource: font Helvetica
/Helvetica /ISOLatin1Encoding 120 FMSR

4499 2437 mt 
(10) s
%%IncludeResource: font Helvetica
/Helvetica /ISOLatin1Encoding 80 FMSR

4632 2363 mt 
(-1) s
2974 2155 mt 2989 2155 L
4611 2155 mt 4595 2155 L
2974 2211 mt 2989 2211 L
4611 2211 mt 4595 2211 L
2974 2098 mt 3005 2098 L
4611 2098 mt 4579 2098 L
%%IncludeResource: font Helvetica
/Helvetica /ISOLatin1Encoding 120 FMSR

2636 2142 mt 
(-0.31) s
2974 2041 mt 2989 2041 L
4611 2041 mt 4595 2041 L
2974 1985 mt 2989 1985 L
4611 1985 mt 4595 1985 L
2974 1928 mt 2989 1928 L
4611 1928 mt 4595 1928 L
2974 1872 mt 2989 1872 L
4611 1872 mt 4595 1872 L
2974 1815 mt 2989 1815 L
4611 1815 mt 4595 1815 L
2974 1815 mt 2989 1815 L
4611 1815 mt 4595 1815 L
2974 1815 mt 2989 1815 L
4611 1815 mt 4595 1815 L
2974 1815 mt 2989 1815 L
4611 1815 mt 4595 1815 L
2974 1815 mt 2989 1815 L
4611 1815 mt 4595 1815 L
2974 1815 mt 3005 1815 L
4611 1815 mt 4579 1815 L
2636 1859 mt 
(-0.30) s
2974 1758 mt 2989 1758 L
4611 1758 mt 4595 1758 L
2974 1702 mt 2989 1702 L
4611 1702 mt 4595 1702 L
2974 1645 mt 2989 1645 L
4611 1645 mt 4595 1645 L
2974 1588 mt 2989 1588 L
4611 1588 mt 4595 1588 L
2974 1532 mt 2989 1532 L
4611 1532 mt 4595 1532 L
2974 1532 mt 2989 1532 L
4611 1532 mt 4595 1532 L
2974 1532 mt 2989 1532 L
4611 1532 mt 4595 1532 L
2974 1532 mt 2989 1532 L
4611 1532 mt 4595 1532 L
2974 1532 mt 2989 1532 L
4611 1532 mt 4595 1532 L
2974 1532 mt 3005 1532 L
4611 1532 mt 4579 1532 L
2636 1576 mt 
(-0.29) s
2974 1475 mt 2989 1475 L
4611 1475 mt 4595 1475 L
2974 1419 mt 2989 1419 L
4611 1419 mt 4595 1419 L
2974 1362 mt 2989 1362 L
4611 1362 mt 4595 1362 L
2974 1305 mt 2989 1305 L
4611 1305 mt 4595 1305 L
2974 1249 mt 2989 1249 L
4611 1249 mt 4595 1249 L
2974 1249 mt 2989 1249 L
4611 1249 mt 4595 1249 L
2974 1249 mt 2989 1249 L
4611 1249 mt 4595 1249 L
2974 1249 mt 2989 1249 L
4611 1249 mt 4595 1249 L
2974 1249 mt 2989 1249 L
4611 1249 mt 4595 1249 L
2974 1249 mt 3005 1249 L
4611 1249 mt 4579 1249 L
2636 1293 mt 
(-0.28) s
2974 1192 mt 2989 1192 L
4611 1192 mt 4595 1192 L
2974 1135 mt 2989 1135 L
4611 1135 mt 4595 1135 L
2974 1079 mt 2989 1079 L
4611 1079 mt 4595 1079 L
2974 1022 mt 2989 1022 L
4611 1022 mt 4595 1022 L
2974  966 mt 2989  966 L
4611  966 mt 4595  966 L
2974  966 mt 2989  966 L
4611  966 mt 4595  966 L
2974  966 mt 2989  966 L
4611  966 mt 4595  966 L
2974  966 mt 2989  966 L
4611  966 mt 4595  966 L
2974  966 mt 2989  966 L
4611  966 mt 4595  966 L
2974  966 mt 3005  966 L
4611  966 mt 4579  966 L
2636 1010 mt 
(-0.27) s
2974  909 mt 2989  909 L
4611  909 mt 4595  909 L
2974  852 mt 2989  852 L
4611  852 mt 4595  852 L
2974  796 mt 2989  796 L
4611  796 mt 4595  796 L
2974  739 mt 2989  739 L
4611  739 mt 4595  739 L
2974  682 mt 2989  682 L
4611  682 mt 4595  682 L
2974  682 mt 2989  682 L
4611  682 mt 4595  682 L
2974  682 mt 2989  682 L
4611  682 mt 4595  682 L
2974  682 mt 2989  682 L
4611  682 mt 4595  682 L
2974  682 mt 2989  682 L
4611  682 mt 4595  682 L
2974  682 mt 3005  682 L
4611  682 mt 4579  682 L
2636  726 mt 
(-0.26) s
2974  626 mt 2989  626 L
4611  626 mt 4595  626 L
2974  569 mt 2989  569 L
4611  569 mt 4595  569 L
2974  513 mt 2989  513 L
4611  513 mt 4595  513 L
2974  456 mt 2989  456 L
4611  456 mt 4595  456 L
2974  399 mt 2989  399 L
4611  399 mt 4595  399 L
2974  399 mt 2989  399 L
4611  399 mt 4595  399 L
2974  399 mt 2989  399 L
4611  399 mt 4595  399 L
2974  399 mt 2989  399 L
4611  399 mt 4595  399 L
2974  399 mt 2989  399 L
4611  399 mt 4595  399 L
2974  399 mt 3005  399 L
4611  399 mt 4579  399 L
2636  443 mt 
(-0.25) s
2974  343 mt 2989  343 L
4611  343 mt 4595  343 L
2974  286 mt 2989  286 L
4611  286 mt 4595  286 L
2974  229 mt 2989  229 L
4611  229 mt 4595  229 L
2974  173 mt 2989  173 L
4611  173 mt 4595  173 L
2974 2255 mt 4611 2255 L
2974  154 mt 4611  154 L
2974 2255 mt 2974  154 L
4611 2255 mt 4611  154 L
gs 2974 154 1638 2102 rc
gr

0 j
-41 71 -41 -71 82 0 2951 2025 4 MP
c8
DP
-41 71 -41 -71 82 0 3356 1457 4 MP
DP
-41 71 -41 -71 82 0 3638 696 4 MP
DP
-41 71 -41 -71 82 0 3760 543 4 MP
DP
-41 71 -41 -71 82 0 3921 749 4 MP
DP
-41 71 -41 -71 82 0 4043 1025 4 MP
DP
-41 71 -41 -71 82 0 4165 1275 4 MP
DP
gs 2974 154 1638 2102 rc
gr

41 71 -82 0 41 -71 2992 2091 4 MP
c11
DP
41 71 -82 0 41 -71 3397 1782 4 MP
DP
41 71 -82 0 41 -71 3679 1016 4 MP
DP
41 71 -82 0 41 -71 3801 738 4 MP
DP
41 71 -82 0 41 -71 3962 557 4 MP
DP
41 71 -82 0 41 -71 4084 725 4 MP
DP
41 71 -82 0 41 -71 4206 981 4 MP
DP
41 71 -82 0 41 -71 4367 1297 4 MP
DP
gs 2974 154 1638 2102 rc
gr

0 -58 -58 0 0 58 58 0 2963 2043 5 MP
c10
DP
0 -58 -58 0 0 58 58 0 3368 1952 5 MP
DP
0 -58 -58 0 0 58 58 0 3650 1606 5 MP
DP
0 -58 -58 0 0 58 58 0 3772 1259 5 MP
DP
0 -58 -58 0 0 58 58 0 3933 758 5 MP
DP
0 -58 -58 0 0 58 58 0 4055 420 5 MP
DP
0 -58 -58 0 0 58 58 0 4177 402 5 MP
DP
0 -58 -58 0 0 58 58 0 4338 659 5 MP
DP
0 -58 -58 0 0 58 58 0 4460 895 5 MP
DP
gs 2974 154 1638 2102 rc
c8
110 -380 161 -328 122 -19 122 135 161 170 122 -73 282 -656 405 -499 
2992 1804 9 MP stroke
gr

c8
24 W
2992 1804 PD
24 W
3397 1305 PD
24 W
3679 649 PD
24 W
3801 576 PD
24 W
3962 746 PD
24 W
4084 881 PD
24 W
4206 862 PD
24 W
4367 534 PD
gs 2974 154 1638 2102 rc
c9
76 -311 122 -269 161 -67 122 112 122 113 161 -94 122 -277 282 -625 
405 -285 2992 1857 10 MP stroke
gr

c9
24 W
2992 1857 PD
24 W
3397 1572 PD
24 W
3679 947 PD
24 W
3801 670 PD
24 W
3962 576 PD
24 W
4084 689 PD
24 W
4206 801 PD
24 W
4367 734 PD
24 W
4489 465 PD
gs 2974 154 1638 2102 rc
c10
123 -288 122 13 161 91 122 -59 122 -260 161 -491 122 -298 282 -305 
405 -40 2992 1893 10 MP stroke
gr

c10
24 W
2992 1893 PD
24 W
3397 1853 PD
24 W
3679 1548 PD
24 W
3801 1250 PD
24 W
3962 759 PD
24 W
4084 499 PD
24 W
4206 440 PD
24 W
4367 531 PD
24 W
4489 544 PD
gs 2974 154 1638 2102 rc
1 -3 -1 3 4612 384 3 MP stroke
gr

24 W
4611 387 PD
gs 2974 154 1638 2102 rc
gr

0 sg
%%IncludeResource: font Symbol
/Symbol /ISOLatin1Encoding 132 FMSR

3490 2545 mt 
(n) s
%%IncludeResource: font Helvetica
/Helvetica /ISOLatin1Encoding 96 FMSR

3558 2611 mt 
(ii) s
%%IncludeResource: font Helvetica
/Helvetica /ISOLatin1Encoding 132 FMSR

3600 2545 mt 
( \(v) s
%%IncludeResource: font Helvetica
/Helvetica /ISOLatin1Encoding 96 FMSR

3746 2611 mt 
(thi) s
%%IncludeResource: font Helvetica
/Helvetica /ISOLatin1Encoding 132 FMSR

3847 2545 mt 
( / R\)) s
%%IncludeResource: font Symbol
/Symbol /ISOLatin1Encoding 132 FMSR

2528 1530 mt  -90 rotate
(w) s
90 rotate
%%IncludeResource: font Helvetica
/Helvetica /ISOLatin1Encoding 132 FMSR

2528 1440 mt  -90 rotate
( \(v) s
90 rotate
%%IncludeResource: font Helvetica
/Helvetica /ISOLatin1Encoding 96 FMSR

2594 1294 mt  -90 rotate
(thi) s
90 rotate
%%IncludeResource: font Helvetica
/Helvetica /ISOLatin1Encoding 132 FMSR

2528 1193 mt  -90 rotate
( / R\)) s
90 rotate
%%IncludeResource: font Helvetica
/Helvetica /ISOLatin1Encoding 120 FMSR

2957 2298 mt 
( ) s
4595  196 mt 
( ) s
1 sg
0 2091 1570 0 0 -2091 5210 2255 4 MP
PP
-1570 0 0 2091 1570 0 0 -2091 5210 2255 5 MP stroke
4 w
DO
SO
6 w
0 sg
5210 2255 mt 6780 2255 L
5210  164 mt 6780  164 L
5210 2255 mt 5210  164 L
6780 2255 mt 6780  164 L
5210 2255 mt 6780 2255 L
5210 2255 mt 5210  164 L
5227 2255 mt 5227 2239 L
5227  164 mt 5227  179 L
5210 2255 mt 5210 2239 L
5210  164 mt 5210  179 L
5227 2255 mt 5227 2223 L
5227  164 mt 5227  195 L
5115 2437 mt 
(10) s
%%IncludeResource: font Helvetica
/Helvetica /ISOLatin1Encoding 80 FMSR

5248 2363 mt 
(-5) s
5344 2255 mt 5344 2239 L
5344  164 mt 5344  179 L
5412 2255 mt 5412 2239 L
5412  164 mt 5412  179 L
5461 2255 mt 5461 2239 L
5461  164 mt 5461  179 L
5498 2255 mt 5498 2239 L
5498  164 mt 5498  179 L
5529 2255 mt 5529 2239 L
5529  164 mt 5529  179 L
5555 2255 mt 5555 2239 L
5555  164 mt 5555  179 L
5578 2255 mt 5578 2239 L
5578  164 mt 5578  179 L
5598 2255 mt 5598 2239 L
5598  164 mt 5598  179 L
5615 2255 mt 5615 2239 L
5615  164 mt 5615  179 L
5615 2255 mt 5615 2223 L
5615  164 mt 5615  195 L
%%IncludeResource: font Helvetica
/Helvetica /ISOLatin1Encoding 120 FMSR

5503 2437 mt 
(10) s
%%IncludeResource: font Helvetica
/Helvetica /ISOLatin1Encoding 80 FMSR

5636 2363 mt 
(-4) s
5732 2255 mt 5732 2239 L
5732  164 mt 5732  179 L
5800 2255 mt 5800 2239 L
5800  164 mt 5800  179 L
5849 2255 mt 5849 2239 L
5849  164 mt 5849  179 L
5887 2255 mt 5887 2239 L
5887  164 mt 5887  179 L
5917 2255 mt 5917 2239 L
5917  164 mt 5917  179 L
5943 2255 mt 5943 2239 L
5943  164 mt 5943  179 L
5966 2255 mt 5966 2239 L
5966  164 mt 5966  179 L
5986 2255 mt 5986 2239 L
5986  164 mt 5986  179 L
6003 2255 mt 6003 2239 L
6003  164 mt 6003  179 L
6003 2255 mt 6003 2223 L
6003  164 mt 6003  195 L
%%IncludeResource: font Helvetica
/Helvetica /ISOLatin1Encoding 120 FMSR

5891 2437 mt 
(10) s
%%IncludeResource: font Helvetica
/Helvetica /ISOLatin1Encoding 80 FMSR

6024 2363 mt 
(-3) s
6120 2255 mt 6120 2239 L
6120  164 mt 6120  179 L
6189 2255 mt 6189 2239 L
6189  164 mt 6189  179 L
6237 2255 mt 6237 2239 L
6237  164 mt 6237  179 L
6275 2255 mt 6275 2239 L
6275  164 mt 6275  179 L
6305 2255 mt 6305 2239 L
6305  164 mt 6305  179 L
6331 2255 mt 6331 2239 L
6331  164 mt 6331  179 L
6354 2255 mt 6354 2239 L
6354  164 mt 6354  179 L
6374 2255 mt 6374 2239 L
6374  164 mt 6374  179 L
6391 2255 mt 6391 2239 L
6391  164 mt 6391  179 L
6391 2255 mt 6391 2223 L
6391  164 mt 6391  195 L
%%IncludeResource: font Helvetica
/Helvetica /ISOLatin1Encoding 120 FMSR

6279 2437 mt 
(10) s
%%IncludeResource: font Helvetica
/Helvetica /ISOLatin1Encoding 80 FMSR

6412 2363 mt 
(-2) s
6508 2255 mt 6508 2239 L
6508  164 mt 6508  179 L
6577 2255 mt 6577 2239 L
6577  164 mt 6577  179 L
6625 2255 mt 6625 2239 L
6625  164 mt 6625  179 L
6663 2255 mt 6663 2239 L
6663  164 mt 6663  179 L
6693 2255 mt 6693 2239 L
6693  164 mt 6693  179 L
6719 2255 mt 6719 2239 L
6719  164 mt 6719  179 L
6742 2255 mt 6742 2239 L
6742  164 mt 6742  179 L
6762 2255 mt 6762 2239 L
6762  164 mt 6762  179 L
6780 2255 mt 6780 2239 L
6780  164 mt 6780  179 L
6780 2255 mt 6780 2223 L
6780  164 mt 6780  195 L
%%IncludeResource: font Helvetica
/Helvetica /ISOLatin1Encoding 120 FMSR

6668 2437 mt 
(10) s
%%IncludeResource: font Helvetica
/Helvetica /ISOLatin1Encoding 80 FMSR

6801 2363 mt 
(-1) s
5210 2070 mt 5241 2070 L
6780 2070 mt 6748 2070 L
%%IncludeResource: font Helvetica
/Helvetica /ISOLatin1Encoding 120 FMSR

4942 2114 mt 
(0.06) s
5210 1740 mt 5241 1740 L
6780 1740 mt 6748 1740 L
4942 1784 mt 
(0.07) s
5210 1411 mt 5241 1411 L
6780 1411 mt 6748 1411 L
4942 1455 mt 
(0.08) s
5210 1081 mt 5241 1081 L
6780 1081 mt 6748 1081 L
4942 1125 mt 
(0.09) s
5210  752 mt 5241  752 L
6780  752 mt 6748  752 L
4942  796 mt 
(0.10) s
5210  422 mt 5241  422 L
6780  422 mt 6748  422 L
4942  466 mt 
(0.11) s
5210 2255 mt 6780 2255 L
5210  164 mt 6780  164 L
5210 2255 mt 5210  164 L
6780 2255 mt 6780  164 L
gs 5210 163 1571 2093 rc
gr

-41 71 -41 -71 82 0 5186 440 4 MP
c8
DP
-41 71 -41 -71 82 0 5574 410 4 MP
DP
-41 71 -41 -71 82 0 5846 459 4 MP
DP
-41 71 -41 -71 82 0 5962 702 4 MP
DP
-41 71 -41 -71 82 0 6117 1198 4 MP
DP
-41 71 -41 -71 82 0 6234 1523 4 MP
DP
-41 71 -41 -71 82 0 6350 1743 4 MP
DP
gs 5210 163 1571 2093 rc
gr

41 71 -82 0 41 -71 5227 464 4 MP
c11
DP
41 71 -82 0 41 -71 5615 455 4 MP
DP
41 71 -82 0 41 -71 5887 437 4 MP
DP
41 71 -82 0 41 -71 6003 503 4 MP
DP
41 71 -82 0 41 -71 6158 876 4 MP
DP
41 71 -82 0 41 -71 6275 1261 4 MP
DP
41 71 -82 0 41 -71 6391 1579 4 MP
DP
41 71 -82 0 41 -71 6546 1831 4 MP
DP
gs 5210 163 1571 2093 rc
gr

0 -58 -58 0 0 58 58 0 5198 394 5 MP
c10
DP
0 -58 -58 0 0 58 58 0 5586 390 5 MP
DP
0 -58 -58 0 0 58 58 0 5858 399 5 MP
DP
0 -58 -58 0 0 58 58 0 5974 405 5 MP
DP
0 -58 -58 0 0 58 58 0 6129 482 5 MP
DP
0 -58 -58 0 0 58 58 0 6246 753 5 MP
DP
0 -58 -58 0 0 58 58 0 6362 1154 5 MP
DP
0 -58 -58 0 0 58 58 0 6517 1570 5 MP
DP
0 -58 -58 0 0 58 58 0 6634 1743 5 MP
DP
gs 5210 163 1571 2093 rc
c8
118 81 117 116 155 244 116 266 117 343 155 489 116 233 272 47 
388 -46 5227 285 10 MP stroke
gr

c8
24 W
5227 285 PD
24 W
5615 239 PD
24 W
5887 286 PD
24 W
6003 519 PD
24 W
6158 1008 PD
24 W
6275 1351 PD
24 W
6391 1617 PD
24 W
6546 1861 PD
24 W
6663 1977 PD
gs 5210 163 1571 2093 rc
1 1 -1 -1 6781 2065 3 MP stroke
gr

24 W
6780 2064 PD
gs 5210 163 1571 2093 rc
c9
118 100 117 161 155 320 116 339 117 386 155 358 116 74 272 -35 
388 -14 5227 285 10 MP stroke
gr

c9
24 W
5227 285 PD
24 W
5615 271 PD
24 W
5887 236 PD
24 W
6003 310 PD
24 W
6158 668 PD
24 W
6275 1054 PD
24 W
6391 1393 PD
24 W
6546 1713 PD
24 W
6663 1874 PD
gs 5210 163 1571 2093 rc
1 1 -1 -1 6781 1986 3 MP stroke
gr

24 W
6780 1985 PD
gs 5210 163 1571 2093 rc
c10
118 125 117 216 155 453 116 404 117 260 155 83 116 -2 272 1 
388 16 5227 281 10 MP stroke
gr

c10
24 W
5227 281 PD
24 W
5615 297 PD
24 W
5887 298 PD
24 W
6003 296 PD
24 W
6158 379 PD
24 W
6275 639 PD
24 W
6391 1043 PD
24 W
6546 1496 PD
24 W
6663 1712 PD
gs 5210 163 1571 2093 rc
1 1 -1 -1 6781 1858 3 MP stroke
gr

24 W
6780 1857 PD
gs 5210 163 1571 2093 rc
gr

0 sg
%%IncludeResource: font Symbol
/Symbol /ISOLatin1Encoding 132 FMSR

5693 2545 mt 
(n) s
%%IncludeResource: font Helvetica
/Helvetica /ISOLatin1Encoding 96 FMSR

5761 2611 mt 
(ii) s
%%IncludeResource: font Helvetica
/Helvetica /ISOLatin1Encoding 132 FMSR

5803 2545 mt 
( \(v) s
%%IncludeResource: font Helvetica
/Helvetica /ISOLatin1Encoding 96 FMSR

5949 2611 mt 
(thi) s
%%IncludeResource: font Helvetica
/Helvetica /ISOLatin1Encoding 132 FMSR

6050 2545 mt 
( / R\)) s
%%IncludeResource: font Symbol
/Symbol /ISOLatin1Encoding 132 FMSR

4816 1402 mt  -90 rotate
(G) s
90 rotate
%%IncludeResource: font Helvetica
/Helvetica /ISOLatin1Encoding 132 FMSR

4816 1323 mt  -90 rotate
( / Q) s
90 rotate
%%IncludeResource: font Helvetica
/Helvetica /ISOLatin1Encoding 96 FMSR

4882 1111 mt  -90 rotate
(e) s
90 rotate
1 sg
0 521 1016 0 0 -521 718 2200 4 MP
PP
-1016 0 0 521 1016 0 0 -521 718 2200 5 MP stroke
4 w
DO
SO
6 w
0 sg
 718 2200 mt 1734 2200 L
 718 1679 mt 1734 1679 L
 718 2200 mt  718 1679 L
1734 2200 mt 1734 1679 L
 718 2200 mt 1734 2200 L
 718 2200 mt  718 1679 L
 718 2200 mt 1734 2200 L
 718 1679 mt 1734 1679 L
 718 2200 mt  718 1679 L
1734 2200 mt 1734 1679 L
%%IncludeResource: font Helvetica
/Helvetica /ISOLatin1Encoding 120 FMSR

1192 1822 mt 
(Zeff = 2.5) s
gs 718 1679 1017 522 rc
c8
365 0 790 1779 2 MP stroke
gs 900 1706 147 147 rc
24 W
973 1779 PD
gr

gr

c8
0 sg
1192 1982 mt 
(Zeff = 1.0) s
gs 718 1679 1017 522 rc
c9
365 0 790 1939 2 MP stroke
gs 900 1866 147 147 rc
24 W
973 1939 PD
gr

gr

c9
0 sg
1192 2142 mt 
(Zeff = 0.0) s
gs 718 1679 1017 522 rc
c10
365 0 790 2099 2 MP stroke
gs 900 2026 147 147 rc
24 W
973 2099 PD
gr

gr

c10
0 sg
1269  299 mt 
(GKW open symbols,) s
1269  437 mt 
(GS2 line) s

end %%Color Dict

eplot
%%EndObject

epage
end

showpage

%%Trailer
%%EOF
