%!PS-Adobe-3.0 EPSF-3.0
%%Creator: MATLAB, The Mathworks, Inc. Version 7.5.0.338 (R2007b). Operating System: Linux 2.6.16.54-0.2.5-smp #1 SMP Mon Jan 21 13:29:51 UTC 2008 x86_64.
%%Title: /gpfs/space/phsfar/bench/beta_eps16_bench/out/beta_scan.eps
%%CreationDate: 03/09/2008  16:54:49
%%DocumentNeededFonts: Helvetica
%%DocumentProcessColors: Cyan Magenta Yellow Black
%%LanguageLevel: 2
%%Pages: 1
%%BoundingBox: 114 278 487 569
%%EndComments

%%BeginProlog
% MathWorks dictionary
/MathWorks 160 dict begin
% definition operators
/bdef {bind def} bind def
/ldef {load def} bind def
/xdef {exch def} bdef
/xstore {exch store} bdef
% operator abbreviations
/c  /clip ldef
/cc /concat ldef
/cp /closepath ldef
/gr /grestore ldef
/gs /gsave ldef
/mt /moveto ldef
/np /newpath ldef
/cm /currentmatrix ldef
/sm /setmatrix ldef
/rm /rmoveto ldef
/rl /rlineto ldef
/s {show newpath} bdef
/sc {setcmykcolor} bdef
/sr /setrgbcolor ldef
/sg /setgray ldef
/w /setlinewidth ldef
/j /setlinejoin ldef
/cap /setlinecap ldef
/rc {rectclip} bdef
/rf {rectfill} bdef
% page state control
/pgsv () def
/bpage {/pgsv save def} bdef
/epage {pgsv restore} bdef
/bplot /gsave ldef
/eplot {stroke grestore} bdef
% orientation switch
/portraitMode 0 def /landscapeMode 1 def /rotateMode 2 def
% coordinate system mappings
/dpi2point 0 def
% font control
/FontSize 0 def
/FMS {/FontSize xstore findfont [FontSize 0 0 FontSize neg 0 0]
  makefont setfont} bdef
/reencode {exch dup where {pop load} {pop StandardEncoding} ifelse
  exch dup 3 1 roll findfont dup length dict begin
  { 1 index /FID ne {def}{pop pop} ifelse } forall
  /Encoding exch def currentdict end definefont pop} bdef
/isroman {findfont /CharStrings get /Agrave known} bdef
/FMSR {3 1 roll 1 index dup isroman {reencode} {pop pop} ifelse
  exch FMS} bdef
/csm {1 dpi2point div -1 dpi2point div scale neg translate
 dup landscapeMode eq {pop -90 rotate}
  {rotateMode eq {90 rotate} if} ifelse} bdef
% line types: solid, dotted, dashed, dotdash
/SO { [] 0 setdash } bdef
/DO { [.5 dpi2point mul 4 dpi2point mul] 0 setdash } bdef
/DA { [6 dpi2point mul] 0 setdash } bdef
/DD { [.5 dpi2point mul 4 dpi2point mul 6 dpi2point mul 4
  dpi2point mul] 0 setdash } bdef
% macros for lines and objects
/L {lineto stroke} bdef
/MP {3 1 roll moveto 1 sub {rlineto} repeat} bdef
/AP {{rlineto} repeat} bdef
/PDlw -1 def
/W {/PDlw currentlinewidth def setlinewidth} def
/PP {closepath eofill} bdef
/DP {closepath stroke} bdef
/MR {4 -2 roll moveto dup  0 exch rlineto exch 0 rlineto
  neg 0 exch rlineto closepath} bdef
/FR {MR stroke} bdef
/PR {MR fill} bdef
/L1i {{currentfile picstr readhexstring pop} image} bdef
/tMatrix matrix def
/MakeOval {newpath tMatrix currentmatrix pop translate scale
0 0 1 0 360 arc tMatrix setmatrix} bdef
/FO {MakeOval stroke} bdef
/PO {MakeOval fill} bdef
/PD {currentlinewidth 2 div 0 360 arc fill
   PDlw -1 eq not {PDlw w /PDlw -1 def} if} def
/FA {newpath tMatrix currentmatrix pop translate scale
  0 0 1 5 -2 roll arc tMatrix setmatrix stroke} bdef
/PA {newpath tMatrix currentmatrix pop	translate 0 0 moveto scale
  0 0 1 5 -2 roll arc closepath tMatrix setmatrix fill} bdef
/FAn {newpath tMatrix currentmatrix pop translate scale
  0 0 1 5 -2 roll arcn tMatrix setmatrix stroke} bdef
/PAn {newpath tMatrix currentmatrix pop translate 0 0 moveto scale
  0 0 1 5 -2 roll arcn closepath tMatrix setmatrix fill} bdef
/vradius 0 def /hradius 0 def /lry 0 def
/lrx 0 def /uly 0 def /ulx 0 def /rad 0 def
/MRR {/vradius xdef /hradius xdef /lry xdef /lrx xdef /uly xdef
  /ulx xdef newpath tMatrix currentmatrix pop ulx hradius add uly
  vradius add translate hradius vradius scale 0 0 1 180 270 arc 
  tMatrix setmatrix lrx hradius sub uly vradius add translate
  hradius vradius scale 0 0 1 270 360 arc tMatrix setmatrix
  lrx hradius sub lry vradius sub translate hradius vradius scale
  0 0 1 0 90 arc tMatrix setmatrix ulx hradius add lry vradius sub
  translate hradius vradius scale 0 0 1 90 180 arc tMatrix setmatrix
  closepath} bdef
/FRR {MRR stroke } bdef
/PRR {MRR fill } bdef
/MlrRR {/lry xdef /lrx xdef /uly xdef /ulx xdef /rad lry uly sub 2 div def
  newpath tMatrix currentmatrix pop ulx rad add uly rad add translate
  rad rad scale 0 0 1 90 270 arc tMatrix setmatrix lrx rad sub lry rad
  sub translate rad rad scale 0 0 1 270 90 arc tMatrix setmatrix
  closepath} bdef
/FlrRR {MlrRR stroke } bdef
/PlrRR {MlrRR fill } bdef
/MtbRR {/lry xdef /lrx xdef /uly xdef /ulx xdef /rad lrx ulx sub 2 div def
  newpath tMatrix currentmatrix pop ulx rad add uly rad add translate
  rad rad scale 0 0 1 180 360 arc tMatrix setmatrix lrx rad sub lry rad
  sub translate rad rad scale 0 0 1 0 180 arc tMatrix setmatrix
  closepath} bdef
/FtbRR {MtbRR stroke } bdef
/PtbRR {MtbRR fill } bdef
/stri 6 array def /dtri 6 array def
/smat 6 array def /dmat 6 array def
/tmat1 6 array def /tmat2 6 array def /dif 3 array def
/asub {/ind2 exch def /ind1 exch def dup dup
  ind1 get exch ind2 get sub exch } bdef
/tri_to_matrix {
  2 0 asub 3 1 asub 4 0 asub 5 1 asub
  dup 0 get exch 1 get 7 -1 roll astore } bdef
/compute_transform {
  dmat dtri tri_to_matrix tmat1 invertmatrix 
  smat stri tri_to_matrix tmat2 concatmatrix } bdef
/ds {stri astore pop} bdef
/dt {dtri astore pop} bdef
/db {2 copy /cols xdef /rows xdef mul dup 3 mul string
  currentfile 
  3 index 0 eq {/ASCIIHexDecode filter}
  {/ASCII85Decode filter 3 index 2 eq {/RunLengthDecode filter} if }
  ifelse exch readstring pop
  dup 0 3 index getinterval /rbmap xdef
  dup 2 index dup getinterval /gbmap xdef
  1 index dup 2 mul exch getinterval /bbmap xdef pop pop}bdef
/it {gs np dtri aload pop moveto lineto lineto cp c
  cols rows 8 compute_transform 
  rbmap gbmap bbmap true 3 colorimage gr}bdef
/il {newpath moveto lineto stroke}bdef
currentdict end def
%%EndProlog

%%BeginSetup
MathWorks begin

0 cap

end
%%EndSetup

%%Page: 1 1
%%BeginPageSetup
%%PageBoundingBox: 114 278 487 569
MathWorks begin
bpage
%%EndPageSetup

%%BeginObject: obj1
bplot

/dpi2point 12 def
portraitMode 0876 7068 csm

    0     0  5376  4034 rc
85 dict begin %Colortable dictionary
/c0 { 0.000000 0.000000 0.000000 sr} bdef
/c1 { 1.000000 1.000000 1.000000 sr} bdef
/c2 { 0.900000 0.000000 0.000000 sr} bdef
/c3 { 0.000000 0.820000 0.000000 sr} bdef
/c4 { 0.000000 0.000000 0.800000 sr} bdef
/c5 { 0.910000 0.820000 0.320000 sr} bdef
/c6 { 1.000000 0.260000 0.820000 sr} bdef
/c7 { 0.000000 0.820000 0.820000 sr} bdef
c0
1 j
1 sg
   0    0 5377 4035 rf
6 w
0 3287 4166 0 0 -3287 699 3590 4 MP
PP
-4166 0 0 3287 4166 0 0 -3287 699 3590 5 MP stroke
4 w
DO
SO
6 w
0 sg
 699 3590 mt 4865 3590 L
 699  303 mt 4865  303 L
 699 3590 mt  699  303 L
4865 3590 mt 4865  303 L
 699 3590 mt 4865 3590 L
 699 3590 mt  699  303 L
 699 3590 mt  699 3548 L
 699  303 mt  699  344 L
%%IncludeResource: font Helvetica
/Helvetica /ISOLatin1Encoding 120 FMSR

 666 3735 mt 
(0) s
1115 3590 mt 1115 3548 L
1115  303 mt 1115  344 L
 965 3735 mt 
(0.001) s
1532 3590 mt 1532 3548 L
1532  303 mt 1532  344 L
1382 3735 mt 
(0.002) s
1948 3590 mt 1948 3548 L
1948  303 mt 1948  344 L
1798 3735 mt 
(0.003) s
2365 3590 mt 2365 3548 L
2365  303 mt 2365  344 L
2215 3735 mt 
(0.004) s
2782 3590 mt 2782 3548 L
2782  303 mt 2782  344 L
2632 3735 mt 
(0.005) s
3198 3590 mt 3198 3548 L
3198  303 mt 3198  344 L
3048 3735 mt 
(0.006) s
3615 3590 mt 3615 3548 L
3615  303 mt 3615  344 L
3465 3735 mt 
(0.007) s
4031 3590 mt 4031 3548 L
4031  303 mt 4031  344 L
3881 3735 mt 
(0.008) s
4448 3590 mt 4448 3548 L
4448  303 mt 4448  344 L
4298 3735 mt 
(0.009) s
4865 3590 mt 4865 3548 L
4865  303 mt 4865  344 L
4749 3735 mt 
(0.01) s
 699 3590 mt  740 3590 L
4865 3590 mt 4823 3590 L
 598 3634 mt 
(0) s
 699 3120 mt  740 3120 L
4865 3120 mt 4823 3120 L
 498 3164 mt 
(0.2) s
 699 2650 mt  740 2650 L
4865 2650 mt 4823 2650 L
 498 2694 mt 
(0.4) s
 699 2181 mt  740 2181 L
4865 2181 mt 4823 2181 L
 498 2225 mt 
(0.6) s
 699 1711 mt  740 1711 L
4865 1711 mt 4823 1711 L
 498 1755 mt 
(0.8) s
 699 1242 mt  740 1242 L
4865 1242 mt 4823 1242 L
 598 1286 mt 
(1) s
 699  772 mt  740  772 L
4865  772 mt 4823  772 L
 498  816 mt 
(1.2) s
 699  303 mt  740  303 L
4865  303 mt 4823  303 L
 498  347 mt 
(1.4) s
 699 3590 mt 4865 3590 L
 699  303 mt 4865  303 L
 699 3590 mt  699  303 L
4865 3590 mt 4865  303 L
gs 699 303 4167 3288 rc
gr

0 j
36 47 -36 47 -36 -47 36 -47 699 1948 5 MP
/c8 { 0.000000 0.000000 1.000000 sr} bdef
c8
DP
36 47 -36 47 -36 -47 36 -47 1115 2046 5 MP
DP
36 47 -36 47 -36 -47 36 -47 1532 2162 5 MP
DP
36 47 -36 47 -36 -47 36 -47 1948 2299 5 MP
DP
36 47 -36 47 -36 -47 36 -47 2365 2467 5 MP
DP
36 47 -36 47 -36 -47 36 -47 2782 2675 5 MP
DP
36 47 -36 47 -36 -47 36 -47 3198 2925 5 MP
DP
36 47 -36 47 -36 -47 36 -47 3615 2565 5 MP
DP
36 47 -36 47 -36 -47 36 -47 4031 1763 5 MP
DP
36 47 -36 47 -36 -47 36 -47 4448 1133 5 MP
DP
36 47 -36 47 -36 -47 36 -47 4865 637 5 MP
DP
gs 699 303 4167 3288 rc
25 17 25 17 26 16 25 16 25 16 25 15 26 16 25 15 
25 15 25 15 26 15 25 15 25 14 25 15 26 14 25 14 
25 13 25 14 26 14 25 13 25 13 25 13 26 13 25 13 
25 12 25 12 26 13 25 12 25 12 25 11 26 12 25 12 
25 11 25 11 26 11 25 11 25 11 25 11 26 10 25 11 
25 10 25 10 26 10 25 10 25 10 25 10 26 9 25 10 
25 9 25 9 26 9 25 9 25 9 25 9 26 9 25 8 
25 9 25 8 26 8 25 9 25 8 25 8 26 8 25 7 
25 8 25 8 26 7 25 8 25 7 25 7 26 8 25 7 
25 7 25 7 26 7 25 7 25 6 25 7 26 7 25 6 
25 7 25 6 26 7 25 6 25 6 25 7 26 6 25 6 
25 6 25 6 26 6 25 6 25 6 25 6 26 6 25 5 
25 6 25 6 25 6 699 1900 100 MP stroke
DA
22 17 22 17 22 17 22 17 22 17 22 16 22 17 22 16 
22 16 22 16 21 16 22 15 22 16 22 15 22 15 22 15 
22 15 22 15 22 14 3198 2879 20 MP stroke
22 -48 22 -48 22 -49 22 -49 22 -50 22 -51 22 -52 22 -52 
22 -52 22 -54 21 -53 22 -55 22 -55 22 -56 22 -57 22 -57 
22 -58 22 -58 22 -60 3198 3532 20 MP stroke
SO
26 -27 26 -27 25 -28 26 -29 25 -29 26 -29 25 -29 26 -30 
25 -31 26 -31 25 -31 26 -32 25 -32 26 -33 25 -33 26 -34 
25 -34 26 -34 25 -36 26 -35 25 -37 26 -36 25 -38 26 -38 
25 -38 26 -39 25 -40 26 -40 25 -41 26 -41 25 -42 26 -43 
25 -43 26 -44 25 -45 26 -45 25 -46 26 -47 25 -47 26 -48 
25 -49 26 -49 25 -51 26 -51 25 -51 26 -53 25 -53 26 -54 
25 -55 3615 2518 50 MP stroke
gr

/c9 { 1.000000 0.000000 0.000000 sr} bdef
c9
  36   36  699 1911 FO
  36   36 1115 2019 FO
  36   36 1532 2143 FO
  36   36 1948 2288 FO
  36   36 2365 2473 FO
  36   36 2782 2668 FO
  36   36 3198 2922 FO
  36   36 3615 2362 FO
  36   36 4031 1526 FO
  36   36 4448  896 FO
  36   36 4865  415 FO
gs 699 303 4167 3288 rc
gr


end %%Color Dict

eplot
%%EndObject

epage
end

showpage

%%Trailer
%%EOF
