%!PS-Adobe-3.0 EPSF-3.0
%%Creator: MATLAB, The Mathworks, Inc. Version 7.8.0.347 (R2009a). Operating System: Linux 2.6.25.20-0.7-default #1 SMP 2010-02-26 20:32:57 +0100 x86_64.
%%Title: /storage/space1/phrhaz/runs/matlab_plots/waltz_benchmarks/bpar-parallelstructure-waltz-linear.eps
%%CreationDate: 03/18/2010  10:28:51
%%DocumentNeededFonts: Helvetica
%%DocumentProcessColors: Cyan Magenta Yellow Black
%%LanguageLevel: 2
%%Pages: 1
%%BoundingBox:  -119   112   714   729
%%EndComments

%%BeginProlog
% MathWorks dictionary
/MathWorks 160 dict begin
% definition operators
/bdef {bind def} bind def
/ldef {load def} bind def
/xdef {exch def} bdef
/xstore {exch store} bdef
% operator abbreviations
/c  /clip ldef
/cc /concat ldef
/cp /closepath ldef
/gr /grestore ldef
/gs /gsave ldef
/mt /moveto ldef
/np /newpath ldef
/cm /currentmatrix ldef
/sm /setmatrix ldef
/rm /rmoveto ldef
/rl /rlineto ldef
/s {show newpath} bdef
/sc {setcmykcolor} bdef
/sr /setrgbcolor ldef
/sg /setgray ldef
/w /setlinewidth ldef
/j /setlinejoin ldef
/cap /setlinecap ldef
/rc {rectclip} bdef
/rf {rectfill} bdef
% page state control
/pgsv () def
/bpage {/pgsv save def} bdef
/epage {pgsv restore} bdef
/bplot /gsave ldef
/eplot {stroke grestore} bdef
% orientation switch
/portraitMode 0 def /landscapeMode 1 def /rotateMode 2 def
% coordinate system mappings
/dpi2point 0 def
% font control
/FontSize 0 def
/FMS {/FontSize xstore findfont [FontSize 0 0 FontSize neg 0 0]
  makefont setfont} bdef
/reencode {exch dup where {pop load} {pop StandardEncoding} ifelse
  exch dup 3 1 roll findfont dup length dict begin
  { 1 index /FID ne {def}{pop pop} ifelse } forall
  /Encoding exch def currentdict end definefont pop} bdef
/isroman {findfont /CharStrings get /Agrave known} bdef
/FMSR {3 1 roll 1 index dup isroman {reencode} {pop pop} ifelse
  exch FMS} bdef
/csm {1 dpi2point div -1 dpi2point div scale neg translate
 dup landscapeMode eq {pop -90 rotate}
  {rotateMode eq {90 rotate} if} ifelse} bdef
% line types: solid, dotted, dashed, dotdash
/SO { [] 0 setdash } bdef
/DO { [.5 dpi2point mul 4 dpi2point mul] 0 setdash } bdef
/DA { [6 dpi2point mul] 0 setdash } bdef
/DD { [.5 dpi2point mul 4 dpi2point mul 6 dpi2point mul 4
  dpi2point mul] 0 setdash } bdef
% macros for lines and objects
/L {lineto stroke} bdef
/MP {3 1 roll moveto 1 sub {rlineto} repeat} bdef
/AP {{rlineto} repeat} bdef
/PDlw -1 def
/W {/PDlw currentlinewidth def setlinewidth} def
/PP {closepath eofill} bdef
/DP {closepath stroke} bdef
/MR {4 -2 roll moveto dup  0 exch rlineto exch 0 rlineto
  neg 0 exch rlineto closepath} bdef
/FR {MR stroke} bdef
/PR {MR fill} bdef
/L1i {{currentfile picstr readhexstring pop} image} bdef
/tMatrix matrix def
/MakeOval {newpath tMatrix currentmatrix pop translate scale
0 0 1 0 360 arc tMatrix setmatrix} bdef
/FO {MakeOval stroke} bdef
/PO {MakeOval fill} bdef
/PD {currentlinewidth 2 div 0 360 arc fill
   PDlw -1 eq not {PDlw w /PDlw -1 def} if} def
/FA {newpath tMatrix currentmatrix pop translate scale
  0 0 1 5 -2 roll arc tMatrix setmatrix stroke} bdef
/PA {newpath tMatrix currentmatrix pop	translate 0 0 moveto scale
  0 0 1 5 -2 roll arc closepath tMatrix setmatrix fill} bdef
/FAn {newpath tMatrix currentmatrix pop translate scale
  0 0 1 5 -2 roll arcn tMatrix setmatrix stroke} bdef
/PAn {newpath tMatrix currentmatrix pop translate 0 0 moveto scale
  0 0 1 5 -2 roll arcn closepath tMatrix setmatrix fill} bdef
/vradius 0 def /hradius 0 def /lry 0 def
/lrx 0 def /uly 0 def /ulx 0 def /rad 0 def
/MRR {/vradius xdef /hradius xdef /lry xdef /lrx xdef /uly xdef
  /ulx xdef newpath tMatrix currentmatrix pop ulx hradius add uly
  vradius add translate hradius vradius scale 0 0 1 180 270 arc 
  tMatrix setmatrix lrx hradius sub uly vradius add translate
  hradius vradius scale 0 0 1 270 360 arc tMatrix setmatrix
  lrx hradius sub lry vradius sub translate hradius vradius scale
  0 0 1 0 90 arc tMatrix setmatrix ulx hradius add lry vradius sub
  translate hradius vradius scale 0 0 1 90 180 arc tMatrix setmatrix
  closepath} bdef
/FRR {MRR stroke } bdef
/PRR {MRR fill } bdef
/MlrRR {/lry xdef /lrx xdef /uly xdef /ulx xdef /rad lry uly sub 2 div def
  newpath tMatrix currentmatrix pop ulx rad add uly rad add translate
  rad rad scale 0 0 1 90 270 arc tMatrix setmatrix lrx rad sub lry rad
  sub translate rad rad scale 0 0 1 270 90 arc tMatrix setmatrix
  closepath} bdef
/FlrRR {MlrRR stroke } bdef
/PlrRR {MlrRR fill } bdef
/MtbRR {/lry xdef /lrx xdef /uly xdef /ulx xdef /rad lrx ulx sub 2 div def
  newpath tMatrix currentmatrix pop ulx rad add uly rad add translate
  rad rad scale 0 0 1 180 360 arc tMatrix setmatrix lrx rad sub lry rad
  sub translate rad rad scale 0 0 1 0 180 arc tMatrix setmatrix
  closepath} bdef
/FtbRR {MtbRR stroke } bdef
/PtbRR {MtbRR fill } bdef
/stri 6 array def /dtri 6 array def
/smat 6 array def /dmat 6 array def
/tmat1 6 array def /tmat2 6 array def /dif 3 array def
/asub {/ind2 exch def /ind1 exch def dup dup
  ind1 get exch ind2 get sub exch } bdef
/tri_to_matrix {
  2 0 asub 3 1 asub 4 0 asub 5 1 asub
  dup 0 get exch 1 get 7 -1 roll astore } bdef
/compute_transform {
  dmat dtri tri_to_matrix tmat1 invertmatrix 
  smat stri tri_to_matrix tmat2 concatmatrix } bdef
/ds {stri astore pop} bdef
/dt {dtri astore pop} bdef
/db {2 copy /cols xdef /rows xdef mul dup 3 mul string
  currentfile 
  3 index 0 eq {/ASCIIHexDecode filter}
  {/ASCII85Decode filter 3 index 2 eq {/RunLengthDecode filter} if }
  ifelse exch readstring pop
  dup 0 3 index getinterval /rbmap xdef
  dup 2 index dup getinterval /gbmap xdef
  1 index dup 2 mul exch getinterval /bbmap xdef pop pop}bdef
/it {gs np dtri aload pop moveto lineto lineto cp c
  cols rows 8 compute_transform 
  rbmap gbmap bbmap true 3 colorimage gr}bdef
/il {newpath moveto lineto stroke}bdef
currentdict end def
%%EndProlog

%%BeginSetup
MathWorks begin

0 cap

end
%%EndSetup

%%Page: 1 1
%%BeginPageSetup
%%PageBoundingBox:  -119   112   714   729
MathWorks begin
bpage
%%EndPageSetup

%%BeginObject: obj1
bplot

/dpi2point 12 def
portraitMode -1428 8748 csm

    0     0 10003  7394 rc
85 dict begin %Colortable dictionary
/c0 { 0.000000 0.000000 0.000000 sr} bdef
/c1 { 1.000000 1.000000 1.000000 sr} bdef
/c2 { 0.900000 0.000000 0.000000 sr} bdef
/c3 { 0.000000 0.820000 0.000000 sr} bdef
/c4 { 0.000000 0.000000 0.800000 sr} bdef
/c5 { 0.910000 0.820000 0.320000 sr} bdef
/c6 { 1.000000 0.260000 0.820000 sr} bdef
/c7 { 0.000000 0.820000 0.820000 sr} bdef
c0
1 j
1 sg
   0    0 10004 7395 rf
6 w
0 6026 7753 0 0 -6026 1300 6581 4 MP
PP
-7753 0 0 6026 7753 0 0 -6026 1300 6581 5 MP stroke
4 w
DO
SO
6 w
0 sg
1300 6581 mt 9053 6581 L
1300  555 mt 9053  555 L
1300 6581 mt 1300  555 L
9053 6581 mt 9053  555 L
1300 6581 mt 9053 6581 L
1300 6581 mt 1300  555 L
1300 6581 mt 1300 6503 L
1300  555 mt 1300  632 L
%%IncludeResource: font Helvetica
/Helvetica /ISOLatin1Encoding 240 FMSR

1094 6838 mt 
(-1) s
3238 6581 mt 3238 6503 L
3238  555 mt 3238  632 L
2932 6838 mt 
(-0.5) s
5176 6581 mt 5176 6503 L
5176  555 mt 5176  632 L
5110 6838 mt 
(0) s
7114 6581 mt 7114 6503 L
7114  555 mt 7114  632 L
6948 6838 mt 
(0.5) s
9053 6581 mt 9053 6503 L
9053  555 mt 9053  632 L
8987 6838 mt 
(1) s
1300 6525 mt 1377 6525 L
9053 6525 mt 8975 6525 L
1132 6614 mt 
(0) s
1300 5857 mt 1377 5857 L
9053 5857 mt 8975 5857 L
1132 5946 mt 
(2) s
1300 5189 mt 1377 5189 L
9053 5189 mt 8975 5189 L
1132 5278 mt 
(4) s
1300 4520 mt 1377 4520 L
9053 4520 mt 8975 4520 L
1132 4609 mt 
(6) s
1300 3852 mt 1377 3852 L
9053 3852 mt 8975 3852 L
1132 3941 mt 
(8) s
1300 3184 mt 1377 3184 L
9053 3184 mt 8975 3184 L
 999 3273 mt 
(10) s
1300 2515 mt 1377 2515 L
9053 2515 mt 8975 2515 L
 999 2604 mt 
(12) s
1300 1847 mt 1377 1847 L
9053 1847 mt 8975 1847 L
 999 1936 mt 
(14) s
1300 1178 mt 1377 1178 L
9053 1178 mt 8975 1178 L
 999 1267 mt 
(16) s
1300  501 mt 
(x 10) s
%%IncludeResource: font Helvetica
/Helvetica /ISOLatin1Encoding 160 FMSR

1753  353 mt 
(-3) s
1300 6581 mt 9053 6581 L
1300  555 mt 9053  555 L
1300 6581 mt 1300  555 L
9053 6581 mt 9053  555 L
gs 1300 555 7754 6027 rc
12 w
/c8 { 0.000000 0.000000 1.000000 sr} bdef
c8
233 -687 243 -1573 242 -1415 242 -849 242 -425 243 -242 242 -163 242 -143 
243 -117 242 -84 242 -45 242 -28 243 -26 242 -20 242 -13 242 -11 
1300 6396 17 MP stroke
1 0 243 11 242 13 242 20 243 26 242 28 242 45 242 84 
243 117 242 143 242 163 243 242 242 425 242 849 242 1415 243 1573 
233 687 5185 555 18 MP stroke
/c9 { 0.000000 0.500000 0.000000 sr} bdef
c9
1 0 243 0 242 -4 242 3 243 10 242 -8 242 -4 242 43 
243 34 242 12 242 -24 243 52 242 169 242 279 242 372 243 353 
242 146 242 -146 243 -353 242 -372 242 -279 242 -169 243 -52 242 24 
242 -12 243 -34 242 -43 242 4 242 8 243 -10 242 -3 242 4 
242 0 1300 6460 34 MP stroke
6 w
gr

c9
0 j
90 119 -90 119 -90 -119 90 -119 1421 6533 5 MP
/c10 { 1.000000 0.000000 0.000000 sr} bdef
c10
DP
90 119 -90 119 -90 -119 90 -119 1663 6519 5 MP
DP
90 119 -90 119 -90 -119 90 -119 1905 6500 5 MP
DP
90 119 -90 119 -90 -119 90 -119 2147 6474 5 MP
DP
90 119 -90 119 -90 -119 90 -119 2390 6438 5 MP
DP
90 119 -90 119 -90 -119 90 -119 2632 6385 5 MP
DP
90 119 -90 119 -90 -119 90 -119 2874 6304 5 MP
DP
90 119 -90 119 -90 -119 90 -119 3117 6182 5 MP
DP
90 119 -90 119 -90 -119 90 -119 3359 6024 5 MP
DP
90 119 -90 119 -90 -119 90 -119 3601 5851 5 MP
DP
90 119 -90 119 -90 -119 90 -119 3843 5663 5 MP
DP
90 119 -90 119 -90 -119 90 -119 4086 5427 5 MP
DP
90 119 -90 119 -90 -119 90 -119 4328 4974 5 MP
DP
90 119 -90 119 -90 -119 90 -119 4570 4013 5 MP
DP
90 119 -90 119 -90 -119 90 -119 4813 2661 5 MP
DP
90 119 -90 119 -90 -119 90 -119 5055 1626 5 MP
DP
90 119 -90 119 -90 -119 90 -119 5297 1626 5 MP
DP
90 119 -90 119 -90 -119 90 -119 5539 2661 5 MP
DP
90 119 -90 119 -90 -119 90 -119 5782 4013 5 MP
DP
90 119 -90 119 -90 -119 90 -119 6024 4974 5 MP
DP
90 119 -90 119 -90 -119 90 -119 6266 5427 5 MP
DP
90 119 -90 119 -90 -119 90 -119 6509 5663 5 MP
DP
90 119 -90 119 -90 -119 90 -119 6751 5851 5 MP
DP
90 119 -90 119 -90 -119 90 -119 6993 6024 5 MP
DP
90 119 -90 119 -90 -119 90 -119 7235 6182 5 MP
DP
90 119 -90 119 -90 -119 90 -119 7478 6304 5 MP
DP
90 119 -90 119 -90 -119 90 -119 7720 6385 5 MP
DP
90 119 -90 119 -90 -119 90 -119 7962 6438 5 MP
DP
90 119 -90 119 -90 -119 90 -119 8205 6474 5 MP
DP
90 119 -90 119 -90 -119 90 -119 8447 6500 5 MP
DP
90 119 -90 119 -90 -119 90 -119 8689 6519 5 MP
DP
90 119 -90 119 -90 -119 90 -119 8931 6533 5 MP
DP
gs 1300 555 7754 6027 rc
gr

90 119 -90 119 -90 -119 90 -119 1421 6592 5 MP
0 sg
DP
90 119 -90 119 -90 -119 90 -119 1663 6592 5 MP
DP
90 119 -90 119 -90 -119 90 -119 1905 6592 5 MP
DP
90 119 -90 119 -90 -119 90 -119 2147 6592 5 MP
DP
90 119 -90 119 -90 -119 90 -119 2390 6588 5 MP
DP
90 119 -90 119 -90 -119 90 -119 2632 6582 5 MP
DP
90 119 -90 119 -90 -119 90 -119 2874 6564 5 MP
DP
90 119 -90 119 -90 -119 90 -119 3117 6527 5 MP
DP
90 119 -90 119 -90 -119 90 -119 3359 6493 5 MP
DP
90 119 -90 119 -90 -119 90 -119 3601 6485 5 MP
DP
90 119 -90 119 -90 -119 90 -119 3843 6468 5 MP
DP
90 119 -90 119 -90 -119 90 -119 4086 6389 5 MP
DP
90 119 -90 119 -90 -119 90 -119 4328 6210 5 MP
DP
90 119 -90 119 -90 -119 90 -119 4570 5919 5 MP
DP
90 119 -90 119 -90 -119 90 -119 4813 5581 5 MP
DP
90 119 -90 119 -90 -119 90 -119 5055 5346 5 MP
DP
90 119 -90 119 -90 -119 90 -119 5297 5346 5 MP
DP
90 119 -90 119 -90 -119 90 -119 5539 5581 5 MP
DP
90 119 -90 119 -90 -119 90 -119 5782 5919 5 MP
DP
90 119 -90 119 -90 -119 90 -119 6024 6210 5 MP
DP
90 119 -90 119 -90 -119 90 -119 6266 6389 5 MP
DP
90 119 -90 119 -90 -119 90 -119 6509 6468 5 MP
DP
90 119 -90 119 -90 -119 90 -119 6751 6485 5 MP
DP
90 119 -90 119 -90 -119 90 -119 6993 6493 5 MP
DP
90 119 -90 119 -90 -119 90 -119 7235 6527 5 MP
DP
90 119 -90 119 -90 -119 90 -119 7478 6564 5 MP
DP
90 119 -90 119 -90 -119 90 -119 7720 6582 5 MP
DP
90 119 -90 119 -90 -119 90 -119 7962 6588 5 MP
DP
90 119 -90 119 -90 -119 90 -119 8205 6592 5 MP
DP
90 119 -90 119 -90 -119 90 -119 8447 6592 5 MP
DP
90 119 -90 119 -90 -119 90 -119 8689 6592 5 MP
DP
90 119 -90 119 -90 -119 90 -119 8931 6592 5 MP
DP
gs 1300 555 7754 6027 rc
gr

%%IncludeResource: font Helvetica
/Helvetica /ISOLatin1Encoding 288 FMSR

4864 7395 mt 
(2 ) s
%%IncludeResource: font Symbol
/Symbol /ISOLatin1Encoding 288 FMSR

5104 7395 mt 
(p) s
%%IncludeResource: font Helvetica
/Helvetica /ISOLatin1Encoding 288 FMSR

5262 7395 mt 
( s) s
 880 4297 mt  -90 rotate
(Eigenmode) s
90 rotate
%%IncludeResource: font Helvetica
/Helvetica /ISOLatin1Encoding 192 FMSR

2419  290 mt 
(B) s
%%IncludeResource: font Helvetica
/Helvetica /ISOLatin1Encoding 144 FMSR

2547  386 mt 
(1||) s
%%IncludeResource: font Helvetica
/Helvetica /ISOLatin1Encoding 192 FMSR

2701  290 mt 
( parallel structure, Waltz linear test case, kthrho = 0.425\
 \(gkw\)) s
%%IncludeResource: font Helvetica
/Helvetica /ISOLatin1Encoding 120 FMSR

1283 6624 mt 
( ) s
9037  597 mt 
( ) s
1 sg
0 1449 1933 0 0 -1449 1808 2566 4 MP
PP
-1933 0 0 1449 1933 0 0 -1449 1808 2566 5 MP stroke
4 w
DO
SO
6 w
0 sg
1808 2566 mt 3741 2566 L
1808 1117 mt 3741 1117 L
1808 2566 mt 1808 1117 L
3741 2566 mt 3741 1117 L
1808 2566 mt 3741 2566 L
1808 2566 mt 1808 1117 L
1808 2566 mt 3741 2566 L
1808 1117 mt 3741 1117 L
1808 2566 mt 1808 1117 L
3741 2566 mt 3741 1117 L
%%IncludeResource: font Helvetica
/Helvetica /ISOLatin1Encoding 240 FMSR

2290 1400 mt 
(gs2, ) s
%%IncludeResource: font Symbol
/Symbol /ISOLatin1Encoding 240 FMSR

2810 1400 mt 
(b) s
%%IncludeResource: font Helvetica
/Helvetica /ISOLatin1Encoding 240 FMSR

2941 1400 mt 
(=0.02) s
gs 1808 1117 1934 1450 rc
12 w
c8
370 0 1882 1313 2 MP stroke
gr

12 w
c8
0 sg
2290 1752 mt 
(gs2, ) s
%%IncludeResource: font Symbol
/Symbol /ISOLatin1Encoding 240 FMSR

2810 1752 mt 
(b) s
%%IncludeResource: font Helvetica
/Helvetica /ISOLatin1Encoding 240 FMSR

2941 1752 mt 
(=0.003) s
gs 1808 1117 1934 1450 rc
c9
370 0 1882 1665 2 MP stroke
gr

c9
0 sg
2290 2104 mt 
(gkw, ) s
%%IncludeResource: font Symbol
/Symbol /ISOLatin1Encoding 240 FMSR

2835 2104 mt 
(b) s
%%IncludeResource: font Helvetica
/Helvetica /ISOLatin1Encoding 240 FMSR

2966 2104 mt 
(=0.02) s
gs 1808 1117 1934 1450 rc
6 w
gr

6 w
90 119 -90 119 -90 -119 90 -119 2067 2136 5 MP
c10
DP
gs 1808 1117 1934 1450 rc
gr

0 sg
2290 2456 mt 
(gkw, ) s
%%IncludeResource: font Symbol
/Symbol /ISOLatin1Encoding 240 FMSR

2835 2456 mt 
(b) s
%%IncludeResource: font Helvetica
/Helvetica /ISOLatin1Encoding 240 FMSR

2966 2456 mt 
(=0.003) s
gs 1808 1117 1934 1450 rc
gr

90 119 -90 119 -90 -119 90 -119 2067 2488 5 MP
DP
gs 1808 1117 1934 1450 rc
gr

%%IncludeResource: font Symbol
/Symbol /ISOLatin1Encoding 240 FMSR

4748 4939 mt 
(b) s
%%IncludeResource: font Helvetica
/Helvetica /ISOLatin1Encoding 240 FMSR

4879 4939 mt 
( = 0.003) s
%%IncludeResource: font Symbol
/Symbol /ISOLatin1Encoding 240 FMSR

5697 2091 mt 
(b) s
%%IncludeResource: font Helvetica
/Helvetica /ISOLatin1Encoding 240 FMSR

5828 2091 mt 
( = 0.02) s

end %%Color Dict

eplot
%%EndObject

epage
end

showpage

%%Trailer
%%EOF
