%!PS-Adobe-2.0 EPSF-2.0
%%Title: circFS.fig
%%Creator: fig2dev Version 3.2 Patchlevel 5
%%CreationDate: Fri Feb  5 09:33:54 2010
%%For: phsgbe@cassoulet.csc.warwick.ac.uk (Yann Camenen)
%%BoundingBox: 0 0 578 260
%Magnification: 1.0000
%%EndComments
/$F2psDict 200 dict def
$F2psDict begin
$F2psDict /mtrx matrix put
/col-1 {0 setgray} bind def
/col0 {0.000 0.000 0.000 srgb} bind def
/col1 {0.000 0.000 1.000 srgb} bind def
/col2 {0.000 1.000 0.000 srgb} bind def
/col3 {0.000 1.000 1.000 srgb} bind def
/col4 {1.000 0.000 0.000 srgb} bind def
/col5 {1.000 0.000 1.000 srgb} bind def
/col6 {1.000 1.000 0.000 srgb} bind def
/col7 {1.000 1.000 1.000 srgb} bind def
/col8 {0.000 0.000 0.560 srgb} bind def
/col9 {0.000 0.000 0.690 srgb} bind def
/col10 {0.000 0.000 0.820 srgb} bind def
/col11 {0.530 0.810 1.000 srgb} bind def
/col12 {0.000 0.560 0.000 srgb} bind def
/col13 {0.000 0.690 0.000 srgb} bind def
/col14 {0.000 0.820 0.000 srgb} bind def
/col15 {0.000 0.560 0.560 srgb} bind def
/col16 {0.000 0.690 0.690 srgb} bind def
/col17 {0.000 0.820 0.820 srgb} bind def
/col18 {0.560 0.000 0.000 srgb} bind def
/col19 {0.690 0.000 0.000 srgb} bind def
/col20 {0.820 0.000 0.000 srgb} bind def
/col21 {0.560 0.000 0.560 srgb} bind def
/col22 {0.690 0.000 0.690 srgb} bind def
/col23 {0.820 0.000 0.820 srgb} bind def
/col24 {0.500 0.190 0.000 srgb} bind def
/col25 {0.630 0.250 0.000 srgb} bind def
/col26 {0.750 0.380 0.000 srgb} bind def
/col27 {1.000 0.500 0.500 srgb} bind def
/col28 {1.000 0.630 0.630 srgb} bind def
/col29 {1.000 0.750 0.750 srgb} bind def
/col30 {1.000 0.880 0.880 srgb} bind def
/col31 {1.000 0.840 0.000 srgb} bind def

end
save
newpath 0 260 moveto 0 0 lineto 578 0 lineto 578 260 lineto closepath clip newpath
-115.3 386.3 translate
1 -1 scale

/cp {closepath} bind def
/ef {eofill} bind def
/gr {grestore} bind def
/gs {gsave} bind def
/sa {save} bind def
/rs {restore} bind def
/l {lineto} bind def
/m {moveto} bind def
/rm {rmoveto} bind def
/n {newpath} bind def
/s {stroke} bind def
/sh {show} bind def
/slc {setlinecap} bind def
/slj {setlinejoin} bind def
/slw {setlinewidth} bind def
/srgb {setrgbcolor} bind def
/rot {rotate} bind def
/sc {scale} bind def
/sd {setdash} bind def
/ff {findfont} bind def
/sf {setfont} bind def
/scf {scalefont} bind def
/sw {stringwidth} bind def
/tr {translate} bind def
/tnt {dup dup currentrgbcolor
  4 -2 roll dup 1 exch sub 3 -1 roll mul add
  4 -2 roll dup 1 exch sub 3 -1 roll mul add
  4 -2 roll dup 1 exch sub 3 -1 roll mul add srgb}
  bind def
/shd {dup dup currentrgbcolor 4 -2 roll mul 4 -2 roll mul
  4 -2 roll mul srgb} bind def
 /DrawEllipse {
	/endangle exch def
	/startangle exch def
	/yrad exch def
	/xrad exch def
	/y exch def
	/x exch def
	/savematrix mtrx currentmatrix def
	x y tr xrad yrad sc 0 0 1 startangle endangle arc
	closepath
	savematrix setmatrix
	} def

/$F2psBegin {$F2psDict begin /$F2psEnteredState save def} def
/$F2psEnd {$F2psEnteredState restore end} def

$F2psBegin
10 setmiterlimit
0 slj 0 slc
 0.06299 0.06299 sc
%
% Fig objects follow
%
% 
% here starts figure with depth 50
% Ellipse
7.500 slw
n 6840 4590 1531 1531 0 360 DrawEllipse gs col0 s gr

% Ellipse
n 8955 3690 162 162 0 360 DrawEllipse gs col0 s gr

% Ellipse
n 8955 3690 45 45 0 360 DrawEllipse gs 0.00 setgray ef gr gs col0 s gr

% Polyline
0 slj
0 slc
gs  clippath
10709 4620 m 10860 4620 l 10860 4560 l 10709 4560 l 10709 4560 l 10829 4590 l 10709 4620 l cp
eoclip
n 2160 4590 m
 10845 4590 l gs col0 s gr gr

% arrowhead
n 10709 4620 m 10829 4590 l 10709 4560 l 10709 4620 l  cp gs 0.00 setgray ef gr  col0 s
% Polyline
gs  clippath
2190 2296 m 2190 2145 l 2130 2145 l 2130 2296 l 2130 2296 l 2160 2176 l 2190 2296 l cp
eoclip
n 2160 6120 m
 2160 2160 l gs col0 s gr gr

% arrowhead
n 2190 2296 m 2160 2176 l 2130 2296 l 2190 2296 l  cp gs 0.00 setgray ef gr  col0 s
% Polyline
gs  clippath
9134 2806 m 9253 2712 l 9216 2665 l 9097 2759 l 9097 2759 l 9210 2708 l 9134 2806 l cp
eoclip
n 6838 4588 m
 9223 2698 l gs col0 s gr gr

% arrowhead
n 9134 2806 m 9210 2708 l 9097 2759 l 9134 2806 l  cp gs 0.00 setgray ef gr  col0 s
% Polyline
gs  clippath
7266 2622 m 7172 2504 l 7125 2542 l 7219 2660 l 7219 2660 l 7168 2548 l 7266 2622 l cp
eoclip
n 8058 3660 m
 7158 2535 l gs col0 s gr gr

% arrowhead
n 7266 2622 m 7168 2548 l 7219 2660 l 7266 2622 l  cp gs 0.00 setgray ef gr  col0 s
% Polyline
2 slj
gs  clippath
7603 4090 m 7471 4016 l 7442 4068 l 7574 4142 l 7574 4142 l 7484 4058 l 7603 4090 l cp
eoclip
n 7695 4590 m 7696 4588 l 7697 4582 l 7700 4573 l 7703 4560 l 7707 4544 l
 7712 4524 l 7716 4503 l 7720 4480 l 7723 4455 l 7724 4429 l
 7724 4402 l 7721 4373 l 7716 4342 l 7707 4309 l 7695 4275 l
 7679 4242 l 7662 4213 l 7644 4187 l 7625 4165 l 7606 4145 l
 7586 4128 l 7567 4112 l 7547 4098 l 7529 4085 l 7512 4074 l
 7497 4065 l
 7470 4050 l gs col0 s gr gr

% arrowhead
0 slj
n 7603 4090 m 7484 4058 l 7574 4142 l 7603 4090 l  cp gs 0.00 setgray ef gr  col0 s
/Times-Roman ff 254.00 scf sf
10800 4860 m
gs 1 -1 sc (R) col0 sh gr
/Times-Roman ff 254.00 scf sf
6660 4905 m
gs 1 -1 sc (R) col0 sh gr
/Times-Roman ff 254.00 scf sf
7245 4095 m
gs 1 -1 sc (r) col0 sh gr
/Times-Roman ff 254.00 scf sf
9315 2790 m
gs 1 -1 sc (e) col0 sh gr
/Times-Roman ff 254.00 scf sf
7245 2520 m
gs 1 -1 sc (e) col0 sh gr
/Times-Roman ff 158.75 scf sf
9450 2835 m
gs 1 -1 sc (r) col0 sh gr
/Symbol ff 158.75 scf sf
7380 2610 m
gs 1 -1 sc (q) col0 sh gr
/Times-Roman ff 158.75 scf sf
6840 4995 m
gs 1 -1 sc (ref) col0 sh gr
/Symbol ff 254.00 scf sf
7830 4365 m
gs 1 -1 sc (q) col0 sh gr
/Times-Roman ff 254.00 scf sf
9135 3960 m
gs 1 -1 sc (e) col0 sh gr
/Symbol ff 158.75 scf sf
9270 4050 m
gs 1 -1 sc (j) col0 sh gr
/Times-Roman ff 254.00 scf sf
1845 2205 m
gs 1 -1 sc (Z) col0 sh gr
% here ends figure;
$F2psEnd
rs
showpage
%%Trailer
%EOF
