%!PS-Adobe-3.0 EPSF-3.0
%%Creator: MATLAB, The Mathworks, Inc. Version 7.5.0.338 (R2007b). Operating System: Linux 2.6.25.18-0.2-default #1 SMP 2008-10-21 16:30:26 +0200 x86_64.
%%Title: /storage/space1/phsgbo/GKWtest/svn/gkw/doc/enscatter.eps
%%CreationDate: 11/21/2008  18:03:25
%%DocumentNeededFonts: Helvetica
%%DocumentProcessColors: Cyan Magenta Yellow Black
%%LanguageLevel: 2
%%Pages: 1
%%BoundingBox:     0   261   592   579
%%EndComments

%%BeginProlog
% MathWorks dictionary
/MathWorks 160 dict begin
% definition operators
/bdef {bind def} bind def
/ldef {load def} bind def
/xdef {exch def} bdef
/xstore {exch store} bdef
% operator abbreviations
/c  /clip ldef
/cc /concat ldef
/cp /closepath ldef
/gr /grestore ldef
/gs /gsave ldef
/mt /moveto ldef
/np /newpath ldef
/cm /currentmatrix ldef
/sm /setmatrix ldef
/rm /rmoveto ldef
/rl /rlineto ldef
/s {show newpath} bdef
/sc {setcmykcolor} bdef
/sr /setrgbcolor ldef
/sg /setgray ldef
/w /setlinewidth ldef
/j /setlinejoin ldef
/cap /setlinecap ldef
/rc {rectclip} bdef
/rf {rectfill} bdef
% page state control
/pgsv () def
/bpage {/pgsv save def} bdef
/epage {pgsv restore} bdef
/bplot /gsave ldef
/eplot {stroke grestore} bdef
% orientation switch
/portraitMode 0 def /landscapeMode 1 def /rotateMode 2 def
% coordinate system mappings
/dpi2point 0 def
% font control
/FontSize 0 def
/FMS {/FontSize xstore findfont [FontSize 0 0 FontSize neg 0 0]
  makefont setfont} bdef
/reencode {exch dup where {pop load} {pop StandardEncoding} ifelse
  exch dup 3 1 roll findfont dup length dict begin
  { 1 index /FID ne {def}{pop pop} ifelse } forall
  /Encoding exch def currentdict end definefont pop} bdef
/isroman {findfont /CharStrings get /Agrave known} bdef
/FMSR {3 1 roll 1 index dup isroman {reencode} {pop pop} ifelse
  exch FMS} bdef
/csm {1 dpi2point div -1 dpi2point div scale neg translate
 dup landscapeMode eq {pop -90 rotate}
  {rotateMode eq {90 rotate} if} ifelse} bdef
% line types: solid, dotted, dashed, dotdash
/SO { [] 0 setdash } bdef
/DO { [.5 dpi2point mul 4 dpi2point mul] 0 setdash } bdef
/DA { [6 dpi2point mul] 0 setdash } bdef
/DD { [.5 dpi2point mul 4 dpi2point mul 6 dpi2point mul 4
  dpi2point mul] 0 setdash } bdef
% macros for lines and objects
/L {lineto stroke} bdef
/MP {3 1 roll moveto 1 sub {rlineto} repeat} bdef
/AP {{rlineto} repeat} bdef
/PDlw -1 def
/W {/PDlw currentlinewidth def setlinewidth} def
/PP {closepath eofill} bdef
/DP {closepath stroke} bdef
/MR {4 -2 roll moveto dup  0 exch rlineto exch 0 rlineto
  neg 0 exch rlineto closepath} bdef
/FR {MR stroke} bdef
/PR {MR fill} bdef
/L1i {{currentfile picstr readhexstring pop} image} bdef
/tMatrix matrix def
/MakeOval {newpath tMatrix currentmatrix pop translate scale
0 0 1 0 360 arc tMatrix setmatrix} bdef
/FO {MakeOval stroke} bdef
/PO {MakeOval fill} bdef
/PD {currentlinewidth 2 div 0 360 arc fill
   PDlw -1 eq not {PDlw w /PDlw -1 def} if} def
/FA {newpath tMatrix currentmatrix pop translate scale
  0 0 1 5 -2 roll arc tMatrix setmatrix stroke} bdef
/PA {newpath tMatrix currentmatrix pop	translate 0 0 moveto scale
  0 0 1 5 -2 roll arc closepath tMatrix setmatrix fill} bdef
/FAn {newpath tMatrix currentmatrix pop translate scale
  0 0 1 5 -2 roll arcn tMatrix setmatrix stroke} bdef
/PAn {newpath tMatrix currentmatrix pop translate 0 0 moveto scale
  0 0 1 5 -2 roll arcn closepath tMatrix setmatrix fill} bdef
/vradius 0 def /hradius 0 def /lry 0 def
/lrx 0 def /uly 0 def /ulx 0 def /rad 0 def
/MRR {/vradius xdef /hradius xdef /lry xdef /lrx xdef /uly xdef
  /ulx xdef newpath tMatrix currentmatrix pop ulx hradius add uly
  vradius add translate hradius vradius scale 0 0 1 180 270 arc 
  tMatrix setmatrix lrx hradius sub uly vradius add translate
  hradius vradius scale 0 0 1 270 360 arc tMatrix setmatrix
  lrx hradius sub lry vradius sub translate hradius vradius scale
  0 0 1 0 90 arc tMatrix setmatrix ulx hradius add lry vradius sub
  translate hradius vradius scale 0 0 1 90 180 arc tMatrix setmatrix
  closepath} bdef
/FRR {MRR stroke } bdef
/PRR {MRR fill } bdef
/MlrRR {/lry xdef /lrx xdef /uly xdef /ulx xdef /rad lry uly sub 2 div def
  newpath tMatrix currentmatrix pop ulx rad add uly rad add translate
  rad rad scale 0 0 1 90 270 arc tMatrix setmatrix lrx rad sub lry rad
  sub translate rad rad scale 0 0 1 270 90 arc tMatrix setmatrix
  closepath} bdef
/FlrRR {MlrRR stroke } bdef
/PlrRR {MlrRR fill } bdef
/MtbRR {/lry xdef /lrx xdef /uly xdef /ulx xdef /rad lrx ulx sub 2 div def
  newpath tMatrix currentmatrix pop ulx rad add uly rad add translate
  rad rad scale 0 0 1 180 360 arc tMatrix setmatrix lrx rad sub lry rad
  sub translate rad rad scale 0 0 1 0 180 arc tMatrix setmatrix
  closepath} bdef
/FtbRR {MtbRR stroke } bdef
/PtbRR {MtbRR fill } bdef
/stri 6 array def /dtri 6 array def
/smat 6 array def /dmat 6 array def
/tmat1 6 array def /tmat2 6 array def /dif 3 array def
/asub {/ind2 exch def /ind1 exch def dup dup
  ind1 get exch ind2 get sub exch } bdef
/tri_to_matrix {
  2 0 asub 3 1 asub 4 0 asub 5 1 asub
  dup 0 get exch 1 get 7 -1 roll astore } bdef
/compute_transform {
  dmat dtri tri_to_matrix tmat1 invertmatrix 
  smat stri tri_to_matrix tmat2 concatmatrix } bdef
/ds {stri astore pop} bdef
/dt {dtri astore pop} bdef
/db {2 copy /cols xdef /rows xdef mul dup 3 mul string
  currentfile 
  3 index 0 eq {/ASCIIHexDecode filter}
  {/ASCII85Decode filter 3 index 2 eq {/RunLengthDecode filter} if }
  ifelse exch readstring pop
  dup 0 3 index getinterval /rbmap xdef
  dup 2 index dup getinterval /gbmap xdef
  1 index dup 2 mul exch getinterval /bbmap xdef pop pop}bdef
/it {gs np dtri aload pop moveto lineto lineto cp c
  cols rows 8 compute_transform 
  rbmap gbmap bbmap true 3 colorimage gr}bdef
/il {newpath moveto lineto stroke}bdef
currentdict end def
%%EndProlog

%%BeginSetup
MathWorks begin

0 cap

end
%%EndSetup

%%Page: 1 1
%%BeginPageSetup
%%PageBoundingBox:     0   261   592   579
MathWorks begin
bpage
%%EndPageSetup

%%BeginObject: obj1
bplot

/dpi2point 12 def
portraitMode 0000 6948 csm

    0     0  7109  3806 rc
85 dict begin %Colortable dictionary
/c0 { 0.000000 0.000000 0.000000 sr} bdef
/c1 { 1.000000 1.000000 1.000000 sr} bdef
/c2 { 0.900000 0.000000 0.000000 sr} bdef
/c3 { 0.000000 0.820000 0.000000 sr} bdef
/c4 { 0.000000 0.000000 0.800000 sr} bdef
/c5 { 0.910000 0.820000 0.320000 sr} bdef
/c6 { 1.000000 0.260000 0.820000 sr} bdef
/c7 { 0.000000 0.820000 0.820000 sr} bdef
c0
1 j
1 sg
   0    0 7110 3807 rf
6 w
0 1299 2379 0 0 -1299 924 1584 4 MP
PP
-2379 0 0 1299 2379 0 0 -1299 924 1584 5 MP stroke
gs 924 285 2380 1300 rc
/c8 { 0.000000 0.000000 0.562500 sr} bdef
c8
25 0 24 0 24 0 24 0 24 0 24 0 24 0 24 0 
24 0 24 0 24 0 24 0 24 0 24 0 24 0 24 0 
24 0 24 0 24 0 24 0 24 0 24 0 24 0 24 0 
24 0 24 0 24 0 24 0 24 0 24 0 24 0 24 0 
24 0 25 0 24 0 24 0 24 0 24 0 24 0 24 0 
24 0 24 0 24 0 24 0 24 0 24 0 24 0 24 0 
24 0 24 0 24 0 24 0 24 0 24 0 24 0 24 0 
24 0 24 0 24 0 24 0 24 0 24 0 24 0 24 0 
24 0 24 0 25 0 24 0 24 0 24 0 24 0 24 0 
24 0 24 0 24 0 24 0 24 0 24 0 24 0 24 0 
24 0 24 0 24 0 24 0 24 0 24 0 24 0 24 0 
24 0 24 0 24 0 24 0 24 0 24 0 24 0 24 0 
24 0 24 0 24 0 924 285 100 MP
-24 0 -24 0 -24 0 -24 0 -24 0 -24 0 -24 0 -24 0 
-24 0 -24 0 -24 0 -24 0 -24 0 -24 0 -24 0 -25 0 
-24 0 -24 0 -24 0 -24 0 -24 0 -24 0 -24 0 -24 0 
-24 0 -24 0 -24 0 -24 0 -24 0 -24 0 -24 0 -24 0 
-24 0 -24 0 -24 0 -24 0 -24 0 -24 0 -24 0 -24 0 
-24 0 -24 0 -24 0 -24 0 -24 0 -24 0 -24 0 -24 0 
-25 0 0 0 0 27 0 27 0 26 0 27 0 26 0 27 
0 26 0 27 0 26 0 27 0 26 0 27 0 26 0 27 
0 26 0 27 0 26 0 27 0 26 0 27 0 26 0 27 
0 26 0 27 0 26 0 27 0 26 0 27 0 26 0 27 
0 26 0 27 0 26 0 27 0 26 0 27 0 26 0 27 
0 26 0 27 0 26 0 27 0 26 0 27 0 26 0 27 
0 26 0 27 0 26 0 0 100 AP
0 -26 0 -27 0 -26 0 -27 0 -26 0 -27 0 -26 0 -27 
0 -26 0 -27 0 -26 0 -27 0 -26 0 -27 0 -26 0 -27 
0 -26 0 -27 0 -26 0 -27 0 -26 0 -27 0 -26 0 -27 
0 -26 0 -27 0 -26 0 -27 0 -26 0 -27 0 -26 0 -27 
0 -26 0 -27 0 -26 0 -27 0 -26 0 -27 0 -26 0 -27 
0 -26 0 -27 0 -26 0 -27 0 -26 0 -27 0 -26 0 -27 
0 -27 0 0 -24 0 -24 0 -24 0 -24 0 -24 0 -24 0 
-24 0 -24 0 -24 0 -24 0 -24 0 -24 0 -24 0 -24 0 
-24 0 -24 0 -24 0 -24 0 -24 0 -24 0 -24 0 -24 0 
-24 0 -24 0 -24 0 -24 0 -24 0 -24 0 -24 0 -24 0 
-24 0 -24 0 -25 0 -24 0 -24 0 -24 0 -24 0 -24 0 
-24 0 -24 0 -24 0 -24 0 -24 0 -24 0 -24 0 -24 0 
-24 0 -24 0 -24 0 -24 0 100 AP
0 0 1 AP
PP
0 sg
0 0 0 0 0 -26 0 -27 0 -26 0 -27 0 -26 0 -27 
0 -26 0 -27 0 -26 0 -27 0 -26 0 -27 0 -26 0 -27 
0 -26 0 -27 0 -26 0 -27 0 -26 0 -27 0 -26 0 -27 
0 -26 0 -27 0 -26 0 -27 0 -26 0 -27 0 -26 0 -27 
0 -26 0 -27 0 -26 0 -27 0 -26 0 -27 0 -26 0 -27 
0 -26 0 -27 0 -26 0 -27 0 -26 0 -27 0 -26 0 -27 
0 -26 0 -27 0 -27 0 0 -24 0 -24 0 -24 0 -24 0 
-24 0 -24 0 -24 0 -24 0 -24 0 -24 0 -24 0 -24 0 
-24 0 -24 0 -24 0 -24 0 -24 0 -24 0 -24 0 -24 0 
-24 0 -24 0 -24 0 -24 0 -24 0 -24 0 -24 0 -24 0 
-24 0 -24 0 -24 0 -24 0 -25 0 -24 0 -24 0 -24 0 
-24 0 -24 0 -24 0 -24 0 -24 0 -24 0 -24 0 -24 0 
-24 0 -24 0 -24 0 -24 0 -24 0 -24 0 -24 0 -24 0 
-24 0 -24 0 -24 0 -24 0 -24 0 -24 0 -24 0 -24 0 
-24 0 -24 0 -24 0 -24 0 -24 0 -25 0 -24 0 -24 0 
-24 0 -24 0 -24 0 -24 0 -24 0 -24 0 -24 0 -24 0 
-24 0 -24 0 -24 0 -24 0 -24 0 -24 0 -24 0 -24 0 
-24 0 -24 0 -24 0 -24 0 -24 0 -24 0 -24 0 -24 0 
-24 0 -24 0 -24 0 -24 0 -24 0 -24 0 -25 0 0 0 
0 27 0 27 0 26 0 27 0 26 0 27 0 26 0 27 
0 26 0 27 0 26 0 27 0 26 0 27 0 26 0 27 
0 26 0 27 0 26 0 27 0 26 0 27 0 26 0 27 
0 26 0 27 0 26 0 27 0 26 0 27 0 26 0 27 
0 26 0 27 0 26 0 27 0 26 0 27 0 26 0 27 
0 26 0 27 0 26 0 27 0 26 0 27 0 26 0 27 
0 26 0 0 25 0 24 0 24 0 24 0 24 0 24 0 
24 0 24 0 24 0 24 0 24 0 24 0 24 0 24 0 
24 0 24 0 24 0 24 0 24 0 24 0 24 0 24 0 
24 0 24 0 24 0 24 0 24 0 24 0 24 0 24 0 
24 0 24 0 24 0 25 0 24 0 24 0 24 0 24 0 
24 0 24 0 24 0 24 0 24 0 24 0 24 0 24 0 
24 0 24 0 24 0 24 0 24 0 24 0 24 0 24 0 
24 0 24 0 24 0 24 0 24 0 24 0 24 0 24 0 
24 0 24 0 24 0 24 0 25 0 24 0 24 0 24 0 
24 0 24 0 24 0 24 0 24 0 24 0 24 0 24 0 
24 0 24 0 24 0 24 0 24 0 24 0 24 0 24 0 
24 0 24 0 24 0 24 0 24 0 24 0 24 0 24 0 
24 0 24 0 24 0 972 285 300 MP stroke
24 0 24 0 924 285 3 MP stroke
c8
-23 -2 -14 -24 -10 0 -24 -6 -2 -21 -22 -1 -24 -14 -1 -11 
-23 -5 -4 -22 -20 -1 -24 -10 -1 -15 -23 -4 -11 -23 -13 0 
-24 -9 -2 -17 -22 -4 -20 -23 -4 0 -25 -10 -1 -16 -23 -5 
-10 -22 -14 -1 -24 -15 -1 -10 -23 -9 -3 -18 -21 -5 -7 -21 
-17 -3 -14 -24 -10 -1 -18 -25 18 -12 24 11 12 1 12 23 
22 3 2 17 24 9 14 1 10 23 23 3 1 15 24 11 
19 1 6 22 24 4 0 0 24 25 22 2 2 18 24 8 
19 0 5 23 24 4 4 0 20 25 23 1 1 19 24 7 
21 1 3 23 24 3 10 0 14 25 23 2 1 19 24 7 
22 0 2 24 24 3 0 7 24 18 23 1 1 23 24 4 
19 0 5 25 24 1 0 21 24 6 22 0 2 25 24 1 
0 20 24 7 23 0 1 25 24 1 0 0 24 0 24 0 
24 0 24 0 24 0 924 285 100 MP
24 0 24 0 24 0 24 0 24 0 24 0 24 0 24 0 
24 0 24 0 24 0 24 0 24 0 24 0 24 0 24 0 
24 0 24 0 24 0 24 0 24 0 24 0 24 0 24 0 
24 0 24 0 24 0 25 0 24 0 24 0 24 0 24 0 
24 0 24 0 24 0 24 0 24 0 24 0 24 0 24 0 
24 0 24 0 24 0 24 0 24 0 24 0 24 0 24 0 
24 0 24 0 24 0 24 0 24 0 24 0 24 0 24 0 
24 0 24 0 24 0 24 0 25 0 24 0 24 0 24 0 
24 0 24 0 24 0 24 0 24 0 24 0 24 0 24 0 
24 0 24 0 24 0 24 0 24 0 24 0 24 0 24 0 
24 0 24 0 24 0 23 0 -23 0 -24 -8 0 -18 -24 -2 
-9 -25 -15 0 -24 -5 -1 -21 -23 -1 -24 -14 0 -12 -24 -3 
-2 -23 -22 -1 -24 -8 -1 -18 100 AP
-24 0 -24 0 -24 0 -24 0 -24 0 -24 0 -24 0 -24 0 
-24 0 -25 0 -24 0 -24 0 -24 0 -24 0 -24 0 -24 0 
-24 0 -24 0 -24 0 -24 0 -24 0 -24 0 -24 0 -24 0 
-24 0 -24 0 -24 0 -24 0 -24 0 -24 0 -24 0 -24 0 
-24 0 -24 0 -24 0 -24 0 -24 0 -24 0 -24 0 -24 0 
-24 0 -24 0 -25 0 0 0 0 27 0 27 0 26 0 27 
0 26 0 27 0 26 0 27 0 26 0 27 0 26 0 27 
0 26 0 27 0 26 0 27 0 26 0 27 0 26 0 27 
0 26 0 27 0 26 0 27 0 26 0 27 0 26 0 27 
0 26 0 27 0 26 0 27 0 26 0 27 0 26 0 27 
0 26 0 27 0 26 0 27 0 26 0 27 0 26 0 27 
0 26 0 27 0 26 0 27 0 26 0 0 25 0 24 0 
24 0 24 0 24 0 24 0 100 AP
-8 -27 -16 0 -24 -7 0 -19 -24 -4 0 -23 -24 -2 0 -24 
-24 -1 -1 -26 -23 0 -3 -26 -21 0 -9 -27 -15 0 -24 -12 
0 -14 -24 -6 0 -21 -24 -3 -1 -23 -23 -2 -1 -25 -23 -1 
-2 -25 -22 -1 -5 -26 -19 0 -13 -26 -11 0 -24 -13 0 -14 
-24 -7 -1 -19 -23 -5 -2 -22 -22 -3 -3 -23 -21 -2 -5 -25 
-19 -1 -10 -25 -14 -1 -24 -25 0 -1 -24 -13 -1 -13 -23 -9 
-2 -18 -22 -6 -3 -20 -21 -5 -4 -22 -20 -4 -6 -22 -18 -3 
-8 -24 -17 -2 -9 -24 -15 -2 -11 -25 -13 -2 -12 -24 -12 -2 
-13 -25 -11 -2 -13 -24 -11 -2 -12 -25 -12 -3 -10 -23 -14 -4 
-8 -23 -16 -6 -6 -20 -18 -9 -4 -18 -20 -14 -2 -12 -22 -23 
0 -4 -17 -26 -7 -2 -10 -25 -14 -6 -6 -20 -18 -13 -2 -14 
-22 -25 0 -1 -10 -27 -14 -3 -2 -24 -22 0 -24 0 -24 0 
-24 0 -24 0 -24 0 -24 0 100 AP
0 0 0 -26 0 -2 0 -25 -24 0 -1 -26 -23 0 7 AP
PP
0 sg
0 0 0 0 0 -26 0 -2 0 -25 -24 0 -1 -26 -23 0 
-8 -27 -16 0 -24 -7 0 -19 -24 -4 0 -23 -24 -2 0 -24 
-24 -1 -1 -26 -23 0 -3 -26 -21 0 -9 -27 -15 0 -24 -12 
0 -14 -24 -6 0 -21 -24 -3 -1 -23 -23 -2 -1 -25 -23 -1 
-2 -25 -22 -1 -5 -26 -19 0 -13 -26 -11 0 -24 -13 0 -14 
-24 -7 -1 -19 -23 -5 -2 -22 -22 -3 -3 -23 -21 -2 -5 -25 
-19 -1 -10 -25 -14 -1 -24 -25 0 -1 -24 -13 -1 -13 -23 -9 
-2 -18 -22 -6 -3 -20 -21 -5 -4 -22 -20 -4 -6 -22 -18 -3 
-8 -24 -17 -2 -9 -24 -15 -2 -11 -25 -13 -2 -12 -24 -12 -2 
-13 -25 -11 -2 -13 -24 -11 -2 -12 -25 -12 -3 -10 -23 -14 -4 
-8 -23 -16 -6 -6 -20 -18 -9 -4 -18 -20 -14 -2 -12 -22 -23 
0 -4 -17 -26 -7 -2 -10 -25 -14 -6 -6 -20 -18 -13 -2 -14 
-22 -25 0 -1 -10 -27 -14 -3 -2 -24 -22 0 -24 0 -24 0 
-24 0 -24 0 -24 0 -24 0 -24 0 -24 0 -24 0 -24 0 
-24 0 -24 0 -24 0 -24 0 -24 0 -25 0 -24 0 -24 0 
-24 0 -24 0 -24 0 -24 0 -24 0 -24 0 -24 0 -24 0 
-24 0 -24 0 -24 0 -24 0 -24 0 -24 0 -24 0 -24 0 
-24 0 -24 0 -24 0 -24 0 -24 0 -24 0 -24 0 -24 0 
-24 0 -24 0 -24 0 -24 0 -24 0 -24 0 -25 0 0 0 
0 27 0 27 0 26 0 27 0 26 0 27 0 26 0 27 
0 26 0 27 0 26 0 27 0 26 0 27 0 26 0 27 
0 26 0 27 0 26 0 27 0 26 0 27 0 26 0 27 
0 26 0 27 0 26 0 27 0 26 0 27 0 26 0 27 
0 26 0 27 0 26 0 27 0 26 0 27 0 26 0 27 
0 26 0 27 0 26 0 27 0 26 0 27 0 26 0 27 
0 26 0 0 25 0 24 0 24 0 24 0 24 0 24 0 
24 0 24 0 24 0 24 0 24 0 24 0 24 0 24 0 
24 0 24 0 24 0 24 0 24 0 24 0 24 0 24 0 
24 0 24 0 24 0 24 0 24 0 24 0 24 0 24 0 
24 0 24 0 24 0 25 0 24 0 24 0 24 0 24 0 
24 0 24 0 24 0 24 0 24 0 24 0 24 0 24 0 
24 0 24 0 24 0 24 0 24 0 24 0 24 0 24 0 
24 0 24 0 24 0 24 0 24 0 24 0 24 0 24 0 
24 0 24 0 24 0 24 0 25 0 24 0 24 0 24 0 
24 0 24 0 24 0 24 0 24 0 24 0 24 0 24 0 
24 0 24 0 24 0 24 0 24 0 24 0 24 0 24 0 
24 0 24 0 24 0 23 0 -23 0 -24 -8 0 -18 -24 -2 
-9 -25 -15 0 -24 -5 1260 343 300 MP stroke
-1 -21 -23 -1 -24 -14 0 -12 -24 -3 -2 -23 -22 -1 -24 -8 
-1 -18 -23 -2 -14 -24 -10 0 -24 -6 -2 -21 -22 -1 -24 -14 
-1 -11 -23 -5 -4 -22 -20 -1 -24 -10 -1 -15 -23 -4 -11 -23 
-13 0 -24 -9 -2 -17 -22 -4 -20 -23 -4 0 -25 -10 -1 -16 
-23 -5 -10 -22 -14 -1 -24 -15 -1 -10 -23 -9 -3 -18 -21 -5 
-7 -21 -17 -3 -14 -24 -10 -1 -18 -25 18 -12 24 11 12 1 
12 23 22 3 2 17 24 9 14 1 10 23 23 3 1 15 
24 11 19 1 6 22 24 4 0 0 24 25 22 2 2 18 
24 8 19 0 5 23 24 4 4 0 20 25 23 1 1 19 
24 7 21 1 3 23 24 3 10 0 14 25 23 2 1 19 
24 7 22 0 2 24 24 3 0 7 24 18 23 1 1 23 
24 4 19 0 5 25 24 1 0 21 24 6 22 0 2 25 
24 1 0 20 24 7 23 0 1 25 24 1 0 0 24 0 
24 0 24 0 24 0 24 0 924 285 109 MP stroke
/c9 { 0.000000 0.125000 1.000000 sr} bdef
c9
0 0 4 27 9 26 11 20 4 7 20 24 2 2 22 19 
18 8 6 3 24 6 24 1 24 -4 13 -6 11 -4 24 -15 
9 -8 15 -13 12 -13 12 -17 7 -10 15 -26 2 -5 12 -22 
10 -26 2 -12 6 -15 5 -26 2 -27 -2 -26 -9 -27 -2 -2 
-21 -24 -3 -3 -24 -13 -24 -6 -24 -3 -24 0 -24 2 -24 4 
-24 8 -21 11 -3 1 -24 15 -12 10 -12 11 -13 16 -11 17 
-5 9 -12 27 -6 26 -1 17 -1 10 1 26 2870 1080 55 MP
PP
0 sg
0 0 0 0 4 27 9 26 11 20 4 7 20 24 2 2 
22 19 18 8 6 3 24 6 24 1 24 -4 13 -6 11 -4 
24 -15 9 -8 15 -13 12 -13 12 -17 7 -10 15 -26 2 -5 
12 -22 10 -26 2 -12 6 -15 5 -26 2 -27 -2 -26 -9 -27 
-2 -2 -21 -24 -3 -3 -24 -13 -24 -6 -24 -3 -24 0 -24 2 
-24 4 -24 8 -21 11 -3 1 -24 15 -12 10 -12 11 -13 16 
-11 17 -5 9 -12 27 -6 26 -1 17 -1 10 1 26 2870 1080 56 MP stroke
/c10 { 0.000000 0.687500 1.000000 sr} bdef
c10
19 24 5 5 24 16 19 5 5 2 24 2 16 -4 8 -1 
24 -10 20 -15 4 -4 22 -23 2 -3 17 -23 7 -15 7 -12 
10 -26 7 -27 0 -7 3 -19 -1 -27 -2 -5 -6 -21 -18 -23 
-5 -4 -19 -11 -24 -7 -24 -2 -24 1 -24 5 -24 9 -9 5 
-15 8 -22 19 -2 1 -20 25 -4 6 -11 21 -8 26 -3 27 
2 26 6 27 12 26 2 3 2822 1024 45 MP
PP
0 sg
0 0 19 24 5 5 24 16 19 5 5 2 24 2 16 -4 
8 -1 24 -10 20 -15 4 -4 22 -23 2 -3 17 -23 7 -15 
7 -12 10 -26 7 -27 0 -7 3 -19 -1 -27 -2 -5 -6 -21 
-18 -23 -5 -4 -19 -11 -24 -7 -24 -2 -24 1 -24 5 -24 9 
-9 5 -15 8 -22 19 -2 1 -20 25 -4 6 -11 21 -8 26 
-3 27 2 26 6 27 12 26 2 3 2822 1024 46 MP stroke
c8
-2 -14 -4 -27 -1 -26 1 -27 1 -26 2 -27 1 -26 1 -27 
1 -6 12 -20 7 -27 3 -26 2 -17 7 -10 12 -26 4 -27 
1 -4 17 -22 5 -27 2 -6 17 -20 6 -27 1 -2 19 -24 
5 -17 11 -10 12 -26 1 -4 20 -23 4 -12 15 -14 9 -23 
6 -4 17 -26 1 -3 22 -24 2 -6 21 -20 3 -10 21 -17 
3 -12 22 12 1 27 1 25 5 1 11 27 3 26 -1 27 
-18 14 0 -14 -1 -27 -7 -26 -16 -1 0 1 -5 26 -19 11 
-3 16 -21 19 -2 7 -21 27 -1 0 -6 26 -18 18 -2 9 
-15 26 -7 6 -5 21 -19 24 -1 2 -5 27 -18 22 -1 4 
-5 27 -18 25 -1 1 -3 27 -9 26 -11 16 -2 11 -3 26 
-10 27 -9 14 -2 12 -3 27 -7 26 -12 21 -2 6 -4 26 
-11 27 -7 14 2413 774 91 MP
PP
0 sg
0 0 -2 -14 -4 -27 -1 -26 1 -27 1 -26 2 -27 1 -26 
1 -27 1 -6 12 -20 7 -27 3 -26 2 -17 7 -10 12 -26 
4 -27 1 -4 17 -22 5 -27 2 -6 17 -20 6 -27 1 -2 
19 -24 5 -17 11 -10 12 -26 1 -4 20 -23 4 -12 15 -14 
9 -23 6 -4 17 -26 1 -3 22 -24 2 -6 21 -20 3 -10 
21 -17 3 -12 22 12 1 27 1 25 5 1 11 27 3 26 
-1 27 -18 14 0 -14 -1 -27 -7 -26 -16 -1 0 1 -5 26 
-19 11 -3 16 -21 19 -2 7 -21 27 -1 0 -6 26 -18 18 
-2 9 -15 26 -7 6 -5 21 -19 24 -1 2 -5 27 -18 22 
-1 4 -5 27 -18 25 -1 1 -3 27 -9 26 -11 16 -2 11 
-3 26 -10 27 -9 14 -2 12 -3 27 -7 26 -12 21 -2 6 
-4 26 -11 27 -7 14 2413 774 92 MP stroke
/c11 { 0.250000 1.000000 0.750000 sr} bdef
c11
0 5 8 27 16 26 0 0 24 21 13 6 11 4 24 3 
24 -6 4 -1 20 -10 20 -17 4 -4 18 -22 6 -10 10 -17 
10 -26 4 -18 3 -9 1 -26 -4 -23 0 -4 -16 -26 -8 -7 
-24 -12 -24 -5 -24 0 -24 5 -24 10 -14 9 -10 6 -20 20 
-4 6 -13 21 -9 26 -2 15 -2 12 2 21 2822 1085 39 MP
PP
0 sg
0 0 0 5 8 27 16 26 0 0 24 21 13 6 11 4 
24 3 24 -6 4 -1 20 -10 20 -17 4 -4 18 -22 6 -10 
10 -17 10 -26 4 -18 3 -9 1 -26 -4 -23 0 -4 -16 -26 
-8 -7 -24 -12 -24 -5 -24 0 -24 5 -24 10 -14 9 -10 6 
-20 20 -4 6 -13 21 -9 26 -2 15 -2 12 2 21 2822 1085 40 MP stroke
c8
-1 -22 -2 -26 0 -27 1 -26 1 -27 1 -7 11 -19 8 -27 
3 -26 2 -27 0 0 18 -26 4 -27 2 -9 14 -17 7 -27 
3 -16 11 -10 10 -27 3 -14 13 -12 9 -27 2 -8 18 -18 
5 -27 1 -2 22 -24 2 -14 20 -13 4 -26 0 -3 22 3 
2 26 0 27 0 16 20 10 3 27 1 26 0 6 18 21 
3 26 3 27 0 2 15 24 5 27 4 26 1 0 11 27 
-12 15 -1 -15 -23 -11 -1 -16 -2 -26 -21 -13 0 -14 -1 -26 
-3 -27 -20 -4 0 -22 0 -27 -7 -26 -17 -1 0 1 -1 26 
-23 22 -1 5 -3 26 -20 18 -1 9 -6 26 -17 17 -1 10 
-5 26 -18 21 -1 6 -3 26 -17 27 -3 3 -2 23 -4 27 
-18 25 0 1 -3 27 -4 26 -17 25 -1 2 -7 26 -16 22 
2317 740 89 MP
PP
0 sg
0 0 -1 -22 -2 -26 0 -27 1 -26 1 -27 1 -7 11 -19 
8 -27 3 -26 2 -27 0 0 18 -26 4 -27 2 -9 14 -17 
7 -27 3 -16 11 -10 10 -27 3 -14 13 -12 9 -27 2 -8 
18 -18 5 -27 1 -2 22 -24 2 -14 20 -13 4 -26 0 -3 
22 3 2 26 0 27 0 16 20 10 3 27 1 26 0 6 
18 21 3 26 3 27 0 2 15 24 5 27 4 26 1 0 
11 27 -12 15 -1 -15 -23 -11 -1 -16 -2 -26 -21 -13 0 -14 
-1 -26 -3 -27 -20 -4 0 -22 0 -27 -7 -26 -17 -1 0 1 
-1 26 -23 22 -1 5 -3 26 -20 18 -1 9 -6 26 -17 17 
-1 10 -5 26 -18 21 -1 6 -3 26 -17 27 -3 3 -2 23 
-4 27 -18 25 0 1 -3 27 -4 26 -17 25 -1 2 -7 26 
-16 22 2317 740 90 MP stroke
/c12 { 0.812500 1.000000 0.187500 sr} bdef
c12
4 10 20 24 4 2 20 11 24 3 24 -5 16 -9 8 -5 
22 -21 2 -3 16 -24 8 -21 3 -5 6 -27 0 -26 -9 -25 
-1 -2 -23 -22 -12 -4 -12 -4 -24 -1 -21 5 -3 0 -24 11 
-20 15 -4 4 -18 23 -6 14 -5 12 -4 27 3 26 6 17 
2798 1063 33 MP
PP
0 sg
0 0 4 10 20 24 4 2 20 11 24 3 24 -5 16 -9 
8 -5 22 -21 2 -3 16 -24 8 -21 3 -5 6 -27 0 -26 
-9 -25 -1 -2 -23 -22 -12 -4 -12 -4 -24 -1 -21 5 -3 0 
-24 11 -20 15 -4 4 -18 23 -6 14 -5 12 -4 27 3 26 
6 17 2798 1063 34 MP stroke
/c13 { 1.000000 0.625000 0.000000 sr} bdef
c13
1 1 23 17 24 4 24 -5 24 -16 1 0 21 -27 2 -4 
10 -22 6 -27 -3 -26 -13 -22 -5 -5 -19 -10 -24 -3 -24 5 
-17 8 -7 4 -23 23 -1 1 -12 25 -5 27 4 26 13 26 
2774 1054 25 MP
PP
0 sg
0 0 1 1 23 17 24 4 24 -5 24 -16 1 0 21 -27 
2 -4 10 -22 6 -27 -3 -26 -13 -22 -5 -5 -19 -10 -24 -3 
-24 5 -17 8 -7 4 -23 23 -1 1 -12 25 -5 27 4 26 
13 26 2774 1054 26 MP stroke
c8
-13 -12 7 -26 3 -27 2 -26 1 -23 5 -4 16 -26 2 -27 
1 -5 21 -21 2 -27 1 -8 22 -18 2 -27 0 -7 23 7 
1 27 0 26 0 27 -2 26 -22 8 -1 19 -3 26 -20 16 
-1 11 -4 26 -19 19 -2 8 -10 26 -12 12 2197 803 31 MP
PP
0 sg
0 0 -13 -12 7 -26 3 -27 2 -26 1 -23 5 -4 16 -26 
2 -27 1 -5 21 -21 2 -27 1 -8 22 -18 2 -27 0 -7 
23 7 1 27 0 26 0 27 -2 26 -22 8 -1 19 -3 26 
-20 16 -1 11 -4 26 -19 19 -2 8 -10 26 -12 12 2197 803 32 MP stroke
/c14 { 1.000000 0.062500 0.000000 sr} bdef
c14
6 22 18 22 12 5 12 3 14 -3 10 -3 24 -20 4 -4 
13 -26 5 -27 -7 -26 -15 -14 -24 -7 -24 4 -24 14 -2 3 
-17 26 -5 22 -1 5 1 4 2774 1102 21 MP
PP
0 sg
0 0 6 22 18 22 12 5 12 3 14 -3 10 -3 24 -20 
4 -4 13 -26 5 -27 -7 -26 -15 -14 -24 -7 -24 4 -24 14 
-2 3 -17 26 -5 22 -1 5 1 4 2774 1102 22 MP stroke
/c15 { 0.500000 0.000000 0.000000 sr} bdef
c15
8 10 16 8 24 -6 2 -2 20 -26 2 -13 2 -14 -2 -4 
-23 -22 -1 0 0 0 -24 4 -24 22 0 0 -5 27 5 16 
2750 1090 17 MP
PP
0 sg
0 0 8 10 16 8 24 -6 2 -2 20 -26 2 -13 2 -14 
-2 -4 -23 -22 -1 0 0 0 -24 4 -24 22 0 0 -5 27 
5 16 2750 1090 18 MP stroke
c8
-9 -26 9 -4 22 4 -22 26 1909 842 5 MP
PP
0 sg
0 0 -9 -26 9 -4 22 4 -22 26 1909 842 6 MP stroke
c8
-1 -18 1 -1 8 1 -8 18 1933 876 5 MP
PP
0 sg
0 0 -1 -18 1 -1 8 1 -8 18 1933 876 6 MP stroke
gr

0 sg
4 w
DO
SO
6 w
 924 1584 mt 3303 1584 L
 924  285 mt 3303  285 L
 924 1584 mt  924  285 L
3303 1584 mt 3303  285 L
 924 1584 mt 3303 1584 L
 924 1584 mt  924  285 L
1312 1584 mt 1312 1560 L
1312  285 mt 1312  308 L
%%IncludeResource: font Helvetica
/Helvetica /ISOLatin1Encoding 120 FMSR

1209 1729 mt 
(-2) s
1712 1584 mt 1712 1560 L
1712  285 mt 1712  308 L
1609 1729 mt 
(-1) s
2113 1584 mt 2113 1560 L
2113  285 mt 2113  308 L
2080 1729 mt 
(0) s
2514 1584 mt 2514 1560 L
2514  285 mt 2514  308 L
2481 1729 mt 
(1) s
2914 1584 mt 2914 1560 L
2914  285 mt 2914  308 L
2881 1729 mt 
(2) s
 924 1357 mt  947 1357 L
3303 1357 mt 3279 1357 L
 723 1401 mt 
(0.5) s
 924 1117 mt  947 1117 L
3303 1117 mt 3279 1117 L
 823 1161 mt 
(1) s
 924  878 mt  947  878 L
3303  878 mt 3279  878 L
 723  922 mt 
(1.5) s
 924  638 mt  947  638 L
3303  638 mt 3279  638 L
 823  682 mt 
(2) s
 924  398 mt  947  398 L
3303  398 mt 3279  398 L
 723  442 mt 
(2.5) s
 924 1584 mt 3303 1584 L
 924  285 mt 3303  285 L
 924 1584 mt  924  285 L
3303 1584 mt 3303  285 L
1 sg
0 1298 2379 0 0 -1298 924 3387 4 MP
PP
-2379 0 0 1298 2379 0 0 -1298 924 3387 5 MP stroke
gs 924 2089 2380 1299 rc
c8
25 0 24 0 24 0 24 0 24 0 24 0 24 0 24 0 
24 0 24 0 24 0 24 0 24 0 24 0 24 0 24 0 
24 0 24 0 24 0 24 0 24 0 24 0 24 0 24 0 
24 0 24 0 24 0 24 0 24 0 24 0 24 0 24 0 
24 0 25 0 24 0 24 0 24 0 24 0 24 0 24 0 
24 0 24 0 24 0 24 0 24 0 24 0 24 0 24 0 
24 0 24 0 24 0 24 0 24 0 24 0 24 0 24 0 
24 0 24 0 24 0 24 0 24 0 24 0 24 0 24 0 
24 0 24 0 25 0 24 0 24 0 24 0 24 0 24 0 
24 0 24 0 24 0 24 0 24 0 24 0 24 0 24 0 
24 0 24 0 24 0 24 0 24 0 24 0 24 0 24 0 
24 0 24 0 24 0 24 0 24 0 24 0 24 0 24 0 
24 0 24 0 24 0 924 2088 100 MP
-24 0 -24 0 -24 0 -24 0 -24 0 -24 0 -24 0 -24 0 
-24 0 -24 0 -24 0 -24 0 -24 0 -24 0 -24 0 -25 0 
-24 0 -24 0 -24 0 -24 0 -24 0 -24 0 -24 0 -24 0 
-24 0 -24 0 -24 0 -24 0 -24 0 -24 0 -24 0 -24 0 
-24 0 -24 0 -24 0 -24 0 -24 0 -24 0 -24 0 -24 0 
-24 0 -24 0 -24 0 -24 0 -24 0 -24 0 -24 0 -24 0 
-25 0 0 0 0 27 0 26 0 27 0 26 0 27 0 26 
0 27 0 26 0 27 0 26 0 27 0 26 0 27 0 26 
0 27 0 26 0 27 0 26 0 27 0 26 0 27 0 26 
0 27 0 26 0 27 0 26 0 27 0 26 0 27 0 26 
0 27 0 26 0 27 0 26 0 27 0 26 0 27 0 26 
0 27 0 26 0 27 0 26 0 27 0 26 0 27 0 26 
0 27 0 26 0 26 0 1 100 AP
0 -26 0 -26 0 -27 0 -26 0 -27 0 -26 0 -27 0 -26 
0 -27 0 -26 0 -27 0 -26 0 -27 0 -26 0 -27 0 -26 
0 -27 0 -26 0 -27 0 -26 0 -27 0 -26 0 -27 0 -26 
0 -27 0 -26 0 -27 0 -26 0 -27 0 -26 0 -27 0 -26 
0 -27 0 -26 0 -27 0 -26 0 -27 0 -26 0 -27 0 -26 
0 -27 0 -26 0 -27 0 -26 0 -27 0 -26 0 -27 0 -26 
0 -27 -1 0 -24 0 -24 0 -24 0 -24 0 -24 0 -24 0 
-24 0 -24 0 -24 0 -24 0 -24 0 -24 0 -24 0 -24 0 
-24 0 -24 0 -24 0 -24 0 -24 0 -24 0 -24 0 -24 0 
-24 0 -24 0 -24 0 -24 0 -24 0 -24 0 -24 0 -24 0 
-24 0 -24 0 -25 0 -24 0 -24 0 -24 0 -24 0 -24 0 
-24 0 -24 0 -24 0 -24 0 -24 0 -24 0 -24 0 -24 0 
-24 0 -24 0 -24 0 -24 0 100 AP
1 -1 1 AP
PP
0 sg
0 0 1 -1 0 -26 0 -26 0 -27 0 -26 0 -27 0 -26 
0 -27 0 -26 0 -27 0 -26 0 -27 0 -26 0 -27 0 -26 
0 -27 0 -26 0 -27 0 -26 0 -27 0 -26 0 -27 0 -26 
0 -27 0 -26 0 -27 0 -26 0 -27 0 -26 0 -27 0 -26 
0 -27 0 -26 0 -27 0 -26 0 -27 0 -26 0 -27 0 -26 
0 -27 0 -26 0 -27 0 -26 0 -27 0 -26 0 -27 0 -26 
0 -27 0 -26 0 -27 -1 0 -24 0 -24 0 -24 0 -24 0 
-24 0 -24 0 -24 0 -24 0 -24 0 -24 0 -24 0 -24 0 
-24 0 -24 0 -24 0 -24 0 -24 0 -24 0 -24 0 -24 0 
-24 0 -24 0 -24 0 -24 0 -24 0 -24 0 -24 0 -24 0 
-24 0 -24 0 -24 0 -24 0 -25 0 -24 0 -24 0 -24 0 
-24 0 -24 0 -24 0 -24 0 -24 0 -24 0 -24 0 -24 0 
-24 0 -24 0 -24 0 -24 0 -24 0 -24 0 -24 0 -24 0 
-24 0 -24 0 -24 0 -24 0 -24 0 -24 0 -24 0 -24 0 
-24 0 -24 0 -24 0 -24 0 -24 0 -25 0 -24 0 -24 0 
-24 0 -24 0 -24 0 -24 0 -24 0 -24 0 -24 0 -24 0 
-24 0 -24 0 -24 0 -24 0 -24 0 -24 0 -24 0 -24 0 
-24 0 -24 0 -24 0 -24 0 -24 0 -24 0 -24 0 -24 0 
-24 0 -24 0 -24 0 -24 0 -24 0 -24 0 -25 0 0 0 
0 27 0 26 0 27 0 26 0 27 0 26 0 27 0 26 
0 27 0 26 0 27 0 26 0 27 0 26 0 27 0 26 
0 27 0 26 0 27 0 26 0 27 0 26 0 27 0 26 
0 27 0 26 0 27 0 26 0 27 0 26 0 27 0 26 
0 27 0 26 0 27 0 26 0 27 0 26 0 27 0 26 
0 27 0 26 0 27 0 26 0 27 0 26 0 27 0 26 
0 26 0 1 25 0 24 0 24 0 24 0 24 0 24 0 
24 0 24 0 24 0 24 0 24 0 24 0 24 0 24 0 
24 0 24 0 24 0 24 0 24 0 24 0 24 0 24 0 
24 0 24 0 24 0 24 0 24 0 24 0 24 0 24 0 
24 0 24 0 24 0 25 0 24 0 24 0 24 0 24 0 
24 0 24 0 24 0 24 0 24 0 24 0 24 0 24 0 
24 0 24 0 24 0 24 0 24 0 24 0 24 0 24 0 
24 0 24 0 24 0 24 0 24 0 24 0 24 0 24 0 
24 0 24 0 24 0 24 0 25 0 24 0 24 0 24 0 
24 0 24 0 24 0 24 0 24 0 24 0 24 0 24 0 
24 0 24 0 24 0 24 0 24 0 24 0 24 0 24 0 
24 0 24 0 24 0 24 0 24 0 24 0 24 0 24 0 
24 0 24 0 24 0 972 2088 300 MP stroke
24 0 24 0 924 2088 3 MP stroke
/c16 { 0.000000 0.000000 0.687500 sr} bdef
c16
-24 0 -24 0 -24 0 -24 0 -24 0 -24 0 -24 0 -24 0 
-24 0 -24 0 -24 0 -24 0 -24 0 -24 0 -25 0 -24 0 
-24 0 -24 0 -24 0 -24 0 -24 0 -24 0 -24 0 -24 0 
-24 0 -24 0 -24 0 -24 0 -24 0 -24 0 -24 0 -24 0 
-24 0 -24 0 -24 0 -24 0 -24 0 -24 0 -24 0 -24 0 
-24 0 -24 0 -24 0 -24 0 -24 0 -24 0 -24 0 -25 0 
0 0 0 27 0 26 0 27 0 26 0 27 0 26 0 27 
0 26 0 27 0 26 0 27 0 26 0 27 0 26 0 27 
0 26 0 27 0 26 0 27 0 26 0 27 0 26 0 27 
0 26 0 27 0 26 0 27 0 26 0 27 0 26 0 27 
0 26 0 27 0 26 0 27 0 26 0 27 0 26 0 27 
0 26 0 27 0 26 0 27 0 26 0 27 0 26 0 27 
0 26 0 26 0 1 3303 2088 100 MP
24 0 24 0 24 0 24 0 24 0 24 0 24 0 24 0 
24 0 24 0 24 0 24 0 24 0 24 0 24 0 25 0 
24 0 24 0 24 0 24 0 24 0 24 0 24 0 4 0 
-4 -5 -14 -21 -10 -14 -7 -12 -16 -27 -1 -2 -13 -24 -11 -21 
-3 -6 -12 -26 -9 -18 -4 -9 -12 -26 -8 -18 -4 -9 -12 -26 
-8 -18 -4 -9 -11 -26 -9 -20 -3 -7 -12 -26 -10 -22 -2 -5 
-11 -26 -11 -23 -1 -4 -11 -26 -12 -26 0 -1 -11 -26 -12 -27 
-1 -1 -10 -25 -12 -27 -2 -3 -9 -23 -12 -27 -3 -5 -8 -21 
-12 -27 -4 -7 -7 -19 -12 -27 -5 -10 -6 -16 -12 -27 -6 -12 
-5 -14 -11 -27 -8 -15 -4 -11 -11 -27 -9 -18 -3 -8 -11 -27 
-10 -21 -2 -5 -11 -27 -11 -24 -1 -2 -10 -27 -13 -26 0 0 
-10 -27 -12 -26 -2 -3 -8 -24 -13 -26 -3 -4 -6 -23 -14 -26 
-4 -2 -3 -25 -21 0 -24 0 100 AP
25 -1 24 0 24 0 24 0 24 0 24 0 24 0 24 0 
24 0 24 0 24 0 24 0 24 0 24 0 0 0 24 -18 
9 -8 15 -10 23 -16 1 -1 24 -12 24 -12 5 -2 19 -4 
24 -2 24 5 1 1 23 26 1 1 5 26 -6 24 0 2 
0 0 24 0 24 0 24 0 24 0 24 0 24 0 24 0 
24 0 24 0 24 0 25 0 24 0 24 0 24 0 24 0 
24 0 24 0 24 0 24 0 24 0 24 0 24 0 24 0 
24 0 24 0 24 0 24 0 24 0 61 AP
PP
0 sg
0 0 25 -1 24 0 24 0 24 0 24 0 24 0 24 0 
24 0 24 0 24 0 24 0 24 0 24 0 24 0 0 0 
24 -18 9 -8 15 -10 23 -16 1 -1 24 -12 24 -12 5 -2 
19 -4 24 -2 24 5 1 1 23 26 1 1 5 26 -6 24 
0 2 0 0 24 0 24 0 24 0 24 0 24 0 24 0 
24 0 24 0 24 0 24 0 25 0 24 0 24 0 24 0 
24 0 24 0 24 0 24 0 24 0 24 0 24 0 24 0 
24 0 24 0 24 0 24 0 24 0 24 0 24 0 24 0 
24 0 24 0 24 0 24 0 24 0 24 0 24 0 24 0 
24 0 24 0 24 0 24 0 24 0 25 0 24 0 24 0 
24 0 24 0 24 0 24 0 24 0 4 0 -4 -5 -14 -21 
-10 -14 -7 -12 -16 -27 -1 -2 -13 -24 -11 -21 -3 -6 -12 -26 
-9 -18 -4 -9 -12 -26 -8 -18 -4 -9 -12 -26 -8 -18 -4 -9 
-11 -26 -9 -20 -3 -7 -12 -26 -10 -22 -2 -5 -11 -26 -11 -23 
-1 -4 -11 -26 -12 -26 0 -1 -11 -26 -12 -27 -1 -1 -10 -25 
-12 -27 -2 -3 -9 -23 -12 -27 -3 -5 -8 -21 -12 -27 -4 -7 
-7 -19 -12 -27 -5 -10 -6 -16 -12 -27 -6 -12 -5 -14 -11 -27 
-8 -15 -4 -11 -11 -27 -9 -18 -3 -8 -11 -27 -10 -21 -2 -5 
-11 -27 -11 -24 -1 -2 -10 -27 -13 -26 0 0 -10 -27 -12 -26 
-2 -3 -8 -24 -13 -26 -3 -4 -6 -23 -14 -26 -4 -2 -3 -25 
-21 0 -24 0 -24 0 -24 0 -24 0 -24 0 -24 0 -24 0 
-24 0 -24 0 -24 0 -24 0 -24 0 -24 0 -24 0 -24 0 
-25 0 -24 0 -24 0 -24 0 -24 0 -24 0 -24 0 -24 0 
-24 0 -24 0 -24 0 -24 0 -24 0 -24 0 -24 0 -24 0 
-24 0 -24 0 -24 0 -24 0 -24 0 -24 0 -24 0 -24 0 
-24 0 -24 0 -24 0 -24 0 -24 0 -24 0 -24 0 -24 0 
-24 0 -25 0 0 0 0 27 0 26 0 27 0 26 0 27 
0 26 0 27 0 26 0 27 0 26 0 27 0 26 0 27 
0 26 0 27 0 26 0 27 0 26 0 27 0 26 0 27 
0 26 0 27 0 26 0 27 0 26 0 27 0 26 0 27 
0 26 0 27 0 26 0 27 0 26 0 27 0 26 0 27 
0 26 0 27 0 26 0 27 0 26 0 27 0 26 0 27 
0 26 0 27 0 26 0 26 0 1 3303 2088 262 MP stroke
/c17 { 0.000000 0.062500 1.000000 sr} bdef
c17
13 -24 11 -26 0 -1 14 -26 9 -27 1 -3 10 -23 4 -27 
-14 0 -24 0 -24 0 -24 0 -24 0 -24 0 -24 0 -24 0 
-24 0 -24 0 -24 0 -24 0 -24 0 -24 0 -24 0 -24 0 
-25 0 -24 0 -24 0 -24 0 -24 0 -11 0 -11 27 -2 2 
-24 23 -1 1 -23 17 -11 10 -13 8 -24 18 0 0 -24 16 
-14 11 -10 6 -24 18 -2 2 -22 15 -14 12 -10 7 -24 19 
0 0 -24 18 -10 9 -14 10 -19 16 -5 4 -24 20 -3 3 
-21 16 -11 10 -13 11 -18 16 -6 5 -24 21 0 0 -24 21 
-7 6 -17 15 -12 11 -12 11 -17 16 -7 7 -21 19 -3 4 
-24 23 0 0 -24 24 -3 2 -21 21 -7 6 -17 17 -11 9 
-14 13 0 14 0 26 0 27 0 26 0 27 0 26 0 27 
0 26 0 27 0 26 0 27 0 26 0 27 0 26 0 27 
0 26 0 27 0 4 3303 2349 100 MP
6 -4 19 -13 24 -6 24 1 24 6 24 6 24 5 0 1 
24 4 24 2 24 -1 24 -2 15 -3 9 -2 24 -6 24 -8 
24 -9 3 -2 21 -9 24 -12 9 -5 15 -8 24 -14 7 -5 
17 -10 23 -16 1 -1 24 -16 13 -10 11 -8 24 -18 0 0 
24 -19 10 -8 14 -11 18 -15 6 -5 24 -22 1 0 23 -21 
7 -5 17 -17 11 -10 13 -13 14 -13 10 -11 16 -16 8 -9 
17 -17 7 -9 17 -18 8 -9 15 -17 9 -11 13 -16 11 -13 
10 -13 14 -18 6 -9 18 -23 2 -3 19 -27 3 -3 16 -23 
8 -11 10 -16 14 -20 4 -6 17 -27 3 -4 14 -22 10 -17 
6 -10 16 -26 2 -4 14 -23 10 -18 4 -8 15 -27 5 -9 
10 -17 13 -27 1 -2 83 AP
PP
0 sg
0 0 6 -4 19 -13 24 -6 24 1 24 6 24 6 24 5 
0 1 24 4 24 2 24 -1 24 -2 15 -3 9 -2 24 -6 
24 -8 24 -9 3 -2 21 -9 24 -12 9 -5 15 -8 24 -14 
7 -5 17 -10 23 -16 1 -1 24 -16 13 -10 11 -8 24 -18 
0 0 24 -19 10 -8 14 -11 18 -15 6 -5 24 -22 1 0 
23 -21 7 -5 17 -17 11 -10 13 -13 14 -13 10 -11 16 -16 
8 -9 17 -17 7 -9 17 -18 8 -9 15 -17 9 -11 13 -16 
11 -13 10 -13 14 -18 6 -9 18 -23 2 -3 19 -27 3 -3 
16 -23 8 -11 10 -16 14 -20 4 -6 17 -27 3 -4 14 -22 
10 -17 6 -10 16 -26 2 -4 14 -23 10 -18 4 -8 15 -27 
5 -9 10 -17 13 -27 1 -2 13 -24 11 -26 0 -1 14 -26 
9 -27 1 -3 10 -23 4 -27 -14 0 -24 0 -24 0 -24 0 
-24 0 -24 0 -24 0 -24 0 -24 0 -24 0 -24 0 -24 0 
-24 0 -24 0 -24 0 -24 0 -25 0 -24 0 -24 0 -24 0 
-24 0 -11 0 -11 27 -2 2 -24 23 -1 1 -23 17 -11 10 
-13 8 -24 18 0 0 -24 16 -14 11 -10 6 -24 18 -2 2 
-22 15 -14 12 -10 7 -24 19 0 0 -24 18 -10 9 -14 10 
-19 16 -5 4 -24 20 -3 3 -21 16 -11 10 -13 11 -18 16 
-6 5 -24 21 0 0 -24 21 -7 6 -17 15 -12 11 -12 11 
-17 16 -7 7 -21 19 -3 4 -24 23 0 0 -24 24 -3 2 
-21 21 -7 6 -17 17 -11 9 -14 13 0 14 0 26 0 27 
0 26 0 27 0 26 0 27 0 26 0 27 0 26 0 27 
0 26 0 27 0 26 0 27 0 26 0 27 0 4 3303 2349 184 MP stroke
/c18 { 0.000000 0.437500 1.000000 sr} bdef
c18
13 -20 4 -6 16 -27 4 -5 13 -21 11 -19 4 -8 15 -26 
5 -10 9 -17 11 -26 4 -7 7 -20 -7 0 -24 0 -24 0 
-24 0 -24 0 -24 0 -24 0 -24 0 -24 0 -21 0 -3 2 
-24 11 -23 14 -1 0 -24 9 -24 11 -12 6 -12 5 -24 11 
-22 11 -3 1 -24 10 -24 12 -5 3 -19 9 -24 12 -10 6 
-14 6 -24 13 -12 7 -12 6 -24 14 -11 7 -13 7 -24 15 
-7 4 -17 10 -24 16 -1 1 -23 14 -18 12 -6 4 -24 17 
-8 6 -16 11 -21 15 -3 3 -24 17 -8 7 -16 12 -18 14 
-6 5 -24 20 -3 2 -21 18 -10 8 -14 13 -16 14 -8 7 
-20 19 -4 4 -23 23 -1 1 -24 25 0 0 -24 27 0 0 
-23 26 -1 2 -20 25 -4 5 -17 21 -7 11 -13 16 -11 17 
-8 9 -17 22 0 5 0 26 0 27 0 26 0 27 0 26 
0 27 0 26 1 7 3302 2479 100 MP
21 -7 3 0 4 0 20 2 24 9 24 11 9 5 15 7 
24 10 24 8 7 1 17 4 24 2 24 0 24 -2 18 -4 
6 -1 24 -6 24 -8 24 -11 2 0 22 -10 24 -13 6 -4 
18 -10 24 -16 1 0 23 -15 16 -12 8 -5 24 -19 3 -2 
21 -16 13 -11 11 -9 20 -17 4 -4 24 -21 2 -2 22 -19 
7 -7 17 -16 11 -11 13 -13 14 -13 10 -11 16 -16 8 -9 
17 -17 7 -9 17 -18 7 -8 16 -18 9 -9 14 -18 10 -11 
13 -15 11 -13 10 -14 14 -16 7 -10 17 -21 4 -6 20 -26 
0 0 20 -27 4 -4 16 -22 8 -11 11 -16 13 -18 5 -8 
18 -27 1 -1 17 -25 7 -10 11 -17 77 AP
PP
0 sg
0 0 21 -7 3 0 4 0 20 2 24 9 24 11 9 5 
15 7 24 10 24 8 7 1 17 4 24 2 24 0 24 -2 
18 -4 6 -1 24 -6 24 -8 24 -11 2 0 22 -10 24 -13 
6 -4 18 -10 24 -16 1 0 23 -15 16 -12 8 -5 24 -19 
3 -2 21 -16 13 -11 11 -9 20 -17 4 -4 24 -21 2 -2 
22 -19 7 -7 17 -16 11 -11 13 -13 14 -13 10 -11 16 -16 
8 -9 17 -17 7 -9 17 -18 7 -8 16 -18 9 -9 14 -18 
10 -11 13 -15 11 -13 10 -14 14 -16 7 -10 17 -21 4 -6 
20 -26 0 0 20 -27 4 -4 16 -22 8 -11 11 -16 13 -18 
5 -8 18 -27 1 -1 17 -25 7 -10 11 -17 13 -20 4 -6 
16 -27 4 -5 13 -21 11 -19 4 -8 15 -26 5 -10 9 -17 
11 -26 4 -7 7 -20 -7 0 -24 0 -24 0 -24 0 -24 0 
-24 0 -24 0 -24 0 -24 0 -21 0 -3 2 -24 11 -23 14 
-1 0 -24 9 -24 11 -12 6 -12 5 -24 11 -22 11 -3 1 
-24 10 -24 12 -5 3 -19 9 -24 12 -10 6 -14 6 -24 13 
-12 7 -12 6 -24 14 -11 7 -13 7 -24 15 -7 4 -17 10 
-24 16 -1 1 -23 14 -18 12 -6 4 -24 17 -8 6 -16 11 
-21 15 -3 3 -24 17 -8 7 -16 12 -18 14 -6 5 -24 20 
-3 2 -21 18 -10 8 -14 13 -16 14 -8 7 -20 19 -4 4 
-23 23 -1 1 -24 25 0 0 -24 27 0 0 -23 26 -1 2 
-20 25 -4 5 -17 21 -7 11 -13 16 -11 17 -8 9 -17 22 
0 5 0 26 0 27 0 26 0 27 0 26 0 27 0 26 
1 7 3302 2479 178 MP stroke
/c19 { 0.000000 0.812500 1.000000 sr} bdef
c19
4 -5 20 -26 0 0 20 -27 4 -5 15 -21 9 -11 11 -16 
13 -18 5 -8 19 -27 0 0 17 -26 7 -9 11 -18 13 -20 
3 -6 16 -27 5 -8 9 -18 14 -27 -23 0 -24 0 -24 0 
-24 0 -24 0 -2 0 -22 9 -24 11 -13 7 -11 4 -24 10 
-24 11 -3 1 -21 9 -24 11 -15 7 -9 4 -24 11 -24 11 
0 1 -25 10 -24 13 -5 3 -19 8 -24 13 -10 5 -14 7 
-24 13 -11 7 -13 7 -24 13 -10 6 -14 8 -24 14 -7 5 
-17 9 -24 16 -2 1 -22 14 -19 13 -5 3 -24 16 -11 7 
-13 9 -24 18 0 0 -24 17 -12 9 -12 9 -22 18 -2 2 
-24 19 -6 5 -18 15 -13 12 -11 10 -18 16 -6 6 -21 21 
-3 3 -22 23 -2 3 -21 24 -3 4 -19 22 -5 9 -14 18 
-10 17 -6 9 -15 27 -3 8 -9 18 -9 27 -5 26 -1 27 
6 26 14 27 4 5 3206 2560 100 MP
18 21 6 5 24 19 4 3 20 11 24 10 22 5 2 0 
24 3 24 0 23 -3 1 0 24 -5 24 -7 24 -9 12 -5 
12 -6 24 -12 16 -9 8 -4 24 -15 11 -7 13 -9 24 -17 
1 -1 23 -17 12 -9 12 -10 20 -17 4 -3 24 -21 3 -2 
21 -19 8 -8 16 -14 13 -12 11 -11 16 -16 8 -8 18 -18 
6 -7 19 -20 5 -5 20 -21 4 -5 20 -22 4 -4 20 -22 
5 -5 18 -22 6 -6 17 -20 7 -8 15 -19 9 -10 13 -16 
11 -14 10 -13 14 -17 7 -9 17 -22 61 AP
PP
0 sg
0 0 18 21 6 5 24 19 4 3 20 11 24 10 22 5 
2 0 24 3 24 0 23 -3 1 0 24 -5 24 -7 24 -9 
12 -5 12 -6 24 -12 16 -9 8 -4 24 -15 11 -7 13 -9 
24 -17 1 -1 23 -17 12 -9 12 -10 20 -17 4 -3 24 -21 
3 -2 21 -19 8 -8 16 -14 13 -12 11 -11 16 -16 8 -8 
18 -18 6 -7 19 -20 5 -5 20 -21 4 -5 20 -22 4 -4 
20 -22 5 -5 18 -22 6 -6 17 -20 7 -8 15 -19 9 -10 
13 -16 11 -14 10 -13 14 -17 7 -9 17 -22 4 -5 20 -26 
0 0 20 -27 4 -5 15 -21 9 -11 11 -16 13 -18 5 -8 
19 -27 0 0 17 -26 7 -9 11 -18 13 -20 3 -6 16 -27 
5 -8 9 -18 14 -27 -23 0 -24 0 -24 0 -24 0 -24 0 
-2 0 -22 9 -24 11 -13 7 -11 4 -24 10 -24 11 -3 1 
-21 9 -24 11 -15 7 -9 4 -24 11 -24 11 0 1 -25 10 
-24 13 -5 3 -19 8 -24 13 -10 5 -14 7 -24 13 -11 7 
-13 7 -24 13 -10 6 -14 8 -24 14 -7 5 -17 9 -24 16 
-2 1 -22 14 -19 13 -5 3 -24 16 -11 7 -13 9 -24 18 
0 0 -24 17 -12 9 -12 9 -22 18 -2 2 -24 19 -6 5 
-18 15 -13 12 -11 10 -18 16 -6 6 -21 21 -3 3 -22 23 
-2 3 -21 24 -3 4 -19 22 -5 9 -14 18 -10 17 -6 9 
-15 27 -3 8 -9 18 -9 27 -5 26 -1 27 6 26 14 27 
4 5 3206 2560 162 MP stroke
c11
19 -22 3 -4 21 -25 1 -2 21 -26 2 -2 20 -25 4 -5 
16 -21 8 -9 13 -18 11 -14 9 -12 15 -20 5 -7 19 -26 
0 0 18 -27 6 -8 12 -18 12 -19 5 -8 14 -26 5 -17 
3 -10 -3 0 -24 0 -16 0 -8 3 -24 9 -24 10 -10 5 
-14 6 -24 10 -24 10 0 1 -24 10 -24 11 -11 5 -13 6 
-24 11 -19 9 -5 3 -24 11 -24 13 -1 0 -24 11 -24 13 
-4 2 -20 10 -24 13 -6 4 -18 9 -24 14 -6 3 -18 10 
-24 14 -5 3 -19 11 -24 15 -1 0 -23 14 -19 13 -5 3 
-24 15 -12 8 -12 8 -24 17 -3 2 -21 15 -16 11 -8 6 
-24 19 -3 2 -21 16 -12 10 -12 10 -20 17 -4 4 -24 22 
-1 0 -23 23 -4 4 -20 21 -5 5 -19 23 -4 4 -20 26 
0 0 -18 27 -6 11 -9 15 -12 27 -3 10 -6 16 -5 27 
-1 26 6 27 6 13 3158 2605 100 MP
6 13 18 22 4 5 20 14 24 12 0 0 24 7 24 2 
24 0 24 -4 21 -5 3 0 24 -8 24 -10 17 -8 7 -4 
24 -13 17 -10 7 -4 24 -16 9 -6 15 -11 21 -16 3 -2 
24 -19 7 -5 17 -15 14 -12 10 -8 20 -18 4 -4 24 -23 
0 0 24 -23 4 -3 20 -20 7 -7 17 -18 9 -8 15 -17 
10 -10 14 -15 10 -11 14 -16 10 -11 15 -15 9 -11 15 -17 
8 -10 16 -17 7 -9 17 -20 5 -7 53 AP
PP
0 sg
0 0 6 13 18 22 4 5 20 14 24 12 0 0 24 7 
24 2 24 0 24 -4 21 -5 3 0 24 -8 24 -10 17 -8 
7 -4 24 -13 17 -10 7 -4 24 -16 9 -6 15 -11 21 -16 
3 -2 24 -19 7 -5 17 -15 14 -12 10 -8 20 -18 4 -4 
24 -23 0 0 24 -23 4 -3 20 -20 7 -7 17 -18 9 -8 
15 -17 10 -10 14 -15 10 -11 14 -16 10 -11 15 -15 9 -11 
15 -17 8 -10 16 -17 7 -9 17 -20 5 -7 19 -22 3 -4 
21 -25 1 -2 21 -26 2 -2 20 -25 4 -5 16 -21 8 -9 
13 -18 11 -14 9 -12 15 -20 5 -7 19 -26 0 0 18 -27 
6 -8 12 -18 12 -19 5 -8 14 -26 5 -17 3 -10 -3 0 
-24 0 -16 0 -8 3 -24 9 -24 10 -10 5 -14 6 -24 10 
-24 10 0 1 -24 10 -24 11 -11 5 -13 6 -24 11 -19 9 
-5 3 -24 11 -24 13 -1 0 -24 11 -24 13 -4 2 -20 10 
-24 13 -6 4 -18 9 -24 14 -6 3 -18 10 -24 14 -5 3 
-19 11 -24 15 -1 0 -23 14 -19 13 -5 3 -24 15 -12 8 
-12 8 -24 17 -3 2 -21 15 -16 11 -8 6 -24 19 -3 2 
-21 16 -12 10 -12 10 -20 17 -4 4 -24 22 -1 0 -23 23 
-4 4 -20 21 -5 5 -19 23 -4 4 -20 26 0 0 -18 27 
-6 11 -9 15 -12 27 -3 10 -6 16 -5 27 -1 26 6 27 
6 13 3158 2605 154 MP stroke
/c20 { 0.625000 1.000000 0.375000 sr} bdef
c20
19 -21 5 -5 20 -21 4 -6 20 -21 4 -5 20 -23 3 -4 
21 -23 2 -3 22 -26 0 -1 23 -26 1 -1 21 -26 3 -3 
18 -23 6 -7 15 -20 9 -10 12 -16 12 -15 9 -12 15 -19 
5 -7 19 -26 0 -1 17 -26 7 -12 8 -15 -4 -26 -4 -1 
-3 1 -21 7 -24 9 -24 9 -4 1 -20 10 -24 10 -16 7 
-8 4 -24 11 -24 11 0 1 -24 12 -24 11 -5 3 -19 10 
-24 12 -9 4 -16 8 -24 13 -10 6 -14 7 -24 13 -11 6 
-13 8 -24 13 -9 6 -15 8 -24 14 -6 4 -18 11 -24 15 
-2 1 -22 14 -19 12 -5 3 -24 16 -11 8 -13 9 -24 17 
-1 0 -23 17 -13 10 -11 8 -23 18 -1 1 -24 20 -7 6 
-17 15 -12 11 -12 12 -16 15 -8 9 -17 17 -7 9 -15 18 
-9 12 -11 14 -13 22 -4 5 -13 26 -7 19 -4 8 -6 26 
-1 27 4 26 7 16 3110 2629 100 MP
5 11 19 20 8 6 16 9 24 8 24 3 24 -1 24 -4 
24 -7 21 -8 3 -1 24 -10 24 -13 4 -2 20 -12 23 -15 
1 0 24 -17 13 -9 11 -9 23 -18 1 -1 24 -20 7 -5 
17 -15 13 -12 11 -10 18 -16 6 -6 22 -21 2 -2 24 -24 
0 0 24 -25 2 -2 22 -22 4 -4 20 -22 5 -5 39 AP
PP
0 sg
0 0 5 11 19 20 8 6 16 9 24 8 24 3 24 -1 
24 -4 24 -7 21 -8 3 -1 24 -10 24 -13 4 -2 20 -12 
23 -15 1 0 24 -17 13 -9 11 -9 23 -18 1 -1 24 -20 
7 -5 17 -15 13 -12 11 -10 18 -16 6 -6 22 -21 2 -2 
24 -24 0 0 24 -25 2 -2 22 -22 4 -4 20 -22 5 -5 
19 -21 5 -5 20 -21 4 -6 20 -21 4 -5 20 -23 3 -4 
21 -23 2 -3 22 -26 0 -1 23 -26 1 -1 21 -26 3 -3 
18 -23 6 -7 15 -20 9 -10 12 -16 12 -15 9 -12 15 -19 
5 -7 19 -26 0 -1 17 -26 7 -12 8 -15 -4 -26 -4 -1 
-3 1 -21 7 -24 9 -24 9 -4 1 -20 10 -24 10 -16 7 
-8 4 -24 11 -24 11 0 1 -24 12 -24 11 -5 3 -19 10 
-24 12 -9 4 -16 8 -24 13 -10 6 -14 7 -24 13 -11 6 
-13 8 -24 13 -9 6 -15 8 -24 14 -6 4 -18 11 -24 15 
-2 1 -22 14 -19 12 -5 3 -24 16 -11 8 -13 9 -24 17 
-1 0 -23 17 -13 10 -11 8 -23 18 -1 1 -24 20 -7 6 
-17 15 -12 11 -12 12 -16 15 -8 9 -17 17 -7 9 -15 18 
-9 12 -11 14 -13 22 -4 5 -13 26 -7 19 -4 8 -6 26 
-1 27 4 26 7 16 3110 2629 140 MP stroke
/c21 { 1.000000 1.000000 0.000000 sr} bdef
c21
14 -13 10 -9 18 -17 6 -7 21 -20 3 -3 23 -23 1 -2 
24 -24 1 -1 23 -25 2 -1 22 -25 2 -2 23 -24 1 -2 
23 -25 1 -2 23 -25 1 -1 23 -26 0 -1 23 -26 1 -1 
21 -26 3 -3 19 -23 5 -6 17 -21 7 -8 14 -18 10 -13 
10 -14 14 -18 6 -8 18 -26 0 -1 10 -26 -10 -8 -24 3 
-14 5 -10 4 -24 11 -24 10 -4 1 -20 10 -24 12 -11 5 
-13 7 -24 12 -16 7 -8 5 -24 13 -18 9 -7 3 -24 13 
-18 10 -6 4 -24 13 -17 10 -7 4 -24 13 -15 9 -9 6 
-24 14 -11 7 -13 8 -24 15 -5 3 -19 12 -22 15 -2 1 
-24 17 -12 8 -12 9 -24 17 -1 1 -23 17 -12 9 -12 10 
-20 17 -4 3 -24 22 -2 1 -22 22 -5 5 -19 20 -6 6 
-18 22 -4 5 -19 26 -1 2 -15 25 -9 20 -3 6 -8 27 
-3 26 3 27 11 22 3062 2649 100 MP
3 4 21 18 19 9 5 1 24 3 24 -1 17 -3 7 -2 
24 -7 24 -10 17 -8 7 -3 24 -14 15 -9 9 -6 24 -16 
7 -5 17 -12 18 -14 6 -5 24 -20 2 -2 22 -19 9 -7 
15 -14 25 AP
PP
0 sg
0 0 3 4 21 18 19 9 5 1 24 3 24 -1 17 -3 
7 -2 24 -7 24 -10 17 -8 7 -3 24 -14 15 -9 9 -6 
24 -16 7 -5 17 -12 18 -14 6 -5 24 -20 2 -2 22 -19 
9 -7 15 -14 14 -13 10 -9 18 -17 6 -7 21 -20 3 -3 
23 -23 1 -2 24 -24 1 -1 23 -25 2 -1 22 -25 2 -2 
23 -24 1 -2 23 -25 1 -2 23 -25 1 -1 23 -26 0 -1 
23 -26 1 -1 21 -26 3 -3 19 -23 5 -6 17 -21 7 -8 
14 -18 10 -13 10 -14 14 -18 6 -8 18 -26 0 -1 10 -26 
-10 -8 -24 3 -14 5 -10 4 -24 11 -24 10 -4 1 -20 10 
-24 12 -11 5 -13 7 -24 12 -16 7 -8 5 -24 13 -18 9 
-7 3 -24 13 -18 10 -6 4 -24 13 -17 10 -7 4 -24 13 
-15 9 -9 6 -24 14 -11 7 -13 8 -24 15 -5 3 -19 12 
-22 15 -2 1 -24 17 -12 8 -12 9 -24 17 -1 1 -23 17 
-12 9 -12 10 -20 17 -4 3 -24 22 -2 1 -22 22 -5 5 
-19 20 -6 6 -18 22 -4 5 -19 26 -1 2 -15 25 -9 20 
-3 6 -8 27 -3 26 3 27 11 22 3062 2649 126 MP stroke
c13
22 -10 24 -12 8 -5 16 -10 24 -15 2 -1 22 -17 13 -10 
11 -8 23 -18 1 -2 24 -20 5 -5 19 -17 11 -9 13 -13 
15 -14 9 -9 18 -17 6 -7 20 -20 4 -4 22 -22 2 -3 
23 -24 1 -1 23 -25 1 -1 24 -26 1 -1 22 -25 2 -2 
22 -25 2 -2 20 -24 4 -4 19 -23 5 -6 16 -20 8 -10 
13 -17 11 -14 9 -12 15 -22 3 -5 8 -26 -11 -5 -24 4 
-3 1 -21 10 -24 9 -17 7 -7 4 -24 12 -23 11 -1 1 
-24 13 -25 12 0 0 -24 14 -24 12 -1 1 -23 13 -23 13 
-1 1 -24 14 -20 12 -4 2 -24 15 -15 9 -9 6 -24 15 
-9 6 -15 10 -24 16 0 0 -24 17 -13 10 -11 8 -24 18 
-1 0 -23 19 -9 8 -15 13 -16 13 -8 8 -19 19 -5 5 
-20 21 -4 5 -18 22 -6 10 -12 16 -12 23 -2 4 -10 26 
-4 27 4 26 12 21 3014 2677 100 MP
5 6 19 10 24 4 24 -1 24 -4 24 -8 2 -1 7 AP
PP
0 sg
0 0 5 6 19 10 24 4 24 -1 24 -4 24 -8 2 -1 
22 -10 24 -12 8 -5 16 -10 24 -15 2 -1 22 -17 13 -10 
11 -8 23 -18 1 -2 24 -20 5 -5 19 -17 11 -9 13 -13 
15 -14 9 -9 18 -17 6 -7 20 -20 4 -4 22 -22 2 -3 
23 -24 1 -1 23 -25 1 -1 24 -26 1 -1 22 -25 2 -2 
22 -25 2 -2 20 -24 4 -4 19 -23 5 -6 16 -20 8 -10 
13 -17 11 -14 9 -12 15 -22 3 -5 8 -26 -11 -5 -24 4 
-3 1 -21 10 -24 9 -17 7 -7 4 -24 12 -23 11 -1 1 
-24 13 -25 12 0 0 -24 14 -24 12 -1 1 -23 13 -23 13 
-1 1 -24 14 -20 12 -4 2 -24 15 -15 9 -9 6 -24 15 
-9 6 -15 10 -24 16 0 0 -24 17 -13 10 -11 8 -24 18 
-1 0 -23 19 -9 8 -15 13 -16 13 -8 8 -19 19 -5 5 
-20 21 -4 5 -18 22 -6 10 -12 16 -12 23 -2 4 -10 26 
-4 27 4 26 12 21 3014 2677 108 MP stroke
/c22 { 1.000000 0.250000 0.000000 sr} bdef
c22
24 12 24 1 24 -5 24 -8 18 -8 6 -3 24 -13 17 -11 
7 -4 24 -17 7 -5 17 -13 17 -14 7 -5 24 -21 1 0 
23 -21 6 -6 18 -17 10 -9 14 -14 13 -13 11 -11 15 -15 
9 -10 17 -17 7 -8 17 -18 7 -8 17 -19 7 -8 17 -18 
8 -10 14 -17 10 -11 12 -15 12 -16 8 -11 16 -22 3 -4 
11 -27 -14 -8 -24 4 -13 4 -11 6 -24 11 -24 10 -1 0 
-24 13 -24 12 -2 1 -22 13 -24 13 -1 1 -23 14 -22 12 
-2 1 -24 15 -17 11 -7 4 -24 16 -10 6 -14 10 -24 17 
0 0 -24 18 -12 8 -12 10 -21 17 -3 2 -24 21 -4 3 
-20 20 -7 7 -17 18 -8 8 -16 21 -4 6 -17 26 -3 8 
-8 19 -5 26 6 27 7 8 2966 2716 85 MP
PP
0 sg
0 0 24 12 24 1 24 -5 24 -8 18 -8 6 -3 24 -13 
17 -11 7 -4 24 -17 7 -5 17 -13 17 -14 7 -5 24 -21 
1 0 23 -21 6 -6 18 -17 10 -9 14 -14 13 -13 11 -11 
15 -15 9 -10 17 -17 7 -8 17 -18 7 -8 17 -19 7 -8 
17 -18 8 -10 14 -17 10 -11 12 -15 12 -16 8 -11 16 -22 
3 -4 11 -27 -14 -8 -24 4 -13 4 -11 6 -24 11 -24 10 
-1 0 -24 13 -24 12 -2 1 -22 13 -24 13 -1 1 -23 14 
-22 12 -2 1 -24 15 -17 11 -7 4 -24 16 -10 6 -14 10 
-24 17 0 0 -24 18 -12 8 -12 10 -21 17 -3 2 -24 21 
-4 3 -20 20 -7 7 -17 18 -8 8 -16 21 -4 6 -17 26 
-3 8 -8 19 -5 26 6 27 7 8 2966 2716 86 MP stroke
/c23 { 0.875000 0.000000 0.000000 sr} bdef
c23
24 1 24 -7 21 -8 3 -2 24 -14 18 -11 6 -4 24 -18 
6 -4 18 -15 14 -12 10 -9 20 -17 4 -4 24 -22 1 -1 
23 -24 3 -2 21 -23 4 -4 20 -23 3 -3 21 -25 2 -2 
20 -26 2 -5 13 -22 -13 -21 -24 7 -24 9 -11 5 -13 7 
-24 13 -13 7 -11 6 -24 14 -10 6 -14 10 -24 15 -3 2 
-21 15 -17 11 -7 6 -24 18 -3 3 -21 18 -10 8 -14 14 
-13 13 -11 12 -12 14 -12 18 -7 9 -11 26 -1 27 19 14 
2894 2763 57 MP
PP
0 sg
0 0 24 1 24 -7 21 -8 3 -2 24 -14 18 -11 6 -4 
24 -18 6 -4 18 -15 14 -12 10 -9 20 -17 4 -4 24 -22 
1 -1 23 -24 3 -2 21 -23 4 -4 20 -23 3 -3 21 -25 
2 -2 20 -26 2 -5 13 -22 -13 -21 -24 7 -24 9 -11 5 
-13 7 -24 13 -13 7 -11 6 -24 14 -10 6 -14 10 -24 15 
-3 2 -21 15 -17 11 -7 6 -24 18 -3 3 -21 18 -10 8 
-14 14 -13 13 -11 12 -12 14 -12 18 -7 9 -11 26 -1 27 
19 14 2894 2763 58 MP stroke
c15
24 -12 2 -1 -2 -8 -24 5 -5 3 5 13 2750 2897 7 MP
PP
0 sg
0 0 24 -12 2 -1 -2 -8 -24 5 -5 3 5 13 2750 2897 8 MP stroke
c15
8 -2 -8 -3 -3 3 3 2 2774 2881 5 MP
PP
0 sg
0 0 8 -2 -8 -3 -3 3 3 2 2774 2881 6 MP stroke
gr

0 sg
4 w
DO
SO
6 w
 924 3387 mt 3303 3387 L
 924 2089 mt 3303 2089 L
 924 3387 mt  924 2089 L
3303 3387 mt 3303 2089 L
 924 3387 mt 3303 3387 L
 924 3387 mt  924 2089 L
1312 3387 mt 1312 3363 L
1312 2089 mt 1312 2112 L
1209 3532 mt 
(-2) s
1712 3387 mt 1712 3363 L
1712 2089 mt 1712 2112 L
1609 3532 mt 
(-1) s
2113 3387 mt 2113 3363 L
2113 2089 mt 2113 2112 L
2080 3532 mt 
(0) s
2514 3387 mt 2514 3363 L
2514 2089 mt 2514 2112 L
2481 3532 mt 
(1) s
2914 3387 mt 2914 3363 L
2914 2089 mt 2914 2112 L
2881 3532 mt 
(2) s
 924 3160 mt  947 3160 L
3303 3160 mt 3279 3160 L
 723 3204 mt 
(0.5) s
 924 2921 mt  947 2921 L
3303 2921 mt 3279 2921 L
 823 2965 mt 
(1) s
 924 2681 mt  947 2681 L
3303 2681 mt 3279 2681 L
 723 2725 mt 
(1.5) s
 924 2442 mt  947 2442 L
3303 2442 mt 3279 2442 L
 823 2486 mt 
(2) s
 924 2202 mt  947 2202 L
3303 2202 mt 3279 2202 L
 723 2246 mt 
(2.5) s
 924 3387 mt 3303 3387 L
 924 2089 mt 3303 2089 L
 924 3387 mt  924 2089 L
3303 3387 mt 3303 2089 L
1 sg
0 1299 2379 0 0 -1299 4055 1584 4 MP
PP
-2379 0 0 1299 2379 0 0 -1299 4055 1584 5 MP stroke
gs 4055 285 2380 1300 rc
c8
25 0 24 0 24 0 24 0 24 0 24 0 24 0 24 0 
24 0 24 0 24 0 24 0 24 0 24 0 24 0 24 0 
24 0 24 0 24 0 24 0 24 0 24 0 24 0 24 0 
24 0 24 0 24 0 24 0 24 0 24 0 24 0 24 0 
24 0 25 0 24 0 24 0 24 0 24 0 24 0 24 0 
24 0 24 0 24 0 24 0 24 0 24 0 24 0 24 0 
24 0 24 0 24 0 24 0 24 0 24 0 24 0 24 0 
24 0 24 0 24 0 24 0 24 0 24 0 24 0 24 0 
24 0 24 0 25 0 24 0 24 0 24 0 24 0 24 0 
24 0 24 0 24 0 24 0 24 0 24 0 24 0 24 0 
24 0 24 0 24 0 24 0 24 0 24 0 24 0 24 0 
24 0 24 0 24 0 24 0 24 0 24 0 24 0 24 0 
24 0 24 0 24 0 4055 284 100 MP
-24 0 -24 0 -24 0 -24 0 -24 0 -24 0 -24 0 -24 0 
-24 0 -24 0 -24 0 -24 0 -24 0 -24 0 -24 0 -25 0 
-24 0 -24 0 -24 0 -24 0 -24 0 -24 0 -24 0 -24 0 
-24 0 -24 0 -24 0 -24 0 -24 0 -24 0 -24 0 -24 0 
-24 0 -24 0 -24 0 -24 0 -24 0 -24 0 -24 0 -24 0 
-24 0 -24 0 -24 0 -24 0 -24 0 -24 0 -24 0 -24 0 
-25 0 0 0 0 27 0 27 0 26 0 27 0 26 0 27 
0 26 0 27 0 26 0 27 0 26 0 27 0 26 0 27 
0 26 0 27 0 26 0 27 0 26 0 27 0 26 0 27 
0 26 0 27 0 26 0 27 0 26 0 27 0 26 0 27 
0 26 0 27 0 26 0 27 0 26 0 27 0 26 0 27 
0 26 0 27 0 26 0 27 0 26 0 27 0 26 0 27 
0 26 0 27 0 26 0 1 100 AP
0 -26 0 -27 0 -26 0 -27 0 -26 0 -27 0 -26 0 -27 
0 -26 0 -27 0 -26 0 -27 0 -26 0 -27 0 -26 0 -27 
0 -26 0 -27 0 -26 0 -27 0 -26 0 -27 0 -26 0 -27 
0 -26 0 -27 0 -26 0 -27 0 -26 0 -27 0 -26 0 -27 
0 -26 0 -27 0 -26 0 -27 0 -26 0 -27 0 -26 0 -27 
0 -26 0 -27 0 -26 0 -27 0 -26 0 -27 0 -26 0 -27 
0 -27 -1 0 -24 0 -24 0 -24 0 -24 0 -24 0 -24 0 
-24 0 -24 0 -24 0 -24 0 -24 0 -24 0 -24 0 -24 0 
-24 0 -24 0 -24 0 -24 0 -24 0 -24 0 -24 0 -24 0 
-24 0 -24 0 -24 0 -24 0 -24 0 -24 0 -24 0 -24 0 
-24 0 -24 0 -25 0 -24 0 -24 0 -24 0 -24 0 -24 0 
-24 0 -24 0 -24 0 -24 0 -24 0 -24 0 -24 0 -24 0 
-24 0 -24 0 -24 0 -24 0 100 AP
1 -1 1 AP
PP
0 sg
0 0 1 -1 0 -26 0 -27 0 -26 0 -27 0 -26 0 -27 
0 -26 0 -27 0 -26 0 -27 0 -26 0 -27 0 -26 0 -27 
0 -26 0 -27 0 -26 0 -27 0 -26 0 -27 0 -26 0 -27 
0 -26 0 -27 0 -26 0 -27 0 -26 0 -27 0 -26 0 -27 
0 -26 0 -27 0 -26 0 -27 0 -26 0 -27 0 -26 0 -27 
0 -26 0 -27 0 -26 0 -27 0 -26 0 -27 0 -26 0 -27 
0 -26 0 -27 0 -27 -1 0 -24 0 -24 0 -24 0 -24 0 
-24 0 -24 0 -24 0 -24 0 -24 0 -24 0 -24 0 -24 0 
-24 0 -24 0 -24 0 -24 0 -24 0 -24 0 -24 0 -24 0 
-24 0 -24 0 -24 0 -24 0 -24 0 -24 0 -24 0 -24 0 
-24 0 -24 0 -24 0 -24 0 -25 0 -24 0 -24 0 -24 0 
-24 0 -24 0 -24 0 -24 0 -24 0 -24 0 -24 0 -24 0 
-24 0 -24 0 -24 0 -24 0 -24 0 -24 0 -24 0 -24 0 
-24 0 -24 0 -24 0 -24 0 -24 0 -24 0 -24 0 -24 0 
-24 0 -24 0 -24 0 -24 0 -24 0 -25 0 -24 0 -24 0 
-24 0 -24 0 -24 0 -24 0 -24 0 -24 0 -24 0 -24 0 
-24 0 -24 0 -24 0 -24 0 -24 0 -24 0 -24 0 -24 0 
-24 0 -24 0 -24 0 -24 0 -24 0 -24 0 -24 0 -24 0 
-24 0 -24 0 -24 0 -24 0 -24 0 -24 0 -25 0 0 0 
0 27 0 27 0 26 0 27 0 26 0 27 0 26 0 27 
0 26 0 27 0 26 0 27 0 26 0 27 0 26 0 27 
0 26 0 27 0 26 0 27 0 26 0 27 0 26 0 27 
0 26 0 27 0 26 0 27 0 26 0 27 0 26 0 27 
0 26 0 27 0 26 0 27 0 26 0 27 0 26 0 27 
0 26 0 27 0 26 0 27 0 26 0 27 0 26 0 27 
0 26 0 1 25 0 24 0 24 0 24 0 24 0 24 0 
24 0 24 0 24 0 24 0 24 0 24 0 24 0 24 0 
24 0 24 0 24 0 24 0 24 0 24 0 24 0 24 0 
24 0 24 0 24 0 24 0 24 0 24 0 24 0 24 0 
24 0 24 0 24 0 25 0 24 0 24 0 24 0 24 0 
24 0 24 0 24 0 24 0 24 0 24 0 24 0 24 0 
24 0 24 0 24 0 24 0 24 0 24 0 24 0 24 0 
24 0 24 0 24 0 24 0 24 0 24 0 24 0 24 0 
24 0 24 0 24 0 24 0 25 0 24 0 24 0 24 0 
24 0 24 0 24 0 24 0 24 0 24 0 24 0 24 0 
24 0 24 0 24 0 24 0 24 0 24 0 24 0 24 0 
24 0 24 0 24 0 24 0 24 0 24 0 24 0 24 0 
24 0 24 0 24 0 4103 284 300 MP stroke
24 0 24 0 4055 284 3 MP stroke
c8
-24 0 -24 0 -24 0 -24 0 -24 0 -24 0 -24 0 -24 0 
-24 0 -24 0 -24 0 -24 0 -24 0 -24 0 -25 0 -24 0 
-24 0 -24 0 -24 0 -24 0 -24 0 -24 0 -24 0 -24 0 
-24 0 -24 0 -24 0 -24 0 -24 0 -24 0 -24 0 -24 0 
-24 0 -24 0 -24 0 -24 0 -24 0 -24 0 -24 0 -24 0 
-24 0 -24 0 -24 0 -24 0 -24 0 -24 0 -24 0 -25 0 
0 0 0 27 0 27 0 26 0 27 0 26 0 27 0 26 
0 27 0 26 0 27 0 26 0 27 0 26 0 27 0 26 
0 27 0 26 0 27 0 26 0 27 0 26 0 27 0 26 
0 27 0 26 0 27 0 26 0 27 0 26 0 27 0 26 
0 27 0 26 0 27 0 26 0 27 0 26 0 27 0 26 
0 27 0 26 0 27 0 26 0 27 0 26 0 27 0 26 
0 27 0 26 0 0 6434 285 100 MP
24 0 24 0 24 0 24 0 24 0 24 0 24 0 25 0 
24 0 24 0 24 0 24 0 24 0 24 0 24 0 24 0 
24 0 24 0 24 0 5 0 -5 0 -15 -26 -9 -2 -9 -25 
-15 -7 -4 -19 -20 -22 -1 -5 -13 -26 -10 -4 -7 -23 -17 -14 
-2 -12 -15 -27 -7 -3 -9 -23 -15 -15 -3 -12 -14 -26 -7 -4 
-8 -23 -16 -20 -2 -6 -12 -27 -10 -9 -6 -17 -15 -27 -3 -2 
-10 -24 -15 -21 -1 -6 -13 -26 -10 -13 -4 -14 -14 -26 -6 -7 
-7 -20 -14 -26 -3 -3 -9 -24 -15 -25 0 -1 -12 -27 -12 -21 
-1 -5 -12 -27 -11 -17 -3 -9 -12 -27 -9 -14 -4 -12 -12 -27 
-8 -12 -5 -14 -12 -27 -7 -11 -5 -15 -13 -27 -6 -10 -6 -16 
-12 -27 -6 -9 -6 -17 -12 -27 -6 -9 -6 -17 -12 -27 -6 -8 
-6 -18 -12 -27 -6 -8 -6 -18 -12 -27 -6 -6 -5 -20 -14 -27 
-5 -2 -3 -25 -21 0 -24 0 100 AP
2 -4 15 -23 9 -15 8 -11 16 -27 0 -1 20 -25 4 -7 
15 -20 9 -12 11 -14 13 -18 7 -9 18 -23 2 -3 21 -27 
1 0 22 -26 2 -2 21 -25 3 -2 21 -24 3 -3 21 -24 
3 -3 21 -23 3 -3 22 -24 2 -2 22 -24 2 -2 23 -25 
1 -1 23 -25 1 -1 24 -26 0 0 24 -26 0 0 24 -26 
1 -1 23 -20 16 20 1 27 -2 26 -2 27 -3 26 -3 27 
-3 26 -3 27 -1 6 -2 20 -1 27 -2 26 -2 27 -2 26 
-2 27 -1 26 -2 27 -1 26 -2 27 -1 26 -1 27 -1 26 
-1 27 -1 26 -1 27 -1 26 0 2 -1 25 0 26 -1 27 
0 26 -1 27 0 26 -1 27 0 26 -1 27 0 26 0 27 
0 26 -1 27 0 26 0 27 0 26 0 27 0 26 6 0 
24 0 24 0 24 0 24 0 24 0 24 0 24 0 24 0 
24 0 24 0 24 0 24 0 100 AP
25 0 24 0 24 0 24 0 24 0 24 0 24 0 24 0 
24 0 24 0 24 0 24 0 24 0 24 0 24 0 24 0 
24 0 24 0 17 0 7 -21 1 -5 7 -27 7 -26 7 -27 
2 -3 6 -23 8 -27 8 -26 2 -3 8 -24 9 -26 7 -20 
2 -7 11 -26 9 -27 2 -3 10 -23 11 -27 3 -5 10 -21 
12 -27 2 -4 12 -22 12 -27 0 0 16 -26 8 -15 7 -12 
15 -26 49 AP
PP
0 sg
0 0 25 0 24 0 24 0 24 0 24 0 24 0 24 0 
24 0 24 0 24 0 24 0 24 0 24 0 24 0 24 0 
24 0 24 0 24 0 17 0 7 -21 1 -5 7 -27 7 -26 
7 -27 2 -3 6 -23 8 -27 8 -26 2 -3 8 -24 9 -26 
7 -20 2 -7 11 -26 9 -27 2 -3 10 -23 11 -27 3 -5 
10 -21 12 -27 2 -4 12 -22 12 -27 0 0 16 -26 8 -15 
7 -12 15 -26 2 -4 15 -23 9 -15 8 -11 16 -27 0 -1 
20 -25 4 -7 15 -20 9 -12 11 -14 13 -18 7 -9 18 -23 
2 -3 21 -27 1 0 22 -26 2 -2 21 -25 3 -2 21 -24 
3 -3 21 -24 3 -3 21 -23 3 -3 22 -24 2 -2 22 -24 
2 -2 23 -25 1 -1 23 -25 1 -1 24 -26 0 0 24 -26 
0 0 24 -26 1 -1 23 -20 16 20 1 27 -2 26 -2 27 
-3 26 -3 27 -3 26 -3 27 -1 6 -2 20 -1 27 -2 26 
-2 27 -2 26 -2 27 -1 26 -2 27 -1 26 -2 27 -1 26 
-1 27 -1 26 -1 27 -1 26 -1 27 -1 26 0 2 -1 25 
0 26 -1 27 0 26 -1 27 0 26 -1 27 0 26 -1 27 
0 26 0 27 0 26 -1 27 0 26 0 27 0 26 0 27 
0 26 6 0 24 0 24 0 24 0 24 0 24 0 24 0 
24 0 24 0 24 0 24 0 24 0 24 0 24 0 24 0 
24 0 24 0 24 0 24 0 24 0 25 0 24 0 24 0 
24 0 24 0 24 0 24 0 24 0 24 0 24 0 24 0 
24 0 5 0 -5 0 -15 -26 -9 -2 -9 -25 -15 -7 -4 -19 
-20 -22 -1 -5 -13 -26 -10 -4 -7 -23 -17 -14 -2 -12 -15 -27 
-7 -3 -9 -23 -15 -15 -3 -12 -14 -26 -7 -4 -8 -23 -16 -20 
-2 -6 -12 -27 -10 -9 -6 -17 -15 -27 -3 -2 -10 -24 -15 -21 
-1 -6 -13 -26 -10 -13 -4 -14 -14 -26 -6 -7 -7 -20 -14 -26 
-3 -3 -9 -24 -15 -25 0 -1 -12 -27 -12 -21 -1 -5 -12 -27 
-11 -17 -3 -9 -12 -27 -9 -14 -4 -12 -12 -27 -8 -12 -5 -14 
-12 -27 -7 -11 -5 -15 -13 -27 -6 -10 -6 -16 -12 -27 -6 -9 
-6 -17 -12 -27 -6 -9 -6 -17 -12 -27 -6 -8 -6 -18 -12 -27 
-6 -8 -6 -18 -12 -27 -6 -6 -5 -20 -14 -27 -5 -2 -3 -25 
-21 0 -24 0 -24 0 -24 0 -24 0 -24 0 -24 0 -24 0 
-24 0 -24 0 -24 0 -24 0 -24 0 -24 0 -24 0 -24 0 
-25 0 -24 0 -24 0 -24 0 -24 0 -24 0 -24 0 -24 0 
-24 0 -24 0 -24 0 -24 0 -24 0 -24 0 -24 0 -24 0 
-24 0 -24 0 -24 0 -24 0 -24 0 -24 0 -24 0 -24 0 
-24 0 -24 0 -24 0 -24 0 -24 0 -24 0 -24 0 -24 0 
-24 0 -25 0 0 0 6434 1584 300 MP stroke
0 27 0 27 0 26 0 27 0 26 0 27 0 26 0 27 
0 26 0 27 0 26 0 27 0 26 0 27 0 26 0 27 
0 26 0 27 0 26 0 27 0 26 0 27 0 26 0 27 
0 26 0 27 0 26 0 27 0 26 0 27 0 26 0 27 
0 26 0 27 0 26 0 27 0 26 0 27 0 26 0 27 
0 26 0 27 0 26 0 27 0 26 0 27 0 26 0 27 
0 26 0 0 6434 285 51 MP stroke
/c24 { 0.000000 0.250000 1.000000 sr} bdef
c24
15 -15 9 -9 16 -17 8 -9 17 -18 7 -8 16 -18 8 -9 
16 -18 8 -10 15 -16 9 -11 14 -16 11 -12 12 -14 12 -14 
10 -13 14 -16 9 -10 15 -18 7 -9 17 -19 6 -7 18 -22 
4 -5 20 -24 2 -2 22 -27 0 0 21 -26 3 -4 19 -23 
5 -7 15 -19 9 -12 11 -15 13 -18 6 -8 17 -27 1 -2 
11 -24 -11 -17 -24 4 -24 9 -9 4 -15 6 -24 11 -19 9 
-5 3 -24 11 -24 12 -1 1 -23 10 -24 13 -6 3 -18 9 
-24 12 -10 6 -14 7 -25 12 -12 7 -12 6 -24 12 -15 9 
-9 4 -24 11 -18 11 -6 3 -24 11 -21 13 -3 1 -24 12 
-23 13 -1 1 -24 12 -22 14 -2 1 -24 13 -18 12 -6 4 
-24 16 -10 7 -14 10 -19 16 -5 4 -23 23 -1 1 -22 25 
-2 3 -17 24 -7 14 -7 12 -10 27 -5 26 -1 27 2 26 
6 27 11 26 4 6 6097 915 100 MP
14 21 10 10 21 16 3 3 24 11 24 6 24 1 24 -3 
24 -6 24 -11 1 -1 23 -12 20 -14 4 -3 24 -18 6 -6 
18 -15 12 -11 12 -12 19 AP
PP
0 sg
0 0 14 21 10 10 21 16 3 3 24 11 24 6 24 1 
24 -3 24 -6 24 -11 1 -1 23 -12 20 -14 4 -3 24 -18 
6 -6 18 -15 12 -11 12 -12 15 -15 9 -9 16 -17 8 -9 
17 -18 7 -8 16 -18 8 -9 16 -18 8 -10 15 -16 9 -11 
14 -16 11 -12 12 -14 12 -14 10 -13 14 -16 9 -10 15 -18 
7 -9 17 -19 6 -7 18 -22 4 -5 20 -24 2 -2 22 -27 
0 0 21 -26 3 -4 19 -23 5 -7 15 -19 9 -12 11 -15 
13 -18 6 -8 17 -27 1 -2 11 -24 -11 -17 -24 4 -24 9 
-9 4 -15 6 -24 11 -19 9 -5 3 -24 11 -24 12 -1 1 
-23 10 -24 13 -6 3 -18 9 -24 12 -10 6 -14 7 -25 12 
-12 7 -12 6 -24 12 -15 9 -9 4 -24 11 -18 11 -6 3 
-24 11 -21 13 -3 1 -24 12 -23 13 -1 1 -24 12 -22 14 
-2 1 -24 13 -18 12 -6 4 -24 16 -10 7 -14 10 -19 16 
-5 4 -23 23 -1 1 -22 25 -2 3 -17 24 -7 14 -7 12 
-10 27 -5 26 -1 27 2 26 6 27 11 26 4 6 6097 915 120 MP stroke
/c25 { 0.000000 0.875000 1.000000 sr} bdef
c25
22 22 2 2 24 12 24 6 24 -1 24 -4 24 -9 11 -6 
13 -6 24 -15 7 -5 17 -13 16 -14 8 -6 22 -20 2 -3 
24 -23 1 -1 23 -24 2 -2 22 -24 3 -3 21 -24 2 -2 
22 -26 1 -1 23 -26 0 -1 23 -26 2 -2 20 -24 4 -5 
18 -22 6 -7 15 -19 9 -11 13 -16 11 -14 9 -12 15 -20 
5 -7 19 -25 1 -1 17 -27 6 -13 7 -13 -7 -25 -24 5 
-24 7 -24 9 -8 4 -16 7 -24 10 -19 9 -5 3 -24 11 
-25 12 -1 1 -23 10 -24 12 -7 4 -17 8 -24 13 -11 6 
-13 6 -24 12 -13 8 -11 6 -24 13 -13 8 -11 5 -24 14 
-10 7 -14 8 -24 17 -3 2 -21 15 -14 11 -10 8 -20 19 
-4 4 -21 22 -3 5 -16 22 -8 14 -7 12 -9 27 -5 26 
0 27 6 26 12 27 3 4 6049 943 93 MP
PP
0 sg
0 0 22 22 2 2 24 12 24 6 24 -1 24 -4 24 -9 
11 -6 13 -6 24 -15 7 -5 17 -13 16 -14 8 -6 22 -20 
2 -3 24 -23 1 -1 23 -24 2 -2 22 -24 3 -3 21 -24 
2 -2 22 -26 1 -1 23 -26 0 -1 23 -26 2 -2 20 -24 
4 -5 18 -22 6 -7 15 -19 9 -11 13 -16 11 -14 9 -12 
15 -20 5 -7 19 -25 1 -1 17 -27 6 -13 7 -13 -7 -25 
-24 5 -24 7 -24 9 -8 4 -16 7 -24 10 -19 9 -5 3 
-24 11 -25 12 -1 1 -23 10 -24 12 -7 4 -17 8 -24 13 
-11 6 -13 6 -24 12 -13 8 -11 6 -24 13 -13 8 -11 5 
-24 14 -10 7 -14 8 -24 17 -3 2 -21 15 -14 11 -10 8 
-20 19 -4 4 -21 22 -3 5 -16 22 -8 14 -7 12 -9 27 
-5 26 0 27 6 26 12 27 3 4 6049 943 94 MP stroke
/c26 { 0.562500 1.000000 0.437500 sr} bdef
c26
8 16 16 17 18 10 6 2 24 4 24 -2 13 -4 11 -3 
24 -11 21 -13 3 -2 24 -17 9 -7 15 -12 16 -15 8 -7 
19 -19 5 -5 21 -22 3 -3 21 -23 3 -4 21 -23 3 -4 
19 -22 5 -7 17 -20 7 -9 15 -17 10 -13 10 -14 14 -18 
6 -8 18 -25 1 -2 16 -26 7 -15 6 -12 -6 -25 -24 2 
-24 7 -24 8 -22 8 -3 1 -24 11 -24 11 -8 4 -16 7 
-24 12 -14 7 -10 5 -24 12 -17 10 -7 3 -24 14 -16 9 
-8 5 -24 15 -10 7 -14 9 -23 17 -1 1 -24 20 -7 6 
-17 17 -8 9 -16 21 -4 6 -15 26 -5 16 -4 11 -3 26 
3 27 4 10 6025 990 75 MP
PP
0 sg
0 0 8 16 16 17 18 10 6 2 24 4 24 -2 13 -4 
11 -3 24 -11 21 -13 3 -2 24 -17 9 -7 15 -12 16 -15 
8 -7 19 -19 5 -5 21 -22 3 -3 21 -23 3 -4 21 -23 
3 -4 19 -22 5 -7 17 -20 7 -9 15 -17 10 -13 10 -14 
14 -18 6 -8 18 -25 1 -2 16 -26 7 -15 6 -12 -6 -25 
-24 2 -24 7 -24 8 -22 8 -3 1 -24 11 -24 11 -8 4 
-16 7 -24 12 -14 7 -10 5 -24 12 -17 10 -7 3 -24 14 
-16 9 -8 5 -24 15 -10 7 -14 9 -23 17 -1 1 -24 20 
-7 6 -17 17 -8 9 -16 21 -4 6 -15 26 -5 16 -4 11 
-3 26 3 27 4 10 6025 990 76 MP stroke
c8
24 0 24 0 24 0 24 0 24 0 2 0 13 -26 9 -25 
1 -2 13 -26 10 -27 0 0 16 -26 8 -15 5 -12 16 -26 
3 -5 14 -22 11 -16 6 -10 16 -27 2 -1 20 -25 4 -5 
17 -22 7 -9 12 -17 12 -22 3 -5 15 -26 6 -14 5 -13 
10 -26 6 -27 3 -15 2 -11 6 -27 2 -26 -3 -27 -7 -10 
-24 -9 -24 12 -9 7 -15 13 -16 14 -8 8 -17 18 -7 8 
-16 19 -8 10 -13 16 -12 16 -8 11 -16 21 -3 5 -19 27 
-2 3 -12 23 -12 20 -5 7 -14 26 -5 10 -9 17 -14 26 
-1 2 -10 25 -13 26 -1 3 -9 24 -11 26 -4 15 -6 12 
-9 26 -9 26 0 1 -8 26 -8 27 -8 24 -2 2 2 0 
5857 285 81 MP
PP
0 sg
0 0 24 0 24 0 24 0 24 0 24 0 2 0 13 -26 
9 -25 1 -2 13 -26 10 -27 0 0 16 -26 8 -15 5 -12 
16 -26 3 -5 14 -22 11 -16 6 -10 16 -27 2 -1 20 -25 
4 -5 17 -22 7 -9 12 -17 12 -22 3 -5 15 -26 6 -14 
5 -13 10 -26 6 -27 3 -15 2 -11 6 -27 2 -26 -3 -27 
-7 -10 -24 -9 -24 12 -9 7 -15 13 -16 14 -8 8 -17 18 
-7 8 -16 19 -8 10 -13 16 -12 16 -8 11 -16 21 -3 5 
-19 27 -2 3 -12 23 -12 20 -5 7 -14 26 -5 10 -9 17 
-14 26 -1 2 -10 25 -13 26 -1 3 -9 24 -11 26 -4 15 
-6 12 -9 26 -9 26 0 1 -8 26 -8 27 -8 24 -2 2 
2 0 5857 285 82 MP stroke
c8
-14 -6 14 -23 2 -3 22 -21 9 -6 15 -13 24 -11 5 -2 
19 -16 24 -10 4 -1 20 -16 24 -9 5 -1 19 -14 24 -9 
24 -4 0 0 24 -11 24 -6 24 -4 24 -3 24 -2 2 0 
22 -5 24 -4 24 -3 24 -2 24 -1 24 0 25 1 24 8 
4 6 -4 2 -20 24 -4 2 -25 12 -12 13 -12 4 -24 14 
-9 8 -15 5 -24 12 -12 10 -12 4 -24 9 -19 13 -5 2 
-24 7 -24 11 -11 7 -13 3 -24 6 -24 9 -17 8 -7 1 
-24 4 -24 4 -24 5 -24 4 -24 4 -24 0 -24 -5 -24 -11 
6145 1339 65 MP
PP
0 sg
0 0 -14 -6 14 -23 2 -3 22 -21 9 -6 15 -13 24 -11 
5 -2 19 -16 24 -10 4 -1 20 -16 24 -9 5 -1 19 -14 
24 -9 24 -4 0 0 24 -11 24 -6 24 -4 24 -3 24 -2 
2 0 22 -5 24 -4 24 -3 24 -2 24 -1 24 0 25 1 
24 8 4 6 -4 2 -20 24 -4 2 -25 12 -12 13 -12 4 
-24 14 -9 8 -15 5 -24 12 -12 10 -12 4 -24 9 -19 13 
-5 2 -24 7 -24 11 -11 7 -13 3 -24 6 -24 9 -17 8 
-7 1 -24 4 -24 4 -24 5 -24 4 -24 4 -24 0 -24 -5 
-24 -11 6145 1339 66 MP stroke
/c27 { 1.000000 0.812500 0.000000 sr} bdef
c27
24 13 24 2 24 -5 24 -9 16 -9 8 -5 24 -16 7 -6 
17 -14 14 -12 10 -10 17 -17 7 -7 18 -19 6 -7 18 -20 
6 -8 16 -18 8 -11 13 -16 11 -15 9 -11 15 -23 3 -4 
15 -26 7 -21 2 -6 -2 -6 -25 -8 -24 4 -24 7 -7 3 
-17 7 -24 10 -20 10 -4 1 -24 13 -24 12 0 0 -24 14 
-21 13 -3 1 -24 16 -12 9 -12 9 -21 18 -3 2 -24 24 
0 0 -21 27 -3 6 -11 20 -8 27 0 26 11 27 8 8 
5977 992 57 MP
PP
0 sg
0 0 24 13 24 2 24 -5 24 -9 16 -9 8 -5 24 -16 
7 -6 17 -14 14 -12 10 -10 17 -17 7 -7 18 -19 6 -7 
18 -20 6 -8 16 -18 8 -11 13 -16 11 -15 9 -11 15 -23 
3 -4 15 -26 7 -21 2 -6 -2 -6 -25 -8 -24 4 -24 7 
-7 3 -17 7 -24 10 -20 10 -4 1 -24 13 -24 12 0 0 
-24 14 -21 13 -3 1 -24 16 -12 9 -12 9 -21 18 -3 2 
-24 24 0 0 -21 27 -3 6 -11 20 -8 27 0 26 11 27 
8 8 5977 992 58 MP stroke
/c28 { 1.000000 0.125000 0.000000 sr} bdef
c28
3 5 21 11 24 1 24 -7 10 -5 14 -7 24 -16 4 -3 
20 -17 11 -10 13 -12 14 -14 10 -12 14 -15 10 -13 11 -13 
13 -19 6 -8 16 -26 2 -11 5 -16 -5 -7 -24 -5 -24 5 
-20 7 -4 1 -24 12 -24 11 -4 3 -20 11 -24 15 0 0 
-24 18 -12 9 -12 11 -16 15 -8 10 -13 17 -11 22 -2 4 
-4 27 6 21 5953 1032 43 MP
PP
0 sg
0 0 3 5 21 11 24 1 24 -7 10 -5 14 -7 24 -16 
4 -3 20 -17 11 -10 13 -12 14 -14 10 -12 14 -15 10 -13 
11 -13 13 -19 6 -8 16 -26 2 -11 5 -16 -5 -7 -24 -5 
-24 5 -20 7 -4 1 -24 12 -24 11 -4 3 -20 11 -24 15 
0 0 -24 18 -12 9 -12 11 -16 15 -8 10 -13 17 -11 22 
-2 4 -4 27 6 21 5953 1032 44 MP stroke
c15
24 7 24 -8 17 -10 7 -5 24 -20 2 -1 22 -25 2 -2 
18 -26 4 -16 4 -11 -4 -3 -24 -2 -16 5 -8 3 -24 14 
-16 10 -8 6 -24 19 -1 1 -21 27 -2 7 -5 19 5 11 
5905 1069 25 MP
PP
0 sg
0 0 24 7 24 -8 17 -10 7 -5 24 -20 2 -1 22 -25 
2 -2 18 -26 4 -16 4 -11 -4 -3 -24 -2 -16 5 -8 3 
-24 14 -16 10 -8 6 -24 19 -1 1 -21 27 -2 7 -5 19 
5 11 5905 1069 26 MP stroke
c8
24 0 24 0 24 0 24 0 20 0 3 -26 1 -19 0 -8 
0 -2 -1 -24 -5 -27 -18 -13 -24 10 -4 3 -20 25 -3 2 
-17 26 -4 8 -11 19 -13 21 -5 5 5 0 5592 285 23 MP
PP
0 sg
0 0 24 0 24 0 24 0 24 0 20 0 3 -26 1 -19 
0 -8 0 -2 -1 -24 -5 -27 -18 -13 -24 10 -4 3 -20 25 
-3 2 -17 26 -4 8 -11 19 -13 21 -5 5 5 0 5592 285 24 MP stroke
gr

0 sg
4 w
DO
SO
6 w
4055 1584 mt 6434 1584 L
4055  285 mt 6434  285 L
4055 1584 mt 4055  285 L
6434 1584 mt 6434  285 L
4055 1584 mt 6434 1584 L
4055 1584 mt 4055  285 L
4443 1584 mt 4443 1560 L
4443  285 mt 4443  308 L
4340 1729 mt 
(-2) s
4843 1584 mt 4843 1560 L
4843  285 mt 4843  308 L
4740 1729 mt 
(-1) s
5244 1584 mt 5244 1560 L
5244  285 mt 5244  308 L
5211 1729 mt 
(0) s
5645 1584 mt 5645 1560 L
5645  285 mt 5645  308 L
5612 1729 mt 
(1) s
6045 1584 mt 6045 1560 L
6045  285 mt 6045  308 L
6012 1729 mt 
(2) s
4055 1357 mt 4078 1357 L
6434 1357 mt 6410 1357 L
3854 1401 mt 
(0.5) s
4055 1117 mt 4078 1117 L
6434 1117 mt 6410 1117 L
3954 1161 mt 
(1) s
4055  878 mt 4078  878 L
6434  878 mt 6410  878 L
3854  922 mt 
(1.5) s
4055  638 mt 4078  638 L
6434  638 mt 6410  638 L
3954  682 mt 
(2) s
4055  398 mt 4078  398 L
6434  398 mt 6410  398 L
3854  442 mt 
(2.5) s
4055 1584 mt 6434 1584 L
4055  285 mt 6434  285 L
4055 1584 mt 4055  285 L
6434 1584 mt 6434  285 L
1 sg
0 1298 2379 0 0 -1298 4055 3387 4 MP
PP
-2379 0 0 1298 2379 0 0 -1298 4055 3387 5 MP stroke
gs 4055 2089 2380 1299 rc
c8
25 0 24 0 24 0 24 0 24 0 24 0 24 0 24 0 
24 0 24 0 24 0 24 0 24 0 24 0 24 0 24 0 
24 0 24 0 24 0 24 0 24 0 24 0 24 0 24 0 
24 0 24 0 24 0 24 0 24 0 24 0 24 0 24 0 
24 0 25 0 24 0 24 0 24 0 24 0 24 0 24 0 
24 0 24 0 24 0 24 0 24 0 24 0 24 0 24 0 
24 0 24 0 24 0 24 0 24 0 24 0 24 0 24 0 
24 0 24 0 24 0 24 0 24 0 24 0 24 0 24 0 
24 0 24 0 25 0 24 0 24 0 24 0 24 0 24 0 
24 0 24 0 24 0 24 0 24 0 24 0 24 0 24 0 
24 0 24 0 24 0 24 0 24 0 24 0 24 0 24 0 
24 0 24 0 24 0 24 0 24 0 24 0 24 0 24 0 
24 0 24 0 24 0 4055 2088 100 MP
-24 0 -24 0 -24 0 -24 0 -24 0 -24 0 -24 0 -24 0 
-24 0 -24 0 -24 0 -24 0 -24 0 -24 0 -24 0 -25 0 
-24 0 -24 0 -24 0 -24 0 -24 0 -24 0 -24 0 -24 0 
-24 0 -24 0 -24 0 -24 0 -24 0 -24 0 -24 0 -24 0 
-24 0 -24 0 -24 0 -24 0 -24 0 -24 0 -24 0 -24 0 
-24 0 -24 0 -24 0 -24 0 -24 0 -24 0 -24 0 -24 0 
-25 0 0 0 0 27 0 26 0 27 0 26 0 27 0 26 
0 27 0 26 0 27 0 26 0 27 0 26 0 27 0 26 
0 27 0 26 0 27 0 26 0 27 0 26 0 27 0 26 
0 27 0 26 0 27 0 26 0 27 0 26 0 27 0 26 
0 27 0 26 0 27 0 26 0 27 0 26 0 27 0 26 
0 27 0 26 0 27 0 26 0 27 0 26 0 27 0 26 
0 27 0 26 0 26 0 1 100 AP
0 -26 0 -26 0 -27 0 -26 0 -27 0 -26 0 -27 0 -26 
0 -27 0 -26 0 -27 0 -26 0 -27 0 -26 0 -27 0 -26 
0 -27 0 -26 0 -27 0 -26 0 -27 0 -26 0 -27 0 -26 
0 -27 0 -26 0 -27 0 -26 0 -27 0 -26 0 -27 0 -26 
0 -27 0 -26 0 -27 0 -26 0 -27 0 -26 0 -27 0 -26 
0 -27 0 -26 0 -27 0 -26 0 -27 0 -26 0 -27 0 -26 
0 -27 -1 0 -24 0 -24 0 -24 0 -24 0 -24 0 -24 0 
-24 0 -24 0 -24 0 -24 0 -24 0 -24 0 -24 0 -24 0 
-24 0 -24 0 -24 0 -24 0 -24 0 -24 0 -24 0 -24 0 
-24 0 -24 0 -24 0 -24 0 -24 0 -24 0 -24 0 -24 0 
-24 0 -24 0 -25 0 -24 0 -24 0 -24 0 -24 0 -24 0 
-24 0 -24 0 -24 0 -24 0 -24 0 -24 0 -24 0 -24 0 
-24 0 -24 0 -24 0 -24 0 100 AP
1 -1 1 AP
PP
0 sg
0 0 1 -1 0 -26 0 -26 0 -27 0 -26 0 -27 0 -26 
0 -27 0 -26 0 -27 0 -26 0 -27 0 -26 0 -27 0 -26 
0 -27 0 -26 0 -27 0 -26 0 -27 0 -26 0 -27 0 -26 
0 -27 0 -26 0 -27 0 -26 0 -27 0 -26 0 -27 0 -26 
0 -27 0 -26 0 -27 0 -26 0 -27 0 -26 0 -27 0 -26 
0 -27 0 -26 0 -27 0 -26 0 -27 0 -26 0 -27 0 -26 
0 -27 0 -26 0 -27 -1 0 -24 0 -24 0 -24 0 -24 0 
-24 0 -24 0 -24 0 -24 0 -24 0 -24 0 -24 0 -24 0 
-24 0 -24 0 -24 0 -24 0 -24 0 -24 0 -24 0 -24 0 
-24 0 -24 0 -24 0 -24 0 -24 0 -24 0 -24 0 -24 0 
-24 0 -24 0 -24 0 -24 0 -25 0 -24 0 -24 0 -24 0 
-24 0 -24 0 -24 0 -24 0 -24 0 -24 0 -24 0 -24 0 
-24 0 -24 0 -24 0 -24 0 -24 0 -24 0 -24 0 -24 0 
-24 0 -24 0 -24 0 -24 0 -24 0 -24 0 -24 0 -24 0 
-24 0 -24 0 -24 0 -24 0 -24 0 -25 0 -24 0 -24 0 
-24 0 -24 0 -24 0 -24 0 -24 0 -24 0 -24 0 -24 0 
-24 0 -24 0 -24 0 -24 0 -24 0 -24 0 -24 0 -24 0 
-24 0 -24 0 -24 0 -24 0 -24 0 -24 0 -24 0 -24 0 
-24 0 -24 0 -24 0 -24 0 -24 0 -24 0 -25 0 0 0 
0 27 0 26 0 27 0 26 0 27 0 26 0 27 0 26 
0 27 0 26 0 27 0 26 0 27 0 26 0 27 0 26 
0 27 0 26 0 27 0 26 0 27 0 26 0 27 0 26 
0 27 0 26 0 27 0 26 0 27 0 26 0 27 0 26 
0 27 0 26 0 27 0 26 0 27 0 26 0 27 0 26 
0 27 0 26 0 27 0 26 0 27 0 26 0 27 0 26 
0 26 0 1 25 0 24 0 24 0 24 0 24 0 24 0 
24 0 24 0 24 0 24 0 24 0 24 0 24 0 24 0 
24 0 24 0 24 0 24 0 24 0 24 0 24 0 24 0 
24 0 24 0 24 0 24 0 24 0 24 0 24 0 24 0 
24 0 24 0 24 0 25 0 24 0 24 0 24 0 24 0 
24 0 24 0 24 0 24 0 24 0 24 0 24 0 24 0 
24 0 24 0 24 0 24 0 24 0 24 0 24 0 24 0 
24 0 24 0 24 0 24 0 24 0 24 0 24 0 24 0 
24 0 24 0 24 0 24 0 25 0 24 0 24 0 24 0 
24 0 24 0 24 0 24 0 24 0 24 0 24 0 24 0 
24 0 24 0 24 0 24 0 24 0 24 0 24 0 24 0 
24 0 24 0 24 0 24 0 24 0 24 0 24 0 24 0 
24 0 24 0 24 0 4103 2088 300 MP stroke
24 0 24 0 4055 2088 3 MP stroke
c16
-24 0 -24 0 -24 0 -24 0 -24 0 -24 0 -24 0 -24 0 
-24 0 -24 0 -24 0 -24 0 -24 0 -24 0 -25 0 -24 0 
-24 0 -24 0 -24 0 -24 0 -24 0 -24 0 -24 0 -24 0 
-24 0 -24 0 -24 0 -24 0 -24 0 -24 0 -24 0 -24 0 
-24 0 -24 0 -24 0 -24 0 -24 0 -24 0 -24 0 -24 0 
-24 0 -24 0 -24 0 -24 0 -24 0 -24 0 -24 0 -25 0 
0 0 0 27 0 26 0 27 0 26 0 27 0 26 0 27 
0 26 0 27 0 26 0 27 0 26 0 27 0 26 0 27 
0 26 0 27 0 26 0 27 0 26 0 27 0 26 0 27 
0 26 0 27 0 26 0 27 0 26 0 27 0 26 0 27 
0 26 0 27 0 26 0 27 0 26 0 27 0 26 0 27 
0 26 0 27 0 26 0 27 0 26 0 27 0 26 0 27 
0 26 0 26 0 1 6434 2088 100 MP
24 0 24 0 24 0 24 0 24 0 24 0 24 0 24 0 
24 0 24 0 24 0 24 0 24 0 25 0 24 0 24 0 
24 0 24 0 24 0 24 0 24 0 24 0 8 0 -8 -11 
-11 -15 -13 -20 -5 -6 -17 -27 -2 -4 -14 -22 -10 -17 -6 -10 
-16 -26 -2 -5 -12 -22 -12 -22 -3 -4 -14 -27 -7 -14 -6 -12 
-13 -27 -5 -9 -8 -17 -13 -27 -3 -6 -10 -20 -12 -27 -3 -5 
-9 -21 -13 -27 -2 -4 -9 -22 -12 -27 -3 -4 -9 -22 -12 -27 
-3 -5 -8 -21 -12 -27 -4 -7 -8 -19 -11 -27 -5 -9 -7 -17 
-12 -27 -5 -11 -6 -15 -12 -27 -6 -13 -5 -13 -11 -27 -8 -15 
-4 -11 -11 -27 -9 -18 -3 -8 -11 -27 -10 -20 -2 -6 -11 -27 
-11 -23 -1 -3 -11 -27 -12 -25 0 -1 -11 -27 -12 -26 -1 -1 
-10 -26 -12 -26 -2 -3 -8 -24 -13 -26 -3 -4 -7 -23 -13 -26 
-4 -2 -3 -25 -21 0 -24 0 100 AP
25 0 24 0 24 0 24 0 24 0 24 0 24 0 24 0 
24 0 24 0 24 0 24 0 24 0 24 0 24 0 24 0 
24 0 24 0 24 0 24 0 24 0 24 0 24 0 24 0 
24 0 24 0 24 0 24 0 24 0 24 0 24 0 24 0 
24 0 25 0 24 0 24 0 24 0 24 0 24 0 24 0 
24 0 24 0 24 0 24 0 24 0 24 0 24 0 24 0 
24 0 24 0 24 0 24 0 24 -1 53 AP
PP
0 sg
0 0 25 0 24 0 24 0 24 0 24 0 24 0 24 0 
24 0 24 0 24 0 24 0 24 0 24 0 24 0 24 0 
24 0 24 0 24 0 24 0 24 0 24 0 24 0 24 0 
24 0 24 0 24 0 24 0 24 0 24 0 24 0 24 0 
24 0 24 0 25 0 24 0 24 0 24 0 24 0 24 0 
24 0 24 0 24 0 24 0 24 0 24 0 24 0 24 0 
24 0 24 0 24 0 24 0 24 0 24 -1 24 0 24 0 
24 0 24 0 24 0 24 0 24 0 24 0 24 0 24 0 
24 0 24 0 24 0 25 0 24 0 24 0 24 0 24 0 
24 0 24 0 24 0 24 0 8 0 -8 -11 -11 -15 -13 -20 
-5 -6 -17 -27 -2 -4 -14 -22 -10 -17 -6 -10 -16 -26 -2 -5 
-12 -22 -12 -22 -3 -4 -14 -27 -7 -14 -6 -12 -13 -27 -5 -9 
-8 -17 -13 -27 -3 -6 -10 -20 -12 -27 -3 -5 -9 -21 -13 -27 
-2 -4 -9 -22 -12 -27 -3 -4 -9 -22 -12 -27 -3 -5 -8 -21 
-12 -27 -4 -7 -8 -19 -11 -27 -5 -9 -7 -17 -12 -27 -5 -11 
-6 -15 -12 -27 -6 -13 -5 -13 -11 -27 -8 -15 -4 -11 -11 -27 
-9 -18 -3 -8 -11 -27 -10 -20 -2 -6 -11 -27 -11 -23 -1 -3 
-11 -27 -12 -25 0 -1 -11 -27 -12 -26 -1 -1 -10 -26 -12 -26 
-2 -3 -8 -24 -13 -26 -3 -4 -7 -23 -13 -26 -4 -2 -3 -25 
-21 0 -24 0 -24 0 -24 0 -24 0 -24 0 -24 0 -24 0 
-24 0 -24 0 -24 0 -24 0 -24 0 -24 0 -24 0 -24 0 
-25 0 -24 0 -24 0 -24 0 -24 0 -24 0 -24 0 -24 0 
-24 0 -24 0 -24 0 -24 0 -24 0 -24 0 -24 0 -24 0 
-24 0 -24 0 -24 0 -24 0 -24 0 -24 0 -24 0 -24 0 
-24 0 -24 0 -24 0 -24 0 -24 0 -24 0 -24 0 -24 0 
-24 0 -25 0 0 0 0 27 0 26 0 27 0 26 0 27 
0 26 0 27 0 26 0 27 0 26 0 27 0 26 0 27 
0 26 0 27 0 26 0 27 0 26 0 27 0 26 0 27 
0 26 0 27 0 26 0 27 0 26 0 27 0 26 0 27 
0 26 0 27 0 26 0 27 0 26 0 27 0 26 0 27 
0 26 0 27 0 26 0 27 0 26 0 27 0 26 0 27 
0 26 0 27 0 26 0 26 0 1 6434 2088 254 MP stroke
c17
-24 0 -24 0 -24 0 -24 0 -24 0 -24 0 -24 0 -24 0 
-24 0 -24 0 -24 0 -24 0 -24 0 -24 0 -25 0 -24 0 
-24 0 -24 0 -24 0 -24 0 -24 0 -24 0 -24 0 -24 0 
-24 0 -24 0 -24 0 -24 0 -24 0 -24 0 -24 0 -24 0 
-24 0 -24 0 -24 0 -24 0 -24 0 -24 0 -24 0 -24 0 
-24 0 -24 0 -24 0 -24 0 -24 0 -24 0 -24 0 -25 0 
0 0 0 27 0 26 0 27 0 26 0 27 0 26 0 27 
0 26 0 27 0 26 0 27 0 26 0 27 0 26 0 27 
0 26 0 27 0 26 0 27 0 26 0 27 0 26 0 27 
0 26 0 27 0 26 0 27 0 26 0 27 0 26 0 27 
0 26 0 27 0 26 0 27 0 26 0 27 0 26 0 27 
0 26 0 27 0 26 0 27 0 26 0 27 0 26 0 27 
0 26 0 26 0 1 6434 2088 100 MP
24 0 24 0 24 0 24 0 24 0 24 0 24 0 24 0 
24 0 24 0 24 0 24 -1 23 0 1 0 24 -25 1 -1 
23 -20 7 -6 17 -15 14 -12 10 -8 22 -18 2 -2 24 -19 
7 -6 17 -14 15 -12 9 -8 22 -19 2 -2 24 -21 4 -3 
20 -19 9 -8 15 -15 12 -11 12 -13 14 -14 10 -11 14 -15 
10 -11 14 -16 10 -12 12 -14 12 -16 9 -11 15 -20 5 -6 
19 -27 1 0 18 -26 6 -8 12 -19 12 -17 5 -9 17 -27 
2 -2 14 -24 10 -16 6 -11 15 -26 3 -5 12 -22 12 -22 
2 -4 14 -27 8 -15 5 -11 14 -27 5 -10 8 -16 13 -27 
3 -6 9 -20 12 -27 3 -5 10 -21 11 -27 3 -5 10 -21 
11 -27 3 -7 9 -19 11 -27 4 -10 7 -16 11 -27 6 -16 
4 -10 11 -27 9 -26 0 -1 11 -26 8 -26 5 -15 4 -12 
8 -26 3 -27 -15 0 -24 0 100 AP
25 0 1 AP
PP
0 sg
0 0 25 0 24 0 24 0 24 0 24 0 24 0 24 0 
24 0 24 0 24 0 24 0 24 0 24 -1 23 0 1 0 
24 -25 1 -1 23 -20 7 -6 17 -15 14 -12 10 -8 22 -18 
2 -2 24 -19 7 -6 17 -14 15 -12 9 -8 22 -19 2 -2 
24 -21 4 -3 20 -19 9 -8 15 -15 12 -11 12 -13 14 -14 
10 -11 14 -15 10 -11 14 -16 10 -12 12 -14 12 -16 9 -11 
15 -20 5 -6 19 -27 1 0 18 -26 6 -8 12 -19 12 -17 
5 -9 17 -27 2 -2 14 -24 10 -16 6 -11 15 -26 3 -5 
12 -22 12 -22 2 -4 14 -27 8 -15 5 -11 14 -27 5 -10 
8 -16 13 -27 3 -6 9 -20 12 -27 3 -5 10 -21 11 -27 
3 -5 10 -21 11 -27 3 -7 9 -19 11 -27 4 -10 7 -16 
11 -27 6 -16 4 -10 11 -27 9 -26 0 -1 11 -26 8 -26 
5 -15 4 -12 8 -26 3 -27 -15 0 -24 0 -24 0 -24 0 
-24 0 -24 0 -24 0 -24 0 -24 0 -24 0 -24 0 -24 0 
-24 0 -24 0 -24 0 -24 0 -25 0 -24 0 -24 0 -24 0 
-24 0 -24 0 -24 0 -24 0 -24 0 -24 0 -24 0 -24 0 
-24 0 -24 0 -24 0 -24 0 -24 0 -24 0 -24 0 -24 0 
-24 0 -24 0 -24 0 -24 0 -24 0 -24 0 -24 0 -24 0 
-24 0 -24 0 -24 0 -24 0 -24 0 -25 0 0 0 0 27 
0 26 0 27 0 26 0 27 0 26 0 27 0 26 0 27 
0 26 0 27 0 26 0 27 0 26 0 27 0 26 0 27 
0 26 0 27 0 26 0 27 0 26 0 27 0 26 0 27 
0 26 0 27 0 26 0 27 0 26 0 27 0 26 0 27 
0 26 0 27 0 26 0 27 0 26 0 27 0 26 0 27 
0 26 0 27 0 26 0 27 0 26 0 27 0 26 0 26 
0 1 6434 2088 202 MP stroke
/c29 { 0.000000 0.500000 1.000000 sr} bdef
c29
-24 0 -24 0 -24 0 -24 0 -24 0 -24 0 -24 0 -24 0 
-24 0 -24 0 -24 0 -24 0 -24 0 -24 0 -25 0 -24 0 
-24 0 -24 0 -24 0 -24 0 -24 0 -24 0 -24 0 -24 0 
-24 0 -24 0 -14 0 -10 16 -6 11 -18 15 -12 11 -12 9 
-24 18 0 0 -24 16 -15 10 -9 6 -24 17 -6 4 -18 12 
-20 14 -4 3 -24 17 -10 7 -14 10 -22 16 -2 2 -24 17 
-10 8 -14 10 -21 16 -3 3 -24 18 -8 6 -16 12 -19 14 
-5 5 -24 18 -5 4 -19 14 -17 12 -7 6 -25 18 0 3 
0 26 0 27 0 26 0 27 0 26 0 27 0 26 0 27 
0 26 0 27 0 26 0 27 0 26 0 27 0 26 0 27 
0 26 0 27 0 26 0 27 0 26 0 27 0 26 0 27 
0 26 0 27 0 26 0 27 0 26 0 27 0 26 0 27 
0 26 0 26 0 1 6434 2088 100 MP
24 0 24 0 7 -1 17 -15 11 -11 13 -12 16 -14 8 -8 
22 -19 2 -2 24 -17 11 -7 13 -9 24 -16 3 -2 21 -12 
23 -14 1 -1 24 -15 17 -11 7 -4 24 -16 9 -6 15 -11 
22 -16 2 -1 24 -18 9 -7 15 -12 18 -15 6 -5 24 -20 
2 -1 22 -20 8 -7 16 -15 12 -11 12 -12 16 -15 8 -8 
18 -18 6 -7 19 -20 5 -5 19 -21 5 -6 19 -21 5 -6 
17 -20 7 -9 15 -18 9 -11 12 -15 12 -16 9 -11 15 -20 
5 -6 19 -27 1 0 19 -26 5 -7 13 -20 11 -15 7 -11 
17 -24 1 -3 18 -26 5 -8 12 -19 12 -18 5 -8 17 -27 
2 -3 14 -23 10 -16 6 -11 16 -26 2 -3 14 -24 10 -16 
6 -10 15 -27 3 -5 12 -21 12 -21 3 -6 14 -26 7 -12 
8 -15 13 -26 3 -5 11 -22 13 -26 0 0 12 -27 11 -26 
1 -1 8 -26 -8 0 -24 0 100 AP
25 0 1 AP
PP
0 sg
0 0 25 0 24 0 24 0 7 -1 17 -15 11 -11 13 -12 
16 -14 8 -8 22 -19 2 -2 24 -17 11 -7 13 -9 24 -16 
3 -2 21 -12 23 -14 1 -1 24 -15 17 -11 7 -4 24 -16 
9 -6 15 -11 22 -16 2 -1 24 -18 9 -7 15 -12 18 -15 
6 -5 24 -20 2 -1 22 -20 8 -7 16 -15 12 -11 12 -12 
16 -15 8 -8 18 -18 6 -7 19 -20 5 -5 19 -21 5 -6 
19 -21 5 -6 17 -20 7 -9 15 -18 9 -11 12 -15 12 -16 
9 -11 15 -20 5 -6 19 -27 1 0 19 -26 5 -7 13 -20 
11 -15 7 -11 17 -24 1 -3 18 -26 5 -8 12 -19 12 -18 
5 -8 17 -27 2 -3 14 -23 10 -16 6 -11 16 -26 2 -3 
14 -24 10 -16 6 -10 15 -27 3 -5 12 -21 12 -21 3 -6 
14 -26 7 -12 8 -15 13 -26 3 -5 11 -22 13 -26 0 0 
12 -27 11 -26 1 -1 8 -26 -8 0 -24 0 -24 0 -24 0 
-24 0 -24 0 -24 0 -24 0 -24 0 -24 0 -24 0 -24 0 
-24 0 -24 0 -24 0 -24 0 -25 0 -24 0 -24 0 -24 0 
-24 0 -24 0 -24 0 -24 0 -24 0 -24 0 -24 0 -24 0 
-14 0 -10 16 -6 11 -18 15 -12 11 -12 9 -24 18 0 0 
-24 16 -15 10 -9 6 -24 17 -6 4 -18 12 -20 14 -4 3 
-24 17 -10 7 -14 10 -22 16 -2 2 -24 17 -10 8 -14 10 
-21 16 -3 3 -24 18 -8 6 -16 12 -19 14 -5 5 -24 18 
-5 4 -19 14 -17 12 -7 6 -25 18 0 3 0 26 0 27 
0 26 0 27 0 26 0 27 0 26 0 27 0 26 0 27 
0 26 0 27 0 26 0 27 0 26 0 27 0 26 0 27 
0 26 0 27 0 26 0 27 0 26 0 27 0 26 0 27 
0 26 0 27 0 26 0 27 0 26 0 27 0 26 0 26 
0 1 6434 2088 202 MP stroke
c25
-24 0 -24 0 -24 0 -24 0 -24 0 -24 0 -24 0 -24 0 
-24 0 -20 0 -4 2 -24 9 -24 12 -9 4 -15 5 -24 8 
-25 10 -6 3 -18 6 -24 9 -24 10 -3 2 -21 7 -24 10 
-20 9 -4 2 -24 10 -24 11 -9 4 -15 6 -24 11 -17 9 
-7 3 -24 12 -22 12 -2 1 -24 12 -24 13 0 1 -24 12 
-23 14 -1 1 -24 13 -19 12 -5 3 -24 15 -14 9 -10 6 
-24 16 -7 4 -17 12 -22 15 -2 1 -24 17 -12 8 -12 8 
-24 18 -1 1 -23 16 -14 10 -10 8 -24 18 -1 1 -23 17 
-12 9 -12 9 -22 18 -3 2 0 24 0 27 0 26 0 27 
0 26 0 27 0 26 0 27 0 26 0 27 0 26 0 27 
0 26 0 27 0 26 0 27 0 26 0 27 0 26 0 27 
0 26 0 27 0 26 0 27 0 26 0 27 0 26 0 27 
0 26 0 26 0 1 6434 2088 100 MP
22 -1 2 -2 20 -24 4 -5 16 -21 8 -12 12 -15 12 -17 
8 -9 16 -19 8 -8 16 -16 12 -10 12 -11 19 -16 5 -4 
24 -18 6 -4 18 -13 20 -14 4 -3 24 -16 10 -7 14 -10 
23 -17 1 0 24 -18 11 -8 13 -10 21 -17 3 -2 24 -19 
6 -5 18 -16 13 -11 11 -10 18 -16 6 -6 22 -21 2 -2 
24 -23 1 -1 23 -24 3 -3 21 -22 5 -4 19 -22 5 -5 
19 -21 5 -5 19 -22 4 -5 20 -24 3 -2 21 -27 1 0 
21 -26 2 -3 20 -24 4 -6 17 -20 8 -10 12 -17 12 -15 
8 -11 16 -21 4 -6 19 -26 1 -1 19 -26 5 -6 14 -20 
10 -14 9 -13 15 -21 3 -5 19 -27 2 -3 16 -23 8 -11 
10 -16 14 -20 4 -6 17 -27 3 -4 14 -22 10 -15 7 -12 
17 -26 0 0 16 -27 8 -12 7 -14 15 -27 2 -2 12 -24 
12 -21 2 -6 -2 0 -24 0 100 AP
25 0 1 AP
PP
0 sg
0 0 25 0 22 -1 2 -2 20 -24 4 -5 16 -21 8 -12 
12 -15 12 -17 8 -9 16 -19 8 -8 16 -16 12 -10 12 -11 
19 -16 5 -4 24 -18 6 -4 18 -13 20 -14 4 -3 24 -16 
10 -7 14 -10 23 -17 1 0 24 -18 11 -8 13 -10 21 -17 
3 -2 24 -19 6 -5 18 -16 13 -11 11 -10 18 -16 6 -6 
22 -21 2 -2 24 -23 1 -1 23 -24 3 -3 21 -22 5 -4 
19 -22 5 -5 19 -21 5 -5 19 -22 4 -5 20 -24 3 -2 
21 -27 1 0 21 -26 2 -3 20 -24 4 -6 17 -20 8 -10 
12 -17 12 -15 8 -11 16 -21 4 -6 19 -26 1 -1 19 -26 
5 -6 14 -20 10 -14 9 -13 15 -21 3 -5 19 -27 2 -3 
16 -23 8 -11 10 -16 14 -20 4 -6 17 -27 3 -4 14 -22 
10 -15 7 -12 17 -26 0 0 16 -27 8 -12 7 -14 15 -27 
2 -2 12 -24 12 -21 2 -6 -2 0 -24 0 -24 0 -24 0 
-24 0 -24 0 -24 0 -24 0 -24 0 -24 0 -24 0 -20 0 
-4 2 -24 9 -24 12 -9 4 -15 5 -24 8 -25 10 -6 3 
-18 6 -24 9 -24 10 -3 2 -21 7 -24 10 -20 9 -4 2 
-24 10 -24 11 -9 4 -15 6 -24 11 -17 9 -7 3 -24 12 
-22 12 -2 1 -24 12 -24 13 0 1 -24 12 -23 14 -1 1 
-24 13 -19 12 -5 3 -24 15 -14 9 -10 6 -24 16 -7 4 
-17 12 -22 15 -2 1 -24 17 -12 8 -12 8 -24 18 -1 1 
-23 16 -14 10 -10 8 -24 18 -1 1 -23 17 -12 9 -12 9 
-22 18 -3 2 0 24 0 27 0 26 0 27 0 26 0 27 
0 26 0 27 0 26 0 27 0 26 0 27 0 26 0 27 
0 26 0 27 0 26 0 27 0 26 0 27 0 26 0 27 
0 26 0 27 0 26 0 27 0 26 0 27 0 26 0 26 
0 1 6434 2088 202 MP stroke
c11
-24 0 -24 0 -24 0 -24 0 -2 0 -22 8 -24 9 -21 10 
-3 1 -24 8 -24 9 -20 8 -4 2 -24 9 -24 9 -16 7 
-8 3 -24 10 -25 10 -8 3 -16 7 -24 10 -22 10 -2 1 
-24 10 -24 11 -9 4 -15 7 -24 11 -18 9 -6 3 -24 11 
-23 12 -1 1 -24 11 -24 13 -3 2 -21 11 -24 13 -4 2 
-20 11 -24 14 -3 2 -21 12 -23 14 -1 1 -24 14 -19 12 
-5 3 -24 15 -12 8 -12 8 -24 16 -4 3 -20 13 -19 13 
-5 4 -24 17 -9 6 -15 11 -21 15 -3 3 -24 18 -8 6 
-16 12 -18 14 -6 5 -24 20 -3 2 -22 18 0 8 0 27 
0 26 0 27 0 26 0 27 0 26 0 27 0 26 0 27 
0 26 0 27 0 26 0 27 0 26 0 27 0 26 0 27 
0 26 0 27 0 26 0 27 0 26 0 27 0 26 0 27 
0 26 0 26 0 1 6434 2088 100 MP
25 0 8 -1 15 -26 1 -2 12 -24 11 -27 1 -2 11 -24 
13 -22 3 -5 20 -26 1 -1 24 -26 0 0 24 -22 5 -4 
19 -16 13 -11 11 -8 23 -18 1 -1 24 -17 12 -9 12 -9 
24 -17 0 0 24 -18 12 -9 12 -9 22 -17 2 -2 24 -18 
8 -7 16 -13 16 -13 8 -7 22 -20 2 -2 24 -21 3 -3 
21 -20 8 -7 16 -16 11 -10 13 -13 13 -14 11 -11 15 -15 
9 -10 16 -17 8 -9 16 -17 8 -9 16 -18 8 -9 15 -17 
9 -10 14 -17 10 -11 13 -15 11 -14 11 -13 13 -16 9 -10 
16 -19 6 -8 18 -22 3 -4 21 -26 0 -1 21 -26 3 -3 
18 -24 6 -7 14 -19 10 -12 11 -15 13 -16 7 -10 17 -23 
3 -4 19 -26 2 -2 18 -25 6 -7 13 -19 11 -15 8 -12 
16 -22 3 -4 18 -27 3 -4 14 -22 10 -14 7 -13 17 -26 
0 0 10 -27 -10 0 99 AP
PP
0 sg
0 0 25 0 8 -1 15 -26 1 -2 12 -24 11 -27 1 -2 
11 -24 13 -22 3 -5 20 -26 1 -1 24 -26 0 0 24 -22 
5 -4 19 -16 13 -11 11 -8 23 -18 1 -1 24 -17 12 -9 
12 -9 24 -17 0 0 24 -18 12 -9 12 -9 22 -17 2 -2 
24 -18 8 -7 16 -13 16 -13 8 -7 22 -20 2 -2 24 -21 
3 -3 21 -20 8 -7 16 -16 11 -10 13 -13 13 -14 11 -11 
15 -15 9 -10 16 -17 8 -9 16 -17 8 -9 16 -18 8 -9 
15 -17 9 -10 14 -17 10 -11 13 -15 11 -14 11 -13 13 -16 
9 -10 16 -19 6 -8 18 -22 3 -4 21 -26 0 -1 21 -26 
3 -3 18 -24 6 -7 14 -19 10 -12 11 -15 13 -16 7 -10 
17 -23 3 -4 19 -26 2 -2 18 -25 6 -7 13 -19 11 -15 
8 -12 16 -22 3 -4 18 -27 3 -4 14 -22 10 -14 7 -13 
17 -26 0 0 10 -27 -10 0 -24 0 -24 0 -24 0 -24 0 
-2 0 -22 8 -24 9 -21 10 -3 1 -24 8 -24 9 -20 8 
-4 2 -24 9 -24 9 -16 7 -8 3 -24 10 -25 10 -8 3 
-16 7 -24 10 -22 10 -2 1 -24 10 -24 11 -9 4 -15 7 
-24 11 -18 9 -6 3 -24 11 -23 12 -1 1 -24 11 -24 13 
-3 2 -21 11 -24 13 -4 2 -20 11 -24 14 -3 2 -21 12 
-23 14 -1 1 -24 14 -19 12 -5 3 -24 15 -12 8 -12 8 
-24 16 -4 3 -20 13 -19 13 -5 4 -24 17 -9 6 -15 11 
-21 15 -3 3 -24 18 -8 6 -16 12 -18 14 -6 5 -24 20 
-3 2 -22 18 0 8 0 27 0 26 0 27 0 26 0 27 
0 26 0 27 0 26 0 27 0 26 0 27 0 26 0 27 
0 26 0 27 0 26 0 27 0 26 0 27 0 26 0 27 
0 26 0 27 0 26 0 27 0 26 0 26 0 1 6434 2088 200 MP stroke
c20
1 -2 -1 -4 -24 -8 -24 6 -19 6 -5 2 -24 9 -24 9 
-16 6 -8 4 -24 10 -24 10 -8 3 -16 7 -24 10 -22 9 
-2 2 -24 10 -24 11 -10 4 -15 7 -24 11 -18 8 -6 3 
-24 11 -24 12 -2 1 -22 10 -24 12 -8 4 -16 8 -24 12 
-13 7 -11 6 -24 12 -15 8 -9 5 -24 13 -16 9 -8 4 
-24 13 -15 9 -9 5 -24 14 -13 8 -11 7 -24 14 -8 5 
-16 10 -24 15 -3 2 -21 13 -19 13 -5 3 -24 16 -11 8 
-13 9 -24 17 -1 0 -23 17 -13 10 -11 8 -24 18 0 0 
-24 19 -10 8 -14 11 -18 15 -6 5 -24 21 -1 1 -24 20 
0 6 0 27 0 26 0 27 0 26 0 27 0 26 0 27 
0 26 0 27 0 26 0 27 0 26 0 27 0 26 0 27 
0 26 0 27 0 26 0 27 0 26 0 27 0 26 0 27 
0 26 0 26 0 1 6434 2088 100 MP
21 -1 4 -14 6 -12 -2 -26 -4 -17 -7 -10 7 -18 2 -8 
17 -27 5 -6 16 -20 8 -9 16 -18 8 -8 19 -18 5 -5 
24 -21 0 -1 24 -19 8 -7 16 -12 18 -15 6 -4 24 -18 
5 -4 19 -14 17 -13 7 -5 24 -18 4 -3 20 -15 15 -12 
9 -7 24 -19 0 0 24 -19 9 -8 15 -13 16 -13 8 -7 
22 -20 2 -2 24 -22 2 -2 22 -21 6 -6 18 -17 9 -9 
15 -15 12 -12 12 -12 13 -14 11 -12 15 -15 9 -10 15 -16 
9 -10 15 -17 9 -10 15 -16 9 -10 15 -17 9 -11 14 -15 
10 -12 13 -15 11 -13 12 -13 13 -15 9 -12 15 -17 7 -9 
17 -19 5 -8 19 -22 3 -4 21 -25 1 -2 22 -26 1 -1 
20 -26 4 -4 17 -22 7 -8 14 -19 10 -12 11 -14 13 -17 
7 -10 17 -21 3 -5 20 -27 1 0 17 -26 7 -10 10 -17 
14 -24 97 AP
PP
0 sg
0 0 21 -1 4 -14 6 -12 -2 -26 -4 -17 -7 -10 7 -18 
2 -8 17 -27 5 -6 16 -20 8 -9 16 -18 8 -8 19 -18 
5 -5 24 -21 0 -1 24 -19 8 -7 16 -12 18 -15 6 -4 
24 -18 5 -4 19 -14 17 -13 7 -5 24 -18 4 -3 20 -15 
15 -12 9 -7 24 -19 0 0 24 -19 9 -8 15 -13 16 -13 
8 -7 22 -20 2 -2 24 -22 2 -2 22 -21 6 -6 18 -17 
9 -9 15 -15 12 -12 12 -12 13 -14 11 -12 15 -15 9 -10 
15 -16 9 -10 15 -17 9 -10 15 -16 9 -10 15 -17 9 -11 
14 -15 10 -12 13 -15 11 -13 12 -13 13 -15 9 -12 15 -17 
7 -9 17 -19 5 -8 19 -22 3 -4 21 -25 1 -2 22 -26 
1 -1 20 -26 4 -4 17 -22 7 -8 14 -19 10 -12 11 -14 
13 -17 7 -10 17 -21 3 -5 20 -27 1 0 17 -26 7 -10 
10 -17 14 -24 1 -2 -1 -4 -24 -8 -24 6 -19 6 -5 2 
-24 9 -24 9 -16 6 -8 4 -24 10 -24 10 -8 3 -16 7 
-24 10 -22 9 -2 2 -24 10 -24 11 -10 4 -15 7 -24 11 
-18 8 -6 3 -24 11 -24 12 -2 1 -22 10 -24 12 -8 4 
-16 8 -24 12 -13 7 -11 6 -24 12 -15 8 -9 5 -24 13 
-16 9 -8 4 -24 13 -15 9 -9 5 -24 14 -13 8 -11 7 
-24 14 -8 5 -16 10 -24 15 -3 2 -21 13 -19 13 -5 3 
-24 16 -11 8 -13 9 -24 17 -1 0 -23 17 -13 10 -11 8 
-24 18 0 0 -24 19 -10 8 -14 11 -18 15 -6 5 -24 21 
-1 1 -24 20 0 6 0 27 0 26 0 27 0 26 0 27 
0 26 0 27 0 26 0 27 0 26 0 27 0 26 0 27 
0 26 0 27 0 26 0 27 0 26 0 27 0 26 0 27 
0 26 0 27 0 26 0 26 0 1 6434 2088 198 MP stroke
c21
15 -18 7 -9 17 -21 4 -5 20 -24 1 -3 20 -26 3 -4 
15 -23 9 -18 5 -8 -5 -8 -24 0 -24 6 -7 2 -17 8 
-24 9 -24 9 0 1 -24 11 -24 10 -11 5 -13 6 -24 12 
-20 8 -4 3 -25 11 -24 12 -2 1 -22 11 -24 11 -8 4 
-16 9 -24 12 -12 6 -12 6 -24 12 -15 8 -9 5 -24 13 
-17 9 -7 4 -24 13 -17 9 -7 4 -24 13 -16 10 -8 4 
-24 14 -14 8 -10 6 -24 15 -10 6 -14 9 -24 15 -4 2 
-20 13 -21 14 -3 2 -24 16 -13 8 -11 8 -24 17 -3 2 
-21 15 -15 11 -9 7 -24 19 -2 1 -22 17 -11 9 -13 11 
-19 16 -5 4 -24 21 -2 1 -22 21 -7 6 -18 17 0 9 
0 27 0 26 0 27 0 26 0 27 0 26 0 27 0 26 
0 27 0 26 0 27 0 26 0 27 0 26 0 27 0 26 
0 27 0 26 0 1 6434 2220 100 MP
1 -1 20 -26 4 -4 19 -23 5 -5 20 -21 4 -5 23 -22 
1 -1 24 -21 4 -4 20 -17 12 -10 12 -9 21 -17 3 -2 
24 -19 8 -6 16 -12 19 -14 5 -4 24 -18 6 -5 18 -14 
16 -12 8 -6 24 -20 1 -1 23 -18 10 -8 14 -12 17 -15 
7 -6 23 -20 1 -1 24 -22 4 -4 20 -19 8 -7 16 -16 
12 -11 12 -12 14 -14 10 -10 16 -17 8 -8 18 -18 6 -7 
19 -20 5 -5 20 -21 4 -5 20 -22 4 -4 20 -22 4 -5 
20 -22 4 -4 20 -22 4 -5 19 -22 5 -6 18 -20 7 -7 
16 -20 8 -8 15 -18 9 -10 14 -17 10 -11 12 -15 12 -13 
11 -14 13 -15 9 -11 75 AP
PP
0 sg
0 0 1 -1 20 -26 4 -4 19 -23 5 -5 20 -21 4 -5 
23 -22 1 -1 24 -21 4 -4 20 -17 12 -10 12 -9 21 -17 
3 -2 24 -19 8 -6 16 -12 19 -14 5 -4 24 -18 6 -5 
18 -14 16 -12 8 -6 24 -20 1 -1 23 -18 10 -8 14 -12 
17 -15 7 -6 23 -20 1 -1 24 -22 4 -4 20 -19 8 -7 
16 -16 12 -11 12 -12 14 -14 10 -10 16 -17 8 -8 18 -18 
6 -7 19 -20 5 -5 20 -21 4 -5 20 -22 4 -4 20 -22 
4 -5 20 -22 4 -4 20 -22 4 -5 19 -22 5 -6 18 -20 
7 -7 16 -20 8 -8 15 -18 9 -10 14 -17 10 -11 12 -15 
12 -13 11 -14 13 -15 9 -11 15 -18 7 -9 17 -21 4 -5 
20 -24 1 -3 20 -26 3 -4 15 -23 9 -18 5 -8 -5 -8 
-24 0 -24 6 -7 2 -17 8 -24 9 -24 9 0 1 -24 11 
-24 10 -11 5 -13 6 -24 12 -20 8 -4 3 -25 11 -24 12 
-2 1 -22 11 -24 11 -8 4 -16 9 -24 12 -12 6 -12 6 
-24 12 -15 8 -9 5 -24 13 -17 9 -7 4 -24 13 -17 9 
-7 4 -24 13 -16 10 -8 4 -24 14 -14 8 -10 6 -24 15 
-10 6 -14 9 -24 15 -4 2 -20 13 -21 14 -3 2 -24 16 
-13 8 -11 8 -24 17 -3 2 -21 15 -15 11 -9 7 -24 19 
-2 1 -22 17 -11 9 -13 11 -19 16 -5 4 -24 21 -2 1 
-22 21 -7 6 -18 17 0 9 0 27 0 26 0 27 0 26 
0 27 0 26 0 27 0 26 0 27 0 26 0 27 0 26 
0 27 0 26 0 27 0 26 0 27 0 26 0 1 6434 2220 176 MP stroke
c13
2 -2 22 -25 2 -2 22 -25 1 -1 23 -26 1 -1 23 -26 
1 -1 21 -26 3 -2 20 -24 4 -5 17 -22 7 -8 14 -18 
10 -13 10 -14 14 -21 4 -5 4 -27 -8 -3 -24 3 -1 0 
-23 11 -24 9 -20 7 -4 2 -24 12 -25 10 -4 2 -20 10 
-24 11 -11 6 -13 6 -24 12 -16 8 -8 4 -24 13 -19 10 
-5 2 -24 13 -21 11 -3 2 -24 13 -22 12 -2 1 -24 13 
-21 12 -3 2 -24 14 -19 11 -5 3 -24 14 -15 9 -9 6 
-24 15 -10 6 -14 9 -24 15 -3 2 -21 14 -19 13 -5 4 
-24 16 -9 6 -15 12 -21 15 -3 2 -24 19 -7 5 -17 14 
-16 13 -8 6 -24 20 0 1 -24 21 -6 5 -18 17 -10 9 
-14 14 -13 13 -12 12 0 14 0 27 0 26 0 27 0 26 
0 27 0 26 0 27 0 26 0 27 0 26 0 27 0 26 
0 27 0 26 0 8 6434 2266 100 MP
7 -8 18 -21 4 -5 20 -22 4 -5 20 -19 7 -7 17 -16 
12 -11 12 -10 19 -16 5 -4 24 -19 4 -4 20 -15 14 -11 
10 -8 24 -18 1 -1 23 -18 11 -8 13 -10 21 -17 3 -2 
24 -19 6 -5 18 -15 14 -12 10 -8 22 -18 2 -2 24 -22 
4 -3 20 -18 9 -8 15 -15 13 -12 11 -10 16 -16 8 -8 
19 -19 5 -5 22 -21 2 -3 23 -24 1 -1 24 -25 1 0 
23 -25 1 -2 23 -24 2 -2 22 -25 2 -2 22 -24 55 AP
PP
0 sg
0 0 7 -8 18 -21 4 -5 20 -22 4 -5 20 -19 7 -7 
17 -16 12 -11 12 -10 19 -16 5 -4 24 -19 4 -4 20 -15 
14 -11 10 -8 24 -18 1 -1 23 -18 11 -8 13 -10 21 -17 
3 -2 24 -19 6 -5 18 -15 14 -12 10 -8 22 -18 2 -2 
24 -22 4 -3 20 -18 9 -8 15 -15 13 -12 11 -10 16 -16 
8 -8 19 -19 5 -5 22 -21 2 -3 23 -24 1 -1 24 -25 
1 0 23 -25 1 -2 23 -24 2 -2 22 -25 2 -2 22 -24 
2 -2 22 -25 2 -2 22 -25 1 -1 23 -26 1 -1 23 -26 
1 -1 21 -26 3 -2 20 -24 4 -5 17 -22 7 -8 14 -18 
10 -13 10 -14 14 -21 4 -5 4 -27 -8 -3 -24 3 -1 0 
-23 11 -24 9 -20 7 -4 2 -24 12 -25 10 -4 2 -20 10 
-24 11 -11 6 -13 6 -24 12 -16 8 -8 4 -24 13 -19 10 
-5 2 -24 13 -21 11 -3 2 -24 13 -22 12 -2 1 -24 13 
-21 12 -3 2 -24 14 -19 11 -5 3 -24 14 -15 9 -9 6 
-24 15 -10 6 -14 9 -24 15 -3 2 -21 14 -19 13 -5 4 
-24 16 -9 6 -15 12 -21 15 -3 2 -24 19 -7 5 -17 14 
-16 13 -8 6 -24 20 0 1 -24 21 -6 5 -18 17 -10 9 
-14 14 -13 13 -12 12 0 14 0 27 0 26 0 27 0 26 
0 27 0 26 0 27 0 26 0 27 0 26 0 27 0 26 
0 27 0 26 0 8 6434 2266 156 MP stroke
c22
24 -21 2 -2 22 -19 8 -7 16 -15 13 -12 11 -10 17 -16 
7 -7 20 -20 4 -4 23 -22 1 -2 24 -24 0 -1 24 -25 
2 -1 22 -24 2 -3 22 -24 3 -2 21 -25 2 -2 22 -25 
1 -1 23 -27 0 0 22 -26 2 -4 19 -23 5 -8 14 -18 
10 -18 7 -9 8 -26 -15 -8 -24 3 -15 5 -9 3 -24 10 
-24 10 -8 3 -16 8 -24 11 -16 8 -8 4 -24 12 -20 10 
-4 2 -24 13 -22 12 -2 1 -24 14 -21 11 -3 2 -24 14 
-19 11 -5 3 -24 15 -14 8 -10 6 -24 16 -8 5 -16 10 
-24 16 0 0 -24 17 -14 10 -10 7 -24 18 -2 1 -22 17 
-12 10 -12 9 -21 17 -3 3 -24 21 -4 3 -20 18 -9 8 
-15 15 -12 12 -12 12 -14 14 -10 11 -15 16 -10 10 0 16 
0 27 0 26 0 27 0 26 0 27 0 26 0 27 0 26 
0 27 0 26 0 13 6434 2314 100 MP
11 -13 14 -15 11 -11 13 -14 13 -13 11 -10 18 -16 6 -5 
24 -20 2 -2 22 -18 10 -8 14 -11 20 -16 4 -3 24 -18 
6 -5 18 -14 17 -13 7 -5 24 -19 3 -2 21 -18 11 -9 
13 -10 19 -16 5 -4 27 AP
PP
0 sg
0 0 11 -13 14 -15 11 -11 13 -14 13 -13 11 -10 18 -16 
6 -5 24 -20 2 -2 22 -18 10 -8 14 -11 20 -16 4 -3 
24 -18 6 -5 18 -14 17 -13 7 -5 24 -19 3 -2 21 -18 
11 -9 13 -10 19 -16 5 -4 24 -21 2 -2 22 -19 8 -7 
16 -15 13 -12 11 -10 17 -16 7 -7 20 -20 4 -4 23 -22 
1 -2 24 -24 0 -1 24 -25 2 -1 22 -24 2 -3 22 -24 
3 -2 21 -25 2 -2 22 -25 1 -1 23 -27 0 0 22 -26 
2 -4 19 -23 5 -8 14 -18 10 -18 7 -9 8 -26 -15 -8 
-24 3 -15 5 -9 3 -24 10 -24 10 -8 3 -16 8 -24 11 
-16 8 -8 4 -24 12 -20 10 -4 2 -24 13 -22 12 -2 1 
-24 14 -21 11 -3 2 -24 14 -19 11 -5 3 -24 15 -14 8 
-10 6 -24 16 -8 5 -16 10 -24 16 0 0 -24 17 -14 10 
-10 7 -24 18 -2 1 -22 17 -12 10 -12 9 -21 17 -3 3 
-24 21 -4 3 -20 18 -9 8 -15 15 -12 12 -12 12 -14 14 
-10 11 -15 16 -10 10 0 16 0 27 0 26 0 27 0 26 
0 27 0 26 0 27 0 26 0 27 0 26 0 13 6434 2314 128 MP stroke
c23
3 -3 22 -21 5 -5 19 -17 11 -10 13 -10 20 -16 4 -3 
24 -19 6 -5 18 -13 17 -13 7 -5 24 -18 5 -4 19 -15 
15 -11 9 -7 24 -18 2 -2 22 -18 10 -8 14 -12 18 -15 
6 -5 24 -21 1 0 23 -22 6 -5 18 -17 10 -9 14 -15 
13 -12 11 -12 15 -14 9 -11 15 -16 9 -10 15 -16 9 -12 
13 -15 11 -15 9 -11 15 -22 4 -5 12 -26 -16 -19 -24 3 
-24 8 -22 8 -2 1 -24 12 -24 11 -5 2 -19 11 -24 12 
-6 4 -18 11 -24 13 -3 2 -21 14 -21 13 -3 2 -24 16 
-12 8 -12 9 -24 17 -1 1 -23 18 -11 8 -13 11 -19 16 
-5 4 -24 21 -1 1 -23 22 -5 5 -19 19 -8 7 -16 18 
-9 9 -15 18 -8 8 -16 20 -6 7 -19 23 0 3 0 27 
0 26 0 27 0 26 0 27 0 26 0 3 6434 2377 95 MP
PP
0 sg
0 0 3 -3 22 -21 5 -5 19 -17 11 -10 13 -10 20 -16 
4 -3 24 -19 6 -5 18 -13 17 -13 7 -5 24 -18 5 -4 
19 -15 15 -11 9 -7 24 -18 2 -2 22 -18 10 -8 14 -12 
18 -15 6 -5 24 -21 1 0 23 -22 6 -5 18 -17 10 -9 
14 -15 13 -12 11 -12 15 -14 9 -11 15 -16 9 -10 15 -16 
9 -12 13 -15 11 -15 9 -11 15 -22 4 -5 12 -26 -16 -19 
-24 3 -24 8 -22 8 -2 1 -24 12 -24 11 -5 2 -19 11 
-24 12 -6 4 -18 11 -24 13 -3 2 -21 14 -21 13 -3 2 
-24 16 -12 8 -12 9 -24 17 -1 1 -23 18 -11 8 -13 11 
-19 16 -5 4 -24 21 -1 1 -23 22 -5 5 -19 19 -8 7 
-16 18 -9 9 -15 18 -8 8 -16 20 -6 7 -19 23 0 3 
0 27 0 26 0 27 0 26 0 27 0 26 0 3 6434 2377 96 MP stroke
c15
24 -11 14 -8 10 -8 24 -16 2 -2 22 -21 7 -6 17 -20 
6 -6 -6 -14 -24 7 -12 7 -12 9 -24 16 -2 1 -22 21 
-6 6 -18 21 -5 5 5 19 6241 2626 21 MP
PP
0 sg
0 0 24 -11 14 -8 10 -8 24 -16 2 -2 22 -21 7 -6 
17 -20 6 -6 -6 -14 -24 7 -12 7 -12 9 -24 16 -2 1 
-22 21 -6 6 -18 21 -5 5 5 19 6241 2626 22 MP stroke
c21
14 -1 -14 -25 0 25 0 1 6434 2088 5 MP
PP
0 sg
0 0 14 -1 -14 -25 0 25 0 1 6434 2088 6 MP stroke
c13
6 -1 -6 -11 0 11 0 1 6434 2088 5 MP
PP
0 sg
0 0 6 -1 -6 -11 0 11 0 1 6434 2088 6 MP stroke
gr

0 sg
4 w
DO
SO
6 w
4055 3387 mt 6434 3387 L
4055 2089 mt 6434 2089 L
4055 3387 mt 4055 2089 L
6434 3387 mt 6434 2089 L
4055 3387 mt 6434 3387 L
4055 3387 mt 4055 2089 L
4443 3387 mt 4443 3363 L
4443 2089 mt 4443 2112 L
4340 3532 mt 
(-2) s
4843 3387 mt 4843 3363 L
4843 2089 mt 4843 2112 L
4740 3532 mt 
(-1) s
5244 3387 mt 5244 3363 L
5244 2089 mt 5244 2112 L
5211 3532 mt 
(0) s
5645 3387 mt 5645 3363 L
5645 2089 mt 5645 2112 L
5612 3532 mt 
(1) s
6045 3387 mt 6045 3363 L
6045 2089 mt 6045 2112 L
6012 3532 mt 
(2) s
4055 3160 mt 4078 3160 L
6434 3160 mt 6410 3160 L
3854 3204 mt 
(0.5) s
4055 2921 mt 4078 2921 L
6434 2921 mt 6410 2921 L
3954 2965 mt 
(1) s
4055 2681 mt 4078 2681 L
6434 2681 mt 6410 2681 L
3854 2725 mt 
(1.5) s
4055 2442 mt 4078 2442 L
6434 2442 mt 6410 2442 L
3954 2486 mt 
(2) s
4055 2202 mt 4078 2202 L
6434 2202 mt 6410 2202 L
3854 2246 mt 
(2.5) s
4055 3387 mt 6434 3387 L
4055 2089 mt 6434 2089 L
4055 3387 mt 4055 2089 L
6434 3387 mt 6434 2089 L

end %%Color Dict

eplot
%%EndObject

epage
end

showpage

%%Trailer
%%EOF
