%!PS-Adobe-3.0 EPSF-3.0
%%Creator: MATLAB, The Mathworks, Inc. Version 7.3.0.298 (R2006b). Operating System: Linux 2.6.18.8-0.5-default #1 SMP Fri Jun 22 12:17:53 UTC 2007 i686.
%%Title: /home/space/phsfar/codes/gkw_old/ben/etg/etg01/etg_benchmark_heatflux.eps
%%CreationDate: 10/10/2007  21:44:24
%%DocumentNeededFonts: Helvetica
%%DocumentProcessColors: Cyan Magenta Yellow Black
%%LanguageLevel: 2
%%Pages: 1
%%BoundingBox: 75 320 519 511
%%EndComments

%%BeginProlog
% MathWorks dictionary
/MathWorks 160 dict begin
% definition operators
/bdef {bind def} bind def
/ldef {load def} bind def
/xdef {exch def} bdef
/xstore {exch store} bdef
% operator abbreviations
/c  /clip ldef
/cc /concat ldef
/cp /closepath ldef
/gr /grestore ldef
/gs /gsave ldef
/mt /moveto ldef
/np /newpath ldef
/cm /currentmatrix ldef
/sm /setmatrix ldef
/rm /rmoveto ldef
/rl /rlineto ldef
/s {show newpath} bdef
/sc {setcmykcolor} bdef
/sr /setrgbcolor ldef
/sg /setgray ldef
/w /setlinewidth ldef
/j /setlinejoin ldef
/cap /setlinecap ldef
/rc {rectclip} bdef
/rf {rectfill} bdef
% page state control
/pgsv () def
/bpage {/pgsv save def} bdef
/epage {pgsv restore} bdef
/bplot /gsave ldef
/eplot {stroke grestore} bdef
% orientation switch
/portraitMode 0 def /landscapeMode 1 def /rotateMode 2 def
% coordinate system mappings
/dpi2point 0 def
% font control
/FontSize 0 def
/FMS {/FontSize xstore findfont [FontSize 0 0 FontSize neg 0 0]
  makefont setfont} bdef
/reencode {exch dup where {pop load} {pop StandardEncoding} ifelse
  exch dup 3 1 roll findfont dup length dict begin
  { 1 index /FID ne {def}{pop pop} ifelse } forall
  /Encoding exch def currentdict end definefont pop} bdef
/isroman {findfont /CharStrings get /Agrave known} bdef
/FMSR {3 1 roll 1 index dup isroman {reencode} {pop pop} ifelse
  exch FMS} bdef
/csm {1 dpi2point div -1 dpi2point div scale neg translate
 dup landscapeMode eq {pop -90 rotate}
  {rotateMode eq {90 rotate} if} ifelse} bdef
% line types: solid, dotted, dashed, dotdash
/SO { [] 0 setdash } bdef
/DO { [.5 dpi2point mul 4 dpi2point mul] 0 setdash } bdef
/DA { [6 dpi2point mul] 0 setdash } bdef
/DD { [.5 dpi2point mul 4 dpi2point mul 6 dpi2point mul 4
  dpi2point mul] 0 setdash } bdef
% macros for lines and objects
/L {lineto stroke} bdef
/MP {3 1 roll moveto 1 sub {rlineto} repeat} bdef
/AP {{rlineto} repeat} bdef
/PDlw -1 def
/W {/PDlw currentlinewidth def setlinewidth} def
/PP {closepath eofill} bdef
/DP {closepath stroke} bdef
/MR {4 -2 roll moveto dup  0 exch rlineto exch 0 rlineto
  neg 0 exch rlineto closepath} bdef
/FR {MR stroke} bdef
/PR {MR fill} bdef
/L1i {{currentfile picstr readhexstring pop} image} bdef
/tMatrix matrix def
/MakeOval {newpath tMatrix currentmatrix pop translate scale
0 0 1 0 360 arc tMatrix setmatrix} bdef
/FO {MakeOval stroke} bdef
/PO {MakeOval fill} bdef
/PD {currentlinewidth 2 div 0 360 arc fill
   PDlw -1 eq not {PDlw w /PDlw -1 def} if} def
/FA {newpath tMatrix currentmatrix pop translate scale
  0 0 1 5 -2 roll arc tMatrix setmatrix stroke} bdef
/PA {newpath tMatrix currentmatrix pop	translate 0 0 moveto scale
  0 0 1 5 -2 roll arc closepath tMatrix setmatrix fill} bdef
/FAn {newpath tMatrix currentmatrix pop translate scale
  0 0 1 5 -2 roll arcn tMatrix setmatrix stroke} bdef
/PAn {newpath tMatrix currentmatrix pop translate 0 0 moveto scale
  0 0 1 5 -2 roll arcn closepath tMatrix setmatrix fill} bdef
/vradius 0 def /hradius 0 def /lry 0 def
/lrx 0 def /uly 0 def /ulx 0 def /rad 0 def
/MRR {/vradius xdef /hradius xdef /lry xdef /lrx xdef /uly xdef
  /ulx xdef newpath tMatrix currentmatrix pop ulx hradius add uly
  vradius add translate hradius vradius scale 0 0 1 180 270 arc 
  tMatrix setmatrix lrx hradius sub uly vradius add translate
  hradius vradius scale 0 0 1 270 360 arc tMatrix setmatrix
  lrx hradius sub lry vradius sub translate hradius vradius scale
  0 0 1 0 90 arc tMatrix setmatrix ulx hradius add lry vradius sub
  translate hradius vradius scale 0 0 1 90 180 arc tMatrix setmatrix
  closepath} bdef
/FRR {MRR stroke } bdef
/PRR {MRR fill } bdef
/MlrRR {/lry xdef /lrx xdef /uly xdef /ulx xdef /rad lry uly sub 2 div def
  newpath tMatrix currentmatrix pop ulx rad add uly rad add translate
  rad rad scale 0 0 1 90 270 arc tMatrix setmatrix lrx rad sub lry rad
  sub translate rad rad scale 0 0 1 270 90 arc tMatrix setmatrix
  closepath} bdef
/FlrRR {MlrRR stroke } bdef
/PlrRR {MlrRR fill } bdef
/MtbRR {/lry xdef /lrx xdef /uly xdef /ulx xdef /rad lrx ulx sub 2 div def
  newpath tMatrix currentmatrix pop ulx rad add uly rad add translate
  rad rad scale 0 0 1 180 360 arc tMatrix setmatrix lrx rad sub lry rad
  sub translate rad rad scale 0 0 1 0 180 arc tMatrix setmatrix
  closepath} bdef
/FtbRR {MtbRR stroke } bdef
/PtbRR {MtbRR fill } bdef
/stri 6 array def /dtri 6 array def
/smat 6 array def /dmat 6 array def
/tmat1 6 array def /tmat2 6 array def /dif 3 array def
/asub {/ind2 exch def /ind1 exch def dup dup
  ind1 get exch ind2 get sub exch } bdef
/tri_to_matrix {
  2 0 asub 3 1 asub 4 0 asub 5 1 asub
  dup 0 get exch 1 get 7 -1 roll astore } bdef
/compute_transform {
  dmat dtri tri_to_matrix tmat1 invertmatrix 
  smat stri tri_to_matrix tmat2 concatmatrix } bdef
/ds {stri astore pop} bdef
/dt {dtri astore pop} bdef
/db {2 copy /cols xdef /rows xdef mul dup 3 mul string
  currentfile 
  3 index 0 eq {/ASCIIHexDecode filter}
  {/ASCII85Decode filter 3 index 2 eq {/RunLengthDecode filter} if }
  ifelse exch readstring pop
  dup 0 3 index getinterval /rbmap xdef
  dup 2 index dup getinterval /gbmap xdef
  1 index dup 2 mul exch getinterval /bbmap xdef pop pop}bdef
/it {gs np dtri aload pop moveto lineto lineto cp c
  cols rows 8 compute_transform 
  rbmap gbmap bbmap true 3 colorimage gr}bdef
/il {newpath moveto lineto stroke}bdef
currentdict end def
%%EndProlog

%%BeginSetup
MathWorks begin

0 cap

end
%%EndSetup

%%Page: 1 1
%%BeginPageSetup
%%PageBoundingBox: 75 320 519 511
MathWorks begin
bpage
%%EndPageSetup

%%BeginObject: obj1
bplot

/dpi2point 12 def
portraitMode 0468 6252 csm

    0     0  6193  2420 rc
85 dict begin %Colortable dictionary
/c0 { 0.000000 0.000000 0.000000 sr} bdef
/c1 { 1.000000 1.000000 1.000000 sr} bdef
/c2 { 0.900000 0.000000 0.000000 sr} bdef
/c3 { 0.000000 0.820000 0.000000 sr} bdef
/c4 { 0.000000 0.000000 0.800000 sr} bdef
/c5 { 0.910000 0.820000 0.320000 sr} bdef
/c6 { 1.000000 0.260000 0.820000 sr} bdef
/c7 { 0.000000 0.820000 0.820000 sr} bdef
c0
1 j
1 sg
   0    0 6194 2421 rf
6 w
0 1889 4800 0 0 -1889 805 2071 4 MP
PP
-4800 0 0 1889 4800 0 0 -1889 805 2071 5 MP stroke
4 w
DO
SO
6 w
0 sg
 805 2071 mt 5605 2071 L
 805  182 mt 5605  182 L
 805 2071 mt  805  182 L
5605 2071 mt 5605  182 L
 805 2071 mt 5605 2071 L
 805 2071 mt  805  182 L
 805 2071 mt  805 2023 L
 805  182 mt  805  230 L
%%IncludeResource: font Helvetica
/Helvetica /ISOLatin1Encoding 120 FMSR

 772 2216 mt 
(0) s
1285 2071 mt 1285 2023 L
1285  182 mt 1285  230 L
1185 2216 mt 
(500) s
1765 2071 mt 1765 2023 L
1765  182 mt 1765  230 L
1632 2216 mt 
(1000) s
2245 2071 mt 2245 2023 L
2245  182 mt 2245  230 L
2112 2216 mt 
(1500) s
2725 2071 mt 2725 2023 L
2725  182 mt 2725  230 L
2592 2216 mt 
(2000) s
3205 2071 mt 3205 2023 L
3205  182 mt 3205  230 L
3072 2216 mt 
(2500) s
3685 2071 mt 3685 2023 L
3685  182 mt 3685  230 L
3552 2216 mt 
(3000) s
4165 2071 mt 4165 2023 L
4165  182 mt 4165  230 L
4032 2216 mt 
(3500) s
4645 2071 mt 4645 2023 L
4645  182 mt 4645  230 L
4512 2216 mt 
(4000) s
5125 2071 mt 5125 2023 L
5125  182 mt 5125  230 L
4992 2216 mt 
(4500) s
5605 2071 mt 5605 2023 L
5605  182 mt 5605  230 L
5472 2216 mt 
(5000) s
 805 2071 mt  853 2071 L
5605 2071 mt 5557 2071 L
 704 2115 mt 
(0) s
 805 1756 mt  853 1756 L
5605 1756 mt 5557 1756 L
 704 1800 mt 
(1) s
 805 1441 mt  853 1441 L
5605 1441 mt 5557 1441 L
 704 1485 mt 
(2) s
 805 1126 mt  853 1126 L
5605 1126 mt 5557 1126 L
 704 1170 mt 
(3) s
 805  811 mt  853  811 L
5605  811 mt 5557  811 L
 704  855 mt 
(4) s
 805  496 mt  853  496 L
5605  496 mt 5557  496 L
 704  540 mt 
(5) s
 805  182 mt  853  182 L
5605  182 mt 5557  182 L
 704  226 mt 
(6) s
 805 2071 mt 5605 2071 L
 805  182 mt 5605  182 L
 805 2071 mt  805  182 L
5605 2071 mt 5605  182 L
gs 805 182 4801 1890 rc
/c8 { 1.000000 0.000000 0.000000 sr} bdef
c8
1 -6 6 -9 6 45 5 40 6 -4 6 7 5 78 6 32 
5 -5 6 -55 6 -51 5 -82 6 -51 6 -75 5 -51 6 -28 
5 -27 6 0 6 -7 5 4 6 -36 5 -28 6 -32 6 -23 
5 -36 6 -58 6 -25 5 -18 6 -18 5 -6 6 2 6 19 
5 27 6 5 6 -8 5 10 6 4 5 20 6 37 6 13 
5 -9 6 56 6 84 5 97 6 64 5 24 6 -27 6 -5 
5 2 6 -14 5 22 6 2 6 -1 5 -3 6 -4 6 -61 
5 -43 6 -24 5 12 6 34 6 -27 5 -44 6 0 6 0 
5 -27 6 -14 5 -2 6 5 6 -21 5 -21 6 -1 6 2 
5 -6 6 4 5 -27 6 -19 6 0 5 40 6 35 5 17 
6 21 6 58 5 68 6 40 6 40 5 -10 6 10 5 28 
6 62 6 54 5 3 6 37 6 -2 5 -69 6 -78 5 -51 
6 -39 6 -57 5 -52 6 -36 6 -21 5 -32 6 -40 5 -22 
6 -29 6 -23 5 -13 6 25 5 2 6 10 6 -5 5 -6 
6 -3 6 -11 5 20 6 23 5 3 6 1 6 -26 5 -30 
6 -5 6 -26 5 -35 6 2 5 12 6 6 6 16 5 9 
6 16 6 17 5 25 6 12 5 7 6 -6 6 16 5 -6 
6 25 5 66 6 21 6 18 5 32 6 7 6 -41 5 -9 
6 -6 5 -14 6 15 6 0 5 -37 6 -7 6 25 5 7 
6 -4 5 50 6 25 6 32 5 -15 6 -21 6 -7 5 34 
6 -15 5 -34 6 26 6 -8 5 -30 6 -15 5 1 6 26 
6 8 5 5 6 14 6 -2 5 37 6 61 5 28 6 25 
6 18 5 -18 6 38 6 51 5 33 6 -12 5 70 6 84 
6 25 5 71 6 54 6 16 5 14 6 27 5 45 6 -50 
6 -69 5 -69 6 -18 5 9 6 -3 6 -26 5 -38 6 -24 
6 -1 5 32 6 -38 5 -34 6 -13 6 54 5 10 6 22 
6 -22 5 -43 6 -63 5 -51 6 -69 6 -30 5 59 6 6 
6 -31 5 -28 6 -2 5 -5 6 -52 6 -86 5 -56 6 -30 
5 -13 6 -41 6 -24 5 -21 6 -7 6 -10 5 17 6 10 
5 7 6 9 6 6 5 6 6 -13 6 -51 5 -15 6 18 
5 6 6 19 6 59 5 27 6 13 6 18 5 56 6 66 
5 36 6 51 6 95 5 56 6 37 5 -6 6 -27 6 -21 
5 -6 6 -7 6 23 5 -1 6 -17 5 -76 6 -29 6 21 
5 102 6 62 6 18 5 -38 6 -23 5 -43 6 -6 6 -31 
5 -8 6 -36 6 -26 5 14 6 42 5 10 6 -35 6 -38 
5 -30 6 52 5 64 6 28 6 15 5 -16 6 -50 6 -34 
5 -31 6 -39 5 34 6 21 6 37 5 83 6 90 6 50 
5 -25 6 44 5 13 3930 791 300 MP stroke
6 -26 6 -33 5 11 6 38 6 26 5 -7 6 -55 5 11 
6 -28 6 -55 5 -73 6 -79 5 -37 6 -45 6 -27 5 -43 
6 -21 6 -9 5 -8 6 7 5 -18 6 -36 6 -44 5 -18 
6 -8 6 2 5 -36 6 -34 5 -37 6 -17 6 16 5 23 
6 23 6 15 5 -29 6 -30 5 -37 6 -30 6 11 5 3 
6 16 5 7 6 16 6 14 5 24 6 39 6 21 5 -10 
6 28 5 43 6 44 6 49 5 36 6 39 6 -11 5 25 
6 47 5 4 6 -38 6 -22 5 2 6 -1 6 26 5 41 
6 6 5 -19 6 1 6 -8 5 -5 6 -58 5 -36 6 -39 
6 -58 5 -43 6 11 6 6 5 12 6 18 5 39 6 76 
6 40 5 34 6 43 6 -2 5 -7 6 16 5 32 6 46 
6 11 5 9 6 20 6 -26 5 -13 6 -36 5 -72 6 -52 
6 6 5 -30 6 14 5 46 6 4 6 -25 5 -13 6 5 
6 15 5 20 6 -28 5 -26 6 -16 6 7 5 -37 6 -26 
6 -29 5 -22 6 19 5 32 6 -10 6 7 5 7 6 -16 
6 -25 5 -4 6 6 5 0 6 -27 6 -20 5 31 6 38 
5 71 6 39 6 -13 5 8 6 3 6 -34 5 -46 6 -28 
5 11 6 34 6 -1 5 12 6 -29 6 -25 5 6 6 -11 
5 -10 6 -48 6 -17 5 4 6 13 6 13 5 24 6 -1 
5 17 6 11 6 4 5 -17 6 -26 5 -54 6 -36 6 -7 
5 7 6 -17 6 -7 5 15 6 42 5 41 6 12 6 15 
5 59 6 37 6 60 5 37 6 62 5 62 6 30 6 -33 
5 -16 6 15 6 -22 5 19 6 96 5 -15 6 -50 6 11 
5 20 6 2 5 -26 6 -43 6 -75 5 -69 6 -56 6 -43 
5 -23 6 4 5 27 6 38 6 30 5 42 6 93 6 57 
5 -12 6 -33 5 28 6 104 6 90 5 64 6 -6 6 -14 
5 -59 6 -71 5 -35 6 4 6 -25 5 46 6 -17 5 -37 
6 -18 6 12 5 -35 6 -49 6 12 5 0 6 -28 5 -39 
6 -60 6 -44 5 -32 6 -18 6 -7 5 30 6 28 5 16 
6 -15 6 -31 5 -7 6 81 6 47 5 31 6 68 5 24 
6 -19 6 -52 5 -41 6 -24 5 6 6 -12 6 -24 5 -50 
6 -30 6 -31 5 -37 6 -21 5 -16 6 -49 6 -32 5 -10 
6 23 6 23 5 1 6 24 5 7 6 36 6 48 5 5 
6 -21 6 22 5 -13 6 -4 5 17 6 -11 6 -3 5 31 
6 30 5 67 6 13 6 7 5 56 6 10 6 -10 5 4 
6 11 5 -9 6 -33 6 -42 5 29 6 61 6 16 5 89 
6 107 5 114 6 76 6 25 5 5 6 0 6 13 5 -7 
6 4 5 28 6 -39 2249 571 300 MP stroke
6 -112 5 -70 6 -33 5 -35 6 0 6 7 5 0 6 -67 
6 -53 5 8 6 -10 5 2 6 -3 6 -27 5 17 6 34 
6 27 5 2 6 23 5 -25 6 46 6 31 5 37 6 64 
6 65 5 21 6 -1 5 -17 6 59 6 13 5 -9 6 22 
5 86 6 90 6 80 5 -9 6 -30 6 -85 5 -65 6 -32 
5 8 6 -48 6 8 5 29 6 -47 6 -92 5 -88 6 -41 
5 -54 6 -73 6 -31 5 -24 6 -54 6 -26 5 -55 6 -32 
5 -14 6 -36 6 -17 5 -36 6 -15 5 25 6 68 6 21 
5 24 6 30 6 22 5 2 6 21 5 19 6 46 6 53 
5 20 6 3 6 32 5 81 6 54 5 21 6 3 6 -48 
5 -94 6 -110 6 -70 5 -36 6 -6 5 -43 6 -46 6 -31 
5 -18 6 22 5 4 6 -52 6 -54 5 -24 6 14 6 51 
5 63 6 38 5 10 6 -15 6 -18 5 64 6 11 6 12 
5 -16 6 61 5 18 6 5 6 23 5 -3 6 53 6 51 
5 117 6 -8 5 -29 6 -55 6 -5 5 5 6 -45 5 -9 
6 -37 6 -33 5 -1 6 -23 6 -26 5 -5 6 23 5 -29 
6 -24 6 -62 5 -63 6 -23 6 19 5 19 6 -26 5 -39 
6 -12 6 0 5 24 6 -29 6 -32 5 -10 6 -29 5 -10 
6 -7 6 16 5 4 6 -2 5 57 6 28 6 -28 5 -11 
6 14 6 -48 5 -9 6 21 5 15 6 11 6 -7 5 36 
6 22 6 -10 5 19 6 6 5 -12 6 12 6 -1 5 -9 
6 -15 6 -30 5 -17 6 -27 5 6 6 -18 6 -41 5 -34 
6 -10 5 6 6 28 6 23 5 -7 6 -7 6 -13 5 -31 
6 -8 5 10 6 -6 6 19 5 -1 6 11 6 -2 5 -13 
6 -31 5 -35 6 -11 6 0 5 21 6 2 6 47 5 20 
6 -30 5 -21 6 -32 6 -20 5 -10 6 -1 5 -3 6 -7 
6 3 5 1 6 1 6 15 5 41 6 49 5 3 6 5 
6 11 5 3 6 21 6 15 5 31 6 27 5 31 6 -64 
6 -81 5 -83 6 -42 6 -15 5 -12 6 -13 5 -30 6 -47 
6 -60 5 -65 6 -63 5 -53 6 -44 6 -34 5 -26 6 -19 
6 -14 5 -10 6 -8 5 -5 6 -4 6 -3 5 -2 6 -2 
6 -1 5 -1 6 0 5 -1 6 0 6 0 5 0 6 -1 
810 2071 257 MP stroke
gr

c8
0 sg
3118 2337 mt 
(t) s
%%IncludeResource: font Helvetica
/Helvetica /ISOLatin1Encoding 96 FMSR

3151 2397 mt 
(NN) s
%%IncludeResource: font Symbol
/Symbol /ISOLatin1Encoding 120 FMSR

 568 1452 mt  -90 rotate
(c) s
90 rotate
%%IncludeResource: font Helvetica
/Helvetica /ISOLatin1Encoding 96 FMSR

 628 1387 mt  -90 rotate
(e) s
90 rotate
%%IncludeResource: font Helvetica
/Helvetica /ISOLatin1Encoding 120 FMSR

 568 1334 mt  -90 rotate
( \() s
90 rotate
%%IncludeResource: font Symbol
/Symbol /ISOLatin1Encoding 120 FMSR

 568 1261 mt  -90 rotate
(r) s
90 rotate
%%IncludeResource: font Helvetica
/Helvetica /ISOLatin1Encoding 96 FMSR

 508 1196 mt  -90 rotate
(2) s
90 rotate
%%IncludeResource: font Helvetica
/Helvetica /ISOLatin1Encoding 120 FMSR

 568 1143 mt  -90 rotate
( v) s
90 rotate
%%IncludeResource: font Helvetica
/Helvetica /ISOLatin1Encoding 96 FMSR

 628 1050 mt  -90 rotate
(t) s
90 rotate
%%IncludeResource: font Helvetica
/Helvetica /ISOLatin1Encoding 120 FMSR

 568 1024 mt  -90 rotate
( / L) s
90 rotate
%%IncludeResource: font Helvetica
/Helvetica /ISOLatin1Encoding 96 FMSR

 628  858 mt  -90 rotate
(T) s
90 rotate

end %%Color Dict

eplot
%%EndObject

epage
end

showpage

%%Trailer
%%EOF
