%!PS-Adobe-3.0 EPSF-3.0
%%Creator: MATLAB, The MathWorks, Inc. Version 8.3.0.532 (R2014a). Operating System: Linux 3.0.101-65-default #1 SMP Mon Sep 7 19:21:52 UTC 2015 (bef9feb) x86_64.
%%Title: /pfs/u/wiho/NEOGKWfigs2/Flowscombined.eps
%%CreationDate: 12/03/2015  17:00:10
%%DocumentNeededFonts: Helvetica
%%DocumentProcessColors: Cyan Magenta Yellow Black
%%LanguageLevel: 2
%%Pages: 1
%%BoundingBox:    26   238   585   554
%%EndComments

%%BeginProlog
% MathWorks dictionary
/MathWorks 160 dict begin
% definition operators
/bdef {bind def} bind def
/ldef {load def} bind def
/xdef {exch def} bdef
/xstore {exch store} bdef
% operator abbreviations
/c  /clip ldef
/cc /concat ldef
/cp /closepath ldef
/gr /grestore ldef
/gs /gsave ldef
/mt /moveto ldef
/np /newpath ldef
/cm /currentmatrix ldef
/sm /setmatrix ldef
/rm /rmoveto ldef
/rl /rlineto ldef
/s {show newpath} bdef
/sc {setcmykcolor} bdef
/sr /setrgbcolor ldef
/sg /setgray ldef
/w /setlinewidth ldef
/j /setlinejoin ldef
/cap /setlinecap ldef
/rc {rectclip} bdef
/rf {rectfill} bdef
% page state control
/pgsv () def
/bpage {/pgsv save def} bdef
/epage {pgsv restore} bdef
/bplot /gsave ldef
/eplot {stroke grestore} bdef
% orientation switch
/portraitMode 0 def /landscapeMode 1 def /rotateMode 2 def
% coordinate system mappings
/dpi2point 0 def
% font control
/FontSize 0 def
/FMS {/FontSize xstore findfont [FontSize 0 0 FontSize neg 0 0]
  makefont setfont} bdef
/reencode {exch dup where {pop load} {pop StandardEncoding} ifelse
  exch dup 3 1 roll findfont dup length dict begin
  { 1 index /FID ne {def}{pop pop} ifelse } forall
  /Encoding exch def currentdict end definefont pop} bdef
/isroman {findfont /CharStrings get /Agrave known} bdef
/FMSR {3 1 roll 1 index dup isroman {reencode} {pop pop} ifelse
  exch FMS} bdef
/csm {1 dpi2point div -1 dpi2point div scale neg translate
 dup landscapeMode eq {pop -90 rotate}
  {rotateMode eq {90 rotate} if} ifelse} bdef
% line types: solid, dotted, dashed, dotdash
/SO { [] 0 setdash } bdef
/DO { [.5 dpi2point mul 4 dpi2point mul] 0 setdash } bdef
/DA { [6 dpi2point mul] 0 setdash } bdef
/DD { [.5 dpi2point mul 4 dpi2point mul 6 dpi2point mul 4
  dpi2point mul] 0 setdash } bdef
% macros for lines and objects
/L {lineto stroke} bdef
/MP {3 1 roll moveto 1 sub {rlineto} repeat} bdef
/AP {{rlineto} repeat} bdef
/PDlw -1 def
/W {/PDlw currentlinewidth def setlinewidth} def
/PP {closepath eofill} bdef
/DP {closepath stroke} bdef
/MR {4 -2 roll moveto dup  0 exch rlineto exch 0 rlineto
  neg 0 exch rlineto closepath} bdef
/FR {MR stroke} bdef
/PR {MR fill} bdef
/L1i {{currentfile picstr readhexstring pop} image} bdef
/tMatrix matrix def
/MakeOval {newpath tMatrix currentmatrix pop translate scale
0 0 1 0 360 arc tMatrix setmatrix} bdef
/FO {MakeOval stroke} bdef
/PO {MakeOval fill} bdef
/PD {currentlinewidth 2 div 0 360 arc fill
   PDlw -1 eq not {PDlw w /PDlw -1 def} if} def
/FA {newpath tMatrix currentmatrix pop translate scale
  0 0 1 5 -2 roll arc tMatrix setmatrix stroke} bdef
/PA {newpath tMatrix currentmatrix pop	translate 0 0 moveto scale
  0 0 1 5 -2 roll arc closepath tMatrix setmatrix fill} bdef
/FAn {newpath tMatrix currentmatrix pop translate scale
  0 0 1 5 -2 roll arcn tMatrix setmatrix stroke} bdef
/PAn {newpath tMatrix currentmatrix pop translate 0 0 moveto scale
  0 0 1 5 -2 roll arcn closepath tMatrix setmatrix fill} bdef
/vradius 0 def /hradius 0 def /lry 0 def
/lrx 0 def /uly 0 def /ulx 0 def /rad 0 def
/MRR {/vradius xdef /hradius xdef /lry xdef /lrx xdef /uly xdef
  /ulx xdef newpath tMatrix currentmatrix pop ulx hradius add uly
  vradius add translate hradius vradius scale 0 0 1 180 270 arc 
  tMatrix setmatrix lrx hradius sub uly vradius add translate
  hradius vradius scale 0 0 1 270 360 arc tMatrix setmatrix
  lrx hradius sub lry vradius sub translate hradius vradius scale
  0 0 1 0 90 arc tMatrix setmatrix ulx hradius add lry vradius sub
  translate hradius vradius scale 0 0 1 90 180 arc tMatrix setmatrix
  closepath} bdef
/FRR {MRR stroke } bdef
/PRR {MRR fill } bdef
/MlrRR {/lry xdef /lrx xdef /uly xdef /ulx xdef /rad lry uly sub 2 div def
  newpath tMatrix currentmatrix pop ulx rad add uly rad add translate
  rad rad scale 0 0 1 90 270 arc tMatrix setmatrix lrx rad sub lry rad
  sub translate rad rad scale 0 0 1 270 90 arc tMatrix setmatrix
  closepath} bdef
/FlrRR {MlrRR stroke } bdef
/PlrRR {MlrRR fill } bdef
/MtbRR {/lry xdef /lrx xdef /uly xdef /ulx xdef /rad lrx ulx sub 2 div def
  newpath tMatrix currentmatrix pop ulx rad add uly rad add translate
  rad rad scale 0 0 1 180 360 arc tMatrix setmatrix lrx rad sub lry rad
  sub translate rad rad scale 0 0 1 0 180 arc tMatrix setmatrix
  closepath} bdef
/FtbRR {MtbRR stroke } bdef
/PtbRR {MtbRR fill } bdef
/stri 6 array def /dtri 6 array def
/smat 6 array def /dmat 6 array def
/tmat1 6 array def /tmat2 6 array def /dif 3 array def
/asub {/ind2 exch def /ind1 exch def dup dup
  ind1 get exch ind2 get sub exch } bdef
/tri_to_matrix {
  2 0 asub 3 1 asub 4 0 asub 5 1 asub
  dup 0 get exch 1 get 7 -1 roll astore } bdef
/compute_transform {
  dmat dtri tri_to_matrix tmat1 invertmatrix 
  smat stri tri_to_matrix tmat2 concatmatrix } bdef
/ds {stri astore pop} bdef
/dt {dtri astore pop} bdef
/db {2 copy /cols xdef /rows xdef mul dup 3 mul string
  currentfile 
  3 index 0 eq {/ASCIIHexDecode filter}
  {/ASCII85Decode filter 3 index 2 eq {/RunLengthDecode filter} if }
  ifelse exch readstring pop
  dup 0 3 index getinterval /rbmap xdef
  dup 2 index dup getinterval /gbmap xdef
  1 index dup 2 mul exch getinterval /bbmap xdef pop pop}bdef
/it {gs np dtri aload pop moveto lineto lineto cp c
  cols rows 8 compute_transform 
  rbmap gbmap bbmap true 3 colorimage gr}bdef
/il {newpath moveto lineto stroke}bdef
currentdict end def
%%EndProlog

%%BeginSetup
MathWorks begin

0 cap

end
%%EndSetup

%%Page: 1 1
%%BeginPageSetup
%%PageBoundingBox:    26   238   585   554
MathWorks begin
bpage
%%EndPageSetup

%%BeginObject: obj1
bplot

/dpi2point 12 def
portraitMode 0312 6648 csm

    0     0  6711  3792 rc
85 dict begin %Colortable dictionary
/c0 { 0.000000 0.000000 0.000000 sr} bdef
/c1 { 1.000000 1.000000 1.000000 sr} bdef
/c2 { 0.900000 0.000000 0.000000 sr} bdef
/c3 { 0.000000 0.820000 0.000000 sr} bdef
/c4 { 0.000000 0.000000 0.800000 sr} bdef
/c5 { 0.910000 0.820000 0.320000 sr} bdef
/c6 { 1.000000 0.260000 0.820000 sr} bdef
/c7 { 0.000000 0.820000 0.820000 sr} bdef
c0
1 j
1 sg
   0    0 6712 3793 rf
6 w
0 2964 2234 0 0 -2964 838 3248 4 MP
PP
-2234 0 0 2964 2234 0 0 -2964 838 3248 5 MP stroke
4 w
DO
0 sg
 838 2991 mt 3072 2991 L
3072 2991 mt 3072 2991 L
 838 2543 mt 3072 2543 L
3072 2543 mt 3072 2543 L
 838 2095 mt 3072 2095 L
3072 2095 mt 3072 2095 L
 838 1647 mt 3072 1647 L
3072 1647 mt 3072 1647 L
 838 1199 mt 3072 1199 L
3072 1199 mt 3072 1199 L
 838  751 mt 3072  751 L
3072  751 mt 3072  751 L
 838  303 mt 3072  303 L
3072  303 mt 3072  303 L
SO
6 w
 838 3248 mt 3072 3248 L
 838  284 mt 3072  284 L
 838 3248 mt  838  284 L
3072 3248 mt 3072  284 L
 838 3248 mt 3072 3248 L
 838 3248 mt  838  284 L
 838 3248 mt  838 3248 L
 838 3248 mt  838 3248 L
 838 3248 mt  838 3248 L
 838 3248 mt  838 3248 L
 838 3248 mt  838 3248 L
 838 3248 mt  838 3248 L
 838 3248 mt  838 3248 L
 838 3248 mt  838 3248 L
 838 3248 mt  838 3248 L
 838 3248 mt  838 3248 L
 838 3248 mt  838 3248 L
 838 3248 mt  838 3248 L
 838 3248 mt  838 3248 L
 838 3248 mt  838 3248 L
 838 3248 mt  838 3248 L
 838 3248 mt  838 3248 L
 838 3248 mt  838 3248 L
 838 3248 mt  838 3248 L
2231 3248 mt 2231 3218 L
2231  284 mt 2231  313 L
%%IncludeResource: font Helvetica
/Helvetica /ISOLatin1Encoding 168 FMSR

2107 3490 mt 
(10) s
%%IncludeResource: font Helvetica
/Helvetica /ISOLatin1Encoding 112 FMSR

2293 3386 mt 
(0) s
 838 3248 mt  838 3248 L
 838 3248 mt  838 3248 L
 838 3248 mt  838 3248 L
 838 3248 mt  838 3248 L
 838 3248 mt  838 3248 L
 838 3248 mt  838 3248 L
 838 3248 mt  838 3248 L
 838 3248 mt  838 3248 L
 838 3248 mt  838 3248 L
 838 3248 mt  838 3248 L
 838 3248 mt  838 3248 L
 838 3248 mt  838 3248 L
 838 3248 mt  838 3248 L
 838 3248 mt  838 3248 L
 838 3248 mt  838 3248 L
 838 3248 mt  838 3248 L
 838 3248 mt  838 3248 L
 838 3248 mt  838 3248 L
 838 2991 mt  867 2991 L
3072 2991 mt 3042 2991 L
%%IncludeResource: font Helvetica
/Helvetica /ISOLatin1Encoding 168 FMSR

 570 3053 mt 
(0.1) s
 838 2543 mt  867 2543 L
3072 2543 mt 3042 2543 L
 477 2605 mt 
(0.12) s
 838 2095 mt  867 2095 L
3072 2095 mt 3042 2095 L
 477 2157 mt 
(0.14) s
 838 1647 mt  867 1647 L
3072 1647 mt 3042 1647 L
 477 1709 mt 
(0.16) s
 838 1199 mt  867 1199 L
3072 1199 mt 3042 1199 L
 477 1261 mt 
(0.18) s
 838  751 mt  867  751 L
3072  751 mt 3042  751 L
 570  813 mt 
(0.2) s
 838  303 mt  867  303 L
3072  303 mt 3042  303 L
 477  365 mt 
(0.22) s
 838 3248 mt 3072 3248 L
 838  284 mt 3072  284 L
 838 3248 mt  838  284 L
3072 3248 mt 3072  284 L
gs 838 283 2235 2965 rc
DA
24 w
/c8 { 1.000000 0.000000 0.000000 sr} bdef
c8
137 -381 132 -269 196 -358 158 -224 261 -291 888 -515 983 3192 7 MP stroke
gr

24 w
c8
DA
gs 885 1056 1969 2235 rc
SO
  36   36  983 3192 FO
  36   36 1871 2677 FO
  36   36 2132 2386 FO
  36   36 2290 2162 FO
  36   36 2486 1804 FO
  36   36 2618 1535 FO
  36   36 2755 1154 FO
DA
gr

gs 838 283 2235 2965 rc
gr

0 sg
1036 3642 mt 
(Collisionality, ) s
%%IncludeResource: font Symbol
/Symbol /ISOLatin1Encoding 168 FMSR

2046 3642 mt 
(n) s
%%IncludeResource: font Helvetica
/Helvetica /ISOLatin1Encoding 132 FMSR

2133 3726 mt 
(*) s
%%IncludeResource: font Helvetica
/Helvetica /ISOLatin1Encoding 168 FMSR

2184 3642 mt 
( [) s
%%IncludeResource: font Symbol
/Symbol /ISOLatin1Encoding 168 FMSR

2277 3642 mt 
(n) s
%%IncludeResource: font Helvetica
/Helvetica /ISOLatin1Encoding 132 FMSR

2364 3726 mt 
(ii) s
%%IncludeResource: font Helvetica
/Helvetica /ISOLatin1Encoding 168 FMSR

2422 3642 mt 
(q/) s
%%IncludeResource: font Symbol
/Symbol /ISOLatin1Encoding 168 FMSR

2562 3642 mt 
(e) s
%%IncludeResource: font Helvetica
/Helvetica /ISOLatin1Encoding 132 FMSR

2635 3558 mt 
(3/2) s
%%IncludeResource: font Helvetica
/Helvetica /ISOLatin1Encoding 168 FMSR

2818 3642 mt 
(]) s
 337 3200 mt  -90 rotate
(Diamagnetic toroidal flow, ) s
90 rotate
%%IncludeResource: font Symbol
/Symbol /ISOLatin1Encoding 168 FMSR

 337 1243 mt  -90 rotate
(w) s
90 rotate
%%IncludeResource: font Helvetica
/Helvetica /ISOLatin1Encoding 132 FMSR

 421 1128 mt  -90 rotate
(d) s
90 rotate
%%IncludeResource: font Helvetica
/Helvetica /ISOLatin1Encoding 168 FMSR

 337 1055 mt  -90 rotate
( [v) s
90 rotate
%%IncludeResource: font Helvetica
/Helvetica /ISOLatin1Encoding 132 FMSR

 421  878 mt  -90 rotate
(th) s
90 rotate
%%IncludeResource: font Helvetica
/Helvetica /ISOLatin1Encoding 168 FMSR

 337  768 mt  -90 rotate
(/R]) s
90 rotate
gs 838 283 2235 2965 rc
/c9 { 0.000000 0.000000 1.000000 sr} bdef
c9
259 -835 303 -575 558 -878 863 -504 171 -3 838 3131 6 MP stroke
gr

c9
gs 740 238 2351 2992 rc
SO
  36   36 1009 3128 FO
  36   36 1872 2624 FO
  36   36 2430 1746 FO
  36   36 2733 1171 FO
  36   36 2992  336 FO
DA
gr

gs 838 283 2235 2965 rc
SO
6 w
gr

6 w
SO
1 sg
0 2964 2543 0 0 -2964 3946 3248 4 MP
PP
-2543 0 0 2964 2543 0 0 -2964 3946 3248 5 MP stroke
4 w
DO
0 sg
3946 3128 mt 6489 3128 L
6489 3128 mt 6489 3128 L
3946 2703 mt 6489 2703 L
6489 2703 mt 6489 2703 L
3946 2278 mt 6489 2278 L
6489 2278 mt 6489 2278 L
3946 1853 mt 6489 1853 L
6489 1853 mt 6489 1853 L
3946 1428 mt 6489 1428 L
6489 1428 mt 6489 1428 L
3946 1003 mt 6489 1003 L
6489 1003 mt 6489 1003 L
3946  578 mt 6489  578 L
6489  578 mt 6489  578 L
SO
6 w
3946 3248 mt 6489 3248 L
3946  284 mt 6489  284 L
3946 3248 mt 3946  284 L
6489 3248 mt 6489  284 L
3946 3248 mt 6489 3248 L
3946 3248 mt 3946  284 L
3946 3248 mt 3946 3248 L
3946 3248 mt 3946 3248 L
3946 3248 mt 3946 3248 L
3946 3248 mt 3946 3248 L
3946 3248 mt 3946 3248 L
3946 3248 mt 3946 3248 L
3946 3248 mt 3946 3248 L
3946 3248 mt 3946 3248 L
3946 3248 mt 3946 3248 L
3946 3248 mt 3946 3248 L
3946 3248 mt 3946 3248 L
3946 3248 mt 3946 3248 L
3946 3248 mt 3946 3248 L
3946 3248 mt 3946 3248 L
3946 3248 mt 3946 3248 L
3946 3248 mt 3946 3248 L
3946 3248 mt 3946 3248 L
3946 3248 mt 3946 3248 L
5368 3248 mt 5368 3218 L
5368  284 mt 5368  313 L
5244 3490 mt 
(10) s
%%IncludeResource: font Helvetica
/Helvetica /ISOLatin1Encoding 112 FMSR

5430 3386 mt 
(0) s
3946 3248 mt 3946 3248 L
3946 3248 mt 3946 3248 L
3946 3248 mt 3946 3248 L
3946 3248 mt 3946 3248 L
3946 3248 mt 3946 3248 L
3946 3248 mt 3946 3248 L
3946 3248 mt 3946 3248 L
3946 3248 mt 3946 3248 L
3946 3248 mt 3946 3248 L
3946 3248 mt 3946 3248 L
3946 3248 mt 3946 3248 L
3946 3248 mt 3946 3248 L
3946 3248 mt 3946 3248 L
3946 3248 mt 3946 3248 L
3946 3248 mt 3946 3248 L
3946 3248 mt 3946 3248 L
3946 3248 mt 3946 3248 L
3946 3248 mt 3946 3248 L
3946 3128 mt 3975 3128 L
6489 3128 mt 6459 3128 L
%%IncludeResource: font Helvetica
/Helvetica /ISOLatin1Encoding 168 FMSR

3580 3190 mt 
(-1.1) s
3946 2703 mt 3975 2703 L
6489 2703 mt 6459 2703 L
3720 2765 mt 
(-1) s
3946 2278 mt 3975 2278 L
6489 2278 mt 6459 2278 L
3580 2340 mt 
(-0.9) s
3946 1853 mt 3975 1853 L
6489 1853 mt 6459 1853 L
3580 1915 mt 
(-0.8) s
3946 1428 mt 3975 1428 L
6489 1428 mt 6459 1428 L
3580 1490 mt 
(-0.7) s
3946 1003 mt 3975 1003 L
6489 1003 mt 6459 1003 L
3580 1065 mt 
(-0.6) s
3946  578 mt 3975  578 L
6489  578 mt 6459  578 L
3580  640 mt 
(-0.5) s
3946 3248 mt 6489 3248 L
3946  284 mt 6489  284 L
3946 3248 mt 3946  284 L
6489 3248 mt 6489  284 L
gs 3946 284 2544 2965 rc
DA
24 w
c8
137 263 131 225 196 319 158 213 261 314 887 553 4121 352 7 MP stroke
gr

24 w
c8
DA
gs 4023 254 1967 2084 rc
SO
  36   36 4121  352 FO
  36   36 5008  905 FO
  36   36 5269 1219 FO
  36   36 5427 1432 FO
  36   36 5623 1751 FO
  36   36 5754 1976 FO
  36   36 5891 2239 FO
DA
gr

gs 3946 284 2544 2965 rc
gr

0 sg
4298 3642 mt 
(Collisionality, ) s
%%IncludeResource: font Symbol
/Symbol /ISOLatin1Encoding 168 FMSR

5308 3642 mt 
(n) s
%%IncludeResource: font Helvetica
/Helvetica /ISOLatin1Encoding 132 FMSR

5395 3726 mt 
(*) s
%%IncludeResource: font Helvetica
/Helvetica /ISOLatin1Encoding 168 FMSR

5446 3642 mt 
( [) s
%%IncludeResource: font Symbol
/Symbol /ISOLatin1Encoding 168 FMSR

5539 3642 mt 
(n) s
%%IncludeResource: font Helvetica
/Helvetica /ISOLatin1Encoding 132 FMSR

5626 3726 mt 
(ii) s
%%IncludeResource: font Helvetica
/Helvetica /ISOLatin1Encoding 168 FMSR

5684 3642 mt 
(q/) s
%%IncludeResource: font Symbol
/Symbol /ISOLatin1Encoding 168 FMSR

5824 3642 mt 
(e) s
%%IncludeResource: font Helvetica
/Helvetica /ISOLatin1Encoding 132 FMSR

5897 3558 mt 
(3/2) s
%%IncludeResource: font Helvetica
/Helvetica /ISOLatin1Encoding 168 FMSR

6080 3642 mt 
(]) s
3481 3656 mt  -90 rotate
(Diamagnetic toroidal flow gradient, ) s
90 rotate
%%IncludeResource: font Symbol
/Symbol /ISOLatin1Encoding 168 FMSR

3481 1039 mt  -90 rotate
(\266) s
90 rotate
3481  957 mt  -90 rotate
(w) s
90 rotate
%%IncludeResource: font Helvetica
/Helvetica /ISOLatin1Encoding 132 FMSR

3565  842 mt  -90 rotate
(d) s
90 rotate
%%IncludeResource: font Helvetica
/Helvetica /ISOLatin1Encoding 168 FMSR

3481  769 mt  -90 rotate
(/) s
90 rotate
%%IncludeResource: font Symbol
/Symbol /ISOLatin1Encoding 168 FMSR

3481  723 mt  -90 rotate
(\266) s
90 rotate
%%IncludeResource: font Helvetica
/Helvetica /ISOLatin1Encoding 168 FMSR

3481  641 mt  -90 rotate
(r  [v) s
90 rotate
%%IncludeResource: font Helvetica
/Helvetica /ISOLatin1Encoding 132 FMSR

3565  361 mt  -90 rotate
(th) s
90 rotate
%%IncludeResource: font Helvetica
/Helvetica /ISOLatin1Encoding 168 FMSR

3481  251 mt  -90 rotate
(/R) s
90 rotate
%%IncludeResource: font Helvetica
/Helvetica /ISOLatin1Encoding 132 FMSR

3565   83 mt  -90 rotate
(0) s
90 rotate
3397   83 mt  -90 rotate
(2) s
90 rotate
%%IncludeResource: font Helvetica
/Helvetica /ISOLatin1Encoding 168 FMSR

3481   10 mt  -90 rotate
(]) s
90 rotate
gs 3946 284 2544 2965 rc
c9
259 785 302 476 558 928 862 461 201 2 3946 539 6 MP stroke
gr

c9
gs 3848 441 2379 2849 rc
SO
  36   36 4147  541 FO
  36   36 5009 1002 FO
  36   36 5567 1930 FO
  36   36 5869 2406 FO
  36   36 6128 3191 FO
DA
gr

gs 3946 284 2544 2965 rc
SO
6 w
gr

6 w
SO

end %%Color Dict

eplot
%%EndObject

epage
end

showpage

%%Trailer
%%EOF
