%!PS-Adobe-3.0 EPSF-3.0
%%Creator: MATLAB, The Mathworks, Inc. Version 7.5.0.338 (R2007b). Operating System: Linux 2.6.18.8-0.9-default #1 SMP Sun Feb 10 22:48:05 UTC 2008 i686.
%%Title: /home/space/phsgbo/GKWtest/svn/gkw/doc/fluxcomp.eps
%%CreationDate: 03/03/2008  13:32:29
%%DocumentNeededFonts: Helvetica
%%DocumentProcessColors: Cyan Magenta Yellow Black
%%LanguageLevel: 2
%%Pages: 1
%%BoundingBox:   -79   252   674   589
%%EndComments

%%BeginProlog
% MathWorks dictionary
/MathWorks 160 dict begin
% definition operators
/bdef {bind def} bind def
/ldef {load def} bind def
/xdef {exch def} bdef
/xstore {exch store} bdef
% operator abbreviations
/c  /clip ldef
/cc /concat ldef
/cp /closepath ldef
/gr /grestore ldef
/gs /gsave ldef
/mt /moveto ldef
/np /newpath ldef
/cm /currentmatrix ldef
/sm /setmatrix ldef
/rm /rmoveto ldef
/rl /rlineto ldef
/s {show newpath} bdef
/sc {setcmykcolor} bdef
/sr /setrgbcolor ldef
/sg /setgray ldef
/w /setlinewidth ldef
/j /setlinejoin ldef
/cap /setlinecap ldef
/rc {rectclip} bdef
/rf {rectfill} bdef
% page state control
/pgsv () def
/bpage {/pgsv save def} bdef
/epage {pgsv restore} bdef
/bplot /gsave ldef
/eplot {stroke grestore} bdef
% orientation switch
/portraitMode 0 def /landscapeMode 1 def /rotateMode 2 def
% coordinate system mappings
/dpi2point 0 def
% font control
/FontSize 0 def
/FMS {/FontSize xstore findfont [FontSize 0 0 FontSize neg 0 0]
  makefont setfont} bdef
/reencode {exch dup where {pop load} {pop StandardEncoding} ifelse
  exch dup 3 1 roll findfont dup length dict begin
  { 1 index /FID ne {def}{pop pop} ifelse } forall
  /Encoding exch def currentdict end definefont pop} bdef
/isroman {findfont /CharStrings get /Agrave known} bdef
/FMSR {3 1 roll 1 index dup isroman {reencode} {pop pop} ifelse
  exch FMS} bdef
/csm {1 dpi2point div -1 dpi2point div scale neg translate
 dup landscapeMode eq {pop -90 rotate}
  {rotateMode eq {90 rotate} if} ifelse} bdef
% line types: solid, dotted, dashed, dotdash
/SO { [] 0 setdash } bdef
/DO { [.5 dpi2point mul 4 dpi2point mul] 0 setdash } bdef
/DA { [6 dpi2point mul] 0 setdash } bdef
/DD { [.5 dpi2point mul 4 dpi2point mul 6 dpi2point mul 4
  dpi2point mul] 0 setdash } bdef
% macros for lines and objects
/L {lineto stroke} bdef
/MP {3 1 roll moveto 1 sub {rlineto} repeat} bdef
/AP {{rlineto} repeat} bdef
/PDlw -1 def
/W {/PDlw currentlinewidth def setlinewidth} def
/PP {closepath eofill} bdef
/DP {closepath stroke} bdef
/MR {4 -2 roll moveto dup  0 exch rlineto exch 0 rlineto
  neg 0 exch rlineto closepath} bdef
/FR {MR stroke} bdef
/PR {MR fill} bdef
/L1i {{currentfile picstr readhexstring pop} image} bdef
/tMatrix matrix def
/MakeOval {newpath tMatrix currentmatrix pop translate scale
0 0 1 0 360 arc tMatrix setmatrix} bdef
/FO {MakeOval stroke} bdef
/PO {MakeOval fill} bdef
/PD {currentlinewidth 2 div 0 360 arc fill
   PDlw -1 eq not {PDlw w /PDlw -1 def} if} def
/FA {newpath tMatrix currentmatrix pop translate scale
  0 0 1 5 -2 roll arc tMatrix setmatrix stroke} bdef
/PA {newpath tMatrix currentmatrix pop	translate 0 0 moveto scale
  0 0 1 5 -2 roll arc closepath tMatrix setmatrix fill} bdef
/FAn {newpath tMatrix currentmatrix pop translate scale
  0 0 1 5 -2 roll arcn tMatrix setmatrix stroke} bdef
/PAn {newpath tMatrix currentmatrix pop translate 0 0 moveto scale
  0 0 1 5 -2 roll arcn closepath tMatrix setmatrix fill} bdef
/vradius 0 def /hradius 0 def /lry 0 def
/lrx 0 def /uly 0 def /ulx 0 def /rad 0 def
/MRR {/vradius xdef /hradius xdef /lry xdef /lrx xdef /uly xdef
  /ulx xdef newpath tMatrix currentmatrix pop ulx hradius add uly
  vradius add translate hradius vradius scale 0 0 1 180 270 arc 
  tMatrix setmatrix lrx hradius sub uly vradius add translate
  hradius vradius scale 0 0 1 270 360 arc tMatrix setmatrix
  lrx hradius sub lry vradius sub translate hradius vradius scale
  0 0 1 0 90 arc tMatrix setmatrix ulx hradius add lry vradius sub
  translate hradius vradius scale 0 0 1 90 180 arc tMatrix setmatrix
  closepath} bdef
/FRR {MRR stroke } bdef
/PRR {MRR fill } bdef
/MlrRR {/lry xdef /lrx xdef /uly xdef /ulx xdef /rad lry uly sub 2 div def
  newpath tMatrix currentmatrix pop ulx rad add uly rad add translate
  rad rad scale 0 0 1 90 270 arc tMatrix setmatrix lrx rad sub lry rad
  sub translate rad rad scale 0 0 1 270 90 arc tMatrix setmatrix
  closepath} bdef
/FlrRR {MlrRR stroke } bdef
/PlrRR {MlrRR fill } bdef
/MtbRR {/lry xdef /lrx xdef /uly xdef /ulx xdef /rad lrx ulx sub 2 div def
  newpath tMatrix currentmatrix pop ulx rad add uly rad add translate
  rad rad scale 0 0 1 180 360 arc tMatrix setmatrix lrx rad sub lry rad
  sub translate rad rad scale 0 0 1 0 180 arc tMatrix setmatrix
  closepath} bdef
/FtbRR {MtbRR stroke } bdef
/PtbRR {MtbRR fill } bdef
/stri 6 array def /dtri 6 array def
/smat 6 array def /dmat 6 array def
/tmat1 6 array def /tmat2 6 array def /dif 3 array def
/asub {/ind2 exch def /ind1 exch def dup dup
  ind1 get exch ind2 get sub exch } bdef
/tri_to_matrix {
  2 0 asub 3 1 asub 4 0 asub 5 1 asub
  dup 0 get exch 1 get 7 -1 roll astore } bdef
/compute_transform {
  dmat dtri tri_to_matrix tmat1 invertmatrix 
  smat stri tri_to_matrix tmat2 concatmatrix } bdef
/ds {stri astore pop} bdef
/dt {dtri astore pop} bdef
/db {2 copy /cols xdef /rows xdef mul dup 3 mul string
  currentfile 
  3 index 0 eq {/ASCIIHexDecode filter}
  {/ASCII85Decode filter 3 index 2 eq {/RunLengthDecode filter} if }
  ifelse exch readstring pop
  dup 0 3 index getinterval /rbmap xdef
  dup 2 index dup getinterval /gbmap xdef
  1 index dup 2 mul exch getinterval /bbmap xdef pop pop}bdef
/it {gs np dtri aload pop moveto lineto lineto cp c
  cols rows 8 compute_transform 
  rbmap gbmap bbmap true 3 colorimage gr}bdef
/il {newpath moveto lineto stroke}bdef
currentdict end def
%%EndProlog

%%BeginSetup
MathWorks begin

0 cap

end
%%EndSetup

%%Page: 1 1
%%BeginPageSetup
%%PageBoundingBox:   -79   252   674   589
MathWorks begin
bpage
%%EndPageSetup

%%BeginObject: obj1
bplot

/dpi2point 12 def
portraitMode -0948 7068 csm

    0     0  9043  4034 rc
86 dict begin %Colortable dictionary
/c0 { 0.000000 0.000000 0.000000 sr} bdef
/c1 { 1.000000 1.000000 1.000000 sr} bdef
/c2 { 0.900000 0.000000 0.000000 sr} bdef
/c3 { 0.000000 0.820000 0.000000 sr} bdef
/c4 { 0.000000 0.000000 0.800000 sr} bdef
/c5 { 0.910000 0.820000 0.320000 sr} bdef
/c6 { 1.000000 0.260000 0.820000 sr} bdef
/c7 { 0.000000 0.820000 0.820000 sr} bdef
c0
1 j
1 sg
   0    0 9044 4035 rf
6 w
0 3287 7009 0 0 -3287 1175 3590 4 MP
PP
-7009 0 0 3287 7009 0 0 -3287 1175 3590 5 MP stroke
4 w
DO
SO
6 w
0 sg
1175 3590 mt 8184 3590 L
1175  303 mt 8184  303 L
1175 3590 mt 1175  303 L
8184 3590 mt 8184  303 L
1175 3590 mt 8184 3590 L
1175 3590 mt 1175  303 L
1330 3590 mt 1330 3519 L
1330  303 mt 1330  373 L
%%IncludeResource: font Helvetica
/Helvetica /ISOLatin1Encoding 120 FMSR

1177 3735 mt 
(-4.5) s
2177 3590 mt 2177 3519 L
2177  303 mt 2177  373 L
2074 3735 mt 
(-4) s
3023 3590 mt 3023 3519 L
3023  303 mt 3023  373 L
2870 3735 mt 
(-3.5) s
3869 3590 mt 3869 3519 L
3869  303 mt 3869  373 L
3766 3735 mt 
(-3) s
4715 3590 mt 4715 3519 L
4715  303 mt 4715  373 L
4562 3735 mt 
(-2.5) s
5562 3590 mt 5562 3519 L
5562  303 mt 5562  373 L
5459 3735 mt 
(-2) s
6408 3590 mt 6408 3519 L
6408  303 mt 6408  373 L
6255 3735 mt 
(-1.5) s
7254 3590 mt 7254 3519 L
7254  303 mt 7254  373 L
7151 3735 mt 
(-1) s
8100 3590 mt 8100 3519 L
8100  303 mt 8100  373 L
7947 3735 mt 
(-0.5) s
1175 3391 mt 1246 3391 L
8184 3391 mt 8113 3391 L
 771 3435 mt 
(-0.055) s
1175 3078 mt 1246 3078 L
8184 3078 mt 8113 3078 L
 838 3122 mt 
(-0.05) s
1175 2764 mt 1246 2764 L
8184 2764 mt 8113 2764 L
 771 2808 mt 
(-0.045) s
1175 2450 mt 1246 2450 L
8184 2450 mt 8113 2450 L
 838 2494 mt 
(-0.04) s
1175 2137 mt 1246 2137 L
8184 2137 mt 8113 2137 L
 771 2181 mt 
(-0.035) s
1175 1823 mt 1246 1823 L
8184 1823 mt 8113 1823 L
 838 1867 mt 
(-0.03) s
1175 1509 mt 1246 1509 L
8184 1509 mt 8113 1509 L
 771 1553 mt 
(-0.025) s
1175 1196 mt 1246 1196 L
8184 1196 mt 8113 1196 L
 838 1240 mt 
(-0.02) s
1175  882 mt 1246  882 L
8184  882 mt 8113  882 L
 771  926 mt 
(-0.015) s
1175  568 mt 1246  568 L
8184  568 mt 8113  568 L
 838  612 mt 
(-0.01) s
1175 3590 mt 8184 3590 L
1175  303 mt 8184  303 L
1175 3590 mt 1175  303 L
8184 3590 mt 8184  303 L
gs 1176 302 7009 3288 rc
/c8 { 0.000000 0.000000 1.000000 sr} bdef
c8
110 355 113 -18 113 644 112 765 113 -72 113 -806 113 -405 113 -129 
113 631 112 372 113 127 113 14 113 142 113 86 113 55 112 34 
113 2 113 48 113 23 113 -45 113 -251 112 -189 113 -103 113 335 
113 60 113 127 113 94 112 104 113 48 113 32 113 2 113 12 
113 30 112 -12 113 -37 113 -135 113 -145 113 -88 113 247 112 45 
113 85 113 79 113 53 113 60 113 -3 112 39 113 -40 113 92 
113 -138 113 137 112 -320 113 254 113 -425 1387 1718 54 MP stroke
51 -1299 112 -1683 110 -306 7483 3590 4 MP stroke
DA
/c9 { 0.000000 1.000000 1.000000 sr} bdef
c9
49 -1248 112 -1682 113 -312 113 0 113 366 113 -17 113 648 112 767 
113 -74 113 -810 113 -409 113 -129 113 627 112 371 113 127 113 13 
113 142 113 85 113 56 112 34 113 2 113 48 113 22 113 -44 
113 -250 112 -187 113 -102 113 330 113 57 113 126 113 95 112 103 
113 48 113 31 113 3 113 12 113 31 112 -14 113 -34 113 -137 
113 -139 113 -92 113 245 112 33 113 93 113 63 113 76 113 33 
113 34 112 -9 113 25 113 2 113 -11 113 -47 112 -57 113 -135 
113 -51 1387 1544 58 MP stroke
gr

c9
DA
0 sg
4649 3878 mt 
(s) s
%%IncludeResource: font Symbol
/Symbol /ISOLatin1Encoding 120 FMSR

 635 1991 mt  -90 rotate
(f) s
90 rotate
%%IncludeResource: font Helvetica
/Helvetica /ISOLatin1Encoding 96 FMSR

 695 1929 mt  -90 rotate
(I) s
90 rotate
%%IncludeResource: font Helvetica
/Helvetica /ISOLatin1Encoding 120 FMSR

3747  146 mt 
(R/Ln=6 and k) s
%%IncludeResource: font Symbol
/Symbol /ISOLatin1Encoding 96 FMSR

4464  206 mt 
(q) s
%%IncludeResource: font Symbol
/Symbol /ISOLatin1Encoding 120 FMSR

4514  146 mt 
(r) s
%%IncludeResource: font Helvetica
/Helvetica /ISOLatin1Encoding 96 FMSR

4579  206 mt 
(i) s
%%IncludeResource: font Helvetica
/Helvetica /ISOLatin1Encoding 120 FMSR

4600  146 mt 
(=0.2  FluxesTest1b) s
1159 3632 mt 
( ) s
8168  344 mt 
( ) s
SO
1 sg
0 334 723 0 0 -334 7401 696 4 MP
PP
-723 0 0 334 723 0 0 -334 7401 696 5 MP stroke
4 w
DO
SO
6 w
0 sg
7401  696 mt 8124  696 L
7401  362 mt 8124  362 L
7401  696 mt 7401  362 L
8124  696 mt 8124  362 L
7401  696 mt 8124  696 L
7401  696 mt 7401  362 L
7401  696 mt 8124  696 L
7401  362 mt 8124  362 L
7401  696 mt 7401  362 L
8124  696 mt 8124  362 L
7856  496 mt 
(old) s
gs 7401 362 724 335 rc
c8
350 0 7470 453 2 MP stroke
gr

c8
0 sg
7856  647 mt 
(new) s
gs 7401 362 724 335 rc
DA
c9
350 0 7470 604 2 MP stroke
SO
gr

c9

end %%Color Dict

eplot
%%EndObject

epage
end

showpage

%%Trailer
%%EOF
