%!PS-Adobe-2.0 EPSF-1.2
%%Creator: MATLAB, The Mathworks, Inc. Version 7.5.0.338 (R2007b). Operating System: Linux 2.6.25.20-0.1-default #1 SMP 2008-12-12 20:30:38 +0100 x86_64.
%%Title: /storage/space1/phsgbe/matlab/figures/gkw_gs2/GeomComp/geom_bench.eps
%%CreationDate: 03/31/2009  14:26:32
%%DocumentNeededFonts: Helvetica-Bold
%%+ Helvetica
%%DocumentProcessColors: Cyan Magenta Yellow Black
%%Extensions: CMYK
%%Pages: 1
%%BoundingBox:    59   225   494   591
%%EndComments

%%BeginProlog
% MathWorks dictionary
/MathWorks 160 dict begin
% definition operators
/bdef {bind def} bind def
/ldef {load def} bind def
/xdef {exch def} bdef
/xstore {exch store} bdef
% operator abbreviations
/c  /clip ldef
/cc /concat ldef
/cp /closepath ldef
/gr /grestore ldef
/gs /gsave ldef
/mt /moveto ldef
/np /newpath ldef
/cm /currentmatrix ldef
/sm /setmatrix ldef
/rm /rmoveto ldef
/rl /rlineto ldef
/s {show newpath} bdef
/sc {setcmykcolor} bdef
/sr /setrgbcolor ldef
/sg /setgray ldef
/w /setlinewidth ldef
/j /setlinejoin ldef
/cap /setlinecap ldef
/rc {rectclip} bdef
/rf {rectfill} bdef
% page state control
/pgsv () def
/bpage {/pgsv save def} bdef
/epage {pgsv restore} bdef
/bplot /gsave ldef
/eplot {stroke grestore} bdef
% orientation switch
/portraitMode 0 def /landscapeMode 1 def /rotateMode 2 def
% coordinate system mappings
/dpi2point 0 def
% font control
/FontSize 0 def
/FMS {/FontSize xstore findfont [FontSize 0 0 FontSize neg 0 0]
  makefont setfont} bdef
/reencode {exch dup where {pop load} {pop StandardEncoding} ifelse
  exch dup 3 1 roll findfont dup length dict begin
  { 1 index /FID ne {def}{pop pop} ifelse } forall
  /Encoding exch def currentdict end definefont pop} bdef
/isroman {findfont /CharStrings get /Agrave known} bdef
/FMSR {3 1 roll 1 index dup isroman {reencode} {pop pop} ifelse
  exch FMS} bdef
/csm {1 dpi2point div -1 dpi2point div scale neg translate
 dup landscapeMode eq {pop -90 rotate}
  {rotateMode eq {90 rotate} if} ifelse} bdef
% line types: solid, dotted, dashed, dotdash
/SO { [] 0 setdash } bdef
/DO { [.5 dpi2point mul 4 dpi2point mul] 0 setdash } bdef
/DA { [6 dpi2point mul] 0 setdash } bdef
/DD { [.5 dpi2point mul 4 dpi2point mul 6 dpi2point mul 4
  dpi2point mul] 0 setdash } bdef
% macros for lines and objects
/L {lineto stroke} bdef
/MP {3 1 roll moveto 1 sub {rlineto} repeat} bdef
/AP {{rlineto} repeat} bdef
/PDlw -1 def
/W {/PDlw currentlinewidth def setlinewidth} def
/PP {closepath eofill} bdef
/DP {closepath stroke} bdef
/MR {4 -2 roll moveto dup  0 exch rlineto exch 0 rlineto
  neg 0 exch rlineto closepath} bdef
/FR {MR stroke} bdef
/PR {MR fill} bdef
/L1i {{currentfile picstr readhexstring pop} image} bdef
/tMatrix matrix def
/MakeOval {newpath tMatrix currentmatrix pop translate scale
0 0 1 0 360 arc tMatrix setmatrix} bdef
/FO {MakeOval stroke} bdef
/PO {MakeOval fill} bdef
/PD {currentlinewidth 2 div 0 360 arc fill
   PDlw -1 eq not {PDlw w /PDlw -1 def} if} def
/FA {newpath tMatrix currentmatrix pop translate scale
  0 0 1 5 -2 roll arc tMatrix setmatrix stroke} bdef
/PA {newpath tMatrix currentmatrix pop	translate 0 0 moveto scale
  0 0 1 5 -2 roll arc closepath tMatrix setmatrix fill} bdef
/FAn {newpath tMatrix currentmatrix pop translate scale
  0 0 1 5 -2 roll arcn tMatrix setmatrix stroke} bdef
/PAn {newpath tMatrix currentmatrix pop translate 0 0 moveto scale
  0 0 1 5 -2 roll arcn closepath tMatrix setmatrix fill} bdef
/vradius 0 def /hradius 0 def /lry 0 def
/lrx 0 def /uly 0 def /ulx 0 def /rad 0 def
/MRR {/vradius xdef /hradius xdef /lry xdef /lrx xdef /uly xdef
  /ulx xdef newpath tMatrix currentmatrix pop ulx hradius add uly
  vradius add translate hradius vradius scale 0 0 1 180 270 arc 
  tMatrix setmatrix lrx hradius sub uly vradius add translate
  hradius vradius scale 0 0 1 270 360 arc tMatrix setmatrix
  lrx hradius sub lry vradius sub translate hradius vradius scale
  0 0 1 0 90 arc tMatrix setmatrix ulx hradius add lry vradius sub
  translate hradius vradius scale 0 0 1 90 180 arc tMatrix setmatrix
  closepath} bdef
/FRR {MRR stroke } bdef
/PRR {MRR fill } bdef
/MlrRR {/lry xdef /lrx xdef /uly xdef /ulx xdef /rad lry uly sub 2 div def
  newpath tMatrix currentmatrix pop ulx rad add uly rad add translate
  rad rad scale 0 0 1 90 270 arc tMatrix setmatrix lrx rad sub lry rad
  sub translate rad rad scale 0 0 1 270 90 arc tMatrix setmatrix
  closepath} bdef
/FlrRR {MlrRR stroke } bdef
/PlrRR {MlrRR fill } bdef
/MtbRR {/lry xdef /lrx xdef /uly xdef /ulx xdef /rad lrx ulx sub 2 div def
  newpath tMatrix currentmatrix pop ulx rad add uly rad add translate
  rad rad scale 0 0 1 180 360 arc tMatrix setmatrix lrx rad sub lry rad
  sub translate rad rad scale 0 0 1 0 180 arc tMatrix setmatrix
  closepath} bdef
/FtbRR {MtbRR stroke } bdef
/PtbRR {MtbRR fill } bdef
/stri 6 array def /dtri 6 array def
/smat 6 array def /dmat 6 array def
/tmat1 6 array def /tmat2 6 array def /dif 3 array def
/asub {/ind2 exch def /ind1 exch def dup dup
  ind1 get exch ind2 get sub exch } bdef
/tri_to_matrix {
  2 0 asub 3 1 asub 4 0 asub 5 1 asub
  dup 0 get exch 1 get 7 -1 roll astore } bdef
/compute_transform {
  dmat dtri tri_to_matrix tmat1 invertmatrix 
  smat stri tri_to_matrix tmat2 concatmatrix } bdef
/ds {stri astore pop} bdef
/dt {dtri astore pop} bdef
/db {2 copy /cols xdef /rows xdef mul dup 3 mul string
  currentfile exch readhexstring pop
  dup 0 3 index getinterval /rbmap xdef
  dup 2 index dup getinterval /gbmap xdef
  1 index dup 2 mul exch getinterval /bbmap xdef pop pop}bdef
/it {gs np dtri aload pop moveto lineto lineto cp c
  cols rows 8 compute_transform 
  rbmap gbmap bbmap true 3 colorimage gr}bdef
/il {newpath moveto lineto stroke}bdef
currentdict end def
%%EndProlog

%%BeginSetup
MathWorks begin

0 cap

end
%%EndSetup

%%Page: 1 1
%%BeginPageSetup
%%PageBoundingBox:    59   225   494   591
MathWorks begin
bpage
%%EndPageSetup

%%BeginObject: obj1
bplot

/dpi2point 4.16667 def
portraitMode 0245 2570 csm

    0   106  1814  1525 MR c np
85 dict begin %Colortable dictionary
/c0 { 0.000000 0.000000 0.000000 sr} bdef
/c1 { 1.000000 1.000000 1.000000 sr} bdef
/c2 { 0.900000 0.000000 0.000000 sr} bdef
/c3 { 0.000000 0.820000 0.000000 sr} bdef
/c4 { 0.000000 0.000000 0.800000 sr} bdef
/c5 { 0.910000 0.820000 0.320000 sr} bdef
/c6 { 1.000000 0.260000 0.820000 sr} bdef
/c7 { 0.000000 0.820000 0.820000 sr} bdef
c0
1 j
1 sg
   0    0 1985 1632 PR
2.08333 w
0 1330 1521 0 0 -1330 275 1452 4 MP
PP
-1521 0 0 1330 1521 0 0 -1330 275 1452 5 MP stroke
1.38889 w
DO
SO
2.08333 w
0 sg
 275 1452 mt 1796 1452 L
 275  122 mt 1796  122 L
 275 1452 mt  275  122 L
1796 1452 mt 1796  122 L
 275 1452 mt 1796 1452 L
 275 1452 mt  275  122 L
 275 1452 mt  275 1436 L
 275  122 mt  275  137 L
%%IncludeResource: font Helvetica-Bold
/Helvetica-Bold /ISOLatin1Encoding 66.6667 FMSR

 257 1528 mt 
(0) s
 492 1452 mt  492 1436 L
 492  122 mt  492  137 L
 446 1528 mt 
(0.1) s
 709 1452 mt  709 1436 L
 709  122 mt  709  137 L
 663 1528 mt 
(0.2) s
 926 1452 mt  926 1436 L
 926  122 mt  926  137 L
 880 1528 mt 
(0.3) s
1144 1452 mt 1144 1436 L
1144  122 mt 1144  137 L
1098 1528 mt 
(0.4) s
1361 1452 mt 1361 1436 L
1361  122 mt 1361  137 L
1315 1528 mt 
(0.5) s
1578 1452 mt 1578 1436 L
1578  122 mt 1578  137 L
1532 1528 mt 
(0.6) s
 275 1452 mt  290 1452 L
1796 1452 mt 1780 1452 L
 226 1477 mt 
(0) s
 275 1317 mt  290 1317 L
1796 1317 mt 1780 1317 L
 134 1342 mt 
(0.05) s
 275 1183 mt  290 1183 L
1796 1183 mt 1780 1183 L
 171 1208 mt 
(0.1) s
 275 1048 mt  290 1048 L
1796 1048 mt 1780 1048 L
 134 1073 mt 
(0.15) s
 275  914 mt  290  914 L
1796  914 mt 1780  914 L
 171  939 mt 
(0.2) s
 275  780 mt  290  780 L
1796  780 mt 1780  780 L
 134  805 mt 
(0.25) s
 275  645 mt  290  645 L
1796  645 mt 1780  645 L
 171  670 mt 
(0.3) s
 275  511 mt  290  511 L
1796  511 mt 1780  511 L
 134  536 mt 
(0.35) s
 275  377 mt  290  377 L
1796  377 mt 1780  377 L
 171  402 mt 
(0.4) s
 275  242 mt  290  242 L
1796  242 mt 1780  242 L
 134  267 mt 
(0.45) s
 275 1452 mt 1796 1452 L
 275  122 mt 1796  122 L
 275 1452 mt  275  122 L
1796 1452 mt 1796  122 L
gs 275 122 1522 1331 MR c np
4.16667 w
/c8 { 0.000000 0.000000 1.000000 sr} bdef
c8
125 259 125 222 124 166 125 98 125 28 124 -46 125 -115 125 -194 
124 -301 125 -355 399 1221 11 MP stroke
126 257 125 227 126 168 125 100 126 27 125 -45 126 -113 125 -176 
126 -268 125 -339 400 1224 11 MP stroke
127 261 126 230 127 176 127 109 127 35 127 -37 127 -106 127 -165 
127 -245 127 -326 401 1229 11 MP stroke
gs 457 197 1157 791 MR c np
0 j
16 21 -16 21 -16 -21 16 -21 492 973 5 MP
/c9 { 1.000000 0.000000 0.000000 sr} bdef
c9
DP
16 21 -16 21 -16 -21 16 -21 709 473 5 MP
DP
16 21 -16 21 -16 -21 16 -21 926 255 5 MP
DP
16 21 -16 21 -16 -21 16 -21 1144 252 5 MP
DP
16 21 -16 21 -16 -21 16 -21 1361 465 5 MP
DP
16 21 -16 21 -16 -21 16 -21 1578 853 5 MP
DP
gr

c9
gs 457 256 1157 746 MR c np
0 j
16 21 -16 21 -16 -21 16 -21 492 987 5 MP
DP
16 21 -16 21 -16 -21 16 -21 709 541 5 MP
DP
16 21 -16 21 -16 -21 16 -21 926 324 5 MP
DP
16 21 -16 21 -16 -21 16 -21 1144 311 5 MP
DP
16 21 -16 21 -16 -21 16 -21 1361 517 5 MP
DP
16 21 -16 21 -16 -21 16 -21 1578 902 5 MP
DP
gr

gs 457 328 1157 700 MR c np
0 j
16 21 -16 21 -16 -21 16 -21 492 1013 5 MP
DP
16 21 -16 21 -16 -21 16 -21 709 602 5 MP
DP
16 21 -16 21 -16 -21 16 -21 926 393 5 MP
DP
16 21 -16 21 -16 -21 16 -21 1144 383 5 MP
DP
16 21 -16 21 -16 -21 16 -21 1361 590 5 MP
DP
16 21 -16 21 -16 -21 16 -21 1578 976 5 MP
DP
gr

DA
108 116 24 21 77 59 77 46 40 19 37 14 77 15 77 -8 
26 -11 50 -34 77 -89 77 -135 13 -28 492 1139 14 MP stroke
gr

4.16667 w
c9
DA
0 sg
  70  885 mt  -90 rotate
(R) s
90 rotate
%%IncludeResource: font Symbol
/Symbol /ISOLatin1Encoding 66.6667 FMSR

  70  837 mt  -90 rotate
(g) s
90 rotate
%%IncludeResource: font Helvetica-Bold
/Helvetica-Bold /ISOLatin1Encoding 66.6667 FMSR

  70  810 mt  -90 rotate
( / c) s
90 rotate
%%IncludeResource: font Helvetica-Bold
/Helvetica-Bold /ISOLatin1Encoding 50 FMSR

 103  718 mt  -90 rotate
(s) s
90 rotate
%%IncludeResource: font Helvetica-Bold
/Helvetica-Bold /ISOLatin1Encoding 66.6667 FMSR

 971 1580 mt 
(k) s
%%IncludeResource: font Symbol
/Symbol /ISOLatin1Encoding 50 FMSR

1008 1613 mt 
(q) s
%%IncludeResource: font Symbol
/Symbol /ISOLatin1Encoding 66.6667 FMSR

1034 1580 mt 
(r) s
%%IncludeResource: font Helvetica-Bold
/Helvetica-Bold /ISOLatin1Encoding 50 FMSR

1070 1613 mt 
(s) s
%%IncludeResource: font Helvetica
/Helvetica /ISOLatin1Encoding 66.6667 FMSR

1673 1020 mt 
(1.2) s
1673 1096 mt 
(1.4) s
1673 1172 mt 
(1.6) s
1035  911 mt 
(s-) s
%%IncludeResource: font Symbol
/Symbol /ISOLatin1Encoding 66.6667 FMSR

1107  911 mt 
(a) s
SO
2.08333 w

end %%Color Dict

eplot
%%EndObject

epage
end

showpage

%%Trailer
%%EOF
