%!PS-Adobe-3.0 EPSF-3.0
%%Creator: MATLAB, The Mathworks, Inc. Version 7.8.0.347 (R2009a). Operating System: Linux 2.6.34.7-0.5-desktop #1 SMP PREEMPT 2010-10-25 08:40:12 +0200 x86_64.
%%Title: /storage/space1/phrhac/runs/gkw/05_mom_shear09/cyclone_new/GKW_GS2_exb.eps
%%CreationDate: 03/15/2011  14:26:20
%%DocumentNeededFonts: Helvetica
%%DocumentProcessColors: Cyan Magenta Yellow Black
%%LanguageLevel: 2
%%Pages: 1
%%BoundingBox:   128   288   466   552
%%EndComments

%%BeginProlog
% MathWorks dictionary
/MathWorks 160 dict begin
% definition operators
/bdef {bind def} bind def
/ldef {load def} bind def
/xdef {exch def} bdef
/xstore {exch store} bdef
% operator abbreviations
/c  /clip ldef
/cc /concat ldef
/cp /closepath ldef
/gr /grestore ldef
/gs /gsave ldef
/mt /moveto ldef
/np /newpath ldef
/cm /currentmatrix ldef
/sm /setmatrix ldef
/rm /rmoveto ldef
/rl /rlineto ldef
/s {show newpath} bdef
/sc {setcmykcolor} bdef
/sr /setrgbcolor ldef
/sg /setgray ldef
/w /setlinewidth ldef
/j /setlinejoin ldef
/cap /setlinecap ldef
/rc {rectclip} bdef
/rf {rectfill} bdef
% page state control
/pgsv () def
/bpage {/pgsv save def} bdef
/epage {pgsv restore} bdef
/bplot /gsave ldef
/eplot {stroke grestore} bdef
% orientation switch
/portraitMode 0 def /landscapeMode 1 def /rotateMode 2 def
% coordinate system mappings
/dpi2point 0 def
% font control
/FontSize 0 def
/FMS {/FontSize xstore findfont [FontSize 0 0 FontSize neg 0 0]
  makefont setfont} bdef
/reencode {exch dup where {pop load} {pop StandardEncoding} ifelse
  exch dup 3 1 roll findfont dup length dict begin
  { 1 index /FID ne {def}{pop pop} ifelse } forall
  /Encoding exch def currentdict end definefont pop} bdef
/isroman {findfont /CharStrings get /Agrave known} bdef
/FMSR {3 1 roll 1 index dup isroman {reencode} {pop pop} ifelse
  exch FMS} bdef
/csm {1 dpi2point div -1 dpi2point div scale neg translate
 dup landscapeMode eq {pop -90 rotate}
  {rotateMode eq {90 rotate} if} ifelse} bdef
% line types: solid, dotted, dashed, dotdash
/SO { [] 0 setdash } bdef
/DO { [.5 dpi2point mul 4 dpi2point mul] 0 setdash } bdef
/DA { [6 dpi2point mul] 0 setdash } bdef
/DD { [.5 dpi2point mul 4 dpi2point mul 6 dpi2point mul 4
  dpi2point mul] 0 setdash } bdef
% macros for lines and objects
/L {lineto stroke} bdef
/MP {3 1 roll moveto 1 sub {rlineto} repeat} bdef
/AP {{rlineto} repeat} bdef
/PDlw -1 def
/W {/PDlw currentlinewidth def setlinewidth} def
/PP {closepath eofill} bdef
/DP {closepath stroke} bdef
/MR {4 -2 roll moveto dup  0 exch rlineto exch 0 rlineto
  neg 0 exch rlineto closepath} bdef
/FR {MR stroke} bdef
/PR {MR fill} bdef
/L1i {{currentfile picstr readhexstring pop} image} bdef
/tMatrix matrix def
/MakeOval {newpath tMatrix currentmatrix pop translate scale
0 0 1 0 360 arc tMatrix setmatrix} bdef
/FO {MakeOval stroke} bdef
/PO {MakeOval fill} bdef
/PD {currentlinewidth 2 div 0 360 arc fill
   PDlw -1 eq not {PDlw w /PDlw -1 def} if} def
/FA {newpath tMatrix currentmatrix pop translate scale
  0 0 1 5 -2 roll arc tMatrix setmatrix stroke} bdef
/PA {newpath tMatrix currentmatrix pop	translate 0 0 moveto scale
  0 0 1 5 -2 roll arc closepath tMatrix setmatrix fill} bdef
/FAn {newpath tMatrix currentmatrix pop translate scale
  0 0 1 5 -2 roll arcn tMatrix setmatrix stroke} bdef
/PAn {newpath tMatrix currentmatrix pop translate 0 0 moveto scale
  0 0 1 5 -2 roll arcn closepath tMatrix setmatrix fill} bdef
/vradius 0 def /hradius 0 def /lry 0 def
/lrx 0 def /uly 0 def /ulx 0 def /rad 0 def
/MRR {/vradius xdef /hradius xdef /lry xdef /lrx xdef /uly xdef
  /ulx xdef newpath tMatrix currentmatrix pop ulx hradius add uly
  vradius add translate hradius vradius scale 0 0 1 180 270 arc 
  tMatrix setmatrix lrx hradius sub uly vradius add translate
  hradius vradius scale 0 0 1 270 360 arc tMatrix setmatrix
  lrx hradius sub lry vradius sub translate hradius vradius scale
  0 0 1 0 90 arc tMatrix setmatrix ulx hradius add lry vradius sub
  translate hradius vradius scale 0 0 1 90 180 arc tMatrix setmatrix
  closepath} bdef
/FRR {MRR stroke } bdef
/PRR {MRR fill } bdef
/MlrRR {/lry xdef /lrx xdef /uly xdef /ulx xdef /rad lry uly sub 2 div def
  newpath tMatrix currentmatrix pop ulx rad add uly rad add translate
  rad rad scale 0 0 1 90 270 arc tMatrix setmatrix lrx rad sub lry rad
  sub translate rad rad scale 0 0 1 270 90 arc tMatrix setmatrix
  closepath} bdef
/FlrRR {MlrRR stroke } bdef
/PlrRR {MlrRR fill } bdef
/MtbRR {/lry xdef /lrx xdef /uly xdef /ulx xdef /rad lrx ulx sub 2 div def
  newpath tMatrix currentmatrix pop ulx rad add uly rad add translate
  rad rad scale 0 0 1 180 360 arc tMatrix setmatrix lrx rad sub lry rad
  sub translate rad rad scale 0 0 1 0 180 arc tMatrix setmatrix
  closepath} bdef
/FtbRR {MtbRR stroke } bdef
/PtbRR {MtbRR fill } bdef
/stri 6 array def /dtri 6 array def
/smat 6 array def /dmat 6 array def
/tmat1 6 array def /tmat2 6 array def /dif 3 array def
/asub {/ind2 exch def /ind1 exch def dup dup
  ind1 get exch ind2 get sub exch } bdef
/tri_to_matrix {
  2 0 asub 3 1 asub 4 0 asub 5 1 asub
  dup 0 get exch 1 get 7 -1 roll astore } bdef
/compute_transform {
  dmat dtri tri_to_matrix tmat1 invertmatrix 
  smat stri tri_to_matrix tmat2 concatmatrix } bdef
/ds {stri astore pop} bdef
/dt {dtri astore pop} bdef
/db {2 copy /cols xdef /rows xdef mul dup 3 mul string
  currentfile 
  3 index 0 eq {/ASCIIHexDecode filter}
  {/ASCII85Decode filter 3 index 2 eq {/RunLengthDecode filter} if }
  ifelse exch readstring pop
  dup 0 3 index getinterval /rbmap xdef
  dup 2 index dup getinterval /gbmap xdef
  1 index dup 2 mul exch getinterval /bbmap xdef pop pop}bdef
/it {gs np dtri aload pop moveto lineto lineto cp c
  cols rows 8 compute_transform 
  rbmap gbmap bbmap true 3 colorimage gr}bdef
/il {newpath moveto lineto stroke}bdef
currentdict end def
%%EndProlog

%%BeginSetup
MathWorks begin

0 cap

end
%%EndSetup

%%Page: 1 1
%%BeginPageSetup
%%PageBoundingBox:   128   288   466   552
MathWorks begin
bpage
%%EndPageSetup

%%BeginObject: obj1
bplot

/dpi2point 12 def
portraitMode 1536 6624 csm

    0     0  4061  3160 rc
85 dict begin %Colortable dictionary
/c0 { 0.000000 0.000000 0.000000 sr} bdef
/c1 { 1.000000 1.000000 1.000000 sr} bdef
/c2 { 0.900000 0.000000 0.000000 sr} bdef
/c3 { 0.000000 0.820000 0.000000 sr} bdef
/c4 { 0.000000 0.000000 0.800000 sr} bdef
/c5 { 0.910000 0.820000 0.320000 sr} bdef
/c6 { 1.000000 0.260000 0.820000 sr} bdef
/c7 { 0.000000 0.820000 0.820000 sr} bdef
c0
1 j
1 sg
   0    0 4062 3161 rf
6 w
0 2574 3409 0 0 -2574 538 2699 4 MP
PP
-3409 0 0 2574 3409 0 0 -2574 538 2699 5 MP stroke
4 w
DO
SO
6 w
0 sg
 538 2699 mt 3947 2699 L
 538  125 mt 3947  125 L
 538 2699 mt  538  125 L
3947 2699 mt 3947  125 L
 538 2699 mt 3947 2699 L
 538 2699 mt  538  125 L
 538 2699 mt  538 2664 L
 538  125 mt  538  159 L
%%IncludeResource: font Helvetica
/Helvetica /ISOLatin1Encoding 144 FMSR

 498 2867 mt 
(0) s
 635 2699 mt  635 2681 L
 635  125 mt  635  142 L
 732 2699 mt  732 2681 L
 732  125 mt  732  142 L
 830 2699 mt  830 2681 L
 830  125 mt  830  142 L
 927 2699 mt  927 2681 L
 927  125 mt  927  142 L
1025 2699 mt 1025 2681 L
1025  125 mt 1025  142 L
1025 2699 mt 1025 2681 L
1025  125 mt 1025  142 L
1025 2699 mt 1025 2681 L
1025  125 mt 1025  142 L
1025 2699 mt 1025 2681 L
1025  125 mt 1025  142 L
1025 2699 mt 1025 2681 L
1025  125 mt 1025  142 L
1025 2699 mt 1025 2664 L
1025  125 mt 1025  159 L
 925 2867 mt 
(0.5) s
1122 2699 mt 1122 2681 L
1122  125 mt 1122  142 L
1219 2699 mt 1219 2681 L
1219  125 mt 1219  142 L
1317 2699 mt 1317 2681 L
1317  125 mt 1317  142 L
1414 2699 mt 1414 2681 L
1414  125 mt 1414  142 L
1512 2699 mt 1512 2681 L
1512  125 mt 1512  142 L
1512 2699 mt 1512 2681 L
1512  125 mt 1512  142 L
1512 2699 mt 1512 2681 L
1512  125 mt 1512  142 L
1512 2699 mt 1512 2681 L
1512  125 mt 1512  142 L
1512 2699 mt 1512 2681 L
1512  125 mt 1512  142 L
1512 2699 mt 1512 2664 L
1512  125 mt 1512  159 L
1472 2867 mt 
(1) s
1609 2699 mt 1609 2681 L
1609  125 mt 1609  142 L
1706 2699 mt 1706 2681 L
1706  125 mt 1706  142 L
1804 2699 mt 1804 2681 L
1804  125 mt 1804  142 L
1901 2699 mt 1901 2681 L
1901  125 mt 1901  142 L
1999 2699 mt 1999 2681 L
1999  125 mt 1999  142 L
1999 2699 mt 1999 2681 L
1999  125 mt 1999  142 L
1999 2699 mt 1999 2681 L
1999  125 mt 1999  142 L
1999 2699 mt 1999 2681 L
1999  125 mt 1999  142 L
1999 2699 mt 1999 2681 L
1999  125 mt 1999  142 L
1999 2699 mt 1999 2664 L
1999  125 mt 1999  159 L
1899 2867 mt 
(1.5) s
2096 2699 mt 2096 2681 L
2096  125 mt 2096  142 L
2193 2699 mt 2193 2681 L
2193  125 mt 2193  142 L
2291 2699 mt 2291 2681 L
2291  125 mt 2291  142 L
2388 2699 mt 2388 2681 L
2388  125 mt 2388  142 L
2486 2699 mt 2486 2681 L
2486  125 mt 2486  142 L
2486 2699 mt 2486 2681 L
2486  125 mt 2486  142 L
2486 2699 mt 2486 2681 L
2486  125 mt 2486  142 L
2486 2699 mt 2486 2681 L
2486  125 mt 2486  142 L
2486 2699 mt 2486 2681 L
2486  125 mt 2486  142 L
2486 2699 mt 2486 2664 L
2486  125 mt 2486  159 L
2446 2867 mt 
(2) s
2583 2699 mt 2583 2681 L
2583  125 mt 2583  142 L
2680 2699 mt 2680 2681 L
2680  125 mt 2680  142 L
2778 2699 mt 2778 2681 L
2778  125 mt 2778  142 L
2875 2699 mt 2875 2681 L
2875  125 mt 2875  142 L
2973 2699 mt 2973 2681 L
2973  125 mt 2973  142 L
2973 2699 mt 2973 2681 L
2973  125 mt 2973  142 L
2973 2699 mt 2973 2681 L
2973  125 mt 2973  142 L
2973 2699 mt 2973 2681 L
2973  125 mt 2973  142 L
2973 2699 mt 2973 2681 L
2973  125 mt 2973  142 L
2973 2699 mt 2973 2664 L
2973  125 mt 2973  159 L
2873 2867 mt 
(2.5) s
3070 2699 mt 3070 2681 L
3070  125 mt 3070  142 L
3167 2699 mt 3167 2681 L
3167  125 mt 3167  142 L
3265 2699 mt 3265 2681 L
3265  125 mt 3265  142 L
3362 2699 mt 3362 2681 L
3362  125 mt 3362  142 L
3460 2699 mt 3460 2681 L
3460  125 mt 3460  142 L
3460 2699 mt 3460 2681 L
3460  125 mt 3460  142 L
3460 2699 mt 3460 2681 L
3460  125 mt 3460  142 L
3460 2699 mt 3460 2681 L
3460  125 mt 3460  142 L
3460 2699 mt 3460 2681 L
3460  125 mt 3460  142 L
3460 2699 mt 3460 2664 L
3460  125 mt 3460  159 L
3420 2867 mt 
(3) s
3557 2699 mt 3557 2681 L
3557  125 mt 3557  142 L
3654 2699 mt 3654 2681 L
3654  125 mt 3654  142 L
3752 2699 mt 3752 2681 L
3752  125 mt 3752  142 L
3849 2699 mt 3849 2681 L
3849  125 mt 3849  142 L
3947 2699 mt 3947 2681 L
3947  125 mt 3947  142 L
3947 2699 mt 3947 2681 L
3947  125 mt 3947  142 L
3947 2699 mt 3947 2681 L
3947  125 mt 3947  142 L
3947 2699 mt 3947 2681 L
3947  125 mt 3947  142 L
3947 2699 mt 3947 2681 L
3947  125 mt 3947  142 L
3947 2699 mt 3947 2664 L
3947  125 mt 3947  159 L
3847 2867 mt 
(3.5) s
 538 2699 mt  572 2699 L
3947 2699 mt 3912 2699 L
 423 2752 mt 
(0) s
 538 2619 mt  555 2619 L
3947 2619 mt 3929 2619 L
 538 2540 mt  555 2540 L
3947 2540 mt 3929 2540 L
 538 2461 mt  555 2461 L
3947 2461 mt 3929 2461 L
 538 2382 mt  555 2382 L
3947 2382 mt 3929 2382 L
 538 2303 mt  555 2303 L
3947 2303 mt 3929 2303 L
 538 2303 mt  555 2303 L
3947 2303 mt 3929 2303 L
 538 2303 mt  555 2303 L
3947 2303 mt 3929 2303 L
 538 2303 mt  555 2303 L
3947 2303 mt 3929 2303 L
 538 2303 mt  555 2303 L
3947 2303 mt 3929 2303 L
 538 2303 mt  572 2303 L
3947 2303 mt 3912 2303 L
 303 2356 mt 
(0.2) s
 538 2223 mt  555 2223 L
3947 2223 mt 3929 2223 L
 538 2144 mt  555 2144 L
3947 2144 mt 3929 2144 L
 538 2065 mt  555 2065 L
3947 2065 mt 3929 2065 L
 538 1986 mt  555 1986 L
3947 1986 mt 3929 1986 L
 538 1906 mt  555 1906 L
3947 1906 mt 3929 1906 L
 538 1906 mt  555 1906 L
3947 1906 mt 3929 1906 L
 538 1906 mt  555 1906 L
3947 1906 mt 3929 1906 L
 538 1906 mt  555 1906 L
3947 1906 mt 3929 1906 L
 538 1906 mt  555 1906 L
3947 1906 mt 3929 1906 L
 538 1906 mt  572 1906 L
3947 1906 mt 3912 1906 L
 303 1959 mt 
(0.4) s
 538 1827 mt  555 1827 L
3947 1827 mt 3929 1827 L
 538 1748 mt  555 1748 L
3947 1748 mt 3929 1748 L
 538 1669 mt  555 1669 L
3947 1669 mt 3929 1669 L
 538 1590 mt  555 1590 L
3947 1590 mt 3929 1590 L
 538 1511 mt  555 1511 L
3947 1511 mt 3929 1511 L
 538 1511 mt  555 1511 L
3947 1511 mt 3929 1511 L
 538 1511 mt  555 1511 L
3947 1511 mt 3929 1511 L
 538 1511 mt  555 1511 L
3947 1511 mt 3929 1511 L
 538 1511 mt  555 1511 L
3947 1511 mt 3929 1511 L
 538 1511 mt  572 1511 L
3947 1511 mt 3912 1511 L
 303 1564 mt 
(0.6) s
 538 1431 mt  555 1431 L
3947 1431 mt 3929 1431 L
 538 1352 mt  555 1352 L
3947 1352 mt 3929 1352 L
 538 1273 mt  555 1273 L
3947 1273 mt 3929 1273 L
 538 1194 mt  555 1194 L
3947 1194 mt 3929 1194 L
 538 1114 mt  555 1114 L
3947 1114 mt 3929 1114 L
 538 1114 mt  555 1114 L
3947 1114 mt 3929 1114 L
 538 1114 mt  555 1114 L
3947 1114 mt 3929 1114 L
 538 1114 mt  555 1114 L
3947 1114 mt 3929 1114 L
 538 1114 mt  555 1114 L
3947 1114 mt 3929 1114 L
 538 1114 mt  572 1114 L
3947 1114 mt 3912 1114 L
 303 1167 mt 
(0.8) s
 538 1035 mt  555 1035 L
3947 1035 mt 3929 1035 L
 538  956 mt  555  956 L
3947  956 mt 3929  956 L
 538  877 mt  555  877 L
3947  877 mt 3929  877 L
 538  798 mt  555  798 L
3947  798 mt 3929  798 L
 538  718 mt  555  718 L
3947  718 mt 3929  718 L
 538  718 mt  555  718 L
3947  718 mt 3929  718 L
 538  718 mt  555  718 L
3947  718 mt 3929  718 L
 538  718 mt  555  718 L
3947  718 mt 3929  718 L
 538  718 mt  555  718 L
3947  718 mt 3929  718 L
 538  718 mt  572  718 L
3947  718 mt 3912  718 L
 423  771 mt 
(1) s
 538  639 mt  555  639 L
3947  639 mt 3929  639 L
 538  560 mt  555  560 L
3947  560 mt 3929  560 L
 538  481 mt  555  481 L
3947  481 mt 3929  481 L
 538  402 mt  555  402 L
3947  402 mt 3929  402 L
 538  323 mt  555  323 L
3947  323 mt 3929  323 L
 538  323 mt  555  323 L
3947  323 mt 3929  323 L
 538  323 mt  555  323 L
3947  323 mt 3929  323 L
 538  323 mt  555  323 L
3947  323 mt 3929  323 L
 538  323 mt  555  323 L
3947  323 mt 3929  323 L
 538  323 mt  572  323 L
3947  323 mt 3912  323 L
 303  376 mt 
(1.2) s
 538  243 mt  555  243 L
3947  243 mt 3929  243 L
 538  164 mt  555  164 L
3947  164 mt 3929  164 L
 538 2699 mt 3947 2699 L
 538  125 mt 3947  125 L
 538 2699 mt  538  125 L
3947 2699 mt 3947  125 L
gs 538 125 3410 2575 rc
/c8 { 0.000000 0.000000 1.000000 sr} bdef
c8
539 -74 539 59 269 -9 270 291 539 841 539 379 538 112 538 719 8 MP stroke
gr

c8
gs 465 646 3380 1820 rc
0 j
0 -58 -58 0 0 58 58 0 509 690 5 MP
DP
0 -58 -58 0 0 58 58 0 1047 802 5 MP
DP
0 -58 -58 0 0 58 58 0 1586 1181 5 MP
DP
0 -58 -58 0 0 58 58 0 2125 2022 5 MP
DP
0 -58 -58 0 0 58 58 0 2395 2313 5 MP
DP
0 -58 -58 0 0 58 58 0 2664 2304 5 MP
DP
0 -58 -58 0 0 58 58 0 3203 2363 5 MP
DP
0 -58 -58 0 0 58 58 0 3742 2289 5 MP
DP
gr

gs 538 125 3410 2575 rc
gr

0 sg
%%IncludeResource: font Symbol
/Symbol /ISOLatin1Encoding 120 FMSR

2020 2978 mt 
(g) s
%%IncludeResource: font Helvetica
/Helvetica /ISOLatin1Encoding 96 FMSR

2069 3038 mt 
(E) s
%%IncludeResource: font Helvetica
/Helvetica /ISOLatin1Encoding 120 FMSR

2133 2978 mt 
( / ) s
%%IncludeResource: font Symbol
/Symbol /ISOLatin1Encoding 120 FMSR

2233 2978 mt 
(g) s
%%IncludeResource: font Helvetica
/Helvetica /ISOLatin1Encoding 96 FMSR

2282 3038 mt 
(max) s
%%IncludeResource: font Symbol
/Symbol /ISOLatin1Encoding 120 FMSR

 167 1575 mt  -90 rotate
(c) s
90 rotate
%%IncludeResource: font Helvetica
/Helvetica /ISOLatin1Encoding 96 FMSR

 227 1510 mt  -90 rotate
(i) s
90 rotate
%%IncludeResource: font Helvetica
/Helvetica /ISOLatin1Encoding 120 FMSR

 167 1489 mt  -90 rotate
( / ) s
90 rotate
%%IncludeResource: font Symbol
/Symbol /ISOLatin1Encoding 120 FMSR

 167 1389 mt  -90 rotate
(c) s
90 rotate
%%IncludeResource: font Helvetica
/Helvetica /ISOLatin1Encoding 96 FMSR

 227 1324 mt  -90 rotate
(i0) s
90 rotate
gs 538 125 3410 2575 rc
/c9 { 0.000000 0.500000 0.000000 sr} bdef
c9
555 -50 565 -158 536 752 507 990 272 99 292 0 538 719 7 MP stroke
gr

c9
gs 465 646 2874 1988 rc
  36   36  538  719 FO
  36   36  830  719 FO
  36   36 1102  818 FO
  36   36 1609 1808 FO
  36   36 2145 2560 FO
  36   36 2710 2402 FO
  36   36 3265 2352 FO
gr

gs 538 125 3410 2575 rc
gr

0 sg
%%IncludeResource: font Helvetica
/Helvetica /ISOLatin1Encoding 120 FMSR

 521 2742 mt 
( ) s
3931  167 mt 
( ) s
1 sg
0 265 3120 0 0 -265 813 389 4 MP
PP
-3120 0 0 265 3120 0 0 -265 813 389 5 MP stroke
4 w
DO
SO
6 w
0 sg
 813  389 mt 3933  389 L
 813  124 mt 3933  124 L
 813  389 mt  813  124 L
3933  389 mt 3933  124 L
 813  389 mt 3933  389 L
 813  389 mt  813  124 L
 813  389 mt 3933  389 L
 813  124 mt 3933  124 L
 813  389 mt  813  124 L
3933  389 mt 3933  124 L
%%IncludeResource: font Helvetica
/Helvetica /ISOLatin1Encoding 144 FMSR

1320  305 mt 
(GKW) s
gs 813 124 3121 266 rc
c8
390 0 891 253 2 MP stroke
gr

c8
0 j
0 -58 -58 0 0 58 58 0 1057 224 5 MP
DP
gs 813 124 3121 266 rc
gr

0 sg
2210  305 mt 
(GS2 \(Roach PPCF 2009\)) s
gs 813 124 3121 266 rc
c9
390 0 1780 253 2 MP stroke
gr

c9
  36   36 1975  253 FO
gs 813 124 3121 266 rc
gr

0 sg
%%IncludeResource: font Helvetica
/Helvetica /ISOLatin1Encoding 120 FMSR

2143  566 mt 
(Nonlinear collisionless adiabatic) s
2143  704 mt 
(electrostatic Cyclone case with ) s
2143  842 mt 
(ExB shear and coupled parallel) s
2143  980 mt 
(shear.) s
2143 1256 mt 
(GKW results with NMOD=21,) s
2143 1394 mt 
(NX=83, NS=16, NMU=8,) s
2143 1532 mt 
(NVPAR=16, krhomax=1.4,) s
2143 1670 mt 
(disp_par = 1.8 \(rather high\)) s

end %%Color Dict

eplot
%%EndObject

epage
end

showpage

%%Trailer
%%EOF
