%!PS-Adobe-3.0 EPSF-3.0
%%Creator: MATLAB, The Mathworks, Inc. Version 7.3.0.298 (R2006b). Operating System: Linux 2.6.18.8-0.5-default #1 SMP Fri Jun 22 12:17:53 UTC 2007 i686.
%%Title: /home/space/phsfar/runs/gkw/time/gkwgs2cbc_new.eps
%%CreationDate: 11/06/2007  13:44:18
%%DocumentNeededFonts: Helvetica
%%DocumentProcessColors: Cyan Magenta Yellow Black
%%LanguageLevel: 2
%%Pages: 1
%%BoundingBox: 131 308 446 522
%%EndComments

%%BeginProlog
% MathWorks dictionary
/MathWorks 160 dict begin
% definition operators
/bdef {bind def} bind def
/ldef {load def} bind def
/xdef {exch def} bdef
/xstore {exch store} bdef
% operator abbreviations
/c  /clip ldef
/cc /concat ldef
/cp /closepath ldef
/gr /grestore ldef
/gs /gsave ldef
/mt /moveto ldef
/np /newpath ldef
/cm /currentmatrix ldef
/sm /setmatrix ldef
/rm /rmoveto ldef
/rl /rlineto ldef
/s {show newpath} bdef
/sc {setcmykcolor} bdef
/sr /setrgbcolor ldef
/sg /setgray ldef
/w /setlinewidth ldef
/j /setlinejoin ldef
/cap /setlinecap ldef
/rc {rectclip} bdef
/rf {rectfill} bdef
% page state control
/pgsv () def
/bpage {/pgsv save def} bdef
/epage {pgsv restore} bdef
/bplot /gsave ldef
/eplot {stroke grestore} bdef
% orientation switch
/portraitMode 0 def /landscapeMode 1 def /rotateMode 2 def
% coordinate system mappings
/dpi2point 0 def
% font control
/FontSize 0 def
/FMS {/FontSize xstore findfont [FontSize 0 0 FontSize neg 0 0]
  makefont setfont} bdef
/reencode {exch dup where {pop load} {pop StandardEncoding} ifelse
  exch dup 3 1 roll findfont dup length dict begin
  { 1 index /FID ne {def}{pop pop} ifelse } forall
  /Encoding exch def currentdict end definefont pop} bdef
/isroman {findfont /CharStrings get /Agrave known} bdef
/FMSR {3 1 roll 1 index dup isroman {reencode} {pop pop} ifelse
  exch FMS} bdef
/csm {1 dpi2point div -1 dpi2point div scale neg translate
 dup landscapeMode eq {pop -90 rotate}
  {rotateMode eq {90 rotate} if} ifelse} bdef
% line types: solid, dotted, dashed, dotdash
/SO { [] 0 setdash } bdef
/DO { [.5 dpi2point mul 4 dpi2point mul] 0 setdash } bdef
/DA { [6 dpi2point mul] 0 setdash } bdef
/DD { [.5 dpi2point mul 4 dpi2point mul 6 dpi2point mul 4
  dpi2point mul] 0 setdash } bdef
% macros for lines and objects
/L {lineto stroke} bdef
/MP {3 1 roll moveto 1 sub {rlineto} repeat} bdef
/AP {{rlineto} repeat} bdef
/PDlw -1 def
/W {/PDlw currentlinewidth def setlinewidth} def
/PP {closepath eofill} bdef
/DP {closepath stroke} bdef
/MR {4 -2 roll moveto dup  0 exch rlineto exch 0 rlineto
  neg 0 exch rlineto closepath} bdef
/FR {MR stroke} bdef
/PR {MR fill} bdef
/L1i {{currentfile picstr readhexstring pop} image} bdef
/tMatrix matrix def
/MakeOval {newpath tMatrix currentmatrix pop translate scale
0 0 1 0 360 arc tMatrix setmatrix} bdef
/FO {MakeOval stroke} bdef
/PO {MakeOval fill} bdef
/PD {currentlinewidth 2 div 0 360 arc fill
   PDlw -1 eq not {PDlw w /PDlw -1 def} if} def
/FA {newpath tMatrix currentmatrix pop translate scale
  0 0 1 5 -2 roll arc tMatrix setmatrix stroke} bdef
/PA {newpath tMatrix currentmatrix pop	translate 0 0 moveto scale
  0 0 1 5 -2 roll arc closepath tMatrix setmatrix fill} bdef
/FAn {newpath tMatrix currentmatrix pop translate scale
  0 0 1 5 -2 roll arcn tMatrix setmatrix stroke} bdef
/PAn {newpath tMatrix currentmatrix pop translate 0 0 moveto scale
  0 0 1 5 -2 roll arcn closepath tMatrix setmatrix fill} bdef
/vradius 0 def /hradius 0 def /lry 0 def
/lrx 0 def /uly 0 def /ulx 0 def /rad 0 def
/MRR {/vradius xdef /hradius xdef /lry xdef /lrx xdef /uly xdef
  /ulx xdef newpath tMatrix currentmatrix pop ulx hradius add uly
  vradius add translate hradius vradius scale 0 0 1 180 270 arc 
  tMatrix setmatrix lrx hradius sub uly vradius add translate
  hradius vradius scale 0 0 1 270 360 arc tMatrix setmatrix
  lrx hradius sub lry vradius sub translate hradius vradius scale
  0 0 1 0 90 arc tMatrix setmatrix ulx hradius add lry vradius sub
  translate hradius vradius scale 0 0 1 90 180 arc tMatrix setmatrix
  closepath} bdef
/FRR {MRR stroke } bdef
/PRR {MRR fill } bdef
/MlrRR {/lry xdef /lrx xdef /uly xdef /ulx xdef /rad lry uly sub 2 div def
  newpath tMatrix currentmatrix pop ulx rad add uly rad add translate
  rad rad scale 0 0 1 90 270 arc tMatrix setmatrix lrx rad sub lry rad
  sub translate rad rad scale 0 0 1 270 90 arc tMatrix setmatrix
  closepath} bdef
/FlrRR {MlrRR stroke } bdef
/PlrRR {MlrRR fill } bdef
/MtbRR {/lry xdef /lrx xdef /uly xdef /ulx xdef /rad lrx ulx sub 2 div def
  newpath tMatrix currentmatrix pop ulx rad add uly rad add translate
  rad rad scale 0 0 1 180 360 arc tMatrix setmatrix lrx rad sub lry rad
  sub translate rad rad scale 0 0 1 0 180 arc tMatrix setmatrix
  closepath} bdef
/FtbRR {MtbRR stroke } bdef
/PtbRR {MtbRR fill } bdef
/stri 6 array def /dtri 6 array def
/smat 6 array def /dmat 6 array def
/tmat1 6 array def /tmat2 6 array def /dif 3 array def
/asub {/ind2 exch def /ind1 exch def dup dup
  ind1 get exch ind2 get sub exch } bdef
/tri_to_matrix {
  2 0 asub 3 1 asub 4 0 asub 5 1 asub
  dup 0 get exch 1 get 7 -1 roll astore } bdef
/compute_transform {
  dmat dtri tri_to_matrix tmat1 invertmatrix 
  smat stri tri_to_matrix tmat2 concatmatrix } bdef
/ds {stri astore pop} bdef
/dt {dtri astore pop} bdef
/db {2 copy /cols xdef /rows xdef mul dup 3 mul string
  currentfile 
  3 index 0 eq {/ASCIIHexDecode filter}
  {/ASCII85Decode filter 3 index 2 eq {/RunLengthDecode filter} if }
  ifelse exch readstring pop
  dup 0 3 index getinterval /rbmap xdef
  dup 2 index dup getinterval /gbmap xdef
  1 index dup 2 mul exch getinterval /bbmap xdef pop pop}bdef
/it {gs np dtri aload pop moveto lineto lineto cp c
  cols rows 8 compute_transform 
  rbmap gbmap bbmap true 3 colorimage gr}bdef
/il {newpath moveto lineto stroke}bdef
currentdict end def
%%EndProlog

%%BeginSetup
MathWorks begin

0 cap

end
%%EndSetup

%%Page: 1 1
%%BeginPageSetup
%%PageBoundingBox: 131 308 446 522
MathWorks begin
bpage
%%EndPageSetup

%%BeginObject: obj1
bplot

/dpi2point 12 def
portraitMode 1464 6420 csm

    0     0  4206  2737 rc
85 dict begin %Colortable dictionary
/c0 { 0.000000 0.000000 0.000000 sr} bdef
/c1 { 1.000000 1.000000 1.000000 sr} bdef
/c2 { 0.900000 0.000000 0.000000 sr} bdef
/c3 { 0.000000 0.820000 0.000000 sr} bdef
/c4 { 0.000000 0.000000 0.800000 sr} bdef
/c5 { 0.910000 0.820000 0.320000 sr} bdef
/c6 { 1.000000 0.260000 0.820000 sr} bdef
/c7 { 0.000000 0.820000 0.820000 sr} bdef
c0
1 j
1 sg
   0    0 4207 2738 rf
6 w
0 2179 3259 0 0 -2179 547 2384 4 MP
PP
-3259 0 0 2179 3259 0 0 -2179 547 2384 5 MP stroke
4 w
DO
SO
6 w
0 sg
 547 2384 mt 3806 2384 L
 547  205 mt 3806  205 L
 547 2384 mt  547  205 L
3806 2384 mt 3806  205 L
 547 2384 mt 3806 2384 L
 547 2384 mt  547  205 L
 547 2384 mt  547 2351 L
 547  205 mt  547  237 L
%%IncludeResource: font Helvetica
/Helvetica /ISOLatin1Encoding 120 FMSR

 514 2529 mt 
(0) s
1012 2384 mt 1012 2351 L
1012  205 mt 1012  237 L
 929 2529 mt 
(0.1) s
1478 2384 mt 1478 2351 L
1478  205 mt 1478  237 L
1395 2529 mt 
(0.2) s
1943 2384 mt 1943 2351 L
1943  205 mt 1943  237 L
1860 2529 mt 
(0.3) s
2409 2384 mt 2409 2351 L
2409  205 mt 2409  237 L
2326 2529 mt 
(0.4) s
2874 2384 mt 2874 2351 L
2874  205 mt 2874  237 L
2791 2529 mt 
(0.5) s
3340 2384 mt 3340 2351 L
3340  205 mt 3340  237 L
3257 2529 mt 
(0.6) s
3806 2384 mt 3806 2351 L
3806  205 mt 3806  237 L
3723 2529 mt 
(0.7) s
 547 2384 mt  579 2384 L
3806 2384 mt 3773 2384 L
 446 2428 mt 
(0) s
 547 1948 mt  579 1948 L
3806 1948 mt 3773 1948 L
 346 1992 mt 
(0.2) s
 547 1512 mt  579 1512 L
3806 1512 mt 3773 1512 L
 346 1556 mt 
(0.4) s
 547 1076 mt  579 1076 L
3806 1076 mt 3773 1076 L
 346 1120 mt 
(0.6) s
 547  640 mt  579  640 L
3806  640 mt 3773  640 L
 346  684 mt 
(0.8) s
 547  205 mt  579  205 L
3806  205 mt 3773  205 L
 446  249 mt 
(1) s
 547 2384 mt 3806 2384 L
 547  205 mt 3806  205 L
 547 2384 mt  547  205 L
3806 2384 mt 3806  205 L
gs 547 205 3260 2180 rc
/c8 { 0.000000 0.000000 1.000000 sr} bdef
c8
329 158 329 165 329 99 330 12 329 -84 329 -172 329 -197 876 2273 8 MP stroke
329 248 329 207 329 160 329 81 330 -19 329 -131 329 -235 329 -269 
876 2219 9 MP stroke
329 251 329 217 329 149 329 56 330 -59 329 -195 329 -316 329 -363 
876 2144 9 MP stroke
329 246 329 211 329 138 329 33 330 -97 329 -249 329 -387 329 -450 
876 2077 9 MP stroke
329 228 329 201 329 126 329 4 330 -141 329 -314 329 -468 329 -549 
876 1995 9 MP stroke
gs 803 1746 2451 602 rc
0 j
36 47 -36 47 -36 -47 36 -47 876 2321 5 MP
/c9 { 1.000000 0.000000 0.000000 sr} bdef
c9
DP
36 47 -36 47 -36 -47 36 -47 1205 2122 5 MP
DP
36 47 -36 47 -36 -47 36 -47 1534 1950 5 MP
DP
36 47 -36 47 -36 -47 36 -47 1863 1866 5 MP
DP
36 47 -36 47 -36 -47 36 -47 2193 1879 5 MP
DP
36 47 -36 47 -36 -47 36 -47 2522 1977 5 MP
DP
36 47 -36 47 -36 -47 36 -47 2851 2133 5 MP
DP
36 47 -36 47 -36 -47 36 -47 3180 2317 5 MP
DP
gr

c9
gs 803 1492 2780 828 rc
0 j
36 47 -36 47 -36 -47 36 -47 876 2267 5 MP
DP
36 47 -36 47 -36 -47 36 -47 1205 1996 5 MP
DP
36 47 -36 47 -36 -47 36 -47 1534 1762 5 MP
DP
36 47 -36 47 -36 -47 36 -47 1863 1631 5 MP
DP
36 47 -36 47 -36 -47 36 -47 2193 1612 5 MP
DP
36 47 -36 47 -36 -47 36 -47 2522 1692 5 MP
DP
36 47 -36 47 -36 -47 36 -47 2851 1851 5 MP
DP
36 47 -36 47 -36 -47 36 -47 3180 2065 5 MP
DP
36 47 -36 47 -36 -47 36 -47 3509 2293 5 MP
DP
gr

gs 803 1137 2780 1083 rc
0 j
36 47 -36 47 -36 -47 36 -47 876 2193 5 MP
DP
36 47 -36 47 -36 -47 36 -47 1205 1826 5 MP
DP
36 47 -36 47 -36 -47 36 -47 1534 1512 5 MP
DP
36 47 -36 47 -36 -47 36 -47 1863 1319 5 MP
DP
36 47 -36 47 -36 -47 36 -47 2193 1257 5 MP
DP
36 47 -36 47 -36 -47 36 -47 2522 1312 5 MP
DP
36 47 -36 47 -36 -47 36 -47 2851 1460 5 MP
DP
36 47 -36 47 -36 -47 36 -47 3180 1672 5 MP
DP
36 47 -36 47 -36 -47 36 -47 3509 1926 5 MP
DP
gr

gs 803 819 2780 1333 rc
0 j
36 47 -36 47 -36 -47 36 -47 876 2125 5 MP
DP
36 47 -36 47 -36 -47 36 -47 1205 1674 5 MP
DP
36 47 -36 47 -36 -47 36 -47 1534 1287 5 MP
DP
36 47 -36 47 -36 -47 36 -47 1863 1039 5 MP
DP
36 47 -36 47 -36 -47 36 -47 2193 939 5 MP
DP
36 47 -36 47 -36 -47 36 -47 2522 971 5 MP
DP
36 47 -36 47 -36 -47 36 -47 2851 1107 5 MP
DP
36 47 -36 47 -36 -47 36 -47 3180 1315 5 MP
DP
36 47 -36 47 -36 -47 36 -47 3509 1557 5 MP
DP
gr

gs 803 448 2780 1623 rc
0 j
36 47 -36 47 -36 -47 36 -47 876 2044 5 MP
DP
36 47 -36 47 -36 -47 36 -47 1205 1493 5 MP
DP
36 47 -36 47 -36 -47 36 -47 1534 1024 5 MP
DP
36 47 -36 47 -36 -47 36 -47 1863 712 5 MP
DP
36 47 -36 47 -36 -47 36 -47 2193 568 5 MP
DP
36 47 -36 47 -36 -47 36 -47 2522 573 5 MP
DP
36 47 -36 47 -36 -47 36 -47 2851 694 5 MP
DP
36 47 -36 47 -36 -47 36 -47 3180 890 5 MP
DP
36 47 -36 47 -36 -47 36 -47 3509 1114 5 MP
DP
gr

gr

c9
0 sg
2060 2647 mt 
(k) s
%%IncludeResource: font Symbol
/Symbol /ISOLatin1Encoding 96 FMSR

2120 2707 mt 
(q) s
%%IncludeResource: font Helvetica
/Helvetica /ISOLatin1Encoding 120 FMSR

2170 2647 mt 
( ) s
%%IncludeResource: font Symbol
/Symbol /ISOLatin1Encoding 120 FMSR

2203 2647 mt 
(r) s
%%IncludeResource: font Helvetica
/Helvetica /ISOLatin1Encoding 96 FMSR

2268 2707 mt 
(i) s
%%IncludeResource: font Helvetica
/Helvetica /ISOLatin1Encoding 120 FMSR

 210 1525 mt  -90 rotate
(R ) s
90 rotate
%%IncludeResource: font Symbol
/Symbol /ISOLatin1Encoding 120 FMSR

 210 1405 mt  -90 rotate
(g) s
90 rotate
%%IncludeResource: font Helvetica
/Helvetica /ISOLatin1Encoding 120 FMSR

 210 1356 mt  -90 rotate
( / v) s
90 rotate
%%IncludeResource: font Helvetica
/Helvetica /ISOLatin1Encoding 96 FMSR

 270 1196 mt  -90 rotate
(th2) s
90 rotate
%%IncludeResource: font Helvetica
/Helvetica /ISOLatin1Encoding 120 FMSR

2617 2198 mt 
(6.9) s
3391 2058 mt 
(8.28) s
3391 1679 mt 
(10.35) s
3391 1248 mt 
(12.44) s
3391  787 mt 
(15.18) s

end %%Color Dict

eplot
%%EndObject

epage
end

showpage

%%Trailer
%%EOF
