%!PS-Adobe-3.0 EPSF-3.0
%%Creator: MATLAB, The MathWorks, Inc. Version 8.3.0.532 (R2014a). Operating System: Linux 3.0.101-65-default #1 SMP Mon Sep 7 19:21:52 UTC 2015 (bef9feb) x86_64.
%%Title: /tokp/work/wiho/neorun/TEST_RADIAL/GKWGS2QLbenchmark.eps
%%CreationDate: 03/04/2016  11:07:32
%%DocumentNeededFonts: Helvetica
%%+ Helvetica-Bold
%%DocumentProcessColors: Cyan Magenta Yellow Black
%%LanguageLevel: 2
%%Pages: 1
%%BoundingBox:    97   176   513   615
%%EndComments

%%BeginProlog
% MathWorks dictionary
/MathWorks 160 dict begin
% definition operators
/bdef {bind def} bind def
/ldef {load def} bind def
/xdef {exch def} bdef
/xstore {exch store} bdef
% operator abbreviations
/c  /clip ldef
/cc /concat ldef
/cp /closepath ldef
/gr /grestore ldef
/gs /gsave ldef
/mt /moveto ldef
/np /newpath ldef
/cm /currentmatrix ldef
/sm /setmatrix ldef
/rm /rmoveto ldef
/rl /rlineto ldef
/s {show newpath} bdef
/sc {setcmykcolor} bdef
/sr /setrgbcolor ldef
/sg /setgray ldef
/w /setlinewidth ldef
/j /setlinejoin ldef
/cap /setlinecap ldef
/rc {rectclip} bdef
/rf {rectfill} bdef
% page state control
/pgsv () def
/bpage {/pgsv save def} bdef
/epage {pgsv restore} bdef
/bplot /gsave ldef
/eplot {stroke grestore} bdef
% orientation switch
/portraitMode 0 def /landscapeMode 1 def /rotateMode 2 def
% coordinate system mappings
/dpi2point 0 def
% font control
/FontSize 0 def
/FMS {/FontSize xstore findfont [FontSize 0 0 FontSize neg 0 0]
  makefont setfont} bdef
/reencode {exch dup where {pop load} {pop StandardEncoding} ifelse
  exch dup 3 1 roll findfont dup length dict begin
  { 1 index /FID ne {def}{pop pop} ifelse } forall
  /Encoding exch def currentdict end definefont pop} bdef
/isroman {findfont /CharStrings get /Agrave known} bdef
/FMSR {3 1 roll 1 index dup isroman {reencode} {pop pop} ifelse
  exch FMS} bdef
/csm {1 dpi2point div -1 dpi2point div scale neg translate
 dup landscapeMode eq {pop -90 rotate}
  {rotateMode eq {90 rotate} if} ifelse} bdef
% line types: solid, dotted, dashed, dotdash
/SO { [] 0 setdash } bdef
/DO { [.5 dpi2point mul 4 dpi2point mul] 0 setdash } bdef
/DA { [6 dpi2point mul] 0 setdash } bdef
/DD { [.5 dpi2point mul 4 dpi2point mul 6 dpi2point mul 4
  dpi2point mul] 0 setdash } bdef
% macros for lines and objects
/L {lineto stroke} bdef
/MP {3 1 roll moveto 1 sub {rlineto} repeat} bdef
/AP {{rlineto} repeat} bdef
/PDlw -1 def
/W {/PDlw currentlinewidth def setlinewidth} def
/PP {closepath eofill} bdef
/DP {closepath stroke} bdef
/MR {4 -2 roll moveto dup  0 exch rlineto exch 0 rlineto
  neg 0 exch rlineto closepath} bdef
/FR {MR stroke} bdef
/PR {MR fill} bdef
/L1i {{currentfile picstr readhexstring pop} image} bdef
/tMatrix matrix def
/MakeOval {newpath tMatrix currentmatrix pop translate scale
0 0 1 0 360 arc tMatrix setmatrix} bdef
/FO {MakeOval stroke} bdef
/PO {MakeOval fill} bdef
/PD {currentlinewidth 2 div 0 360 arc fill
   PDlw -1 eq not {PDlw w /PDlw -1 def} if} def
/FA {newpath tMatrix currentmatrix pop translate scale
  0 0 1 5 -2 roll arc tMatrix setmatrix stroke} bdef
/PA {newpath tMatrix currentmatrix pop	translate 0 0 moveto scale
  0 0 1 5 -2 roll arc closepath tMatrix setmatrix fill} bdef
/FAn {newpath tMatrix currentmatrix pop translate scale
  0 0 1 5 -2 roll arcn tMatrix setmatrix stroke} bdef
/PAn {newpath tMatrix currentmatrix pop translate 0 0 moveto scale
  0 0 1 5 -2 roll arcn closepath tMatrix setmatrix fill} bdef
/vradius 0 def /hradius 0 def /lry 0 def
/lrx 0 def /uly 0 def /ulx 0 def /rad 0 def
/MRR {/vradius xdef /hradius xdef /lry xdef /lrx xdef /uly xdef
  /ulx xdef newpath tMatrix currentmatrix pop ulx hradius add uly
  vradius add translate hradius vradius scale 0 0 1 180 270 arc 
  tMatrix setmatrix lrx hradius sub uly vradius add translate
  hradius vradius scale 0 0 1 270 360 arc tMatrix setmatrix
  lrx hradius sub lry vradius sub translate hradius vradius scale
  0 0 1 0 90 arc tMatrix setmatrix ulx hradius add lry vradius sub
  translate hradius vradius scale 0 0 1 90 180 arc tMatrix setmatrix
  closepath} bdef
/FRR {MRR stroke } bdef
/PRR {MRR fill } bdef
/MlrRR {/lry xdef /lrx xdef /uly xdef /ulx xdef /rad lry uly sub 2 div def
  newpath tMatrix currentmatrix pop ulx rad add uly rad add translate
  rad rad scale 0 0 1 90 270 arc tMatrix setmatrix lrx rad sub lry rad
  sub translate rad rad scale 0 0 1 270 90 arc tMatrix setmatrix
  closepath} bdef
/FlrRR {MlrRR stroke } bdef
/PlrRR {MlrRR fill } bdef
/MtbRR {/lry xdef /lrx xdef /uly xdef /ulx xdef /rad lrx ulx sub 2 div def
  newpath tMatrix currentmatrix pop ulx rad add uly rad add translate
  rad rad scale 0 0 1 180 360 arc tMatrix setmatrix lrx rad sub lry rad
  sub translate rad rad scale 0 0 1 0 180 arc tMatrix setmatrix
  closepath} bdef
/FtbRR {MtbRR stroke } bdef
/PtbRR {MtbRR fill } bdef
/stri 6 array def /dtri 6 array def
/smat 6 array def /dmat 6 array def
/tmat1 6 array def /tmat2 6 array def /dif 3 array def
/asub {/ind2 exch def /ind1 exch def dup dup
  ind1 get exch ind2 get sub exch } bdef
/tri_to_matrix {
  2 0 asub 3 1 asub 4 0 asub 5 1 asub
  dup 0 get exch 1 get 7 -1 roll astore } bdef
/compute_transform {
  dmat dtri tri_to_matrix tmat1 invertmatrix 
  smat stri tri_to_matrix tmat2 concatmatrix } bdef
/ds {stri astore pop} bdef
/dt {dtri astore pop} bdef
/db {2 copy /cols xdef /rows xdef mul dup 3 mul string
  currentfile 
  3 index 0 eq {/ASCIIHexDecode filter}
  {/ASCII85Decode filter 3 index 2 eq {/RunLengthDecode filter} if }
  ifelse exch readstring pop
  dup 0 3 index getinterval /rbmap xdef
  dup 2 index dup getinterval /gbmap xdef
  1 index dup 2 mul exch getinterval /bbmap xdef pop pop}bdef
/it {gs np dtri aload pop moveto lineto lineto cp c
  cols rows 8 compute_transform 
  rbmap gbmap bbmap true 3 colorimage gr}bdef
/il {newpath moveto lineto stroke}bdef
currentdict end def
%%EndProlog

%%BeginSetup
MathWorks begin

0 cap

end
%%EndSetup

%%Page: 1 1
%%BeginPageSetup
%%PageBoundingBox:    97   176   513   615
MathWorks begin
bpage
%%EndPageSetup

%%BeginObject: obj1
bplot

/dpi2point 12 def
portraitMode 1164 7380 csm

    0     0  5001  5261 rc
85 dict begin %Colortable dictionary
/c0 { 0.000000 0.000000 0.000000 sr} bdef
/c1 { 1.000000 1.000000 1.000000 sr} bdef
/c2 { 0.900000 0.000000 0.000000 sr} bdef
/c3 { 0.000000 0.820000 0.000000 sr} bdef
/c4 { 0.000000 0.000000 0.800000 sr} bdef
/c5 { 0.910000 0.820000 0.320000 sr} bdef
/c6 { 1.000000 0.260000 0.820000 sr} bdef
/c7 { 0.000000 0.820000 0.820000 sr} bdef
c0
1 j
1 sg
   0    0 5002 5262 rf
6 w
0 4275 3773 0 0 -4275 905 4531 4 MP
PP
-3773 0 0 4275 3773 0 0 -4275 905 4531 5 MP stroke
4 w
DO
0 sg
1466 4531 mt 1466  256 L
1466  256 mt 1466  256 L
3535 4531 mt 3535  256 L
3535  256 mt 3535  256 L
 905 4021 mt 4678 4021 L
4678 4021 mt 4678 4021 L
 905 3470 mt 4678 3470 L
4678 3470 mt 4678 3470 L
 905 2918 mt 4678 2918 L
4678 2918 mt 4678 2918 L
 905 2366 mt 4678 2366 L
4678 2366 mt 4678 2366 L
 905 1815 mt 4678 1815 L
4678 1815 mt 4678 1815 L
 905 1263 mt 4678 1263 L
4678 1263 mt 4678 1263 L
 905  711 mt 4678  711 L
4678  711 mt 4678  711 L
SO
6 w
 905 4531 mt 4678 4531 L
 905  256 mt 4678  256 L
 905 4531 mt  905  256 L
4678 4531 mt 4678  256 L
 905 4531 mt 4678 4531 L
 905 4531 mt  905  256 L
 905 4531 mt  905 4531 L
 905 4531 mt  905 4531 L
DO
 905 4531 mt  905 4531 L
 905 4531 mt  905 4531 L
SO
 905 4531 mt  905 4531 L
 905 4531 mt  905 4531 L
DO
 905 4531 mt  905 4531 L
 905 4531 mt  905 4531 L
SO
 905 4531 mt  905 4531 L
 905 4531 mt  905 4531 L
DO
 905 4531 mt  905 4531 L
 905 4531 mt  905 4531 L
SO
 905 4531 mt  905 4531 L
 905 4531 mt  905 4531 L
DO
 905 4531 mt  905 4531 L
 905 4531 mt  905 4531 L
SO
 905 4531 mt  905 4531 L
 905 4531 mt  905 4531 L
DO
 905 4531 mt  905 4531 L
 905 4531 mt  905 4531 L
SO
 905 4531 mt  905 4531 L
 905 4531 mt  905 4531 L
DO
 905 4531 mt  905 4531 L
 905 4531 mt  905 4531 L
SO
 905 4531 mt  905 4531 L
 905 4531 mt  905 4531 L
DO
 905 4531 mt  905 4531 L
 905 4531 mt  905 4531 L
SO
 905 4531 mt  905 4531 L
 905 4531 mt  905 4531 L
DO
 905 4531 mt  905 4531 L
 905 4531 mt  905 4531 L
SO
 905 4531 mt  905 4531 L
 905 4531 mt  905 4531 L
DO
 905 4531 mt  905 4531 L
 905 4531 mt  905 4531 L
SO
1466 4531 mt 1466 4488 L
1466  256 mt 1466  298 L
%%IncludeResource: font Helvetica
/Helvetica /ISOLatin1Encoding 168 FMSR

1310 4773 mt 
(10) s
%%IncludeResource: font Helvetica
/Helvetica /ISOLatin1Encoding 112 FMSR

1496 4669 mt 
(-2) s
 905 4531 mt  905 4531 L
 905 4531 mt  905 4531 L
DO
 905 4531 mt  905 4531 L
 905 4531 mt  905 4531 L
SO
 905 4531 mt  905 4531 L
 905 4531 mt  905 4531 L
DO
 905 4531 mt  905 4531 L
 905 4531 mt  905 4531 L
SO
 905 4531 mt  905 4531 L
 905 4531 mt  905 4531 L
DO
 905 4531 mt  905 4531 L
 905 4531 mt  905 4531 L
SO
 905 4531 mt  905 4531 L
 905 4531 mt  905 4531 L
DO
 905 4531 mt  905 4531 L
 905 4531 mt  905 4531 L
SO
 905 4531 mt  905 4531 L
 905 4531 mt  905 4531 L
DO
 905 4531 mt  905 4531 L
 905 4531 mt  905 4531 L
SO
 905 4531 mt  905 4531 L
 905 4531 mt  905 4531 L
DO
 905 4531 mt  905 4531 L
 905 4531 mt  905 4531 L
SO
 905 4531 mt  905 4531 L
 905 4531 mt  905 4531 L
DO
 905 4531 mt  905 4531 L
 905 4531 mt  905 4531 L
SO
 905 4531 mt  905 4531 L
 905 4531 mt  905 4531 L
DO
 905 4531 mt  905 4531 L
 905 4531 mt  905 4531 L
SO
 905 4531 mt  905 4531 L
 905 4531 mt  905 4531 L
DO
 905 4531 mt  905 4531 L
 905 4531 mt  905 4531 L
SO
3535 4531 mt 3535 4488 L
3535  256 mt 3535  298 L
%%IncludeResource: font Helvetica
/Helvetica /ISOLatin1Encoding 168 FMSR

3411 4773 mt 
(10) s
%%IncludeResource: font Helvetica
/Helvetica /ISOLatin1Encoding 112 FMSR

3597 4669 mt 
(0) s
 905 4531 mt  905 4531 L
 905 4531 mt  905 4531 L
DO
 905 4531 mt  905 4531 L
 905 4531 mt  905 4531 L
SO
 905 4531 mt  905 4531 L
 905 4531 mt  905 4531 L
DO
 905 4531 mt  905 4531 L
 905 4531 mt  905 4531 L
SO
 905 4531 mt  905 4531 L
 905 4531 mt  905 4531 L
DO
 905 4531 mt  905 4531 L
 905 4531 mt  905 4531 L
SO
 905 4531 mt  905 4531 L
 905 4531 mt  905 4531 L
DO
 905 4531 mt  905 4531 L
 905 4531 mt  905 4531 L
SO
 905 4531 mt  905 4531 L
 905 4531 mt  905 4531 L
DO
 905 4531 mt  905 4531 L
 905 4531 mt  905 4531 L
SO
 905 4531 mt  905 4531 L
 905 4531 mt  905 4531 L
DO
 905 4531 mt  905 4531 L
 905 4531 mt  905 4531 L
SO
 905 4531 mt  905 4531 L
 905 4531 mt  905 4531 L
DO
 905 4531 mt  905 4531 L
 905 4531 mt  905 4531 L
SO
 905 4531 mt  905 4531 L
 905 4531 mt  905 4531 L
DO
 905 4531 mt  905 4531 L
 905 4531 mt  905 4531 L
SO
 905 4531 mt  905 4531 L
 905 4531 mt  905 4531 L
DO
 905 4531 mt  905 4531 L
 905 4531 mt  905 4531 L
SO
 905 4021 mt  947 4021 L
4678 4021 mt 4635 4021 L
%%IncludeResource: font Helvetica
/Helvetica /ISOLatin1Encoding 168 FMSR

 544 4083 mt 
(0.05) s
 905 3470 mt  947 3470 L
4678 3470 mt 4635 3470 L
 637 3532 mt 
(0.1) s
 905 2918 mt  947 2918 L
4678 2918 mt 4635 2918 L
 544 2980 mt 
(0.15) s
 905 2366 mt  947 2366 L
4678 2366 mt 4635 2366 L
 637 2428 mt 
(0.2) s
 905 1815 mt  947 1815 L
4678 1815 mt 4635 1815 L
 544 1877 mt 
(0.25) s
 905 1263 mt  947 1263 L
4678 1263 mt 4635 1263 L
 637 1325 mt 
(0.3) s
 905  711 mt  947  711 L
4678  711 mt 4635  711 L
 544  773 mt 
(0.35) s
 905 4531 mt 4678 4531 L
 905  256 mt 4678  256 L
 905 4531 mt  905  256 L
4678 4531 mt 4678  256 L
gs 905 255 3774 4277 rc
DA
24 w
/c8 { 1.000000 0.000000 0.000000 sr} bdef
c8
302 -783 301 -562 702 -896 1005 -428 1007 -16 1104 3779 6 MP stroke
gs 982 972 3562 2930 rc
SO
  48   48 1104 3779 FO
  48   48 2111 3763 FO
  48   48 3116 3335 FO
  48   48 3818 2439 FO
  48   48 4119 1877 FO
  48   48 4421 1094 FO
DA
gr

/c9 { 0.000000 0.000000 1.000000 sr} bdef
c9
441 -1103 594 -828 440 -662 594 -574 440 -253 594 -55 1366 4021 7 MP stroke
gs 1220 400 3396 3768 rc
SO
1306 4021 mt 1426 4021 L
1366 3961 mt 1366 4081 L
1900 3966 mt 2020 3966 L
1960 3906 mt 1960 4026 L
2340 3713 mt 2460 3713 L
2400 3653 mt 2400 3773 L
2934 3139 mt 3054 3139 L
2994 3079 mt 2994 3199 L
3374 2477 mt 3494 2477 L
3434 2417 mt 3434 2537 L
3968 1649 mt 4088 1649 L
4028 1589 mt 4028 1709 L
4409  546 mt 4529  546 L
4469  486 mt 4469  606 L
DA
gr

gr

24 w
c9
DA
0 sg
%%IncludeResource: font Helvetica-Bold
/Helvetica-Bold /ISOLatin1Encoding 168 FMSR

 934 5045 mt 
(Normalised collision frequency, ) s
%%IncludeResource: font Symbol
/Symbol /ISOLatin1Encoding 168 FMSR

3498 5045 mt 
(n) s
%%IncludeResource: font Helvetica-Bold
/Helvetica-Bold /ISOLatin1Encoding 132 FMSR

3585 5129 mt 
(*) s
%%IncludeResource: font Helvetica-Bold
/Helvetica-Bold /ISOLatin1Encoding 168 FMSR

3636 5045 mt 
( = ) s
%%IncludeResource: font Symbol
/Symbol /ISOLatin1Encoding 168 FMSR

3827 5045 mt 
(n) s
%%IncludeResource: font Helvetica-Bold
/Helvetica-Bold /ISOLatin1Encoding 132 FMSR

3914 5129 mt 
(ii) s
%%IncludeResource: font Helvetica-Bold
/Helvetica-Bold /ISOLatin1Encoding 168 FMSR

3987 5045 mt 
(q/) s
%%IncludeResource: font Symbol
/Symbol /ISOLatin1Encoding 168 FMSR

4136 5045 mt 
(e) s
%%IncludeResource: font Helvetica-Bold
/Helvetica-Bold /ISOLatin1Encoding 132 FMSR

4209 4961 mt 
(3/2) s
%%IncludeResource: font Helvetica-Bold
/Helvetica-Bold /ISOLatin1Encoding 192 FMSR

 388 3136 mt  -90 rotate
(Flux ratio, ) s
90 rotate
%%IncludeResource: font Symbol
/Symbol /ISOLatin1Encoding 192 FMSR

 388 2173 mt  -90 rotate
(P) s
90 rotate
%%IncludeResource: font Helvetica-Bold
/Helvetica-Bold /ISOLatin1Encoding 144 FMSR

 484 2026 mt  -90 rotate
(i) s
90 rotate
%%IncludeResource: font Helvetica-Bold
/Helvetica-Bold /ISOLatin1Encoding 192 FMSR

 388 1986 mt  -90 rotate
(/Q) s
90 rotate
%%IncludeResource: font Helvetica-Bold
/Helvetica-Bold /ISOLatin1Encoding 144 FMSR

 484 1784 mt  -90 rotate
(i) s
90 rotate
%%IncludeResource: font Helvetica-Bold
/Helvetica-Bold /ISOLatin1Encoding 192 FMSR

 388 1744 mt  -90 rotate
( ) s
90 rotate
%%IncludeResource: font Helvetica
/Helvetica /ISOLatin1Encoding 120 FMSR

 888 4574 mt 
( ) s
4662  297 mt 
( ) s
gs 905 255 3774 4277 rc
DD
302 -658 301 -546 702 -837 1005 -500 1007 -93 1104 3779 6 MP stroke
SO
0 678 2111 3635 2 MP stroke
-29 0 2125 3635 2 MP stroke
-29 0 2125 4313 2 MP stroke
2111 3974 PD
gs 1989 3852 245 245 rc
2078 3941 mt 2144 4007 L
2144 3941 mt 2078 4007 L
gr

0 854 3065 3215 2 MP stroke
-9 0 3069 3215 2 MP stroke
-9 0 3069 4069 2 MP stroke
3065 3642 PD
gs 2943 3520 245 245 rc
3032 3609 mt 3098 3675 L
3098 3609 mt 3032 3675 L
gr

0 1359 4068 1806 2 MP stroke
10 0 4063 1806 2 MP stroke
10 0 4063 3165 2 MP stroke
4068 2485 PD
gs 3946 2363 245 245 rc
4035 2452 mt 4101 2518 L
4101 2452 mt 4035 2518 L
gr

0 867 3766 2802 2 MP stroke
5 0 3764 2802 2 MP stroke
5 0 3764 3669 2 MP stroke
3766 3236 PD
gs 3644 3114 245 245 rc
3733 3203 mt 3799 3269 L
3799 3203 mt 3733 3269 L
gr

6 w
gr

6 w
SO
1 sg
0 761 1369 0 0 -761 1005 1179 4 MP
PP
-1369 0 0 761 1369 0 0 -761 1005 1179 5 MP stroke
4 w
DO
SO
6 w
0 sg
1005 1179 mt 2374 1179 L
1005  418 mt 2374  418 L
1005 1179 mt 1005  418 L
2374 1179 mt 2374  418 L
1005 1179 mt 2374 1179 L
1005 1179 mt 1005  418 L
1005 1179 mt 2374 1179 L
1005  418 mt 2374  418 L
1005 1179 mt 1005  418 L
2374 1179 mt 2374  418 L
%%IncludeResource: font Helvetica
/Helvetica /ISOLatin1Encoding 168 FMSR

1484  608 mt 
(GKW-NEO) s
gs 1005 418 1370 762 rc
DA
24 w
c8
368 0 1078 547 2 MP stroke
SO
gs 1140 425 245 245 rc
  48   48 1262  547 FO
gr

gr

24 w
c8
0 sg
1484  825 mt 
(GS2-NEO ) s
gs 1005 418 1370 762 rc
DA
c9
368 0 1078 764 2 MP stroke
SO
gs 1116 618 293 293 rc
1202  764 mt 1322  764 L
1262  704 mt 1262  824 L
gr

gr

c9
0 sg
1484 1005 mt 
(a\(1-k) s
%%IncludeResource: font Helvetica
/Helvetica /ISOLatin1Encoding 132 FMSR

1908 1089 mt 
(a) s
%%IncludeResource: font Helvetica
/Helvetica /ISOLatin1Encoding 168 FMSR

1981 1005 mt 
(\)) s
gs 1005 418 1370 762 rc
DD
368 0 1078 1015 2 MP stroke
SO
6 w
gr

6 w

end %%Color Dict

eplot
%%EndObject

epage
end

showpage

%%Trailer
%%EOF
