%!PS-Adobe-3.0 EPSF-3.0
%%Creator: MATLAB, The MathWorks, Inc. Version 8.3.0.532 (R2014a). Operating System: Linux 3.0.101-65-default #1 SMP Mon Sep 7 19:21:52 UTC 2015 (bef9feb) x86_64.
%%Title: /tokp/work/wiho/neorun/TEST_RADIAL/GKWvNEOflow2.eps
%%CreationDate: 12/04/2015  10:41:29
%%DocumentNeededFonts: Helvetica
%%DocumentProcessColors: Cyan Magenta Yellow Black
%%LanguageLevel: 2
%%Pages: 1
%%BoundingBox:    26   232   585   559
%%EndComments

%%BeginProlog
% MathWorks dictionary
/MathWorks 160 dict begin
% definition operators
/bdef {bind def} bind def
/ldef {load def} bind def
/xdef {exch def} bdef
/xstore {exch store} bdef
% operator abbreviations
/c  /clip ldef
/cc /concat ldef
/cp /closepath ldef
/gr /grestore ldef
/gs /gsave ldef
/mt /moveto ldef
/np /newpath ldef
/cm /currentmatrix ldef
/sm /setmatrix ldef
/rm /rmoveto ldef
/rl /rlineto ldef
/s {show newpath} bdef
/sc {setcmykcolor} bdef
/sr /setrgbcolor ldef
/sg /setgray ldef
/w /setlinewidth ldef
/j /setlinejoin ldef
/cap /setlinecap ldef
/rc {rectclip} bdef
/rf {rectfill} bdef
% page state control
/pgsv () def
/bpage {/pgsv save def} bdef
/epage {pgsv restore} bdef
/bplot /gsave ldef
/eplot {stroke grestore} bdef
% orientation switch
/portraitMode 0 def /landscapeMode 1 def /rotateMode 2 def
% coordinate system mappings
/dpi2point 0 def
% font control
/FontSize 0 def
/FMS {/FontSize xstore findfont [FontSize 0 0 FontSize neg 0 0]
  makefont setfont} bdef
/reencode {exch dup where {pop load} {pop StandardEncoding} ifelse
  exch dup 3 1 roll findfont dup length dict begin
  { 1 index /FID ne {def}{pop pop} ifelse } forall
  /Encoding exch def currentdict end definefont pop} bdef
/isroman {findfont /CharStrings get /Agrave known} bdef
/FMSR {3 1 roll 1 index dup isroman {reencode} {pop pop} ifelse
  exch FMS} bdef
/csm {1 dpi2point div -1 dpi2point div scale neg translate
 dup landscapeMode eq {pop -90 rotate}
  {rotateMode eq {90 rotate} if} ifelse} bdef
% line types: solid, dotted, dashed, dotdash
/SO { [] 0 setdash } bdef
/DO { [.5 dpi2point mul 4 dpi2point mul] 0 setdash } bdef
/DA { [6 dpi2point mul] 0 setdash } bdef
/DD { [.5 dpi2point mul 4 dpi2point mul 6 dpi2point mul 4
  dpi2point mul] 0 setdash } bdef
% macros for lines and objects
/L {lineto stroke} bdef
/MP {3 1 roll moveto 1 sub {rlineto} repeat} bdef
/AP {{rlineto} repeat} bdef
/PDlw -1 def
/W {/PDlw currentlinewidth def setlinewidth} def
/PP {closepath eofill} bdef
/DP {closepath stroke} bdef
/MR {4 -2 roll moveto dup  0 exch rlineto exch 0 rlineto
  neg 0 exch rlineto closepath} bdef
/FR {MR stroke} bdef
/PR {MR fill} bdef
/L1i {{currentfile picstr readhexstring pop} image} bdef
/tMatrix matrix def
/MakeOval {newpath tMatrix currentmatrix pop translate scale
0 0 1 0 360 arc tMatrix setmatrix} bdef
/FO {MakeOval stroke} bdef
/PO {MakeOval fill} bdef
/PD {currentlinewidth 2 div 0 360 arc fill
   PDlw -1 eq not {PDlw w /PDlw -1 def} if} def
/FA {newpath tMatrix currentmatrix pop translate scale
  0 0 1 5 -2 roll arc tMatrix setmatrix stroke} bdef
/PA {newpath tMatrix currentmatrix pop	translate 0 0 moveto scale
  0 0 1 5 -2 roll arc closepath tMatrix setmatrix fill} bdef
/FAn {newpath tMatrix currentmatrix pop translate scale
  0 0 1 5 -2 roll arcn tMatrix setmatrix stroke} bdef
/PAn {newpath tMatrix currentmatrix pop translate 0 0 moveto scale
  0 0 1 5 -2 roll arcn closepath tMatrix setmatrix fill} bdef
/vradius 0 def /hradius 0 def /lry 0 def
/lrx 0 def /uly 0 def /ulx 0 def /rad 0 def
/MRR {/vradius xdef /hradius xdef /lry xdef /lrx xdef /uly xdef
  /ulx xdef newpath tMatrix currentmatrix pop ulx hradius add uly
  vradius add translate hradius vradius scale 0 0 1 180 270 arc 
  tMatrix setmatrix lrx hradius sub uly vradius add translate
  hradius vradius scale 0 0 1 270 360 arc tMatrix setmatrix
  lrx hradius sub lry vradius sub translate hradius vradius scale
  0 0 1 0 90 arc tMatrix setmatrix ulx hradius add lry vradius sub
  translate hradius vradius scale 0 0 1 90 180 arc tMatrix setmatrix
  closepath} bdef
/FRR {MRR stroke } bdef
/PRR {MRR fill } bdef
/MlrRR {/lry xdef /lrx xdef /uly xdef /ulx xdef /rad lry uly sub 2 div def
  newpath tMatrix currentmatrix pop ulx rad add uly rad add translate
  rad rad scale 0 0 1 90 270 arc tMatrix setmatrix lrx rad sub lry rad
  sub translate rad rad scale 0 0 1 270 90 arc tMatrix setmatrix
  closepath} bdef
/FlrRR {MlrRR stroke } bdef
/PlrRR {MlrRR fill } bdef
/MtbRR {/lry xdef /lrx xdef /uly xdef /ulx xdef /rad lrx ulx sub 2 div def
  newpath tMatrix currentmatrix pop ulx rad add uly rad add translate
  rad rad scale 0 0 1 180 360 arc tMatrix setmatrix lrx rad sub lry rad
  sub translate rad rad scale 0 0 1 0 180 arc tMatrix setmatrix
  closepath} bdef
/FtbRR {MtbRR stroke } bdef
/PtbRR {MtbRR fill } bdef
/stri 6 array def /dtri 6 array def
/smat 6 array def /dmat 6 array def
/tmat1 6 array def /tmat2 6 array def /dif 3 array def
/asub {/ind2 exch def /ind1 exch def dup dup
  ind1 get exch ind2 get sub exch } bdef
/tri_to_matrix {
  2 0 asub 3 1 asub 4 0 asub 5 1 asub
  dup 0 get exch 1 get 7 -1 roll astore } bdef
/compute_transform {
  dmat dtri tri_to_matrix tmat1 invertmatrix 
  smat stri tri_to_matrix tmat2 concatmatrix } bdef
/ds {stri astore pop} bdef
/dt {dtri astore pop} bdef
/db {2 copy /cols xdef /rows xdef mul dup 3 mul string
  currentfile 
  3 index 0 eq {/ASCIIHexDecode filter}
  {/ASCII85Decode filter 3 index 2 eq {/RunLengthDecode filter} if }
  ifelse exch readstring pop
  dup 0 3 index getinterval /rbmap xdef
  dup 2 index dup getinterval /gbmap xdef
  1 index dup 2 mul exch getinterval /bbmap xdef pop pop}bdef
/it {gs np dtri aload pop moveto lineto lineto cp c
  cols rows 8 compute_transform 
  rbmap gbmap bbmap true 3 colorimage gr}bdef
/il {newpath moveto lineto stroke}bdef
currentdict end def
%%EndProlog

%%BeginSetup
MathWorks begin

0 cap

end
%%EndSetup

%%Page: 1 1
%%BeginPageSetup
%%PageBoundingBox:    26   232   585   559
MathWorks begin
bpage
%%EndPageSetup

%%BeginObject: obj1
bplot

/dpi2point 12 def
portraitMode 0312 6708 csm

    0     0  6711  3917 rc
86 dict begin %Colortable dictionary
/c0 { 0.000000 0.000000 0.000000 sr} bdef
/c1 { 1.000000 1.000000 1.000000 sr} bdef
/c2 { 0.900000 0.000000 0.000000 sr} bdef
/c3 { 0.000000 0.820000 0.000000 sr} bdef
/c4 { 0.000000 0.000000 0.800000 sr} bdef
/c5 { 0.910000 0.820000 0.320000 sr} bdef
/c6 { 1.000000 0.260000 0.820000 sr} bdef
/c7 { 0.000000 0.820000 0.820000 sr} bdef
c0
1 j
1 sg
   0    0 6712 3918 rf
6 w
0 3194 2429 0 0 -3194 3994 3429 4 MP
PP
-2429 0 0 3194 2429 0 0 -3194 3994 3429 5 MP stroke
4 w
DO
SO
6 w
0 sg
3994 3429 mt 6423 3429 L
3994  235 mt 6423  235 L
3994 3429 mt 3994  235 L
6423 3429 mt 6423  235 L
3994 3429 mt 6423 3429 L
3994 3429 mt 3994  235 L
3994 3429 mt 3994 3429 L
3994 3429 mt 3994 3429 L
3994 3429 mt 3994 3429 L
3994 3429 mt 3994 3429 L
3994 3429 mt 3994 3429 L
3994 3429 mt 3994 3429 L
3994 3429 mt 3994 3429 L
3994 3429 mt 3994 3429 L
3994 3429 mt 3994 3429 L
3994 3429 mt 3994 3429 L
3994 3429 mt 3994 3429 L
3994 3429 mt 3994 3429 L
3994 3429 mt 3994 3429 L
3994 3429 mt 3994 3429 L
3994 3429 mt 3994 3429 L
3994 3429 mt 3994 3429 L
3994 3429 mt 3994 3429 L
3994 3429 mt 3994 3429 L
5464 3429 mt 5464 3397 L
5464  236 mt 5464  267 L
%%IncludeResource: font Helvetica
/Helvetica /ISOLatin1Encoding 168 FMSR

5340 3671 mt 
(10) s
%%IncludeResource: font Helvetica
/Helvetica /ISOLatin1Encoding 112 FMSR

5526 3567 mt 
(0) s
3994 3429 mt 3994 3429 L
3994 3429 mt 3994 3429 L
3994 3429 mt 3994 3429 L
3994 3429 mt 3994 3429 L
3994 3429 mt 3994 3429 L
3994 3429 mt 3994 3429 L
3994 3429 mt 3994 3429 L
3994 3429 mt 3994 3429 L
3994 3429 mt 3994 3429 L
3994 3429 mt 3994 3429 L
3994 3429 mt 3994 3429 L
3994 3429 mt 3994 3429 L
3994 3429 mt 3994 3429 L
3994 3429 mt 3994 3429 L
3994 3429 mt 3994 3429 L
3994 3429 mt 3994 3429 L
3994 3429 mt 3994 3429 L
3994 3429 mt 3994 3429 L
3994 3144 mt 4025 3144 L
6423 3144 mt 6391 3144 L
%%IncludeResource: font Helvetica
/Helvetica /ISOLatin1Encoding 168 FMSR

3628 3206 mt 
(-1.1) s
3994 2698 mt 4025 2698 L
6423 2698 mt 6391 2698 L
3768 2760 mt 
(-1) s
3994 2252 mt 4025 2252 L
6423 2252 mt 6391 2252 L
3628 2314 mt 
(-0.9) s
3994 1806 mt 4025 1806 L
6423 1806 mt 6391 1806 L
3628 1868 mt 
(-0.8) s
3994 1360 mt 4025 1360 L
6423 1360 mt 6391 1360 L
3628 1422 mt 
(-0.7) s
3994  914 mt 4025  914 L
6423  914 mt 6391  914 L
3628  976 mt 
(-0.6) s
3994  468 mt 4025  468 L
6423  468 mt 6391  468 L
3628  530 mt 
(-0.5) s
3994 3429 mt 6423 3429 L
3994  235 mt 6423  235 L
3994 3429 mt 3994  235 L
6423 3429 mt 6423  235 L
gs 3994 236 2430 3194 rc
DA
24 w
/c8 { 0.000000 0.498039 0.000000 sr} bdef
c8
291 890 340 542 626 1054 968 526 99 1 3994 352 6 MP stroke
gr

24 w
c8
DA
SO
  36   36 4093  353 FO
  36   36 5061  879 FO
  36   36 5687 1933 FO
  36   36 6027 2475 FO
  36   36 6318 3365 FO
DA
gs 3994 236 2430 3194 rc
gr

0 sg
%%IncludeResource: font Symbol
/Symbol /ISOLatin1Encoding 168 FMSR

5059 3809 mt 
(n) s
%%IncludeResource: font Helvetica
/Helvetica /ISOLatin1Encoding 132 FMSR

5146 3893 mt 
(*) s
%%IncludeResource: font Helvetica
/Helvetica /ISOLatin1Encoding 168 FMSR

5197 3809 mt 
( [) s
%%IncludeResource: font Symbol
/Symbol /ISOLatin1Encoding 168 FMSR

5290 3809 mt 
(n) s
%%IncludeResource: font Helvetica
/Helvetica /ISOLatin1Encoding 132 FMSR

5377 3893 mt 
(ii) s
%%IncludeResource: font Helvetica
/Helvetica /ISOLatin1Encoding 168 FMSR

5435 3809 mt 
(q/) s
%%IncludeResource: font Symbol
/Symbol /ISOLatin1Encoding 168 FMSR

5575 3809 mt 
(e) s
%%IncludeResource: font Helvetica
/Helvetica /ISOLatin1Encoding 132 FMSR

5648 3725 mt 
(3/2) s
%%IncludeResource: font Helvetica
/Helvetica /ISOLatin1Encoding 168 FMSR

5831 3809 mt 
(]) s
%%IncludeResource: font Symbol
/Symbol /ISOLatin1Encoding 168 FMSR

3524 2616 mt  -90 rotate
(\266) s
90 rotate
3524 2534 mt  -90 rotate
(\341) s
90 rotate
%%IncludeResource: font Helvetica
/Helvetica /ISOLatin1Encoding 168 FMSR

3524 2479 mt  -90 rotate
( u) s
90 rotate
%%IncludeResource: font Helvetica
/Helvetica /ISOLatin1Encoding 132 FMSR

3608 2339 mt  -90 rotate
(||) s
90 rotate
%%IncludeResource: font Helvetica
/Helvetica /ISOLatin1Encoding 168 FMSR

3524 2271 mt  -90 rotate
(B) s
90 rotate
%%IncludeResource: font Symbol
/Symbol /ISOLatin1Encoding 168 FMSR

3524 2159 mt  -90 rotate
(\361) s
90 rotate
%%IncludeResource: font Helvetica
/Helvetica /ISOLatin1Encoding 168 FMSR

3524 2104 mt  -90 rotate
(/) s
90 rotate
%%IncludeResource: font Symbol
/Symbol /ISOLatin1Encoding 168 FMSR

3524 2058 mt  -90 rotate
(\266) s
90 rotate
3524 1976 mt  -90 rotate
(e) s
90 rotate
%%IncludeResource: font Helvetica
/Helvetica /ISOLatin1Encoding 168 FMSR

3524 1903 mt  -90 rotate
( [v) s
90 rotate
%%IncludeResource: font Helvetica
/Helvetica /ISOLatin1Encoding 132 FMSR

3608 1726 mt  -90 rotate
(th) s
90 rotate
%%IncludeResource: font Helvetica
/Helvetica /ISOLatin1Encoding 168 FMSR

3524 1616 mt  -90 rotate
(B) s
90 rotate
%%IncludeResource: font Helvetica
/Helvetica /ISOLatin1Encoding 132 FMSR

3608 1504 mt  -90 rotate
(ref) s
90 rotate
%%IncludeResource: font Helvetica
/Helvetica /ISOLatin1Encoding 168 FMSR

3524 1350 mt  -90 rotate
(]) s
90 rotate
gs 3994 236 2430 3194 rc
/c9 { 0.000000 0.000000 1.000000 sr} bdef
c9
291 824 340 500 626 973 968 485 99 0 3994 429 6 MP stroke
gr

c9
SO
  36   36 4093  429 FO
  36   36 5061  914 FO
  36   36 5687 1887 FO
  36   36 6027 2387 FO
  36   36 6318 3211 FO
DA
gs 3994 236 2430 3194 rc
SO
6 w
gr

6 w
SO
1 sg
0 3192 2365 0 0 -3192 890 3427 4 MP
PP
-2365 0 0 3192 2365 0 0 -3192 890 3427 5 MP stroke
4 w
DO
SO
6 w
0 sg
 890 3427 mt 3255 3427 L
 890  235 mt 3255  235 L
 890 3427 mt  890  235 L
3255 3427 mt 3255  235 L
 890 3427 mt 3255 3427 L
 890 3427 mt  890  235 L
 890 3427 mt  890 3427 L
 890 3427 mt  890 3427 L
 890 3427 mt  890 3427 L
 890 3427 mt  890 3427 L
 890 3427 mt  890 3427 L
 890 3427 mt  890 3427 L
 890 3427 mt  890 3427 L
 890 3427 mt  890 3427 L
 890 3427 mt  890 3427 L
 890 3427 mt  890 3427 L
 890 3427 mt  890 3427 L
 890 3427 mt  890 3427 L
 890 3427 mt  890 3427 L
 890 3427 mt  890 3427 L
 890 3427 mt  890 3427 L
 890 3427 mt  890 3427 L
 890 3427 mt  890 3427 L
 890 3427 mt  890 3427 L
2385 3427 mt 2385 3395 L
2385  234 mt 2385  266 L
2261 3669 mt 
(10) s
%%IncludeResource: font Helvetica
/Helvetica /ISOLatin1Encoding 112 FMSR

2447 3565 mt 
(0) s
 890 3427 mt  890 3427 L
 890 3427 mt  890 3427 L
 890 3427 mt  890 3427 L
 890 3427 mt  890 3427 L
 890 3427 mt  890 3427 L
 890 3427 mt  890 3427 L
 890 3427 mt  890 3427 L
 890 3427 mt  890 3427 L
 890 3427 mt  890 3427 L
 890 3427 mt  890 3427 L
 890 3427 mt  890 3427 L
 890 3427 mt  890 3427 L
 890 3427 mt  890 3427 L
 890 3427 mt  890 3427 L
 890 3427 mt  890 3427 L
 890 3427 mt  890 3427 L
 890 3427 mt  890 3427 L
 890 3427 mt  890 3427 L
 890 3274 mt  921 3274 L
3255 3274 mt 3223 3274 L
%%IncludeResource: font Helvetica
/Helvetica /ISOLatin1Encoding 168 FMSR

 529 3336 mt 
(0.25) s
 890 2881 mt  921 2881 L
3255 2881 mt 3223 2881 L
 622 2943 mt 
(0.3) s
 890 2488 mt  921 2488 L
3255 2488 mt 3223 2488 L
 529 2550 mt 
(0.35) s
 890 2095 mt  921 2095 L
3255 2095 mt 3223 2095 L
 622 2157 mt 
(0.4) s
 890 1702 mt  921 1702 L
3255 1702 mt 3223 1702 L
 529 1764 mt 
(0.45) s
 890 1309 mt  921 1309 L
3255 1309 mt 3223 1309 L
 622 1371 mt 
(0.5) s
 890  916 mt  921  916 L
3255  916 mt 3223  916 L
 529  978 mt 
(0.55) s
 890  522 mt  921  522 L
3255  522 mt 3223  522 L
 622  584 mt 
(0.6) s
 890 3427 mt 3255 3427 L
 890  235 mt 3255  235 L
 890 3427 mt  890  235 L
3255 3427 mt 3255  235 L
gs 890 235 2366 3193 rc
DA
24 w
c9
280 -870 329 -601 605 -916 936 -526 1059 3301 5 MP stroke
gr

24 w
c9
DA
SO
  48   48 1059 3301 FO
  48   48 1995 2775 FO
  48   48 2600 1859 FO
  48   48 2929 1258 FO
  48   48 3209  388 FO
DA
gs 890 235 2366 3193 rc
/c10 { 0.000000 0.500000 0.000000 sr} bdef
c10
280 -852 329 -588 605 -896 936 -514 1059 3332 5 MP stroke
gr

c10
SO
  48   48 1059 3332 FO
  48   48 1995 2818 FO
  48   48 2600 1922 FO
  48   48 2929 1334 FO
  48   48 3209  482 FO
DA
gs 890 235 2366 3193 rc
gr

0 sg
%%IncludeResource: font Symbol
/Symbol /ISOLatin1Encoding 168 FMSR

1409 3817 mt 
(n) s
%%IncludeResource: font Helvetica
/Helvetica /ISOLatin1Encoding 132 FMSR

1496 3901 mt 
(*) s
%%IncludeResource: font Helvetica
/Helvetica /ISOLatin1Encoding 168 FMSR

1547 3817 mt 
( [) s
%%IncludeResource: font Symbol
/Symbol /ISOLatin1Encoding 168 FMSR

1640 3817 mt 
(n) s
%%IncludeResource: font Helvetica
/Helvetica /ISOLatin1Encoding 132 FMSR

1727 3901 mt 
(ii) s
%%IncludeResource: font Helvetica
/Helvetica /ISOLatin1Encoding 168 FMSR

1785 3817 mt 
(q/) s
%%IncludeResource: font Symbol
/Symbol /ISOLatin1Encoding 168 FMSR

1925 3817 mt 
(e) s
%%IncludeResource: font Helvetica
/Helvetica /ISOLatin1Encoding 132 FMSR

1998 3733 mt 
(3/2) s
%%IncludeResource: font Helvetica
/Helvetica /ISOLatin1Encoding 168 FMSR

2181 3817 mt 
(]) s
%%IncludeResource: font Symbol
/Symbol /ISOLatin1Encoding 168 FMSR

 361 2343 mt  -90 rotate
(\341) s
90 rotate
%%IncludeResource: font Helvetica
/Helvetica /ISOLatin1Encoding 168 FMSR

 361 2288 mt  -90 rotate
( u) s
90 rotate
%%IncludeResource: font Helvetica
/Helvetica /ISOLatin1Encoding 132 FMSR

 445 2148 mt  -90 rotate
(||) s
90 rotate
%%IncludeResource: font Helvetica
/Helvetica /ISOLatin1Encoding 168 FMSR

 361 2080 mt  -90 rotate
(B) s
90 rotate
%%IncludeResource: font Symbol
/Symbol /ISOLatin1Encoding 168 FMSR

 361 1968 mt  -90 rotate
(\361) s
90 rotate
%%IncludeResource: font Helvetica
/Helvetica /ISOLatin1Encoding 168 FMSR

 361 1913 mt  -90 rotate
( [v) s
90 rotate
%%IncludeResource: font Helvetica
/Helvetica /ISOLatin1Encoding 132 FMSR

 445 1736 mt  -90 rotate
(th) s
90 rotate
%%IncludeResource: font Helvetica
/Helvetica /ISOLatin1Encoding 168 FMSR

 361 1626 mt  -90 rotate
(B) s
90 rotate
%%IncludeResource: font Helvetica
/Helvetica /ISOLatin1Encoding 132 FMSR

 445 1514 mt  -90 rotate
(ref) s
90 rotate
%%IncludeResource: font Helvetica
/Helvetica /ISOLatin1Encoding 168 FMSR

 361 1360 mt  -90 rotate
(]) s
90 rotate
%%IncludeResource: font Helvetica
/Helvetica /ISOLatin1Encoding 120 FMSR

 873 3470 mt 
( ) s
3239  277 mt 
( ) s
SO
6 w
1 sg
0 476 917 0 0 -476 1316 768 4 MP
PP
-917 0 0 476 917 0 0 -476 1316 768 5 MP stroke
4 w
DO
SO
6 w
0 sg
1316  768 mt 2233  768 L
1316  292 mt 2233  292 L
1316  768 mt 1316  292 L
2233  768 mt 2233  292 L
1316  768 mt 2233  768 L
1316  768 mt 1316  292 L
1316  768 mt 2233  768 L
1316  292 mt 2233  292 L
1316  768 mt 1316  292 L
2233  768 mt 2233  292 L
%%IncludeResource: font Helvetica
/Helvetica /ISOLatin1Encoding 168 FMSR

1795  482 mt 
(GKW) s
gs 1316 292 918 477 rc
DA
24 w
c9
368 0 1389 421 2 MP stroke
SO
gr

24 w
c9
  48   48 1573  421 FO
gs 1316 292 918 477 rc
gr

0 sg
1795  699 mt 
(NEO) s
gs 1316 292 918 477 rc
DA
c10
368 0 1389 638 2 MP stroke
SO
gr

c10
  48   48 1573  638 FO
gs 1316 292 918 477 rc
6 w
gr

6 w

end %%Color Dict

eplot
%%EndObject

epage
end

showpage

%%Trailer
%%EOF
