%!PS-Adobe-3.0 EPSF-3.0 
%%BoundingBox: 0 0 567 142
%%Pages: 0
%%Creator: Sun Microsystems, Inc.
%%Title: none
%%CreationDate: none
%%LanguageLevel: 2
%%EndComments
%%BeginProlog
%%BeginResource: procset SDRes-Prolog 1.0 0
/b4_inc_state save def
/dict_count countdictstack def
/op_count count 1 sub def
userdict begin
0 setgray 0 setlinecap 1 setlinewidth 0 setlinejoin 10 setmiterlimit[] 0 setdash newpath
/languagelevel where {pop languagelevel 1 ne {false setstrokeadjust false setoverprint} if} if
/bdef {bind def} bind def
/c {setrgbcolor} bdef
/l {neg lineto} bdef
/rl {neg rlineto} bdef
/lc {setlinecap} bdef
/lj {setlinejoin} bdef
/lw {setlinewidth} bdef
/ml {setmiterlimit} bdef
/ld {setdash} bdef
/m {neg moveto} bdef
/ct {6 2 roll neg 6 2 roll neg 6 2 roll neg curveto} bdef
/r {rotate} bdef
/t {neg translate} bdef
/s {scale} bdef
/sw {show} bdef
/gs {gsave} bdef
/gr {grestore} bdef
/f {findfont dup length dict begin
{1 index /FID ne {def} {pop pop} ifelse} forall /Encoding ISOLatin1Encoding def
currentdict end /NFont exch definefont pop /NFont findfont} bdef
/p {closepath} bdef
/sf {scalefont setfont} bdef
/ef {eofill}bdef
/pc {closepath stroke}bdef
/ps {stroke}bdef
/pum {matrix currentmatrix}bdef
/pom {setmatrix}bdef
/bs {/aString exch def /nXOfs exch def /nWidth exch def currentpoint nXOfs 0 rmoveto pum nWidth aString stringwidth pop div 1 scale aString show pom moveto} bdef
%%EndResource
%%EndProlog
%%BeginSetup
%%EndSetup
%%Page: 1 1
%%BeginPageSetup
%%EndPageSetup
pum
0.02835 0.0284 s 
0 -5000 t
/tm matrix currentmatrix def
gs
tm setmatrix
-1000 -1000 t 
1 1 s 
1000 1000 m 20999 1000 l 20999 5999 l 1000 5999 l 1000 1000 l eoclip newpath
gs
0 0 m 19999 0 l 19999 4999 l 0 4999 l 0 0 l eoclip newpath
1000 1000 m 21000 1000 l 21000 6000 l 1000 6000 l 1000 1000 l eoclip newpath
0.601 0.800 1.000 c 2500 2000 m  2250 2000 2000 2250 2000 2500 ct 2000 4500 l 
2000 4750 2250 5001 2500 5001 ct 6500 5001 l  6750 5001 7001 4750 7001 4500 ct 
7001 2500 l  7001 2250 6750 2000 6500 2000 ct 2500 2000 l  p ef
0 lw 1 lj 0.003 0.003 0.003 c 2500 2000 m  2250 2000 2000 2250 2000 2500 ct 2000 4500 l 
2000 4750 2250 5001 2500 5001 ct 6500 5001 l  6750 5001 7001 4750 7001 4500 ct 
7001 2500 l  7001 2250 6750 2000 6500 2000 ct 2500 2000 l  pc
gs
gs
pum
2567 3372 t
424 0 m  424 -292 l  424 -302 424 -313 424 -324 ct 424 -335 424 -345 425 -354 ct 
425 -365 426 -375 426 -385 ct 423 -374 420 -364 417 -353 ct 415 -345 412 -335 409 -325 ct 
405 -315 402 -306 399 -298 ct 286 0 l  245 0 l  130 -298 l  129 -301 128 -305 126 -309 ct 
125 -313 124 -317 122 -322 ct 120 -327 119 -331 117 -336 ct 116 -341 114 -346 113 -351 ct 
109 -362 106 -373 103 -385 ct 103 -373 103 -362 104 -350 ct 104 -341 104 -330 104 -320 ct 
105 -309 105 -300 105 -292 ct 105 0 l  52 0 l  52 -437 l  130 -437 l  246 -134 l 
248 -130 249 -125 251 -118 ct 254 -112 255 -105 257 -98 ct 259 -91 261 -85 262 -79 ct 
264 -73 265 -68 266 -65 ct 266 -68 267 -73 269 -79 ct 271 -85 273 -92 275 -98 ct 
277 -105 279 -112 281 -118 ct 283 -125 285 -130 287 -134 ct 401 -437 l  477 -437 l 
477 0 l  424 0 l  p ef
851 -168 m  851 -110 839 -66 813 -37 ct 787 -8 749 6 700 6 ct 677 6 656 2 638 -5 ct 
619 -12 604 -22 591 -37 ct 578 -51 568 -69 562 -91 ct 555 -113 552 -139 552 -168 ct 
552 -284 602 -342 702 -342 ct 728 -342 751 -339 769 -331 ct 788 -324 804 -313 816 -299 ct 
828 -284 837 -266 843 -245 ct 849 -223 851 -197 851 -168 ct p
793 -168 m  793 -195 791 -216 787 -233 ct 783 -250 777 -264 769 -274 ct 761 -284 752 -291 741 -295 ct 
730 -299 717 -301 703 -301 ct 689 -301 676 -299 664 -295 ct 653 -290 643 -283 635 -273 ct 
627 -263 621 -249 617 -232 ct 612 -215 610 -194 610 -168 ct 610 -142 613 -121 617 -104 ct 
622 -87 628 -73 636 -63 ct 644 -53 653 -46 664 -41 ct 675 -37 687 -35 700 -35 ct 
714 -35 727 -37 738 -41 ct 750 -45 760 -52 768 -63 ct 776 -73 782 -86 786 -104 ct 
791 -121 793 -142 793 -168 ct p ef
1114 0 m  1114 -213 l  1114 -229 1113 -243 1111 -254 ct 1109 -265 1105 -274 1101 -280 ct 
1096 -287 1089 -292 1082 -295 ct 1074 -297 1064 -299 1053 -299 ct 1041 -299 1030 -297 1021 -292 ct 
1011 -287 1003 -281 996 -272 ct 990 -263 985 -252 981 -239 ct 977 -226 976 -211 976 -195 ct 
976 0 l  920 0 l  920 -264 l  920 -271 920 -279 920 -286 ct 920 -294 920 -301 919 -308 ct 
919 -315 919 -321 919 -326 ct 919 -331 918 -334 918 -336 ct 971 -336 l  971 -335 971 -332 972 -327 ct 
972 -323 972 -318 972 -312 ct 973 -306 973 -300 973 -294 ct 973 -288 973 -283 973 -278 ct 
974 -278 l  979 -288 985 -297 990 -305 ct 996 -313 1003 -319 1011 -325 ct 1018 -330 1027 -335 1037 -338 ct 
1047 -341 1059 -342 1072 -342 ct 1098 -342 1118 -337 1133 -327 ct 1147 -317 1158 -301 1163 -278 ct 
1164 -278 l  1169 -288 1175 -297 1181 -305 ct 1187 -313 1195 -319 1203 -325 ct 
1211 -330 1220 -335 1231 -338 ct 1241 -341 1253 -342 1266 -342 ct 1283 -342 1298 -340 1310 -335 ct 
1322 -331 1332 -324 1340 -314 ct 1348 -305 1354 -292 1358 -277 ct 1361 -262 1363 -244 1363 -224 ct 
1363 0 l  1308 0 l  1308 -213 l  1308 -229 1307 -243 1305 -254 ct 1303 -265 1299 -274 1294 -280 ct 
1290 -287 1283 -292 1275 -295 ct 1268 -297 1258 -299 1247 -299 ct 1235 -299 1224 -297 1215 -292 ct 
1205 -288 1197 -281 1190 -272 ct 1184 -264 1178 -253 1175 -240 ct 1171 -227 1169 -212 1169 -195 ct 
1169 0 l  1114 0 l  p ef
1491 -156 m  1491 -139 1492 -122 1496 -108 ct 1500 -93 1505 -80 1513 -70 ct 
1520 -59 1530 -51 1542 -45 ct 1554 -39 1568 -36 1584 -36 ct 1608 -36 1628 -41 1642 -50 ct 
1657 -60 1667 -72 1672 -87 ct 1721 -73 l  1717 -64 1713 -55 1706 -45 ct 1700 -36 1692 -27 1681 -20 ct 
1670 -12 1657 -6 1641 -1 ct 1626 4 1607 6 1584 6 ct 1535 6 1497 -9 1471 -38 ct 
1445 -68 1432 -112 1432 -170 ct 1432 -202 1436 -228 1444 -250 ct 1452 -272 1462 -290 1476 -303 ct 
1490 -317 1506 -327 1524 -333 ct 1542 -339 1561 -342 1582 -342 ct 1610 -342 1634 -338 1653 -329 ct 
1672 -320 1687 -307 1698 -291 ct 1710 -275 1718 -256 1723 -234 ct 1728 -212 1730 -189 1730 -164 ct 
1730 -156 l  1491 -156 l  p
1672 -199 m  1669 -234 1660 -260 1645 -277 ct 1630 -293 1609 -301 1581 -301 ct 
1572 -301 1562 -300 1552 -296 ct 1542 -293 1532 -288 1523 -280 ct 1515 -273 1507 -262 1501 -249 ct 
1495 -236 1492 -219 1491 -199 ct 1672 -199 l  p ef
2013 0 m  2013 -213 l  2013 -229 2012 -243 2009 -254 ct 2007 -265 2003 -274 1998 -280 ct 
1992 -287 1985 -292 1976 -295 ct 1968 -297 1957 -299 1944 -299 ct 1930 -299 1918 -297 1908 -292 ct 
1897 -287 1888 -281 1881 -272 ct 1873 -263 1867 -252 1863 -239 ct 1859 -226 1857 -211 1857 -195 ct 
1857 0 l  1801 0 l  1801 -264 l  1801 -271 1801 -279 1801 -286 ct 1801 -294 1801 -301 1800 -308 ct 
1800 -315 1800 -321 1800 -326 ct 1800 -331 1799 -334 1799 -336 ct 1852 -336 l 
1852 -335 1852 -332 1853 -327 ct 1853 -323 1853 -318 1853 -312 ct 1854 -306 1854 -300 1854 -294 ct 
1854 -288 1854 -283 1854 -278 ct 1855 -278 l  1861 -288 1867 -297 1873 -305 ct 
1879 -313 1887 -319 1895 -325 ct 1904 -330 1913 -335 1924 -338 ct 1935 -341 1948 -342 1963 -342 ct 
1981 -342 1997 -340 2011 -335 ct 2024 -331 2035 -324 2044 -314 ct 2052 -305 2059 -292 2063 -277 ct 
2067 -262 2069 -244 2069 -224 ct 2069 0 l  2013 0 l  p ef
2284 -2 m  2275 0 2267 2 2258 3 ct 2249 4 2239 5 2227 5 ct 2183 5 2160 -20 2160 -71 ct 
2160 -295 l  2122 -295 l  2122 -336 l  2163 -336 l  2179 -411 l  2216 -411 l 
2216 -336 l  2278 -336 l  2278 -295 l  2216 -295 l  2216 -83 l  2216 -67 2219 -56 2224 -49 ct 
2229 -43 2239 -39 2252 -39 ct 2257 -39 2262 -40 2267 -41 ct 2272 -41 2278 -42 2284 -44 ct 
2284 -2 l  p ef
2585 -93 m  2585 -77 2582 -63 2575 -51 ct 2569 -39 2560 -28 2549 -20 ct 2537 -12 2523 -5 2506 -1 ct 
2489 4 2470 6 2448 6 ct 2429 6 2411 4 2396 2 ct 2380 -2 2367 -6 2355 -13 ct 2343 -20 2333 -28 2325 -39 ct 
2317 -50 2311 -63 2308 -79 ct 2357 -89 l  2362 -71 2372 -57 2386 -49 ct 2401 -41 2422 -37 2448 -37 ct 
2460 -37 2471 -37 2481 -39 ct 2491 -41 2500 -44 2507 -48 ct 2515 -52 2520 -57 2524 -64 ct 
2528 -70 2530 -79 2530 -89 ct 2530 -99 2528 -107 2523 -114 ct 2518 -120 2512 -126 2503 -130 ct 
2495 -134 2485 -138 2472 -141 ct 2460 -144 2447 -148 2433 -152 ct 2419 -155 2406 -159 2393 -164 ct 
2379 -168 2367 -174 2357 -181 ct 2346 -188 2338 -197 2331 -207 ct 2324 -218 2321 -231 2321 -247 ct 
2321 -278 2332 -301 2354 -317 ct 2376 -333 2407 -341 2449 -341 ct 2486 -341 2515 -335 2537 -322 ct 
2559 -309 2573 -288 2579 -259 ct 2528 -253 l  2527 -261 2523 -269 2518 -275 ct 
2513 -281 2507 -285 2500 -289 ct 2493 -293 2485 -295 2477 -297 ct 2468 -298 2459 -299 2449 -299 ct 
2424 -299 2405 -295 2393 -288 ct 2381 -280 2375 -268 2375 -253 ct 2375 -244 2377 -236 2382 -230 ct 
2386 -224 2393 -219 2401 -215 ct 2408 -211 2418 -208 2429 -205 ct 2440 -202 2453 -199 2466 -195 ct 
2475 -193 2484 -191 2493 -188 ct 2503 -186 2512 -182 2521 -179 ct 2529 -175 2538 -171 2545 -166 ct 
2553 -161 2560 -155 2566 -149 ct 2571 -142 2576 -134 2579 -125 ct 2583 -116 2585 -105 2585 -93 ct 
p ef
3107 -168 m  3107 -110 3095 -66 3069 -37 ct 3043 -8 3005 6 2956 6 ct 2933 6 2912 2 2894 -5 ct 
2875 -12 2860 -22 2847 -37 ct 2834 -51 2824 -69 2818 -91 ct 2811 -113 2808 -139 2808 -168 ct 
2808 -284 2858 -342 2958 -342 ct 2984 -342 3007 -339 3025 -331 ct 3044 -324 3060 -313 3072 -299 ct 
3084 -284 3093 -266 3099 -245 ct 3105 -223 3107 -197 3107 -168 ct p
3049 -168 m  3049 -195 3047 -216 3043 -233 ct 3039 -250 3033 -264 3025 -274 ct 
3017 -284 3008 -291 2997 -295 ct 2986 -299 2973 -301 2959 -301 ct 2945 -301 2932 -299 2920 -295 ct 
2909 -290 2899 -283 2891 -273 ct 2883 -263 2877 -249 2873 -232 ct 2868 -215 2866 -194 2866 -168 ct 
2866 -142 2869 -121 2873 -104 ct 2878 -87 2884 -73 2892 -63 ct 2900 -53 2909 -46 2920 -41 ct 
2931 -37 2943 -35 2956 -35 ct 2970 -35 2983 -37 2994 -41 ct 3006 -45 3016 -52 3024 -63 ct 
3032 -73 3038 -86 3042 -104 ct 3047 -121 3049 -142 3049 -168 ct p ef
3245 -295 m  3245 0 l  3189 0 l  3189 -295 l  3142 -295 l  3142 -336 l 
3189 -336 l  3189 -374 l  3189 -386 3190 -397 3193 -408 ct 3195 -418 3199 -427 3205 -435 ct 
3211 -443 3220 -449 3230 -453 ct 3241 -458 3254 -460 3271 -460 ct 3278 -460 3284 -460 3292 -459 ct 
3299 -458 3305 -458 3310 -456 ct 3310 -414 l  3307 -414 3303 -415 3298 -415 ct 
3293 -416 3289 -416 3286 -416 ct 3277 -416 3271 -415 3265 -413 ct 3260 -411 3256 -407 3253 -403 ct 
3250 -399 3248 -394 3247 -387 ct 3246 -381 3245 -374 3245 -366 ct 3245 -336 l 
3310 -336 l  3310 -295 l  3245 -295 l  p ef
3600 -295 m  3600 0 l  3544 0 l  3544 -295 l  3497 -295 l  3497 -336 l 
3544 -336 l  3544 -374 l  3544 -386 3545 -397 3548 -408 ct 3550 -418 3554 -427 3560 -435 ct 
3566 -443 3575 -449 3585 -453 ct 3596 -458 3609 -460 3626 -460 ct 3633 -460 3639 -460 3647 -459 ct 
3654 -458 3660 -458 3665 -456 ct 3665 -414 l  3662 -414 3658 -415 3653 -415 ct 
3648 -416 3644 -416 3641 -416 ct 3632 -416 3626 -415 3620 -413 ct 3615 -411 3611 -407 3608 -403 ct 
3605 -399 3603 -394 3602 -387 ct 3601 -381 3600 -374 3600 -366 ct 3600 -336 l 
3665 -336 l  3665 -295 l  3600 -295 l  p ef
3724 -272 m  3724 -336 l  3784 -336 l  3784 -272 l  3724 -272 l  p
3724 0 m  3724 -64 l  3784 -64 l  3784 0 l  3724 0 l  p ef
pom
gr
gs
pum
3270 4083 t
256 0 m  256 -213 l  256 -229 255 -243 252 -254 ct 250 -265 246 -274 241 -280 ct 
235 -287 228 -292 219 -295 ct 211 -297 200 -299 187 -299 ct 173 -299 161 -297 151 -292 ct 
140 -287 131 -281 124 -272 ct 116 -263 110 -252 106 -239 ct 102 -226 100 -211 100 -195 ct 
100 0 l  44 0 l  44 -264 l  44 -271 44 -279 44 -286 ct 44 -294 44 -301 43 -308 ct 
43 -315 43 -321 43 -326 ct 43 -331 42 -334 42 -336 ct 95 -336 l  95 -335 95 -332 96 -327 ct 
96 -323 96 -318 96 -312 ct 97 -306 97 -300 97 -294 ct 97 -288 97 -283 97 -278 ct 
98 -278 l  104 -288 110 -297 116 -305 ct 122 -313 130 -319 138 -325 ct 147 -330 156 -335 167 -338 ct 
178 -341 191 -342 206 -342 ct 224 -342 240 -340 254 -335 ct 267 -331 278 -324 287 -314 ct 
295 -305 302 -292 306 -277 ct 310 -262 312 -244 312 -224 ct 312 0 l  256 0 l 
p ef
395 -165 m  395 -193 398 -221 402 -247 ct 406 -273 413 -299 422 -323 ct 432 -347 444 -371 458 -393 ct 
472 -416 490 -438 510 -460 ct 564 -460 l  544 -438 528 -416 513 -393 ct 499 -370 488 -347 478 -322 ct 
469 -298 463 -273 458 -247 ct 454 -220 452 -193 452 -164 ct 452 -135 454 -108 458 -81 ct 
463 -55 469 -30 478 -5 ct 488 19 499 43 513 65 ct 528 88 544 110 564 132 ct 510 132 l 
490 110 472 88 458 65 ct 444 43 432 19 422 -5 ct 413 -29 406 -55 402 -81 ct 398 -107 395 -134 395 -163 ct 
395 -165 l  p ef
pom
gr
gs
pum
3837 4083 t
254 0 m  176 -121 l  97 0 l  4 0 l  127 -173 l  10 -335 l  104 -335 l 
176 -225 l  247 -335 l  341 -335 l  224 -174 l  348 0 l  254 0 l  p ef
pom
gr
gs
pum
4188 4083 t
172 -163 m  172 -134 170 -107 166 -81 ct 161 -55 154 -29 145 -5 ct 136 19 124 43 109 65 ct 
95 88 78 110 58 132 ct 4 132 l  23 110 40 88 54 65 ct 68 43 80 19 89 -5 ct 98 -30 105 -55 109 -81 ct 
114 -108 116 -135 116 -164 ct 116 -193 114 -220 109 -247 ct 105 -273 98 -298 89 -322 ct 
80 -347 68 -370 54 -393 ct 40 -416 23 -438 4 -460 ct 58 -460 l  78 -438 95 -416 109 -393 ct 
124 -371 136 -347 145 -323 ct 154 -299 161 -273 166 -247 ct 170 -221 172 -193 172 -165 ct 
172 -163 l  p ef
331 -68 m  331 -16 l  331 -5 331 5 330 14 ct 329 23 328 32 325 39 ct 323 47 321 54 318 61 ct 
315 68 311 75 307 82 ct 269 82 l  278 68 286 54 291 41 ct 296 27 298 13 298 0 ct 
271 0 l  271 -68 l  331 -68 l  p ef
pom
gr
gs
pum
4751 4083 t
45 -395 m  45 -459 l  132 -459 l  132 -395 l  45 -395 l  p
43 131 m  31 131 21 131 13 131 ct 4 131 -4 130 -10 129 ct -10 68 l  -7 68 -5 68 -2 69 ct 
1 69 3 69 6 69 ct 14 69 20 68 25 67 ct 30 65 34 62 37 58 ct 40 54 42 49 43 43 ct 44 36 45 28 45 19 ct 
45 -335 l  132 -335 l  132 39 l  132 53 130 65 127 76 ct 123 87 118 97 111 105 ct 
104 113 95 120 83 124 ct 72 129 59 131 43 131 ct p ef
pom
gr
gs
pum
4933 4083 t
39 -165 m  39 -193 42 -221 46 -247 ct 50 -273 57 -299 66 -323 ct 76 -347 88 -371 102 -393 ct 
116 -416 134 -438 154 -460 ct 208 -460 l  188 -438 172 -416 157 -393 ct 143 -370 132 -347 122 -322 ct 
113 -298 107 -273 102 -247 ct 98 -220 96 -193 96 -164 ct 96 -135 98 -108 102 -81 ct 
107 -55 113 -30 122 -5 ct 132 19 143 43 157 65 ct 172 88 188 110 208 132 ct 154 132 l 
134 110 116 88 102 65 ct 88 43 76 19 66 -5 ct 57 -29 50 -55 46 -81 ct 42 -107 39 -134 39 -163 ct 
39 -165 l  p ef
pom
gr
gs
pum
5145 4083 t
254 0 m  176 -121 l  97 0 l  4 0 l  127 -173 l  10 -335 l  104 -335 l 
176 -225 l  247 -335 l  341 -335 l  224 -174 l  348 0 l  254 0 l  p ef
pom
gr
gs
pum
5496 4083 t
172 -163 m  172 -134 170 -107 166 -81 ct 161 -55 154 -29 145 -5 ct 136 19 124 43 109 65 ct 
95 88 78 110 58 132 ct 4 132 l  23 110 40 88 54 65 ct 68 43 80 19 89 -5 ct 98 -30 105 -55 109 -81 ct 
114 -108 116 -135 116 -164 ct 116 -193 114 -220 109 -247 ct 105 -273 98 -298 89 -322 ct 
80 -347 68 -370 54 -393 ct 40 -416 23 -438 4 -460 ct 58 -460 l  78 -438 95 -416 109 -393 ct 
124 -371 136 -347 145 -323 ct 154 -299 161 -273 166 -247 ct 170 -221 172 -193 172 -165 ct 
172 -163 l  p ef
pom
gr
gr
0.601 0.800 1.000 c 9000 2000 m  8750 2000 8500 2250 8500 2500 ct 8500 4500 l 
8500 4750 8750 5001 9000 5001 ct 13000 5001 l  13250 5001 13501 4750 13501 4500 ct 
13501 2500 l  13501 2250 13250 2000 13000 2000 ct 9000 2000 l  p ef
0.003 0.003 0.003 c 9000 2000 m  8750 2000 8500 2250 8500 2500 ct 8500 4500 l 
8500 4750 8750 5001 9000 5001 ct 13000 5001 l  13250 5001 13501 4750 13501 4500 ct 
13501 2500 l  13501 2250 13250 2000 13000 2000 ct 9000 2000 l  pc
gs
gs
pum
8851 3372 t
32 -221 m  32 -255 37 -286 46 -313 ct 55 -341 69 -364 87 -384 ct 105 -403 128 -418 155 -428 ct 
182 -439 214 -444 249 -444 ct 276 -444 300 -442 320 -437 ct 340 -432 358 -425 373 -416 ct 
388 -407 400 -397 411 -384 ct 421 -371 430 -357 437 -341 ct 380 -324 l  375 -335 369 -345 361 -354 ct 
354 -362 344 -370 334 -376 ct 323 -382 310 -387 296 -390 ct 282 -394 266 -396 248 -396 ct 
221 -396 198 -391 179 -383 ct 159 -375 143 -363 130 -348 ct 117 -332 108 -314 102 -293 ct 
95 -271 92 -247 92 -221 ct 92 -195 96 -171 102 -149 ct 109 -127 119 -108 133 -92 ct 
146 -76 163 -64 183 -55 ct 203 -46 226 -42 252 -42 ct 269 -42 285 -44 300 -46 ct 
314 -49 327 -53 339 -58 ct 350 -62 361 -68 370 -73 ct 378 -79 386 -85 392 -91 ct 
392 -169 l  261 -169 l  261 -219 l  446 -219 l  446 -68 l  437 -58 425 -49 412 -40 ct 
399 -31 384 -23 368 -16 ct 352 -9 334 -4 314 0 ct 295 4 274 6 252 6 ct 215 6 183 0 156 -11 ct 
128 -22 105 -38 87 -58 ct 69 -78 55 -102 46 -130 ct 37 -158 32 -188 32 -221 ct 
p ef
592 -336 m  592 -123 l  592 -107 594 -93 596 -82 ct 598 -71 602 -62 608 -56 ct 
613 -49 620 -44 629 -41 ct 638 -39 648 -37 662 -37 ct 675 -37 687 -39 697 -44 ct 
708 -49 717 -55 725 -64 ct 732 -73 738 -84 742 -97 ct 746 -110 748 -125 748 -141 ct 
748 -336 l  804 -336 l  804 -72 l  804 -65 804 -57 804 -50 ct 804 -42 805 -35 805 -28 ct 
805 -21 805 -15 805 -10 ct 806 -5 806 -2 806 0 ct 753 0 l  753 -1 753 -4 753 -9 ct 
752 -13 752 -18 752 -24 ct 752 -30 751 -36 751 -42 ct 751 -48 751 -53 751 -58 ct 
750 -58 l  745 -48 739 -39 732 -31 ct 726 -23 718 -17 710 -11 ct 701 -6 692 -2 681 2 ct 
670 4 657 6 643 6 ct 624 6 608 4 595 -1 ct 581 -5 570 -12 561 -22 ct 553 -31 546 -44 542 -59 ct 
538 -73 536 -91 536 -112 ct 536 -336 l  592 -336 l  p ef
893 -407 m  893 -460 l  949 -460 l  949 -407 l  893 -407 l  p
893 1 m  893 -335 l  949 -335 l  949 1 l  893 1 l  p ef
1246 -53 m  1235 -32 1222 -16 1204 -7 ct 1187 2 1166 7 1141 7 ct 1099 7 1068 -7 1048 -36 ct 
1028 -64 1018 -108 1018 -166 ct 1018 -283 1059 -341 1141 -341 ct 1166 -341 1188 -337 1205 -327 ct 
1222 -318 1235 -303 1246 -283 ct 1246 -283 l  1246 -285 1246 -288 1246 -293 ct 
1246 -297 1246 -302 1246 -307 ct 1246 -312 1246 -316 1246 -321 ct 1246 -325 1246 -328 1246 -330 ct 
1246 -460 l  1301 -460 l  1301 -69 l  1301 -61 1301 -53 1302 -45 ct 1302 -38 1302 -31 1302 -25 ct 
1302 -19 1302 -13 1303 -9 ct 1303 -4 1303 -1 1303 1 ct 1250 1 l  1249 -2 1249 -4 1249 -8 ct 
1249 -12 1248 -16 1248 -21 ct 1248 -26 1247 -32 1247 -37 ct 1247 -42 1247 -48 1247 -53 ct 
1246 -53 l  p
1076 -167 m  1076 -144 1078 -124 1081 -108 ct 1084 -91 1088 -78 1095 -67 ct 
1101 -56 1109 -49 1119 -44 ct 1129 -39 1141 -36 1155 -36 ct 1170 -36 1183 -39 1194 -43 ct 
1206 -48 1215 -56 1222 -66 ct 1230 -77 1236 -91 1240 -108 ct 1244 -125 1246 -146 1246 -171 ct 
1246 -195 1244 -215 1240 -232 ct 1236 -248 1230 -261 1222 -271 ct 1215 -282 1205 -289 1194 -293 ct 
1183 -298 1170 -300 1156 -300 ct 1142 -300 1131 -298 1121 -293 ct 1111 -288 1102 -280 1096 -270 ct 
1089 -259 1084 -246 1081 -229 ct 1078 -212 1076 -191 1076 -167 ct p ef
1388 -407 m  1388 -460 l  1444 -460 l  1444 -407 l  1388 -407 l  p
1388 1 m  1388 -335 l  1444 -335 l  1444 1 l  1388 1 l  p ef
1742 0 m  1742 -213 l  1742 -229 1741 -243 1738 -254 ct 1736 -265 1732 -274 1727 -280 ct 
1721 -287 1714 -292 1705 -295 ct 1697 -297 1686 -299 1673 -299 ct 1659 -299 1647 -297 1637 -292 ct 
1626 -287 1617 -281 1610 -272 ct 1602 -263 1596 -252 1592 -239 ct 1588 -226 1586 -211 1586 -195 ct 
1586 0 l  1530 0 l  1530 -264 l  1530 -271 1530 -279 1530 -286 ct 1530 -294 1530 -301 1529 -308 ct 
1529 -315 1529 -321 1529 -326 ct 1529 -331 1528 -334 1528 -336 ct 1581 -336 l 
1581 -335 1581 -332 1582 -327 ct 1582 -323 1582 -318 1582 -312 ct 1583 -306 1583 -300 1583 -294 ct 
1583 -288 1583 -283 1583 -278 ct 1584 -278 l  1590 -288 1596 -297 1602 -305 ct 
1608 -313 1616 -319 1624 -325 ct 1633 -330 1642 -335 1653 -338 ct 1664 -341 1677 -342 1692 -342 ct 
1710 -342 1726 -340 1740 -335 ct 1753 -331 1764 -324 1773 -314 ct 1781 -305 1788 -292 1792 -277 ct 
1796 -262 1798 -244 1798 -224 ct 1798 0 l  1742 0 l  p ef
2012 132 m  1993 132 1976 130 1961 126 ct 1946 122 1933 117 1923 109 ct 1912 102 1903 93 1897 83 ct 
1890 73 1886 61 1883 49 ct 1939 41 l  1942 56 1951 68 1963 77 ct 1976 85 1993 89 2013 89 ct 
2026 89 2038 88 2048 84 ct 2058 81 2067 75 2074 67 ct 2081 59 2087 49 2091 37 ct 
2095 25 2097 9 2097 -8 ct 2097 -63 l  2096 -63 l  2092 -54 2087 -46 2081 -38 ct 
2075 -30 2067 -24 2059 -18 ct 2050 -12 2040 -7 2028 -3 ct 2016 0 2003 2 1988 2 ct 
1967 2 1949 -1 1934 -8 ct 1918 -16 1906 -26 1896 -41 ct 1887 -55 1880 -73 1875 -94 ct 
1871 -115 1869 -139 1869 -167 ct 1869 -194 1871 -218 1875 -240 ct 1880 -261 1887 -280 1897 -295 ct 
1907 -310 1920 -321 1936 -329 ct 1952 -337 1972 -341 1995 -341 ct 2018 -341 2039 -336 2056 -325 ct 
2074 -314 2087 -298 2097 -278 ct 2097 -278 l  2097 -284 2098 -289 2098 -296 ct 
2098 -302 2099 -308 2099 -314 ct 2099 -320 2100 -324 2100 -329 ct 2100 -333 2101 -335 2101 -336 ct 
2154 -336 l  2154 -334 2154 -331 2154 -326 ct 2153 -322 2153 -316 2153 -310 ct 
2153 -304 2153 -297 2153 -290 ct 2152 -282 2152 -274 2152 -266 ct 2152 -10 l 
2152 37 2141 73 2118 96 ct 2095 120 2059 132 2012 132 ct p
2097 -168 m  2097 -191 2094 -211 2089 -228 ct 2084 -245 2078 -258 2069 -269 ct 
2061 -279 2052 -287 2041 -292 ct 2030 -297 2019 -299 2008 -299 ct 1994 -299 1982 -297 1971 -292 ct 
1961 -287 1953 -279 1946 -269 ct 1939 -258 1934 -244 1931 -228 ct 1928 -211 1926 -191 1926 -168 ct 
1926 -144 1928 -123 1931 -107 ct 1934 -91 1939 -77 1946 -67 ct 1952 -57 1961 -50 1971 -46 ct 
1981 -41 1993 -39 2007 -39 ct 2018 -39 2029 -41 2040 -46 ct 2051 -51 2060 -58 2069 -69 ct 
2077 -79 2084 -92 2089 -109 ct 2094 -125 2097 -145 2097 -168 ct p ef
2621 -396 m  2596 -396 2574 -391 2555 -383 ct 2536 -375 2520 -363 2507 -348 ct 
2494 -332 2484 -314 2477 -293 ct 2471 -271 2467 -247 2467 -221 ct 2467 -195 2471 -171 2478 -149 ct 
2485 -127 2495 -108 2509 -92 ct 2522 -77 2538 -64 2558 -56 ct 2577 -47 2599 -43 2623 -43 ct 
2640 -43 2655 -45 2669 -49 ct 2683 -54 2696 -60 2707 -68 ct 2718 -76 2729 -86 2737 -97 ct 
2746 -108 2754 -120 2761 -134 ct 2809 -109 l  2802 -93 2792 -78 2780 -64 ct 
2769 -50 2755 -38 2739 -27 ct 2724 -17 2706 -9 2686 -3 ct 2667 3 2645 6 2620 6 ct 
2585 6 2554 0 2527 -11 ct 2501 -22 2479 -38 2461 -58 ct 2443 -78 2429 -102 2421 -130 ct 
2412 -158 2407 -188 2407 -221 ct 2407 -255 2412 -286 2421 -313 ct 2431 -341 2445 -364 2463 -384 ct 
2481 -403 2503 -418 2529 -428 ct 2556 -439 2586 -444 2620 -444 ct 2666 -444 2705 -435 2737 -417 ct 
2768 -398 2791 -371 2805 -336 ct 2749 -317 l  2745 -327 2740 -337 2733 -347 ct 
2725 -356 2717 -364 2706 -372 ct 2696 -379 2683 -385 2669 -389 ct 2655 -393 2639 -396 2621 -396 ct 
p ef
2918 -156 m  2918 -139 2919 -122 2923 -108 ct 2927 -93 2932 -80 2940 -70 ct 
2947 -59 2957 -51 2969 -45 ct 2981 -39 2995 -36 3011 -36 ct 3035 -36 3055 -41 3069 -50 ct 
3084 -60 3094 -72 3099 -87 ct 3148 -73 l  3144 -64 3140 -55 3133 -45 ct 3127 -36 3119 -27 3108 -20 ct 
3097 -12 3084 -6 3068 -1 ct 3053 4 3034 6 3011 6 ct 2962 6 2924 -9 2898 -38 ct 
2872 -68 2859 -112 2859 -170 ct 2859 -202 2863 -228 2871 -250 ct 2879 -272 2889 -290 2903 -303 ct 
2917 -317 2933 -327 2951 -333 ct 2969 -339 2988 -342 3009 -342 ct 3037 -342 3061 -338 3080 -329 ct 
3099 -320 3114 -307 3125 -291 ct 3137 -275 3145 -256 3150 -234 ct 3155 -212 3157 -189 3157 -164 ct 
3157 -156 l  2918 -156 l  p
3099 -199 m  3096 -234 3087 -260 3072 -277 ct 3057 -293 3036 -301 3008 -301 ct 
2999 -301 2989 -300 2979 -296 ct 2969 -293 2959 -288 2950 -280 ct 2942 -273 2934 -262 2928 -249 ct 
2922 -236 2919 -219 2918 -199 ct 3099 -199 l  p ef
3439 0 m  3439 -213 l  3439 -229 3438 -243 3435 -254 ct 3433 -265 3429 -274 3424 -280 ct 
3418 -287 3411 -292 3402 -295 ct 3394 -297 3383 -299 3370 -299 ct 3356 -299 3344 -297 3334 -292 ct 
3323 -287 3314 -281 3307 -272 ct 3299 -263 3293 -252 3289 -239 ct 3285 -226 3283 -211 3283 -195 ct 
3283 0 l  3227 0 l  3227 -264 l  3227 -271 3227 -279 3227 -286 ct 3227 -294 3227 -301 3226 -308 ct 
3226 -315 3226 -321 3226 -326 ct 3226 -331 3225 -334 3225 -336 ct 3278 -336 l 
3278 -335 3278 -332 3279 -327 ct 3279 -323 3279 -318 3279 -312 ct 3280 -306 3280 -300 3280 -294 ct 
3280 -288 3280 -283 3280 -278 ct 3281 -278 l  3287 -288 3293 -297 3299 -305 ct 
3305 -313 3313 -319 3321 -325 ct 3330 -330 3339 -335 3350 -338 ct 3361 -341 3374 -342 3389 -342 ct 
3407 -342 3423 -340 3437 -335 ct 3450 -331 3461 -324 3470 -314 ct 3478 -305 3485 -292 3489 -277 ct 
3493 -262 3495 -244 3495 -224 ct 3495 0 l  3439 0 l  p ef
3711 -2 m  3702 0 3694 2 3685 3 ct 3676 4 3666 5 3654 5 ct 3610 5 3587 -20 3587 -71 ct 
3587 -295 l  3549 -295 l  3549 -336 l  3590 -336 l  3606 -411 l  3643 -411 l 
3643 -336 l  3705 -336 l  3705 -295 l  3643 -295 l  3643 -83 l  3643 -67 3646 -56 3651 -49 ct 
3656 -43 3666 -39 3679 -39 ct 3684 -39 3689 -40 3694 -41 ct 3699 -41 3705 -42 3711 -44 ct 
3711 -2 l  p ef
3761 0 m  3761 -258 l  3761 -265 3761 -272 3761 -279 ct 3761 -287 3761 -294 3760 -300 ct 
3760 -307 3760 -314 3760 -320 ct 3760 -326 3759 -331 3759 -336 ct 3812 -336 l 
3812 -331 3812 -326 3813 -320 ct 3813 -313 3813 -307 3814 -301 ct 3814 -294 3814 -288 3814 -282 ct 
3814 -276 3814 -271 3814 -267 ct 3816 -267 l  3820 -280 3824 -291 3828 -301 ct 
3833 -310 3838 -318 3844 -324 ct 3850 -330 3857 -335 3865 -338 ct 3873 -341 3884 -342 3895 -342 ct 
3900 -342 3904 -342 3908 -341 ct 3912 -340 3916 -340 3918 -339 ct 3918 -288 l 
3914 -289 3910 -290 3905 -290 ct 3900 -291 3894 -291 3888 -291 ct 3875 -291 3864 -288 3855 -282 ct 
3846 -276 3839 -268 3833 -258 ct 3828 -248 3824 -236 3821 -221 ct 3818 -207 3817 -192 3817 -175 ct 
3817 0 l  3761 0 l  p ef
4015 -156 m  4015 -139 4016 -122 4020 -108 ct 4024 -93 4029 -80 4037 -70 ct 
4044 -59 4054 -51 4066 -45 ct 4078 -39 4092 -36 4108 -36 ct 4132 -36 4152 -41 4166 -50 ct 
4181 -60 4191 -72 4196 -87 ct 4245 -73 l  4241 -64 4237 -55 4230 -45 ct 4224 -36 4216 -27 4205 -20 ct 
4194 -12 4181 -6 4165 -1 ct 4150 4 4131 6 4108 6 ct 4059 6 4021 -9 3995 -38 ct 
3969 -68 3956 -112 3956 -170 ct 3956 -202 3960 -228 3968 -250 ct 3976 -272 3986 -290 4000 -303 ct 
4014 -317 4030 -327 4048 -333 ct 4066 -339 4085 -342 4106 -342 ct 4134 -342 4158 -338 4177 -329 ct 
4196 -320 4211 -307 4222 -291 ct 4234 -275 4242 -256 4247 -234 ct 4252 -212 4254 -189 4254 -164 ct 
4254 -156 l  4015 -156 l  p
4196 -199 m  4193 -234 4184 -260 4169 -277 ct 4154 -293 4133 -301 4105 -301 ct 
4096 -301 4086 -300 4076 -296 ct 4066 -293 4056 -288 4047 -280 ct 4039 -273 4031 -262 4025 -249 ct 
4019 -236 4016 -219 4015 -199 ct 4196 -199 l  p ef
pom
gr
gs
pum
9198 4083 t
326 -170 m  326 -144 324 -121 320 -99 ct 316 -78 309 -59 300 -43 ct 290 -28 277 -16 262 -7 ct 
246 2 226 6 203 6 ct 179 6 158 2 140 -7 ct 122 -17 108 -31 99 -52 ct 97 -52 l  98 -52 98 -50 98 -47 ct 
98 -43 98 -39 98 -34 ct 98 -29 98 -24 98 -17 ct 99 -11 99 -5 99 1 ct 99 132 l  43 132 l 
43 -267 l  43 -275 43 -283 43 -290 ct 43 -298 42 -305 42 -311 ct 42 -317 42 -322 42 -326 ct 
41 -331 41 -334 41 -336 ct 95 -336 l  95 -335 95 -333 96 -329 ct 96 -326 96 -321 97 -316 ct 
97 -311 97 -305 98 -299 ct 98 -293 98 -287 98 -282 ct 99 -282 l  104 -293 110 -302 117 -310 ct 
124 -317 131 -323 140 -328 ct 148 -333 157 -337 168 -339 ct 178 -341 190 -342 203 -342 ct 
226 -342 246 -338 262 -330 ct 277 -321 290 -310 300 -295 ct 309 -280 316 -261 320 -240 ct 
324 -219 326 -195 326 -170 ct p
268 -168 m  268 -189 267 -207 264 -224 ct 262 -240 257 -253 251 -265 ct 245 -276 237 -284 227 -290 ct 
217 -296 204 -299 189 -299 ct 176 -299 165 -297 154 -294 ct 143 -290 133 -283 125 -273 ct 
117 -263 110 -250 106 -232 ct 101 -215 99 -192 99 -164 ct 99 -140 101 -120 104 -104 ct 
108 -87 114 -74 122 -64 ct 129 -53 139 -46 150 -42 ct 161 -37 174 -35 188 -35 ct 
204 -35 217 -38 227 -44 ct 237 -50 245 -59 251 -70 ct 257 -82 262 -95 264 -112 ct 
267 -128 268 -147 268 -168 ct p ef
449 -278 m  455 -289 462 -299 469 -307 ct 477 -315 485 -321 493 -326 ct 502 -331 512 -335 522 -338 ct 
532 -340 544 -341 557 -341 ct 578 -341 596 -338 609 -332 ct 623 -327 634 -319 642 -308 ct 
650 -298 655 -285 658 -271 ct 661 -256 663 -240 663 -223 ct 663 1 l  607 1 l 
607 -212 l  607 -226 606 -239 604 -250 ct 602 -260 599 -269 594 -276 ct 589 -284 582 -289 573 -293 ct 
564 -296 552 -298 538 -298 ct 524 -298 512 -296 502 -291 ct 491 -286 482 -279 475 -271 ct 
467 -262 461 -252 457 -239 ct 453 -227 451 -213 451 -197 ct 451 1 l  395 1 l 
395 -460 l  451 -460 l  451 -340 l  451 -333 451 -326 451 -319 ct 450 -313 450 -306 450 -301 ct 
449 -295 449 -290 449 -286 ct 449 -282 449 -279 448 -278 ct 449 -278 l  p ef
835 6 m  802 6 776 -3 759 -21 ct 742 -39 734 -63 734 -94 ct 734 -117 738 -135 747 -149 ct 
755 -163 766 -174 779 -183 ct 793 -191 808 -196 826 -199 ct 843 -203 861 -204 879 -204 ct 
954 -204 l  954 -223 l  954 -237 953 -248 950 -258 ct 947 -268 942 -276 936 -282 ct 
930 -288 923 -292 914 -295 ct 905 -298 894 -299 882 -299 ct 871 -299 862 -299 853 -297 ct 
844 -296 837 -293 830 -289 ct 824 -285 819 -279 815 -272 ct 811 -265 808 -257 807 -246 ct 
749 -251 l  751 -265 755 -277 761 -288 ct 766 -299 775 -309 785 -317 ct 796 -325 809 -331 825 -335 ct 
841 -340 861 -342 883 -342 ct 926 -342 957 -332 979 -313 ct 1000 -294 1011 -266 1011 -229 ct 
1011 -85 l  1011 -68 1013 -55 1017 -47 ct 1021 -39 1030 -35 1042 -35 ct 1045 -35 1048 -35 1051 -35 ct 
1054 -36 1057 -36 1060 -37 ct 1060 -2 l  1053 0 1046 1 1039 2 ct 1032 3 1025 3 1017 3 ct 
1007 3 997 2 990 -1 ct 982 -4 976 -8 971 -14 ct 967 -20 963 -27 961 -35 ct 958 -43 957 -53 956 -64 ct 
954 -64 l  948 -54 942 -44 934 -35 ct 927 -27 919 -19 909 -13 ct 900 -7 889 -2 877 1 ct 
865 4 851 6 835 6 ct p
848 -36 m  866 -36 881 -39 895 -46 ct 908 -52 919 -60 928 -70 ct 937 -80 943 -91 948 -103 ct 
952 -115 954 -127 954 -138 ct 954 -165 l  893 -165 l  879 -165 866 -164 854 -162 ct 
842 -161 831 -157 822 -152 ct 812 -147 805 -139 800 -130 ct 794 -121 791 -108 791 -93 ct 
791 -75 796 -61 806 -51 ct 816 -41 830 -36 848 -36 ct p ef
1353 -93 m  1353 -77 1350 -63 1343 -51 ct 1337 -39 1328 -28 1317 -20 ct 1305 -12 1291 -5 1274 -1 ct 
1257 4 1238 6 1216 6 ct 1197 6 1179 4 1164 2 ct 1148 -2 1135 -6 1123 -13 ct 1111 -20 1101 -28 1093 -39 ct 
1085 -50 1079 -63 1076 -79 ct 1125 -89 l  1130 -71 1140 -57 1154 -49 ct 1169 -41 1190 -37 1216 -37 ct 
1228 -37 1239 -37 1249 -39 ct 1259 -41 1268 -44 1275 -48 ct 1283 -52 1288 -57 1292 -64 ct 
1296 -70 1298 -79 1298 -89 ct 1298 -99 1296 -107 1291 -114 ct 1286 -120 1280 -126 1271 -130 ct 
1263 -134 1253 -138 1240 -141 ct 1228 -144 1215 -148 1201 -152 ct 1187 -155 1174 -159 1161 -164 ct 
1147 -168 1135 -174 1125 -181 ct 1114 -188 1106 -197 1099 -207 ct 1092 -218 1089 -231 1089 -247 ct 
1089 -278 1100 -301 1122 -317 ct 1144 -333 1175 -341 1217 -341 ct 1254 -341 1283 -335 1305 -322 ct 
1327 -309 1341 -288 1347 -259 ct 1296 -253 l  1295 -261 1291 -269 1286 -275 ct 
1281 -281 1275 -285 1268 -289 ct 1261 -293 1253 -295 1245 -297 ct 1236 -298 1227 -299 1217 -299 ct 
1192 -299 1173 -295 1161 -288 ct 1149 -280 1143 -268 1143 -253 ct 1143 -244 1145 -236 1150 -230 ct 
1154 -224 1161 -219 1169 -215 ct 1176 -211 1186 -208 1197 -205 ct 1208 -202 1221 -199 1234 -195 ct 
1243 -193 1252 -191 1261 -188 ct 1271 -186 1280 -182 1289 -179 ct 1297 -175 1306 -171 1313 -166 ct 
1321 -161 1328 -155 1334 -149 ct 1339 -142 1344 -134 1347 -125 ct 1351 -116 1353 -105 1353 -93 ct 
p ef
1458 -156 m  1458 -139 1459 -122 1463 -108 ct 1467 -93 1472 -80 1480 -70 ct 
1487 -59 1497 -51 1509 -45 ct 1521 -39 1535 -36 1551 -36 ct 1575 -36 1595 -41 1609 -50 ct 
1624 -60 1634 -72 1639 -87 ct 1688 -73 l  1684 -64 1680 -55 1673 -45 ct 1667 -36 1659 -27 1648 -20 ct 
1637 -12 1624 -6 1608 -1 ct 1593 4 1574 6 1551 6 ct 1502 6 1464 -9 1438 -38 ct 
1412 -68 1399 -112 1399 -170 ct 1399 -202 1403 -228 1411 -250 ct 1419 -272 1429 -290 1443 -303 ct 
1457 -317 1473 -327 1491 -333 ct 1509 -339 1528 -342 1549 -342 ct 1577 -342 1601 -338 1620 -329 ct 
1639 -320 1654 -307 1665 -291 ct 1677 -275 1685 -256 1690 -234 ct 1695 -212 1697 -189 1697 -164 ct 
1697 -156 l  1458 -156 l  p
1639 -199 m  1636 -234 1627 -260 1612 -277 ct 1597 -293 1576 -301 1548 -301 ct 
1539 -301 1529 -300 1519 -296 ct 1509 -293 1499 -288 1490 -280 ct 1482 -273 1474 -262 1468 -249 ct 
1462 -236 1459 -219 1458 -199 ct 1639 -199 l  p ef
2196 -93 m  2196 -77 2193 -63 2186 -51 ct 2180 -39 2171 -28 2160 -20 ct 2148 -12 2134 -5 2117 -1 ct 
2100 4 2081 6 2059 6 ct 2040 6 2022 4 2007 2 ct 1991 -2 1978 -6 1966 -13 ct 1954 -20 1944 -28 1936 -39 ct 
1928 -50 1922 -63 1919 -79 ct 1968 -89 l  1973 -71 1983 -57 1997 -49 ct 2012 -41 2033 -37 2059 -37 ct 
2071 -37 2082 -37 2092 -39 ct 2102 -41 2111 -44 2118 -48 ct 2126 -52 2131 -57 2135 -64 ct 
2139 -70 2141 -79 2141 -89 ct 2141 -99 2139 -107 2134 -114 ct 2129 -120 2123 -126 2114 -130 ct 
2106 -134 2096 -138 2083 -141 ct 2071 -144 2058 -148 2044 -152 ct 2030 -155 2017 -159 2004 -164 ct 
1990 -168 1978 -174 1968 -181 ct 1957 -188 1949 -197 1942 -207 ct 1935 -218 1932 -231 1932 -247 ct 
1932 -278 1943 -301 1965 -317 ct 1987 -333 2018 -341 2060 -341 ct 2097 -341 2126 -335 2148 -322 ct 
2170 -309 2184 -288 2190 -259 ct 2139 -253 l  2138 -261 2134 -269 2129 -275 ct 
2124 -281 2118 -285 2111 -289 ct 2104 -293 2096 -295 2088 -297 ct 2079 -298 2070 -299 2060 -299 ct 
2035 -299 2016 -295 2004 -288 ct 1992 -280 1986 -268 1986 -253 ct 1986 -244 1988 -236 1993 -230 ct 
1997 -224 2004 -219 2012 -215 ct 2019 -211 2029 -208 2040 -205 ct 2051 -202 2064 -199 2077 -195 ct 
2086 -193 2095 -191 2104 -188 ct 2114 -186 2123 -182 2132 -179 ct 2140 -175 2149 -171 2156 -166 ct 
2164 -161 2171 -155 2177 -149 ct 2182 -142 2187 -134 2190 -125 ct 2194 -116 2196 -105 2196 -93 ct 
p ef
2540 -170 m  2540 -144 2538 -121 2534 -99 ct 2530 -78 2523 -59 2514 -43 ct 2504 -28 2491 -16 2476 -7 ct 
2460 2 2440 6 2417 6 ct 2393 6 2372 2 2354 -7 ct 2336 -17 2322 -31 2313 -52 ct 
2311 -52 l  2312 -52 2312 -50 2312 -47 ct 2312 -43 2312 -39 2312 -34 ct 2312 -29 2312 -24 2312 -17 ct 
2313 -11 2313 -5 2313 1 ct 2313 132 l  2257 132 l  2257 -267 l  2257 -275 2257 -283 2257 -290 ct 
2257 -298 2256 -305 2256 -311 ct 2256 -317 2256 -322 2256 -326 ct 2255 -331 2255 -334 2255 -336 ct 
2309 -336 l  2309 -335 2309 -333 2310 -329 ct 2310 -326 2310 -321 2311 -316 ct 
2311 -311 2311 -305 2312 -299 ct 2312 -293 2312 -287 2312 -282 ct 2313 -282 l 
2318 -293 2324 -302 2331 -310 ct 2338 -317 2345 -323 2354 -328 ct 2362 -333 2371 -337 2382 -339 ct 
2392 -341 2404 -342 2417 -342 ct 2440 -342 2460 -338 2476 -330 ct 2491 -321 2504 -310 2514 -295 ct 
2523 -280 2530 -261 2534 -240 ct 2538 -219 2540 -195 2540 -170 ct p
2482 -168 m  2482 -189 2481 -207 2478 -224 ct 2476 -240 2471 -253 2465 -265 ct 
2459 -276 2451 -284 2441 -290 ct 2431 -296 2418 -299 2403 -299 ct 2390 -299 2379 -297 2368 -294 ct 
2357 -290 2347 -283 2339 -273 ct 2331 -263 2324 -250 2320 -232 ct 2315 -215 2313 -192 2313 -164 ct 
2313 -140 2315 -120 2318 -104 ct 2322 -87 2328 -74 2336 -64 ct 2343 -53 2353 -46 2364 -42 ct 
2375 -37 2388 -35 2402 -35 ct 2418 -35 2431 -38 2441 -44 ct 2451 -50 2459 -59 2465 -70 ct 
2471 -82 2476 -95 2478 -112 ct 2481 -128 2482 -147 2482 -168 ct p ef
2693 6 m  2660 6 2634 -3 2617 -21 ct 2600 -39 2592 -63 2592 -94 ct 2592 -117 2596 -135 2605 -149 ct 
2613 -163 2624 -174 2637 -183 ct 2651 -191 2666 -196 2684 -199 ct 2701 -203 2719 -204 2737 -204 ct 
2812 -204 l  2812 -223 l  2812 -237 2811 -248 2808 -258 ct 2805 -268 2800 -276 2794 -282 ct 
2788 -288 2781 -292 2772 -295 ct 2763 -298 2752 -299 2740 -299 ct 2729 -299 2720 -299 2711 -297 ct 
2702 -296 2695 -293 2688 -289 ct 2682 -285 2677 -279 2673 -272 ct 2669 -265 2666 -257 2665 -246 ct 
2607 -251 l  2609 -265 2613 -277 2619 -288 ct 2624 -299 2633 -309 2643 -317 ct 
2654 -325 2667 -331 2683 -335 ct 2699 -340 2719 -342 2741 -342 ct 2784 -342 2815 -332 2837 -313 ct 
2858 -294 2869 -266 2869 -229 ct 2869 -85 l  2869 -68 2871 -55 2875 -47 ct 2879 -39 2888 -35 2900 -35 ct 
2903 -35 2906 -35 2909 -35 ct 2912 -36 2915 -36 2918 -37 ct 2918 -2 l  2911 0 2904 1 2897 2 ct 
2890 3 2883 3 2875 3 ct 2865 3 2855 2 2848 -1 ct 2840 -4 2834 -8 2829 -14 ct 2825 -20 2821 -27 2819 -35 ct 
2816 -43 2815 -53 2814 -64 ct 2812 -64 l  2806 -54 2800 -44 2792 -35 ct 2785 -27 2777 -19 2767 -13 ct 
2758 -7 2747 -2 2735 1 ct 2723 4 2709 6 2693 6 ct p
2706 -36 m  2724 -36 2739 -39 2753 -46 ct 2766 -52 2777 -60 2786 -70 ct 2795 -80 2801 -91 2806 -103 ct 
2810 -115 2812 -127 2812 -138 ct 2812 -165 l  2751 -165 l  2737 -165 2724 -164 2712 -162 ct 
2700 -161 2689 -157 2680 -152 ct 2670 -147 2663 -139 2658 -130 ct 2652 -121 2649 -108 2649 -93 ct 
2649 -75 2654 -61 2664 -51 ct 2674 -41 2688 -36 2706 -36 ct p ef
3002 -170 m  3002 -150 3004 -133 3006 -117 ct 3009 -100 3014 -86 3021 -75 ct 
3027 -63 3036 -54 3047 -48 ct 3058 -41 3071 -38 3087 -38 ct 3107 -38 3123 -43 3137 -54 ct 
3150 -64 3158 -80 3161 -102 ct 3218 -102 l  3216 -88 3212 -74 3206 -61 ct 3199 -48 3191 -37 3180 -27 ct 
3170 -17 3157 -9 3141 -3 ct 3126 3 3109 6 3088 6 ct 3062 6 3040 2 3021 -7 ct 3003 -16 2988 -28 2977 -44 ct 
2965 -60 2957 -78 2952 -99 ct 2947 -121 2944 -144 2944 -168 ct 2944 -191 2946 -211 2950 -228 ct 
2953 -245 2959 -260 2965 -273 ct 2972 -286 2980 -297 2989 -306 ct 2998 -315 3008 -322 3019 -327 ct 
3029 -332 3040 -336 3052 -338 ct 3064 -341 3076 -342 3088 -342 ct 3107 -342 3123 -339 3138 -334 ct 
3153 -329 3165 -322 3176 -313 ct 3187 -304 3195 -293 3202 -281 ct 3209 -269 3213 -256 3216 -242 ct 
3159 -237 l  3156 -256 3148 -271 3137 -282 ct 3125 -293 3108 -298 3086 -298 ct 
3070 -298 3057 -296 3046 -290 ct 3036 -285 3027 -277 3021 -266 ct 3014 -256 3009 -242 3006 -226 ct 
3004 -210 3002 -191 3002 -170 ct p ef
3320 -156 m  3320 -139 3321 -122 3325 -108 ct 3329 -93 3334 -80 3342 -70 ct 
3349 -59 3359 -51 3371 -45 ct 3383 -39 3397 -36 3413 -36 ct 3437 -36 3457 -41 3471 -50 ct 
3486 -60 3496 -72 3501 -87 ct 3550 -73 l  3546 -64 3542 -55 3535 -45 ct 3529 -36 3521 -27 3510 -20 ct 
3499 -12 3486 -6 3470 -1 ct 3455 4 3436 6 3413 6 ct 3364 6 3326 -9 3300 -38 ct 
3274 -68 3261 -112 3261 -170 ct 3261 -202 3265 -228 3273 -250 ct 3281 -272 3291 -290 3305 -303 ct 
3319 -317 3335 -327 3353 -333 ct 3371 -339 3390 -342 3411 -342 ct 3439 -342 3463 -338 3482 -329 ct 
3501 -320 3516 -307 3527 -291 ct 3539 -275 3547 -256 3552 -234 ct 3557 -212 3559 -189 3559 -164 ct 
3559 -156 l  3320 -156 l  p
3501 -199 m  3498 -234 3489 -260 3474 -277 ct 3459 -293 3438 -301 3410 -301 ct 
3401 -301 3391 -300 3381 -296 ct 3371 -293 3361 -288 3352 -280 ct 3344 -273 3336 -262 3330 -249 ct 
3324 -236 3321 -219 3320 -199 ct 3501 -199 l  p ef
pom
gr
gr
0.601 0.800 1.000 c 15500 2000 m  15250 2000 15000 2250 15000 2500 ct 15000 4500 l 
15000 4750 15250 5001 15500 5001 ct 19500 5001 l  19750 5001 20001 4750 20001 4500 ct 
20001 2500 l  20001 2250 19750 2000 19500 2000 ct 15500 2000 l  p ef
0.003 0.003 0.003 c 15500 2000 m  15250 2000 15000 2250 15000 2500 ct 15000 4500 l 
15000 4750 15250 5001 15500 5001 ct 19500 5001 l  19750 5001 20001 4750 20001 4500 ct 
20001 2500 l  20001 2250 19750 2000 19500 2000 ct 15500 2000 l  pc
gs
gs
pum
15239 3269 t
242 0 m  181 0 l  3 -438 l  65 -438 l  186 -129 l  189 -120 192 -111 195 -102 ct 
198 -92 201 -84 204 -77 ct 207 -69 209 -60 212 -52 ct 215 -60 217 -68 220 -76 ct 
223 -84 225 -92 228 -101 ct 231 -110 235 -120 238 -129 ct 358 -438 l  421 -438 l 
242 0 l  p ef
466 1 m  466 -460 l  522 -460 l  522 1 l  466 1 l  p ef
691 6 m  658 6 632 -3 615 -21 ct 598 -39 590 -63 590 -94 ct 590 -117 594 -135 603 -149 ct 
611 -163 622 -174 635 -183 ct 649 -191 664 -196 682 -199 ct 699 -203 717 -204 735 -204 ct 
810 -204 l  810 -223 l  810 -237 809 -248 806 -258 ct 803 -268 798 -276 792 -282 ct 
786 -288 779 -292 770 -295 ct 761 -298 750 -299 738 -299 ct 727 -299 718 -299 709 -297 ct 
700 -296 693 -293 686 -289 ct 680 -285 675 -279 671 -272 ct 667 -265 664 -257 663 -246 ct 
605 -251 l  607 -265 611 -277 617 -288 ct 622 -299 631 -309 641 -317 ct 652 -325 665 -331 681 -335 ct 
697 -340 717 -342 739 -342 ct 782 -342 813 -332 835 -313 ct 856 -294 867 -266 867 -229 ct 
867 -85 l  867 -68 869 -55 873 -47 ct 877 -39 886 -35 898 -35 ct 901 -35 904 -35 907 -35 ct 
910 -36 913 -36 916 -37 ct 916 -2 l  909 0 902 1 895 2 ct 888 3 881 3 873 3 ct 
863 3 853 2 846 -1 ct 838 -4 832 -8 827 -14 ct 823 -20 819 -27 817 -35 ct 814 -43 813 -53 812 -64 ct 
810 -64 l  804 -54 798 -44 790 -35 ct 783 -27 775 -19 765 -13 ct 756 -7 745 -2 733 1 ct 
721 4 707 6 691 6 ct p
704 -36 m  722 -36 737 -39 751 -46 ct 764 -52 775 -60 784 -70 ct 793 -80 799 -91 804 -103 ct 
808 -115 810 -127 810 -138 ct 810 -165 l  749 -165 l  735 -165 722 -164 710 -162 ct 
698 -161 687 -157 678 -152 ct 668 -147 661 -139 656 -130 ct 650 -121 647 -108 647 -93 ct 
647 -75 652 -61 662 -51 ct 672 -41 686 -36 704 -36 ct p ef
1209 -93 m  1209 -77 1206 -63 1199 -51 ct 1193 -39 1184 -28 1173 -20 ct 1161 -12 1147 -5 1130 -1 ct 
1113 4 1094 6 1072 6 ct 1053 6 1035 4 1020 2 ct 1004 -2 991 -6 979 -13 ct 967 -20 957 -28 949 -39 ct 
941 -50 935 -63 932 -79 ct 981 -89 l  986 -71 996 -57 1010 -49 ct 1025 -41 1046 -37 1072 -37 ct 
1084 -37 1095 -37 1105 -39 ct 1115 -41 1124 -44 1131 -48 ct 1139 -52 1144 -57 1148 -64 ct 
1152 -70 1154 -79 1154 -89 ct 1154 -99 1152 -107 1147 -114 ct 1142 -120 1136 -126 1127 -130 ct 
1119 -134 1109 -138 1096 -141 ct 1084 -144 1071 -148 1057 -152 ct 1043 -155 1030 -159 1017 -164 ct 
1003 -168 991 -174 981 -181 ct 970 -188 962 -197 955 -207 ct 948 -218 945 -231 945 -247 ct 
945 -278 956 -301 978 -317 ct 1000 -333 1031 -341 1073 -341 ct 1110 -341 1139 -335 1161 -322 ct 
1183 -309 1197 -288 1203 -259 ct 1152 -253 l  1151 -261 1147 -269 1142 -275 ct 
1137 -281 1131 -285 1124 -289 ct 1117 -293 1109 -295 1101 -297 ct 1092 -298 1083 -299 1073 -299 ct 
1048 -299 1029 -295 1017 -288 ct 1005 -280 999 -268 999 -253 ct 999 -244 1001 -236 1006 -230 ct 
1010 -224 1017 -219 1025 -215 ct 1032 -211 1042 -208 1053 -205 ct 1064 -202 1077 -199 1090 -195 ct 
1099 -193 1108 -191 1117 -188 ct 1127 -186 1136 -182 1145 -179 ct 1153 -175 1162 -171 1169 -166 ct 
1177 -161 1184 -155 1190 -149 ct 1195 -142 1200 -134 1203 -125 ct 1207 -116 1209 -105 1209 -93 ct 
p ef
1554 -168 m  1554 -110 1542 -66 1516 -37 ct 1490 -8 1452 6 1403 6 ct 1380 6 1359 2 1341 -5 ct 
1322 -12 1307 -22 1294 -37 ct 1281 -51 1271 -69 1265 -91 ct 1258 -113 1255 -139 1255 -168 ct 
1255 -284 1305 -342 1405 -342 ct 1431 -342 1454 -339 1472 -331 ct 1491 -324 1507 -313 1519 -299 ct 
1531 -284 1540 -266 1546 -245 ct 1552 -223 1554 -197 1554 -168 ct p
1496 -168 m  1496 -195 1494 -216 1490 -233 ct 1486 -250 1480 -264 1472 -274 ct 
1464 -284 1455 -291 1444 -295 ct 1433 -299 1420 -301 1406 -301 ct 1392 -301 1379 -299 1367 -295 ct 
1356 -290 1346 -283 1338 -273 ct 1330 -263 1324 -249 1320 -232 ct 1315 -215 1313 -194 1313 -168 ct 
1313 -142 1316 -121 1320 -104 ct 1325 -87 1331 -73 1339 -63 ct 1347 -53 1356 -46 1367 -41 ct 
1378 -37 1390 -35 1403 -35 ct 1417 -35 1430 -37 1441 -41 ct 1453 -45 1463 -52 1471 -63 ct 
1479 -73 1485 -86 1489 -104 ct 1494 -121 1496 -142 1496 -168 ct p ef
1769 0 m  1703 0 l  1581 -336 l  1641 -336 l  1715 -117 l  1716 -113 1718 -107 1720 -101 ct 
1722 -94 1724 -87 1726 -80 ct 1728 -73 1730 -67 1731 -60 ct 1733 -54 1735 -48 1736 -44 ct 
1737 -48 1739 -54 1741 -60 ct 1743 -67 1745 -73 1747 -80 ct 1749 -87 1751 -94 1753 -100 ct 
1755 -107 1757 -112 1759 -117 ct 1835 -336 l  1894 -336 l  1769 0 l  p ef
2160 -156 m  2160 -139 2161 -122 2165 -108 ct 2169 -93 2174 -80 2182 -70 ct 
2189 -59 2199 -51 2211 -45 ct 2223 -39 2237 -36 2253 -36 ct 2277 -36 2297 -41 2311 -50 ct 
2326 -60 2336 -72 2341 -87 ct 2390 -73 l  2386 -64 2382 -55 2375 -45 ct 2369 -36 2361 -27 2350 -20 ct 
2339 -12 2326 -6 2310 -1 ct 2295 4 2276 6 2253 6 ct 2204 6 2166 -9 2140 -38 ct 
2114 -68 2101 -112 2101 -170 ct 2101 -202 2105 -228 2113 -250 ct 2121 -272 2131 -290 2145 -303 ct 
2159 -317 2175 -327 2193 -333 ct 2211 -339 2230 -342 2251 -342 ct 2279 -342 2303 -338 2322 -329 ct 
2341 -320 2356 -307 2367 -291 ct 2379 -275 2387 -256 2392 -234 ct 2397 -212 2399 -189 2399 -164 ct 
2399 -156 l  2160 -156 l  p
2341 -199 m  2338 -234 2329 -260 2314 -277 ct 2299 -293 2278 -301 2250 -301 ct 
2241 -301 2231 -300 2221 -296 ct 2211 -293 2201 -288 2192 -280 ct 2184 -273 2176 -262 2170 -249 ct 
2164 -236 2161 -219 2160 -199 ct 2341 -199 l  p ef
2576 6 m  2533 6 2502 -8 2482 -37 ct 2463 -66 2453 -109 2453 -166 ct 2453 -225 2463 -269 2483 -298 ct 
2504 -327 2535 -342 2576 -342 ct 2590 -342 2602 -341 2613 -338 ct 2623 -336 2633 -332 2641 -327 ct 
2650 -322 2657 -316 2663 -309 ct 2670 -302 2675 -293 2681 -284 ct 2681 -284 l 
2681 -289 2681 -295 2682 -301 ct 2682 -307 2682 -313 2683 -319 ct 2683 -324 2683 -329 2684 -333 ct 
2684 -337 2684 -339 2685 -340 ct 2739 -340 l  2738 -337 2738 -327 2737 -312 ct 
2737 -298 2736 -276 2736 -248 ct 2736 132 l  2681 132 l  2681 -4 l  2681 -10 2681 -15 2681 -21 ct 
2681 -27 2681 -32 2681 -38 ct 2681 -43 2682 -49 2682 -55 ct 2681 -55 l  2676 -45 2670 -36 2663 -28 ct 
2657 -20 2649 -14 2641 -9 ct 2632 -4 2623 0 2612 3 ct 2602 5 2590 6 2576 6 ct p
2681 -172 m  2681 -196 2678 -217 2674 -233 ct 2670 -250 2664 -263 2656 -273 ct 
2648 -283 2639 -290 2628 -294 ct 2617 -299 2605 -301 2591 -301 ct 2577 -301 2565 -298 2554 -293 ct 
2544 -288 2536 -279 2530 -269 ct 2523 -258 2519 -244 2516 -227 ct 2513 -211 2511 -191 2511 -168 ct 
2511 -146 2513 -126 2515 -110 ct 2518 -93 2523 -80 2529 -69 ct 2535 -58 2544 -50 2554 -45 ct 
2564 -40 2576 -37 2590 -37 ct 2603 -37 2614 -39 2625 -43 ct 2636 -47 2646 -53 2654 -64 ct 
2662 -74 2669 -87 2673 -105 ct 2678 -122 2681 -145 2681 -172 ct p ef
2874 -336 m  2874 -123 l  2874 -107 2876 -93 2878 -82 ct 2880 -71 2884 -62 2890 -56 ct 
2895 -49 2902 -44 2911 -41 ct 2920 -39 2930 -37 2944 -37 ct 2957 -37 2969 -39 2979 -44 ct 
2990 -49 2999 -55 3007 -64 ct 3014 -73 3020 -84 3024 -97 ct 3028 -110 3030 -125 3030 -141 ct 
3030 -336 l  3086 -336 l  3086 -72 l  3086 -65 3086 -57 3086 -50 ct 3086 -42 3087 -35 3087 -28 ct 
3087 -21 3087 -15 3087 -10 ct 3088 -5 3088 -2 3088 0 ct 3035 0 l  3035 -1 3035 -4 3035 -9 ct 
3034 -13 3034 -18 3034 -24 ct 3034 -30 3033 -36 3033 -42 ct 3033 -48 3033 -53 3033 -58 ct 
3032 -58 l  3027 -48 3021 -39 3014 -31 ct 3008 -23 3000 -17 2992 -11 ct 2983 -6 2974 -2 2963 2 ct 
2952 4 2939 6 2925 6 ct 2906 6 2890 4 2877 -1 ct 2863 -5 2852 -12 2843 -22 ct 2835 -31 2828 -44 2824 -59 ct 
2820 -73 2818 -91 2818 -112 ct 2818 -336 l  2874 -336 l  p ef
3261 6 m  3228 6 3202 -3 3185 -21 ct 3168 -39 3160 -63 3160 -94 ct 3160 -117 3164 -135 3173 -149 ct 
3181 -163 3192 -174 3205 -183 ct 3219 -191 3234 -196 3252 -199 ct 3269 -203 3287 -204 3305 -204 ct 
3380 -204 l  3380 -223 l  3380 -237 3379 -248 3376 -258 ct 3373 -268 3368 -276 3362 -282 ct 
3356 -288 3349 -292 3340 -295 ct 3331 -298 3320 -299 3308 -299 ct 3297 -299 3288 -299 3279 -297 ct 
3270 -296 3263 -293 3256 -289 ct 3250 -285 3245 -279 3241 -272 ct 3237 -265 3234 -257 3233 -246 ct 
3175 -251 l  3177 -265 3181 -277 3187 -288 ct 3192 -299 3201 -309 3211 -317 ct 
3222 -325 3235 -331 3251 -335 ct 3267 -340 3287 -342 3309 -342 ct 3352 -342 3383 -332 3405 -313 ct 
3426 -294 3437 -266 3437 -229 ct 3437 -85 l  3437 -68 3439 -55 3443 -47 ct 3447 -39 3456 -35 3468 -35 ct 
3471 -35 3474 -35 3477 -35 ct 3480 -36 3483 -36 3486 -37 ct 3486 -2 l  3479 0 3472 1 3465 2 ct 
3458 3 3451 3 3443 3 ct 3433 3 3423 2 3416 -1 ct 3408 -4 3402 -8 3397 -14 ct 3393 -20 3389 -27 3387 -35 ct 
3384 -43 3383 -53 3382 -64 ct 3380 -64 l  3374 -54 3368 -44 3360 -35 ct 3353 -27 3345 -19 3335 -13 ct 
3326 -7 3315 -2 3303 1 ct 3291 4 3277 6 3261 6 ct p
3274 -36 m  3292 -36 3307 -39 3321 -46 ct 3334 -52 3345 -60 3354 -70 ct 3363 -80 3369 -91 3374 -103 ct 
3378 -115 3380 -127 3380 -138 ct 3380 -165 l  3319 -165 l  3305 -165 3292 -164 3280 -162 ct 
3268 -161 3257 -157 3248 -152 ct 3238 -147 3231 -139 3226 -130 ct 3220 -121 3217 -108 3217 -93 ct 
3217 -75 3222 -61 3232 -51 ct 3242 -41 3256 -36 3274 -36 ct p ef
3656 -2 m  3647 0 3639 2 3630 3 ct 3621 4 3611 5 3599 5 ct 3555 5 3532 -20 3532 -71 ct 
3532 -295 l  3494 -295 l  3494 -336 l  3535 -336 l  3551 -411 l  3588 -411 l 
3588 -336 l  3650 -336 l  3650 -295 l  3588 -295 l  3588 -83 l  3588 -67 3591 -56 3596 -49 ct 
3601 -43 3611 -39 3624 -39 ct 3629 -39 3634 -40 3639 -41 ct 3644 -41 3650 -42 3656 -44 ct 
3656 -2 l  p ef
3704 -407 m  3704 -460 l  3760 -460 l  3760 -407 l  3704 -407 l  p
3704 1 m  3704 -335 l  3760 -335 l  3760 1 l  3704 1 l  p ef
4128 -168 m  4128 -110 4116 -66 4090 -37 ct 4064 -8 4026 6 3977 6 ct 3954 6 3933 2 3915 -5 ct 
3896 -12 3881 -22 3868 -37 ct 3855 -51 3845 -69 3839 -91 ct 3832 -113 3829 -139 3829 -168 ct 
3829 -284 3879 -342 3979 -342 ct 4005 -342 4028 -339 4046 -331 ct 4065 -324 4081 -313 4093 -299 ct 
4105 -284 4114 -266 4120 -245 ct 4126 -223 4128 -197 4128 -168 ct p
4070 -168 m  4070 -195 4068 -216 4064 -233 ct 4060 -250 4054 -264 4046 -274 ct 
4038 -284 4029 -291 4018 -295 ct 4007 -299 3994 -301 3980 -301 ct 3966 -301 3953 -299 3941 -295 ct 
3930 -290 3920 -283 3912 -273 ct 3904 -263 3898 -249 3894 -232 ct 3889 -215 3887 -194 3887 -168 ct 
3887 -142 3890 -121 3894 -104 ct 3899 -87 3905 -73 3913 -63 ct 3921 -53 3930 -46 3941 -41 ct 
3952 -37 3964 -35 3977 -35 ct 3991 -35 4004 -37 4015 -41 ct 4027 -45 4037 -52 4045 -63 ct 
4053 -73 4059 -86 4063 -104 ct 4068 -121 4070 -142 4070 -168 ct p ef
4409 0 m  4409 -213 l  4409 -229 4408 -243 4405 -254 ct 4403 -265 4399 -274 4394 -280 ct 
4388 -287 4381 -292 4372 -295 ct 4364 -297 4353 -299 4340 -299 ct 4326 -299 4314 -297 4304 -292 ct 
4293 -287 4284 -281 4277 -272 ct 4269 -263 4263 -252 4259 -239 ct 4255 -226 4253 -211 4253 -195 ct 
4253 0 l  4197 0 l  4197 -264 l  4197 -271 4197 -279 4197 -286 ct 4197 -294 4197 -301 4196 -308 ct 
4196 -315 4196 -321 4196 -326 ct 4196 -331 4195 -334 4195 -336 ct 4248 -336 l 
4248 -335 4248 -332 4249 -327 ct 4249 -323 4249 -318 4249 -312 ct 4250 -306 4250 -300 4250 -294 ct 
4250 -288 4250 -283 4250 -278 ct 4251 -278 l  4257 -288 4263 -297 4269 -305 ct 
4275 -313 4283 -319 4291 -325 ct 4300 -330 4309 -335 4320 -338 ct 4331 -341 4344 -342 4359 -342 ct 
4377 -342 4393 -340 4407 -335 ct 4420 -331 4431 -324 4440 -314 ct 4448 -305 4455 -292 4459 -277 ct 
4463 -262 4465 -244 4465 -224 ct 4465 0 l  4409 0 l  p ef
pom
gr
gs
pum
16749 3980 t
112 -295 m  112 0 l  56 0 l  56 -295 l  9 -295 l  9 -336 l  56 -336 l 
56 -374 l  56 -386 57 -397 60 -408 ct 62 -418 66 -427 72 -435 ct 78 -443 87 -449 97 -453 ct 
108 -458 121 -460 138 -460 ct 145 -460 151 -460 159 -459 ct 166 -458 172 -458 177 -456 ct 
177 -414 l  174 -414 170 -415 165 -415 ct 160 -416 156 -416 153 -416 ct 144 -416 138 -415 132 -413 ct 
127 -411 123 -407 120 -403 ct 117 -399 115 -394 114 -387 ct 113 -381 112 -374 112 -366 ct 
112 -336 l  177 -336 l  177 -295 l  112 -295 l  p ef
504 -168 m  504 -110 492 -66 466 -37 ct 440 -8 402 6 353 6 ct 330 6 309 2 291 -5 ct 
272 -12 257 -22 244 -37 ct 231 -51 221 -69 215 -91 ct 208 -113 205 -139 205 -168 ct 
205 -284 255 -342 355 -342 ct 381 -342 404 -339 422 -331 ct 441 -324 457 -313 469 -299 ct 
481 -284 490 -266 496 -245 ct 502 -223 504 -197 504 -168 ct p
446 -168 m  446 -195 444 -216 440 -233 ct 436 -250 430 -264 422 -274 ct 414 -284 405 -291 394 -295 ct 
383 -299 370 -301 356 -301 ct 342 -301 329 -299 317 -295 ct 306 -290 296 -283 288 -273 ct 
280 -263 274 -249 270 -232 ct 265 -215 263 -194 263 -168 ct 263 -142 266 -121 270 -104 ct 
275 -87 281 -73 289 -63 ct 297 -53 306 -46 317 -41 ct 328 -37 340 -35 353 -35 ct 
367 -35 380 -37 391 -41 ct 403 -45 413 -52 421 -63 ct 429 -73 435 -86 439 -104 ct 
444 -121 446 -142 446 -168 ct p ef
573 0 m  573 -258 l  573 -265 573 -272 573 -279 ct 573 -287 573 -294 572 -300 ct 
572 -307 572 -314 572 -320 ct 572 -326 571 -331 571 -336 ct 624 -336 l  624 -331 624 -326 625 -320 ct 
625 -313 625 -307 626 -301 ct 626 -294 626 -288 626 -282 ct 626 -276 626 -271 626 -267 ct 
628 -267 l  632 -280 636 -291 640 -301 ct 645 -310 650 -318 656 -324 ct 662 -330 669 -335 677 -338 ct 
685 -341 696 -342 707 -342 ct 712 -342 716 -342 720 -341 ct 724 -340 728 -340 730 -339 ct 
730 -288 l  726 -289 722 -290 717 -290 ct 712 -291 706 -291 700 -291 ct 687 -291 676 -288 667 -282 ct 
658 -276 651 -268 645 -258 ct 640 -248 636 -236 633 -221 ct 630 -207 629 -192 629 -175 ct 
629 0 l  573 0 l  p ef
1031 -295 m  1031 0 l  975 0 l  975 -295 l  928 -295 l  928 -336 l  975 -336 l 
975 -374 l  975 -386 976 -397 979 -408 ct 981 -418 985 -427 991 -435 ct 997 -443 1006 -449 1016 -453 ct 
1027 -458 1040 -460 1057 -460 ct 1064 -460 1070 -460 1078 -459 ct 1085 -458 1091 -458 1096 -456 ct 
1096 -414 l  1093 -414 1089 -415 1084 -415 ct 1079 -416 1075 -416 1072 -416 ct 
1063 -416 1057 -415 1051 -413 ct 1046 -411 1042 -407 1039 -403 ct 1036 -399 1034 -394 1033 -387 ct 
1032 -381 1031 -374 1031 -366 ct 1031 -336 l  1096 -336 l  1096 -295 l  1031 -295 l 
p ef
pom
gr
gs
pum
17845 4246 t
98 76 m  87 76 77 75 69 73 ct 60 70 53 67 47 63 ct 41 59 36 53 32 48 ct 28 42 25 35 23 28 ct 
56 23 l  58 32 63 39 70 44 ct 78 49 87 51 99 51 ct 106 51 113 50 119 48 ct 125 46 130 43 134 39 ct 
138 34 142 28 144 21 ct 146 14 147 5 147 -5 ct 147 -37 l  147 -37 l  145 -32 142 -27 138 -22 ct 
135 -18 130 -14 125 -10 ct 120 -7 114 -4 108 -2 ct 101 0 93 1 85 1 ct 72 1 62 -1 53 -5 ct 
44 -9 37 -16 31 -24 ct 26 -32 22 -42 19 -55 ct 17 -67 15 -81 15 -97 ct 15 -113 17 -127 19 -139 ct 
22 -152 26 -162 32 -171 ct 38 -180 45 -186 54 -191 ct 64 -196 75 -198 88 -198 ct 
102 -198 114 -195 124 -189 ct 134 -182 142 -173 147 -162 ct 148 -162 l  148 -165 148 -168 148 -172 ct 
148 -175 148 -179 148 -182 ct 149 -186 149 -188 149 -191 ct 149 -193 150 -195 150 -195 ct 
180 -195 l  180 -194 180 -192 180 -189 ct 180 -187 180 -184 180 -180 ct 180 -177 180 -173 179 -168 ct 
179 -164 179 -159 179 -155 ct 179 -6 l  179 21 173 42 159 55 ct 146 69 126 76 98 76 ct 
p
147 -98 m  147 -111 146 -123 143 -132 ct 140 -142 136 -150 131 -156 ct 127 -162 121 -167 115 -170 ct 
109 -172 103 -174 96 -174 ct 88 -174 81 -172 75 -170 ct 69 -167 64 -162 60 -156 ct 
56 -150 53 -142 52 -132 ct 50 -123 49 -111 49 -98 ct 49 -84 50 -72 52 -62 ct 53 -53 56 -45 60 -39 ct 
64 -33 69 -29 75 -27 ct 80 -24 87 -23 96 -23 ct 102 -23 108 -24 114 -27 ct 121 -30 126 -34 131 -40 ct 
136 -46 140 -54 143 -63 ct 146 -73 147 -84 147 -98 ct p ef
315 0 m  311 11 306 22 301 31 ct 297 41 291 49 285 55 ct 280 62 273 67 266 71 ct 
259 74 251 76 241 76 ct 237 76 233 76 230 76 ct 226 76 223 75 219 74 ct 219 50 l 
221 51 224 51 227 51 ct 230 51 232 51 234 51 ct 244 51 252 47 260 40 ct 269 33 276 22 282 7 ct 
285 -1 l  208 -195 l  242 -195 l  283 -87 l  284 -84 286 -79 288 -74 ct 290 -69 291 -63 293 -58 ct 
295 -53 297 -48 298 -43 ct 300 -39 300 -36 301 -35 ct 301 -37 302 -39 303 -43 ct 
305 -47 306 -51 308 -56 ct 310 -61 311 -66 313 -71 ct 315 -76 317 -80 318 -83 ct 
356 -195 l  390 -195 l  315 0 l  p ef
pom
gr
gr
8500 3500 m  7825 3725 l  7825 3275 l  8500 3500 l  p ef
7000 3450 m  7960 3450 l  7960 3550 l  7000 3550 l  7000 3450 l  p ef
13500 3500 m  14175 3275 l  14175 3725 l  13500 3500 l  p ef
15000 3550 m  14040 3550 l  14040 3450 l  15000 3450 l  15000 3550 l  p ef
gr
gs
0 0 m 19999 0 l 19999 4999 l 0 4999 l 0 0 l eoclip newpath
gr
gr
0 5000 t 
pom
count op_count sub {pop} repeat countdictstack dict_count sub {end} repeat b4_inc_state restore
%%PageTrailer
%%Trailer
%%EOF
