%!PS-Adobe-3.0 EPSF-3.0 
%%BoundingBox: 0 0 468 269
%%Pages: 0
%%Creator: Sun Microsystems, Inc.
%%Title: none
%%CreationDate: none
%%LanguageLevel: 2
%%EndComments
%%BeginProlog
%%BeginResource: procset SDRes-Prolog 1.0 0
/b4_inc_state save def
/dict_count countdictstack def
/op_count count 1 sub def
userdict begin
0 setgray 0 setlinecap 1 setlinewidth 0 setlinejoin 10 setmiterlimit[] 0 setdash newpath
/languagelevel where {pop languagelevel 1 ne {false setstrokeadjust false setoverprint} if} if
/bdef {bind def} bind def
/c {setrgbcolor} bdef
/l {neg lineto} bdef
/rl {neg rlineto} bdef
/lc {setlinecap} bdef
/lj {setlinejoin} bdef
/lw {setlinewidth} bdef
/ml {setmiterlimit} bdef
/ld {setdash} bdef
/m {neg moveto} bdef
/ct {6 2 roll neg 6 2 roll neg 6 2 roll neg curveto} bdef
/r {rotate} bdef
/t {neg translate} bdef
/s {scale} bdef
/sw {show} bdef
/gs {gsave} bdef
/gr {grestore} bdef
/f {findfont dup length dict begin
{1 index /FID ne {def} {pop pop} ifelse} forall /Encoding ISOLatin1Encoding def
currentdict end /NFont exch definefont pop /NFont findfont} bdef
/p {closepath} bdef
/sf {scalefont setfont} bdef
/ef {eofill}bdef
/pc {closepath stroke}bdef
/ps {stroke}bdef
/pum {matrix currentmatrix}bdef
/pom {setmatrix}bdef
/bs {/aString exch def /nXOfs exch def /nWidth exch def currentpoint nXOfs 0 rmoveto pum nWidth aString stringwidth pop div 1 scale aString show pom moveto} bdef
%%EndResource
%%EndProlog
%%BeginSetup
%%EndSetup
%%Page: 1 1
%%BeginPageSetup
%%EndPageSetup
pum
0.02836 0.02831 s 
0 -9500 t
/tm matrix currentmatrix def
gs
tm setmatrix
-1000 -1000 t 
1 1 s 
1000 1000 m 17499 1000 l 17499 10499 l 1000 10499 l 1000 1000 l eoclip newpath
gs
0 0 m 16499 0 l 16499 9499 l 0 9499 l 0 0 l eoclip newpath
1000 1000 m 17500 1000 l 17500 10500 l 1000 10500 l 1000 1000 l eoclip newpath
0 lw 1 lj 0.003 0.003 0.003 c 2313 2211 m  2008 2211 1703 2516 1703 2821 ct 1703 5263 l 
1703 5568 2008 5874 2313 5874 ct 7655 5874 l  7960 5874 8265 5568 8265 5263 ct 
8265 2821 l  8265 2516 7960 2211 7655 2211 ct 2313 2211 l  pc
10347 5372 m  10004 5372 9661 5715 9661 6058 ct 9661 8805 l  9661 9148 10004 9492 10347 9492 ct 
15684 9492 l  16027 9492 16371 9148 16371 8805 ct 16371 6058 l  16371 5715 16027 5372 15684 5372 ct 
10347 5372 l  pc
10297 6232 m  9649 6237 l  9775 5847 l  10297 6232 l  p ef
7768 5374 m  9840 6047 l  9818 6113 l  7746 5440 l  7768 5374 l  p ef
gs
gs
pum
2334 1987 t
424 0 m  424 -292 l  424 -302 424 -313 424 -324 ct 424 -335 424 -345 425 -354 ct 
425 -365 426 -375 426 -385 ct 423 -374 420 -364 417 -353 ct 415 -345 412 -335 409 -325 ct 
405 -315 402 -306 399 -298 ct 286 0 l  245 0 l  130 -298 l  129 -301 128 -305 126 -309 ct 
125 -313 124 -317 122 -322 ct 120 -327 119 -331 117 -336 ct 116 -341 114 -346 113 -351 ct 
109 -362 106 -373 103 -385 ct 103 -373 103 -362 104 -350 ct 104 -341 104 -330 104 -320 ct 
105 -309 105 -300 105 -292 ct 105 0 l  52 0 l  52 -437 l  130 -437 l  246 -134 l 
248 -130 249 -125 251 -118 ct 254 -112 255 -105 257 -98 ct 259 -91 261 -85 262 -79 ct 
264 -73 265 -68 266 -65 ct 266 -68 267 -73 269 -79 ct 271 -85 273 -92 275 -98 ct 
277 -105 279 -112 281 -118 ct 283 -125 285 -130 287 -134 ct 401 -437 l  477 -437 l 
477 0 l  424 0 l  p ef
pom
gr
gr
gs
gs
pum
8954 9016 t
335 0 m  102 -372 l  102 -362 103 -352 103 -342 ct 104 -334 104 -325 104 -315 ct 
105 -306 105 -298 105 -290 ct 105 0 l  52 0 l  52 -437 l  121 -437 l  357 -62 l 
357 -73 356 -83 355 -93 ct 355 -101 355 -111 354 -121 ct 354 -131 353 -141 353 -151 ct 
353 -437 l  407 -437 l  407 0 l  335 0 l  p ef
pom
gr
gr
2274 5783 m  3731 2348 7999 2591 7999 2591 ct ps
2792 4831 m  2819 4856 l  2842 4888 l  2860 4924 l  2867 4964 l  2867 5003 l 
2860 5039 l  2848 5074 l  2828 5103 l  2803 5131 l  2771 5155 l  2735 5171 l 
2695 5178 l  2656 5178 l  2619 5172 l  2585 5159 l  2556 5140 l  2528 5113 l 
2506 5082 l  2489 5046 l  2480 5007 l  2480 4968 l  2488 4931 l  2500 4897 l 
2520 4867 l  2545 4840 l  2577 4817 l  2613 4799 l  2653 4792 l  2691 4791 l 
2728 4799 l  2762 4811 l  2792 4831 l  p ef
3835 2695 m  3744 3305 l  3397 3129 l  3835 2695 l  p ef
2705 4869 m  3601 3101 l  3646 3124 l  2749 4892 l  2705 4869 l  p ef
gs
9083 8139 m 11082 8139 l 11082 9138 l 9083 9138 l 9083 8139 l eoclip newpath
gs
tm setmatrix
8082.75 7132.66666 t 
9.75 2.16666 s 
gs
gs
0 0 m 200 0 l 200 469 l 0 469 l 0 0 l eoclip newpath
gr
gr
gr
gr
gs
3083 2145 m 3867 2145 l 3867 2889 l 3083 2889 l 3083 2145 l eoclip newpath
gs
tm setmatrix
2078.72222 1155.16666 t 
1.72222 1.61111 s 
gs
gs
0 0 m 472 0 l 472 469 l 0 469 l 0 0 l eoclip newpath
gs
pum
181 415 t
42 -267 m  38 -271 36 -275 36 -281 ct 36 -287 38 -292 42 -296 ct 45 -300 50 -302 56 -302 ct 
61 -302 66 -300 70 -296 ct 75 -292 77 -287 77 -281 ct 77 -275 75 -271 71 -267 ct 
67 -263 62 -261 56 -261 ct 50 -261 45 -263 42 -267 ct p ef
pom
gr
gs
pum
104 389 t
90 -10 m  88 -37 84 -62 79 -86 ct 71 -123 62 -144 52 -152 ct 43 -159 28 -163 8 -162 ct 
36 -187 l  70 -187 94 -169 107 -134 ct 115 -115 120 -83 124 -38 ct 175 -95 201 -138 201 -166 ct 
201 -174 199 -181 195 -187 ct 238 -187 l  239 -184 239 -181 239 -178 ct 239 -163 223 -137 193 -98 ct 
127 -22 l  127 -14 128 -6 128 2 ct 128 28 122 50 109 68 ct 95 90 76 101 52 101 ct 
43 101 35 98 27 92 ct 19 86 16 79 16 70 ct 16 46 40 20 90 -10 ct p
93 3 m  52 27 32 48 32 64 ct 32 76 38 82 50 82 ct 64 82 75 74 83 59 ct 90 47 93 33 93 18 ct 
93 12 93 7 93 3 ct p ef
pom
gr
gr
gr
gr
gr
gs
4934 2884 m 5786 2884 l 5786 3665 l 4934 3665 l 4934 2884 l eoclip newpath
gs
tm setmatrix
3925.16666 1873.33333 t 
1.83333 1.66666 s 
gs
gs
0 0 m 472 0 l 472 469 l 0 469 l 0 0 l eoclip newpath
gs
pum
103 385 t
90 -10 m  88 -37 84 -62 79 -86 ct 71 -123 62 -144 52 -152 ct 43 -159 28 -163 8 -162 ct 
36 -187 l  70 -187 94 -169 107 -134 ct 115 -115 120 -83 124 -38 ct 175 -95 201 -138 201 -166 ct 
201 -174 199 -181 195 -187 ct 238 -187 l  239 -184 239 -181 239 -178 ct 239 -163 223 -137 193 -98 ct 
127 -22 l  127 -14 128 -6 128 2 ct 128 28 122 50 109 68 ct 95 90 76 101 52 101 ct 
43 101 35 98 27 92 ct 19 86 16 79 16 70 ct 16 46 40 20 90 -10 ct p
93 3 m  52 27 32 48 32 64 ct 32 76 38 82 50 82 ct 64 82 75 74 83 59 ct 90 47 93 33 93 18 ct 
93 12 93 7 93 3 ct p ef
pom
gr
gr
gr
gr
gr
10127 6889 m  14043 5259 15927 8836 15927 8836 ct ps
0.003 0.003 1.000 c 11224 6574 m  11224 6614 l  11217 6657 l  11200 6698 l 
11174 6735 l  11142 6764 l  11108 6786 l  11071 6802 l  11033 6808 l  10991 6809 l 
10948 6801 l  10908 6784 l  10872 6758 l  10843 6726 l  10819 6693 l  10805 6655 l 
10797 6617 l  10798 6575 l  10806 6534 l  10822 6492 l  10847 6456 l  10879 6427 l 
10914 6405 l  10950 6389 l  10990 6383 l  11030 6382 l  11073 6390 l  11114 6406 l 
11151 6432 l  11180 6463 l  11202 6498 l  11217 6534 l  11224 6574 l  p ef
13324 5915 m  12766 6303 l  12645 5891 l  13324 5915 l  p ef
11125 6525 m  12819 6027 l  12839 6094 l  11145 6592 l  11125 6525 l  p ef
gs
13153 5428 m 14572 5428 l 14572 6147 l 13153 6147 l 13153 5428 l eoclip newpath
gs
tm setmatrix
12160.94594 4438.66666 t 
1.48648 1.33333 s 
gs
gs
0 0 m 957 0 l 957 529 l 0 529 l 0 0 l eoclip newpath
gs
pum
103 385 t
0.003 0.003 0.003 c 102 79 m  118 0 l  56 -7 25 -33 25 -79 ct 25 -110 39 -134 67 -152 ct 
92 -168 120 -176 153 -176 ct 172 -268 l  206 -268 l  187 -176 l  213 -173 235 -166 252 -154 ct 
272 -140 282 -121 282 -96 ct 282 -65 268 -41 239 -23 ct 214 -7 185 0 152 0 ct 137 79 l 
102 79 l  p
121 -10 m  151 -164 l  125 -164 104 -157 86 -141 ct 68 -125 59 -104 59 -79 ct 
59 -42 79 -19 121 -10 ct p
185 -165 m  154 -11 l  179 -11 201 -19 219 -35 ct 238 -51 247 -71 247 -96 ct 
247 -132 227 -155 185 -165 ct p ef
pom
gr
gs
pum
411 487 t
0.003 0.003 0.003 c 12 -132 m  20 -149 l  59 -125 l  54 -166 l  73 -166 l 
67 -125 l  106 -149 l  114 -131 l  73 -119 l  114 -107 l  106 -90 l  67 -113 l 
73 -73 l  54 -73 l  59 -113 l  20 -89 l  12 -107 l  53 -119 l  12 -132 l 
p ef
pom
gr
gs
pum
667 411 t
0.003 0.003 0.003 c 42 -267 m  38 -271 36 -275 36 -281 ct 36 -287 38 -292 42 -296 ct 
45 -300 50 -302 56 -302 ct 61 -302 66 -300 70 -296 ct 75 -292 77 -287 77 -281 ct 
77 -275 75 -271 71 -267 ct 67 -263 62 -261 56 -261 ct 50 -261 45 -263 42 -267 ct 
p ef
pom
gr
gs
pum
590 385 t
0.003 0.003 0.003 c 90 -10 m  88 -37 84 -62 79 -86 ct 71 -123 62 -144 52 -152 ct 
43 -159 28 -163 8 -162 ct 36 -187 l  70 -187 94 -169 107 -134 ct 115 -115 120 -83 124 -38 ct 
175 -95 201 -138 201 -166 ct 201 -174 199 -181 195 -187 ct 238 -187 l  239 -184 239 -181 239 -178 ct 
239 -163 223 -137 193 -98 ct 127 -22 l  127 -14 128 -6 128 2 ct 128 28 122 50 109 68 ct 
95 90 76 101 52 101 ct 43 101 35 98 27 92 ct 19 86 16 79 16 70 ct 16 46 40 20 90 -10 ct 
p
93 3 m  52 27 32 48 32 64 ct 32 76 38 82 50 82 ct 64 82 75 74 83 59 ct 90 47 93 33 93 18 ct 
93 12 93 7 93 3 ct p ef
pom
gr
gr
gr
gr
gr
gs
13828 7814 m 15281 7814 l 15281 8440 l 13828 8440 l 13828 7814 l eoclip newpath
gs
tm setmatrix
12827.85 6824 t 
1.425 1.33333 s 
gs
gs
0 0 m 1028 0 l 1028 469 l 0 469 l 0 0 l eoclip newpath
gs
pum
103 385 t
0.003 0.003 0.003 c 102 79 m  118 0 l  56 -7 25 -33 25 -79 ct 25 -110 39 -134 67 -152 ct 
92 -168 120 -176 153 -176 ct 172 -268 l  206 -268 l  187 -176 l  213 -173 235 -166 252 -154 ct 
272 -140 282 -121 282 -96 ct 282 -65 268 -41 239 -23 ct 214 -7 185 0 152 0 ct 137 79 l 
102 79 l  p
121 -10 m  151 -164 l  125 -164 104 -157 86 -141 ct 68 -125 59 -104 59 -79 ct 
59 -42 79 -19 121 -10 ct p
185 -165 m  154 -11 l  179 -11 201 -19 219 -35 ct 238 -51 247 -71 247 -96 ct 
247 -132 227 -155 185 -165 ct p ef
pom
gr
gs
pum
436 385 t
0.003 0.003 0.003 c 132 -78 m  121 -67 106 -61 88 -61 ct 70 -61 55 -67 44 -78 ct 
33 -89 27 -104 27 -122 ct 27 -140 33 -155 44 -166 ct 55 -177 70 -183 88 -183 ct 
106 -183 121 -177 132 -166 ct 144 -155 149 -140 149 -122 ct 149 -104 144 -90 132 -78 ct 
p
88 -71 m  103 -71 115 -76 125 -85 ct 134 -95 139 -107 139 -122 ct 139 -137 134 -149 125 -159 ct 
115 -168 103 -173 88 -173 ct 73 -173 61 -168 51 -159 ct 42 -149 37 -137 37 -122 ct 
37 -107 42 -95 51 -85 ct 61 -76 73 -71 88 -71 ct p ef
pom
gr
gs
pum
667 385 t
0.003 0.003 0.003 c 90 -10 m  88 -37 84 -62 79 -86 ct 71 -123 62 -144 52 -152 ct 
43 -159 28 -163 8 -162 ct 36 -187 l  70 -187 94 -169 107 -134 ct 115 -115 120 -83 124 -38 ct 
175 -95 201 -138 201 -166 ct 201 -174 199 -181 195 -187 ct 238 -187 l  239 -184 239 -181 239 -178 ct 
239 -163 223 -137 193 -98 ct 127 -22 l  127 -14 128 -6 128 2 ct 128 28 122 50 109 68 ct 
95 90 76 101 52 101 ct 43 101 35 98 27 92 ct 19 86 16 79 16 70 ct 16 46 40 20 90 -10 ct 
p
93 3 m  52 27 32 48 32 64 ct 32 76 38 82 50 82 ct 64 82 75 74 83 59 ct 90 47 93 33 93 18 ct 
93 12 93 7 93 3 ct p ef
pom
gr
gr
gr
gr
gr
gs
2820 4802 m 3566 4802 l 3566 5577 l 2820 5577 l 2820 4802 l eoclip newpath
gs
tm setmatrix
1821.5625 3796.66666 t 
1.8125 1.66666 s 
gs
gs
0 0 m 416 0 l 416 469 l 0 469 l 0 0 l eoclip newpath
gs
pum
130 389 t
0.003 0.003 0.003 c 51 -49 m  47 -44 43 -41 40 -38 ct 38 -34 35 -32 34 -29 ct 32 -27 31 -25 30 -23 ct 
30 -21 29 -19 29 -17 ct 29 -15 30 -13 32 -12 ct 33 -11 35 -10 38 -9 ct 36 0 l  -2 0 l 
-3 -1 -3 -2 -4 -3 ct -5 -5 -5 -7 -5 -9 ct -5 -11 -5 -13 -4 -15 ct -3 -17 -1 -20 1 -23 ct 
3 -26 6 -29 10 -33 ct 13 -37 18 -41 23 -46 ct 80 -98 l  44 -179 l  22 -185 l 
24 -194 l  75 -194 l  105 -120 l  130 -144 l  139 -153 145 -159 149 -164 ct 
152 -169 154 -173 154 -177 ct 154 -178 154 -179 153 -179 ct 152 -180 151 -181 150 -182 ct 
149 -182 148 -183 146 -183 ct 145 -184 143 -184 142 -185 ct 144 -194 l  180 -194 l 
182 -193 183 -192 183 -190 ct 184 -189 185 -187 185 -185 ct 185 -177 175 -164 156 -146 ct 
112 -104 l  152 -14 l  176 -9 l  174 0 l  121 0 l  87 -82 l  51 -49 l 
p ef
pom
gr
gr
gr
gr
gr
gs
8325 5752 m 9081 5752 l 9081 6517 l 8325 6517 l 8325 5752 l eoclip newpath
gs
tm setmatrix
7337.14285 4746 t 
1.42857 1.5 s 
gs
gs
0 0 m 531 0 l 531 503 l 0 503 l 0 0 l eoclip newpath
gs
pum
103 411 t
0.003 0.003 0.003 c 111 85 m  128 0 l  60 -7 27 -36 27 -86 ct 27 -119 42 -145 73 -165 ct 
99 -181 130 -190 166 -190 ct 186 -289 l  222 -289 l  203 -190 l  231 -188 254 -180 273 -167 ct 
294 -151 305 -131 305 -104 ct 305 -71 289 -44 258 -24 ct 232 -8 200 0 165 0 ct 
148 85 l  111 85 l  p
130 -11 m  163 -178 l  135 -178 112 -169 93 -153 ct 74 -135 64 -113 64 -86 ct 
64 -45 86 -20 130 -11 ct p
200 -179 m  167 -12 l  194 -12 217 -20 236 -38 ct 257 -55 268 -77 268 -104 ct 
268 -143 245 -168 200 -179 ct p ef
pom
gr
gr
gr
gr
gr
gs
10185 6749 m 11787 6749 l 11787 7395 l 10185 7395 l 10185 6749 l eoclip newpath
gs
tm setmatrix
9184.85714 5747.36842 t 
1.47619 1.31578 s 
gs
gs
0 0 m 1087 0 l 1087 482 l 0 482 l 0 0 l eoclip newpath
gs
pum
103 385 t
0.003 0.003 0.003 c 102 79 m  118 0 l  56 -7 25 -33 25 -79 ct 25 -110 39 -134 67 -152 ct 
92 -168 120 -176 153 -176 ct 172 -268 l  206 -268 l  187 -176 l  213 -173 235 -166 252 -154 ct 
272 -140 282 -121 282 -96 ct 282 -65 268 -41 239 -23 ct 214 -7 185 0 152 0 ct 137 79 l 
102 79 l  p
121 -10 m  151 -164 l  125 -164 104 -157 86 -141 ct 68 -125 59 -104 59 -79 ct 
59 -42 79 -19 121 -10 ct p
185 -165 m  154 -11 l  179 -11 201 -19 219 -35 ct 238 -51 247 -71 247 -96 ct 
247 -132 227 -155 185 -165 ct p ef
pom
gr
gs
pum
436 385 t
0.003 0.003 0.003 c 111 88 m  84 65 63 33 49 -8 ct 37 -44 30 -82 30 -122 ct 30 -161 37 -199 49 -236 ct 
64 -279 85 -311 111 -331 ct 111 -321 l  92 -303 77 -272 66 -228 ct 58 -193 54 -158 54 -122 ct 
54 -86 58 -51 66 -16 ct 77 28 92 60 111 77 ct 111 88 l  p ef
pom
gr
gs
pum
616 385 t
0.003 0.003 0.003 c 51 -49 m  47 -44 43 -41 40 -38 ct 38 -34 35 -32 34 -29 ct 32 -27 31 -25 30 -23 ct 
30 -21 29 -19 29 -17 ct 29 -15 30 -13 32 -12 ct 33 -11 35 -10 38 -9 ct 36 0 l  -2 0 l 
-3 -1 -3 -2 -4 -3 ct -5 -5 -5 -7 -5 -9 ct -5 -11 -5 -13 -4 -15 ct -3 -17 -1 -20 1 -23 ct 
3 -26 6 -29 10 -33 ct 13 -37 18 -41 23 -46 ct 80 -98 l  44 -179 l  22 -185 l 
24 -194 l  75 -194 l  105 -120 l  130 -144 l  139 -153 145 -159 149 -164 ct 
152 -169 154 -173 154 -177 ct 154 -178 154 -179 153 -179 ct 152 -180 151 -181 150 -182 ct 
149 -182 148 -183 146 -183 ct 145 -184 143 -184 142 -185 ct 144 -194 l  180 -194 l 
182 -193 183 -192 183 -190 ct 184 -189 185 -187 185 -185 ct 185 -177 175 -164 156 -146 ct 
112 -104 l  152 -14 l  176 -9 l  174 0 l  121 0 l  87 -82 l  51 -49 l 
p ef
pom
gr
gs
pum
847 385 t
0.003 0.003 0.003 c 21 77 m  40 60 54 31 64 -12 ct 73 -46 77 -80 77 -113 ct 77 -152 73 -189 66 -223 ct 
56 -269 41 -302 21 -321 ct 21 -331 l  47 -312 68 -280 82 -236 ct 95 -199 101 -161 101 -122 ct 
101 -82 95 -44 83 -8 ct 68 36 48 68 21 88 ct 21 77 l  p ef
pom
gr
gr
gr
gr
gr
0.003 0.003 0.003 c 13048 3650 m  13238 4220 l  12858 4220 l  13048 3650 l 
p ef
13023 5492 m  13023 4106 l  13073 4106 l  13073 5492 l  13023 5492 l  p ef
12483 2232 m  12310 2232 12138 2404 12138 2577 ct 12138 3961 l  12138 4134 12310 4307 12483 4307 ct 
16069 4307 l  16242 4307 16415 4134 16415 3961 ct 16415 2577 l  16415 2404 16242 2232 16069 2232 ct 
12483 2232 l  pc
gs
12451 1541 m 13133 1541 l 13133 2147 l 12451 2147 l 12451 1541 l eoclip newpath
gs
tm setmatrix
11442.6 538.66666 t 
1.35 1.33333 s 
gs
gs
0 0 m 514 0 l 514 469 l 0 469 l 0 0 l eoclip newpath
gs
pum
104 389 t
78 0 m  78 -290 l  191 -290 l  252 -290 282 -263 282 -211 ct 282 -165 258 -139 210 -132 ct 
228 -121 246 -101 264 -72 ct 269 -65 282 -40 303 0 ct 261 0 l  225 -65 l  205 -98 192 -116 186 -120 ct 
174 -126 163 -129 151 -129 ct 112 -129 l  112 0 l  78 0 l  p
112 -162 m  184 -162 l  226 -162 247 -178 247 -211 ct 247 -242 229 -258 193 -258 ct 
112 -258 l  112 -162 l  p
58 -290 m  58 0 l  21 0 l  21 -290 l  58 -290 l  p ef
pom
gr
gr
gr
gr
gr
gs
12938 4356 m 13641 4356 l 13641 5089 l 12938 5089 l 12938 4356 l eoclip newpath
gs
tm setmatrix
11930.14285 3360.77777 t 
1.28571 1.61111 s 
gs
gs
0 0 m 527 0 l 527 469 l 0 469 l 0 0 l eoclip newpath
gs
pum
104 389 t
105 70 m  118 1 l  61 -5 33 -30 33 -75 ct 33 -92 35 -111 39 -132 ct 39 -132 43 -150 52 -187 ct 
86 -187 l  72 -128 l  67 -105 65 -85 65 -67 ct 65 -34 83 -16 121 -11 ct 162 -221 l 
197 -221 l  155 -11 l  181 -14 202 -25 217 -46 ct 229 -62 238 -85 245 -114 ct 
259 -187 l  292 -187 l  281 -128 269 -87 256 -64 ct 235 -26 200 -4 152 1 ct 
139 70 l  105 70 l  p ef
pom
gr
gr
gr
gr
gr
7930 2777 m  8500 2588 l  8500 2968 l  7930 2777 l  p ef
12371 2807 m  8386 2803 l  8386 2753 l  12371 2757 l  12371 2807 l  p ef
0.003 0.003 1.000 c 12350 3438 m  11720 3648 l  11720 3228 l  12350 3438 l 
p ef
8011 3403 m  11846 3403 l  11846 3473 l  8011 3473 l  8011 3403 l  p ef
gs
9805 1922 m 10614 1922 l 10614 2682 l 9805 2682 l 9805 1922 l eoclip newpath
gs
tm setmatrix
8801.77777 923.33333 t 
1.77777 1.66666 s 
gs
gs
0 0 m 472 0 l 472 469 l 0 469 l 0 0 l eoclip newpath
gs
pum
104 389 t
0.003 0.003 0.003 c 90 -10 m  88 -37 84 -62 79 -86 ct 71 -123 62 -144 52 -152 ct 
43 -159 28 -163 8 -162 ct 36 -187 l  70 -187 94 -169 107 -134 ct 115 -115 120 -83 124 -38 ct 
175 -95 201 -138 201 -166 ct 201 -174 199 -181 195 -187 ct 238 -187 l  239 -184 239 -181 239 -178 ct 
239 -163 223 -137 193 -98 ct 127 -22 l  127 -14 128 -6 128 2 ct 128 28 122 50 109 68 ct 
95 90 76 101 52 101 ct 43 101 35 98 27 92 ct 19 86 16 79 16 70 ct 16 46 40 20 90 -10 ct 
p
93 3 m  52 27 32 48 32 64 ct 32 76 38 82 50 82 ct 64 82 75 74 83 59 ct 90 47 93 33 93 18 ct 
93 12 93 7 93 3 ct p ef
pom
gr
gr
gr
gr
gr
gs
8619 3426 m 11762 3426 l 11762 4156 l 8619 4156 l 8619 3426 l eoclip newpath
gs
tm setmatrix
7620.40909 2437.33333 t 
1.39772 1.33333 s 
gs
gs
0 0 m 2246 0 l 2246 528 l 0 528 l 0 0 l eoclip newpath
gs
pum
103 436 t
0.003 0.003 0.003 c 102 79 m  118 0 l  56 -7 25 -33 25 -79 ct 25 -110 39 -134 67 -152 ct 
92 -168 120 -176 153 -176 ct 172 -268 l  206 -268 l  187 -176 l  213 -173 235 -166 252 -154 ct 
272 -140 282 -121 282 -96 ct 282 -65 268 -41 239 -23 ct 214 -7 185 0 152 0 ct 137 79 l 
102 79 l  p
121 -10 m  151 -164 l  125 -164 104 -157 86 -141 ct 68 -125 59 -104 59 -79 ct 
59 -42 79 -19 121 -10 ct p
185 -165 m  154 -11 l  179 -11 201 -19 219 -35 ct 238 -51 247 -71 247 -96 ct 
247 -132 227 -155 185 -165 ct p ef
pom
gr
gs
pum
411 231 t
0.003 0.003 0.003 c 12 -132 m  20 -149 l  59 -125 l  54 -166 l  73 -166 l 
67 -125 l  106 -149 l  114 -131 l  73 -119 l  114 -107 l  106 -90 l  67 -113 l 
73 -73 l  54 -73 l  59 -113 l  20 -89 l  12 -107 l  53 -119 l  12 -132 l 
p ef
pom
gr
gs
pum
590 436 t
0.003 0.003 0.003 c 105 70 m  118 1 l  61 -5 33 -30 33 -75 ct 33 -92 35 -111 39 -132 ct 
39 -132 43 -150 52 -187 ct 86 -187 l  72 -128 l  67 -105 65 -85 65 -67 ct 65 -34 83 -16 121 -11 ct 
162 -221 l  197 -221 l  155 -11 l  181 -14 202 -25 217 -46 ct 229 -62 238 -85 245 -114 ct 
259 -187 l  292 -187 l  281 -128 269 -87 256 -64 ct 235 -26 200 -4 152 1 ct 
139 70 l  105 70 l  p ef
pom
gr
gs
pum
924 436 t
0.003 0.003 0.003 c 46 -74 m  46 -94 l  290 -94 l  290 -74 l  46 -74 l  p
46 -164 m  46 -184 l  290 -184 l  290 -164 l  46 -164 l  p ef
pom
gr
gs
pum
1257 436 t
0.003 0.003 0.003 c 105 70 m  118 1 l  61 -5 33 -30 33 -75 ct 33 -92 35 -111 39 -132 ct 
39 -132 43 -150 52 -187 ct 86 -187 l  72 -128 l  67 -105 65 -85 65 -67 ct 65 -34 83 -16 121 -11 ct 
162 -221 l  197 -221 l  155 -11 l  181 -14 202 -25 217 -46 ct 229 -62 238 -85 245 -114 ct 
259 -187 l  292 -187 l  281 -128 269 -87 256 -64 ct 235 -26 200 -4 152 1 ct 
139 70 l  105 70 l  p ef
pom
gr
gs
pum
1642 436 t
0.003 0.003 0.003 c 132 -78 m  121 -67 106 -61 88 -61 ct 70 -61 55 -67 44 -78 ct 
33 -89 27 -104 27 -122 ct 27 -140 33 -155 44 -166 ct 55 -177 70 -183 88 -183 ct 
106 -183 121 -177 132 -166 ct 144 -155 149 -140 149 -122 ct 149 -104 144 -90 132 -78 ct 
p
88 -71 m  103 -71 115 -76 125 -85 ct 134 -95 139 -107 139 -122 ct 139 -137 134 -149 125 -159 ct 
115 -168 103 -173 88 -173 ct 73 -173 61 -168 51 -159 ct 42 -149 37 -137 37 -122 ct 
37 -107 42 -95 51 -85 ct 61 -76 73 -71 88 -71 ct p ef
pom
gr
gs
pum
1847 436 t
0.003 0.003 0.003 c 102 79 m  118 0 l  56 -7 25 -33 25 -79 ct 25 -110 39 -134 67 -152 ct 
92 -168 120 -176 153 -176 ct 172 -268 l  206 -268 l  187 -176 l  213 -173 235 -166 252 -154 ct 
272 -140 282 -121 282 -96 ct 282 -65 268 -41 239 -23 ct 214 -7 185 0 152 0 ct 137 79 l 
102 79 l  p
121 -10 m  151 -164 l  125 -164 104 -157 86 -141 ct 68 -125 59 -104 59 -79 ct 
59 -42 79 -19 121 -10 ct p
185 -165 m  154 -11 l  179 -11 201 -19 219 -35 ct 238 -51 247 -71 247 -96 ct 
247 -132 227 -155 185 -165 ct p ef
pom
gr
gr
gr
gr
gr
gs
gs
pum
14649 5772 t
0.003 0.003 0.003 c 260 -204 m  260 -192 258 -180 254 -169 ct 249 -158 243 -148 235 -140 ct 
226 -132 216 -126 203 -121 ct 191 -116 176 -114 160 -114 ct 74 -114 l  74 -1 l 
35 -1 l  35 -292 l  157 -292 l  174 -292 189 -290 202 -286 ct 215 -281 226 -276 234 -268 ct 
243 -260 249 -251 253 -240 ct 258 -229 260 -217 260 -204 ct p
220 -204 m  220 -222 215 -236 203 -246 ct 192 -256 175 -260 152 -260 ct 74 -260 l 
74 -145 l  154 -145 l  177 -145 193 -150 204 -160 ct 215 -170 220 -185 220 -204 ct 
p ef
349 -224 m  349 -82 l  349 -71 350 -62 351 -55 ct 353 -47 355 -42 359 -37 ct 
363 -33 367 -29 373 -28 ct 379 -26 386 -25 395 -25 ct 404 -25 412 -26 419 -29 ct 
426 -33 432 -37 437 -43 ct 442 -49 446 -56 449 -65 ct 451 -73 453 -83 453 -94 ct 
453 -224 l  490 -224 l  490 -48 l  490 -43 490 -38 490 -33 ct 490 -28 490 -23 490 -18 ct 
490 -14 491 -10 491 -7 ct 491 -3 491 -1 491 0 ct 456 0 l  456 -1 456 -3 456 -6 ct 
456 -9 455 -12 455 -16 ct 455 -20 455 -24 455 -28 ct 454 -32 454 -36 454 -38 ct 
454 -38 l  450 -32 446 -26 442 -21 ct 438 -16 433 -11 427 -7 ct 422 -4 415 -1 408 1 ct 
400 3 392 4 382 4 ct 370 4 359 2 350 -1 ct 341 -4 334 -8 328 -15 ct 322 -21 318 -29 316 -39 ct 
313 -49 311 -61 311 -75 ct 311 -224 l  349 -224 l  p ef
712 -62 m  712 -51 710 -42 706 -34 ct 702 -26 696 -19 688 -13 ct 681 -8 671 -3 660 0 ct 
649 3 636 4 622 4 ct 609 4 597 3 587 1 ct 576 -1 567 -4 559 -9 ct 551 -13 545 -19 539 -26 ct 
534 -33 530 -42 528 -53 ct 561 -59 l  564 -47 570 -38 580 -33 ct 590 -27 604 -24 622 -24 ct 
630 -24 637 -25 644 -26 ct 650 -27 656 -29 661 -32 ct 666 -34 669 -38 672 -42 ct 
675 -47 676 -52 676 -59 ct 676 -66 674 -71 671 -76 ct 668 -80 664 -84 658 -87 ct 
652 -89 646 -92 638 -94 ct 630 -96 621 -99 611 -101 ct 602 -104 593 -106 584 -109 ct 
576 -112 568 -116 561 -120 ct 553 -125 548 -131 543 -138 ct 539 -145 537 -154 537 -165 ct 
537 -185 544 -200 558 -211 ct 573 -222 594 -227 622 -227 ct 647 -227 666 -223 681 -214 ct 
695 -205 704 -192 708 -172 ct 675 -168 l  674 -174 671 -179 668 -183 ct 665 -187 661 -190 656 -192 ct 
651 -195 646 -196 640 -197 ct 634 -198 628 -199 622 -199 ct 605 -199 593 -196 585 -191 ct 
577 -186 573 -179 573 -168 ct 573 -162 574 -157 577 -153 ct 580 -149 584 -146 590 -143 ct 
595 -141 601 -138 609 -136 ct 616 -134 624 -132 633 -130 ct 639 -129 645 -127 651 -125 ct 
658 -123 664 -121 670 -119 ct 675 -117 681 -114 686 -111 ct 691 -107 696 -103 700 -99 ct 
703 -94 707 -89 709 -83 ct 711 -77 712 -70 712 -62 ct p ef
797 -186 m  802 -193 806 -200 811 -205 ct 816 -210 821 -215 827 -218 ct 833 -222 839 -224 846 -226 ct 
853 -227 860 -228 869 -228 ct 883 -228 895 -226 904 -222 ct 913 -218 921 -213 926 -206 ct 
931 -199 935 -191 937 -181 ct 939 -171 940 -161 940 -149 ct 940 0 l  902 0 l 
902 -142 l  902 -151 902 -160 901 -167 ct 899 -174 897 -180 894 -185 ct 891 -190 886 -193 880 -196 ct 
874 -198 866 -199 856 -199 ct 848 -199 840 -198 832 -194 ct 825 -191 819 -187 814 -181 ct 
809 -175 805 -168 803 -160 ct 800 -152 799 -142 799 -132 ct 799 0 l  761 0 l 
761 -307 l  799 -307 l  799 -227 l  799 -223 798 -218 798 -214 ct 798 -209 798 -205 798 -201 ct 
798 -197 797 -194 797 -191 ct 797 -188 797 -187 797 -186 ct 797 -186 l  p ef
pom
gr
gs
pum
14649 6246 t
0.003 0.003 0.003 c 75 -197 m  75 0 l  37 0 l  37 -197 l  6 -197 l  6 -224 l 
37 -224 l  37 -249 l  37 -258 38 -265 40 -272 ct 41 -279 44 -285 48 -290 ct 
52 -295 58 -300 65 -303 ct 72 -306 81 -307 92 -307 ct 96 -307 101 -307 106 -306 ct 
110 -306 115 -305 118 -305 ct 118 -276 l  116 -277 113 -277 110 -277 ct 107 -278 104 -278 102 -278 ct 
96 -278 92 -277 88 -276 ct 85 -274 82 -272 80 -269 ct 78 -266 76 -263 76 -259 ct 
75 -254 75 -250 75 -244 ct 75 -224 l  118 -224 l  118 -197 l  75 -197 l  p ef
336 -112 m  336 -73 328 -44 311 -25 ct 293 -6 268 4 236 4 ct 220 4 206 2 194 -3 ct 
182 -8 171 -15 163 -25 ct 154 -34 148 -46 143 -61 ct 139 -75 137 -93 137 -112 ct 
137 -189 170 -228 237 -228 ct 254 -228 269 -226 282 -221 ct 294 -216 305 -209 313 -199 ct 
321 -189 327 -177 331 -163 ct 335 -148 336 -132 336 -112 ct p
297 -112 m  297 -130 296 -144 293 -155 ct 291 -167 287 -176 282 -182 ct 276 -189 270 -194 263 -196 ct 
255 -199 247 -200 238 -200 ct 228 -200 219 -199 212 -196 ct 204 -193 198 -189 192 -182 ct 
187 -175 183 -166 180 -155 ct 177 -143 176 -129 176 -112 ct 176 -95 177 -80 180 -69 ct 
183 -58 188 -49 193 -42 ct 198 -35 204 -30 212 -28 ct 219 -25 227 -24 235 -24 ct 
245 -24 253 -25 261 -28 ct 269 -30 275 -35 281 -42 ct 286 -48 290 -58 293 -69 ct 
296 -80 297 -95 297 -112 ct p ef
380 0 m  380 -172 l  380 -176 380 -181 380 -186 ct 380 -191 380 -196 380 -200 ct 
380 -205 380 -209 380 -213 ct 379 -217 379 -221 379 -224 ct 414 -224 l  414 -221 415 -217 415 -213 ct 
415 -209 415 -205 415 -200 ct 416 -196 416 -192 416 -188 ct 416 -184 416 -181 416 -178 ct 
417 -178 l  419 -187 422 -194 425 -200 ct 428 -207 431 -212 435 -216 ct 439 -220 444 -223 450 -225 ct 
455 -227 462 -228 470 -228 ct 473 -228 476 -228 478 -227 ct 481 -227 483 -226 485 -226 ct 
485 -192 l  482 -192 479 -193 476 -193 ct 473 -194 469 -194 465 -194 ct 456 -194 449 -192 443 -188 ct 
437 -184 432 -179 429 -172 ct 425 -165 422 -157 420 -148 ct 418 -138 418 -128 418 -117 ct 
418 0 l  380 0 l  p ef
737 0 m  694 0 l  659 -145 l  657 -148 656 -153 655 -158 ct 654 -164 653 -169 652 -175 ct 
650 -181 649 -187 648 -193 ct 647 -187 645 -181 644 -175 ct 643 -170 642 -164 640 -159 ct 
639 -153 638 -148 637 -144 ct 600 0 l  557 0 l  494 -224 l  531 -224 l  569 -72 l 
570 -69 571 -65 572 -60 ct 573 -56 574 -51 575 -47 ct 576 -41 577 -36 578 -31 ct 
579 -36 580 -41 581 -46 ct 582 -50 584 -55 585 -59 ct 586 -64 587 -67 588 -70 ct 
628 -224 l  668 -224 l  707 -70 l  708 -67 709 -63 710 -58 ct 711 -53 712 -49 713 -45 ct 
714 -40 715 -36 716 -31 ct 718 -36 719 -41 720 -46 ct 721 -50 722 -55 723 -60 ct 
724 -64 725 -68 726 -72 ct 765 -224 l  802 -224 l  737 0 l  p ef
886 4 m  863 4 846 -2 835 -14 ct 824 -26 818 -42 818 -63 ct 818 -78 821 -90 826 -99 ct 
832 -109 839 -116 848 -122 ct 857 -127 868 -131 879 -133 ct 891 -135 902 -136 914 -136 ct 
965 -136 l  965 -148 l  965 -158 964 -166 962 -172 ct 960 -179 957 -184 953 -188 ct 
949 -192 944 -195 938 -197 ct 932 -199 925 -200 917 -200 ct 910 -200 903 -199 897 -198 ct 
892 -197 886 -195 882 -193 ct 878 -190 874 -186 872 -182 ct 869 -177 868 -171 867 -164 ct 
828 -168 l  829 -176 832 -185 836 -192 ct 840 -199 845 -206 852 -211 ct 859 -216 868 -221 879 -224 ct 
889 -227 902 -228 918 -228 ct 946 -228 967 -222 981 -209 ct 995 -196 1002 -177 1002 -153 ct 
1002 -56 l  1002 -45 1004 -37 1007 -31 ct 1009 -26 1015 -23 1023 -23 ct 1025 -23 1027 -23 1029 -23 ct 
1031 -24 1033 -24 1035 -25 ct 1035 -1 l  1031 0 1026 1 1021 1 ct 1017 2 1012 2 1007 2 ct 
1000 2 994 1 988 -1 ct 983 -3 979 -5 976 -9 ct 973 -13 971 -18 969 -23 ct 967 -29 966 -36 966 -43 ct 
965 -43 l  961 -36 956 -29 952 -24 ct 947 -18 941 -13 935 -9 ct 929 -5 921 -2 913 1 ct 
905 3 896 4 886 4 ct p
894 -24 m  906 -24 916 -26 925 -30 ct 934 -35 941 -40 947 -47 ct 953 -54 957 -61 960 -69 ct 
963 -77 965 -84 965 -92 ct 965 -110 l  924 -110 l  915 -110 906 -109 898 -108 ct 
890 -107 883 -105 876 -101 ct 870 -98 865 -93 862 -87 ct 858 -80 856 -72 856 -62 ct 
856 -50 859 -41 866 -34 ct 873 -27 882 -24 894 -24 ct p ef
1066 0 m  1066 -172 l  1066 -176 1066 -181 1066 -186 ct 1066 -191 1066 -196 1066 -200 ct 
1066 -205 1066 -209 1066 -213 ct 1065 -217 1065 -221 1065 -224 ct 1100 -224 l 
1100 -221 1101 -217 1101 -213 ct 1101 -209 1101 -205 1101 -200 ct 1102 -196 1102 -192 1102 -188 ct 
1102 -184 1102 -181 1102 -178 ct 1103 -178 l  1105 -187 1108 -194 1111 -200 ct 
1114 -207 1117 -212 1121 -216 ct 1125 -220 1130 -223 1136 -225 ct 1141 -227 1148 -228 1156 -228 ct 
1159 -228 1162 -228 1164 -227 ct 1167 -227 1169 -226 1171 -226 ct 1171 -192 l 
1168 -192 1165 -193 1162 -193 ct 1159 -194 1155 -194 1151 -194 ct 1142 -194 1135 -192 1129 -188 ct 
1123 -184 1118 -179 1115 -172 ct 1111 -165 1108 -157 1106 -148 ct 1104 -138 1104 -128 1104 -117 ct 
1104 0 l  1066 0 l  p ef
1351 -36 m  1344 -22 1335 -12 1323 -5 ct 1312 1 1298 4 1281 4 ct 1253 4 1232 -6 1219 -25 ct 
1205 -44 1199 -72 1199 -111 ct 1199 -189 1226 -228 1281 -228 ct 1298 -228 1312 -225 1323 -219 ct 
1335 -212 1344 -203 1351 -189 ct 1351 -189 l  1351 -191 1351 -193 1351 -196 ct 
1351 -199 1351 -202 1351 -205 ct 1351 -208 1351 -211 1351 -214 ct 1351 -217 1351 -219 1351 -220 ct 
1351 -307 l  1388 -307 l  1388 -46 l  1388 -41 1388 -36 1388 -31 ct 1388 -26 1388 -21 1388 -17 ct 
1388 -13 1388 -9 1389 -6 ct 1389 -3 1389 -1 1389 0 ct 1353 0 l  1353 -1 1353 -3 1353 -6 ct 
1353 -8 1352 -11 1352 -15 ct 1352 -18 1352 -22 1352 -25 ct 1351 -29 1351 -33 1351 -36 ct 
1351 -36 l  p
1238 -112 m  1238 -97 1239 -84 1241 -73 ct 1243 -61 1246 -52 1250 -45 ct 1254 -38 1260 -33 1266 -30 ct 
1273 -26 1281 -25 1290 -25 ct 1300 -25 1309 -26 1316 -30 ct 1324 -33 1330 -38 1335 -45 ct 
1340 -52 1344 -61 1347 -73 ct 1349 -84 1351 -98 1351 -115 ct 1351 -131 1349 -144 1347 -155 ct 
1344 -166 1340 -175 1335 -181 ct 1330 -188 1324 -193 1316 -196 ct 1309 -199 1301 -200 1291 -200 ct 
1282 -200 1274 -199 1267 -196 ct 1261 -193 1255 -187 1251 -180 ct 1246 -173 1243 -164 1241 -153 ct 
1239 -142 1238 -128 1238 -112 ct p ef
pom
gr
gr
gs
gs
pum
9261 4695 t
0.003 0.003 0.003 c 260 -204 m  260 -192 258 -180 254 -169 ct 249 -158 243 -148 235 -140 ct 
226 -132 216 -126 203 -121 ct 191 -116 176 -114 160 -114 ct 74 -114 l  74 -1 l 
35 -1 l  35 -292 l  157 -292 l  174 -292 189 -290 202 -286 ct 215 -281 226 -276 234 -268 ct 
243 -260 249 -251 253 -240 ct 258 -229 260 -217 260 -204 ct p
220 -204 m  220 -222 215 -236 203 -246 ct 192 -256 175 -260 152 -260 ct 74 -260 l 
74 -145 l  154 -145 l  177 -145 193 -150 204 -160 ct 215 -170 220 -185 220 -204 ct 
p ef
349 -224 m  349 -82 l  349 -71 350 -62 351 -55 ct 353 -47 355 -42 359 -37 ct 
363 -33 367 -29 373 -28 ct 379 -26 386 -25 395 -25 ct 404 -25 412 -26 419 -29 ct 
426 -33 432 -37 437 -43 ct 442 -49 446 -56 449 -65 ct 451 -73 453 -83 453 -94 ct 
453 -224 l  490 -224 l  490 -48 l  490 -43 490 -38 490 -33 ct 490 -28 490 -23 490 -18 ct 
490 -14 491 -10 491 -7 ct 491 -3 491 -1 491 0 ct 456 0 l  456 -1 456 -3 456 -6 ct 
456 -9 455 -12 455 -16 ct 455 -20 455 -24 455 -28 ct 454 -32 454 -36 454 -38 ct 
454 -38 l  450 -32 446 -26 442 -21 ct 438 -16 433 -11 427 -7 ct 422 -4 415 -1 408 1 ct 
400 3 392 4 382 4 ct 370 4 359 2 350 -1 ct 341 -4 334 -8 328 -15 ct 322 -21 318 -29 316 -39 ct 
313 -49 311 -61 311 -75 ct 311 -224 l  349 -224 l  p ef
545 0 m  545 -307 l  582 -307 l  582 0 l  545 0 l  p ef
643 0 m  643 -307 l  680 -307 l  680 0 l  643 0 l  p ef
1047 -113 m  1047 -35 1020 4 965 4 ct 948 4 934 1 923 -5 ct 912 -11 903 -21 896 -35 ct 
895 -35 l  895 -31 895 -28 895 -24 ct 895 -20 895 -16 894 -13 ct 894 -10 894 -7 894 -4 ct 
894 -2 893 -1 893 0 ct 857 0 l  857 -1 858 -3 858 -6 ct 858 -9 858 -13 858 -17 ct 
858 -21 858 -26 858 -31 ct 858 -36 859 -41 859 -46 ct 859 -307 l  896 -307 l 
896 -220 l  896 -215 896 -211 896 -208 ct 896 -204 895 -201 895 -198 ct 895 -194 895 -191 895 -188 ct 
896 -188 l  903 -202 912 -212 923 -219 ct 934 -225 948 -228 965 -228 ct 994 -228 1014 -218 1028 -199 ct 
1041 -180 1047 -152 1047 -113 ct p
1008 -112 m  1008 -127 1007 -140 1006 -151 ct 1004 -163 1001 -172 996 -179 ct 
992 -186 987 -191 980 -194 ct 973 -198 965 -199 956 -199 ct 946 -199 937 -198 930 -194 ct 
922 -191 916 -186 911 -179 ct 906 -172 902 -163 900 -151 ct 897 -140 896 -126 896 -110 ct 
896 -94 897 -80 900 -69 ct 902 -58 906 -49 911 -43 ct 916 -36 922 -31 930 -28 ct 
937 -25 946 -24 955 -24 ct 964 -24 972 -25 979 -28 ct 986 -31 991 -37 995 -44 ct 
1000 -51 1003 -60 1005 -71 ct 1007 -82 1008 -96 1008 -112 ct p ef
1153 4 m  1130 4 1113 -2 1102 -14 ct 1091 -26 1085 -42 1085 -63 ct 1085 -78 1088 -90 1093 -99 ct 
1099 -109 1106 -116 1115 -122 ct 1124 -127 1135 -131 1146 -133 ct 1158 -135 1169 -136 1181 -136 ct 
1232 -136 l  1232 -148 l  1232 -158 1231 -166 1229 -172 ct 1227 -179 1224 -184 1220 -188 ct 
1216 -192 1211 -195 1205 -197 ct 1199 -199 1192 -200 1184 -200 ct 1177 -200 1170 -199 1164 -198 ct 
1159 -197 1153 -195 1149 -193 ct 1145 -190 1141 -186 1139 -182 ct 1136 -177 1135 -171 1134 -164 ct 
1095 -168 l  1096 -176 1099 -185 1103 -192 ct 1107 -199 1112 -206 1119 -211 ct 
1126 -216 1135 -221 1146 -224 ct 1156 -227 1169 -228 1185 -228 ct 1213 -228 1234 -222 1248 -209 ct 
1262 -196 1269 -177 1269 -153 ct 1269 -56 l  1269 -45 1271 -37 1274 -31 ct 1276 -26 1282 -23 1290 -23 ct 
1292 -23 1294 -23 1296 -23 ct 1298 -24 1300 -24 1302 -25 ct 1302 -1 l  1298 0 1293 1 1288 1 ct 
1284 2 1279 2 1274 2 ct 1267 2 1261 1 1255 -1 ct 1250 -3 1246 -5 1243 -9 ct 1240 -13 1238 -18 1236 -23 ct 
1234 -29 1233 -36 1233 -43 ct 1232 -43 l  1228 -36 1223 -29 1219 -24 ct 1214 -18 1208 -13 1202 -9 ct 
1196 -5 1188 -2 1180 1 ct 1172 3 1163 4 1153 4 ct p
1161 -24 m  1173 -24 1183 -26 1192 -30 ct 1201 -35 1208 -40 1214 -47 ct 1220 -54 1224 -61 1227 -69 ct 
1230 -77 1232 -84 1232 -92 ct 1232 -110 l  1191 -110 l  1182 -110 1173 -109 1165 -108 ct 
1157 -107 1150 -105 1143 -101 ct 1137 -98 1132 -93 1129 -87 ct 1125 -80 1123 -72 1123 -62 ct 
1123 -50 1126 -41 1133 -34 ct 1140 -27 1149 -24 1161 -24 ct p ef
1361 -113 m  1361 -100 1362 -89 1364 -78 ct 1365 -67 1369 -58 1373 -50 ct 1377 -42 1383 -36 1390 -32 ct 
1398 -28 1407 -25 1417 -25 ct 1430 -25 1441 -29 1450 -36 ct 1459 -43 1465 -54 1467 -68 ct 
1504 -68 l  1503 -59 1500 -50 1496 -41 ct 1492 -32 1487 -25 1479 -18 ct 1472 -11 1464 -6 1454 -2 ct 
1443 2 1432 4 1418 4 ct 1401 4 1386 1 1374 -5 ct 1361 -11 1351 -19 1344 -29 ct 
1336 -40 1331 -52 1327 -66 ct 1324 -80 1322 -96 1322 -112 ct 1322 -127 1323 -141 1326 -152 ct 
1328 -164 1332 -174 1336 -182 ct 1341 -191 1346 -198 1352 -204 ct 1358 -210 1365 -215 1372 -218 ct 
1379 -222 1386 -224 1394 -226 ct 1402 -227 1410 -228 1418 -228 ct 1430 -228 1441 -226 1451 -223 ct 
1461 -220 1469 -215 1477 -209 ct 1484 -203 1489 -196 1494 -188 ct 1498 -179 1501 -171 1503 -161 ct 
1465 -158 l  1463 -171 1458 -181 1450 -188 ct 1442 -195 1431 -199 1417 -199 ct 
1406 -199 1397 -197 1390 -194 ct 1383 -190 1377 -185 1373 -178 ct 1369 -171 1365 -162 1364 -151 ct 
1362 -140 1361 -128 1361 -113 ct p ef
1685 0 m  1609 -102 l  1582 -80 l  1582 0 l  1545 0 l  1545 -307 l  1582 -307 l 
1582 -115 l  1680 -224 l  1723 -224 l  1633 -128 l  1728 0 l  1685 0 l 
p ef
pom
gr
gr
gr
gs
0 0 m 16499 0 l 16499 9499 l 0 9499 l 0 0 l eoclip newpath
gr
gr
0 9500 t 
pom
count op_count sub {pop} repeat countdictstack dict_count sub {end} repeat b4_inc_state restore
%%PageTrailer
%%Trailer
%%EOF
