%!PS-Adobe-3.0 EPSF-3.0
%%Creator: MATLAB, The Mathworks, Inc. Version 7.9.0.529 (R2009b). Operating System: Linux 2.6.32.54-0.3-default #1 SMP 2012-01-27 17:38:56 +0100 x86_64.
%%Title: GKW nonspectral parallel scaling - Helios
%%CreationDate: 04/13/2012  13:12:00
%%DocumentNeededFonts: Helvetica
%%DocumentProcessColors: Cyan Magenta Yellow Black
%%LanguageLevel: 2
%%Pages: 1
%%BoundingBox:    16   289   594   503
%%EndComments

%%BeginProlog
% MathWorks dictionary
/MathWorks 160 dict begin
% definition operators
/bdef {bind def} bind def
/ldef {load def} bind def
/xdef {exch def} bdef
/xstore {exch store} bdef
% operator abbreviations
/c  /clip ldef
/cc /concat ldef
/cp /closepath ldef
/gr /grestore ldef
/gs /gsave ldef
/mt /moveto ldef
/np /newpath ldef
/cm /currentmatrix ldef
/sm /setmatrix ldef
/rm /rmoveto ldef
/rl /rlineto ldef
/s {show newpath} bdef
/sc {setcmykcolor} bdef
/sr /setrgbcolor ldef
/sg /setgray ldef
/w /setlinewidth ldef
/j /setlinejoin ldef
/cap /setlinecap ldef
/rc {rectclip} bdef
/rf {rectfill} bdef
% page state control
/pgsv () def
/bpage {/pgsv save def} bdef
/epage {pgsv restore} bdef
/bplot /gsave ldef
/eplot {stroke grestore} bdef
% orientation switch
/portraitMode 0 def /landscapeMode 1 def /rotateMode 2 def
% coordinate system mappings
/dpi2point 0 def
% font control
/FontSize 0 def
/FMS {/FontSize xstore findfont [FontSize 0 0 FontSize neg 0 0]
  makefont setfont} bdef
/reencode {exch dup where {pop load} {pop StandardEncoding} ifelse
  exch dup 3 1 roll findfont dup length dict begin
  { 1 index /FID ne {def}{pop pop} ifelse } forall
  /Encoding exch def currentdict end definefont pop} bdef
/isroman {findfont /CharStrings get /Agrave known} bdef
/FMSR {3 1 roll 1 index dup isroman {reencode} {pop pop} ifelse
  exch FMS} bdef
/csm {1 dpi2point div -1 dpi2point div scale neg translate
 dup landscapeMode eq {pop -90 rotate}
  {rotateMode eq {90 rotate} if} ifelse} bdef
% line types: solid, dotted, dashed, dotdash
/SO { [] 0 setdash } bdef
/DO { [.5 dpi2point mul 4 dpi2point mul] 0 setdash } bdef
/DA { [6 dpi2point mul] 0 setdash } bdef
/DD { [.5 dpi2point mul 4 dpi2point mul 6 dpi2point mul 4
  dpi2point mul] 0 setdash } bdef
% macros for lines and objects
/L {lineto stroke} bdef
/MP {3 1 roll moveto 1 sub {rlineto} repeat} bdef
/AP {{rlineto} repeat} bdef
/PDlw -1 def
/W {/PDlw currentlinewidth def setlinewidth} def
/PP {closepath eofill} bdef
/DP {closepath stroke} bdef
/MR {4 -2 roll moveto dup  0 exch rlineto exch 0 rlineto
  neg 0 exch rlineto closepath} bdef
/FR {MR stroke} bdef
/PR {MR fill} bdef
/L1i {{currentfile picstr readhexstring pop} image} bdef
/tMatrix matrix def
/MakeOval {newpath tMatrix currentmatrix pop translate scale
0 0 1 0 360 arc tMatrix setmatrix} bdef
/FO {MakeOval stroke} bdef
/PO {MakeOval fill} bdef
/PD {currentlinewidth 2 div 0 360 arc fill
   PDlw -1 eq not {PDlw w /PDlw -1 def} if} def
/FA {newpath tMatrix currentmatrix pop translate scale
  0 0 1 5 -2 roll arc tMatrix setmatrix stroke} bdef
/PA {newpath tMatrix currentmatrix pop	translate 0 0 moveto scale
  0 0 1 5 -2 roll arc closepath tMatrix setmatrix fill} bdef
/FAn {newpath tMatrix currentmatrix pop translate scale
  0 0 1 5 -2 roll arcn tMatrix setmatrix stroke} bdef
/PAn {newpath tMatrix currentmatrix pop translate 0 0 moveto scale
  0 0 1 5 -2 roll arcn closepath tMatrix setmatrix fill} bdef
/vradius 0 def /hradius 0 def /lry 0 def
/lrx 0 def /uly 0 def /ulx 0 def /rad 0 def
/MRR {/vradius xdef /hradius xdef /lry xdef /lrx xdef /uly xdef
  /ulx xdef newpath tMatrix currentmatrix pop ulx hradius add uly
  vradius add translate hradius vradius scale 0 0 1 180 270 arc 
  tMatrix setmatrix lrx hradius sub uly vradius add translate
  hradius vradius scale 0 0 1 270 360 arc tMatrix setmatrix
  lrx hradius sub lry vradius sub translate hradius vradius scale
  0 0 1 0 90 arc tMatrix setmatrix ulx hradius add lry vradius sub
  translate hradius vradius scale 0 0 1 90 180 arc tMatrix setmatrix
  closepath} bdef
/FRR {MRR stroke } bdef
/PRR {MRR fill } bdef
/MlrRR {/lry xdef /lrx xdef /uly xdef /ulx xdef /rad lry uly sub 2 div def
  newpath tMatrix currentmatrix pop ulx rad add uly rad add translate
  rad rad scale 0 0 1 90 270 arc tMatrix setmatrix lrx rad sub lry rad
  sub translate rad rad scale 0 0 1 270 90 arc tMatrix setmatrix
  closepath} bdef
/FlrRR {MlrRR stroke } bdef
/PlrRR {MlrRR fill } bdef
/MtbRR {/lry xdef /lrx xdef /uly xdef /ulx xdef /rad lrx ulx sub 2 div def
  newpath tMatrix currentmatrix pop ulx rad add uly rad add translate
  rad rad scale 0 0 1 180 360 arc tMatrix setmatrix lrx rad sub lry rad
  sub translate rad rad scale 0 0 1 0 180 arc tMatrix setmatrix
  closepath} bdef
/FtbRR {MtbRR stroke } bdef
/PtbRR {MtbRR fill } bdef
/stri 6 array def /dtri 6 array def
/smat 6 array def /dmat 6 array def
/tmat1 6 array def /tmat2 6 array def /dif 3 array def
/asub {/ind2 exch def /ind1 exch def dup dup
  ind1 get exch ind2 get sub exch } bdef
/tri_to_matrix {
  2 0 asub 3 1 asub 4 0 asub 5 1 asub
  dup 0 get exch 1 get 7 -1 roll astore } bdef
/compute_transform {
  dmat dtri tri_to_matrix tmat1 invertmatrix 
  smat stri tri_to_matrix tmat2 concatmatrix } bdef
/ds {stri astore pop} bdef
/dt {dtri astore pop} bdef
/db {2 copy /cols xdef /rows xdef mul dup 3 mul string
  currentfile 
  3 index 0 eq {/ASCIIHexDecode filter}
  {/ASCII85Decode filter 3 index 2 eq {/RunLengthDecode filter} if }
  ifelse exch readstring pop
  dup 0 3 index getinterval /rbmap xdef
  dup 2 index dup getinterval /gbmap xdef
  1 index dup 2 mul exch getinterval /bbmap xdef pop pop}bdef
/it {gs np dtri aload pop moveto lineto lineto cp c
  cols rows 8 compute_transform 
  rbmap gbmap bbmap true 3 colorimage gr}bdef
/il {newpath moveto lineto stroke}bdef
currentdict end def
%%EndProlog

%%BeginSetup
MathWorks begin

0 cap

end
%%EndSetup

%%Page: 1 1
%%BeginPageSetup
%%PageBoundingBox:    16   289   594   503
MathWorks begin
bpage
%%EndPageSetup

%%BeginObject: obj1
bplot

/dpi2point 12 def
portraitMode 0192 6036 csm

    0     0  6941  2563 rc
85 dict begin %Colortable dictionary
/c0 { 0.000000 0.000000 0.000000 sr} bdef
/c1 { 1.000000 1.000000 1.000000 sr} bdef
/c2 { 0.900000 0.000000 0.000000 sr} bdef
/c3 { 0.000000 0.820000 0.000000 sr} bdef
/c4 { 0.000000 0.000000 0.800000 sr} bdef
/c5 { 0.910000 0.820000 0.320000 sr} bdef
/c6 { 1.000000 0.260000 0.820000 sr} bdef
/c7 { 0.000000 0.820000 0.820000 sr} bdef
c0
1 j
1 sg
   0    0 6942 2564 rf
6 w
0 1998 2893 0 0 -1998 570 2190 4 MP
PP
-2893 0 0 1998 2893 0 0 -1998 570 2190 5 MP stroke
4 w
DO
SO
6 w
0 sg
 570 2190 mt 3463 2190 L
 570  192 mt 3463  192 L
 570 2190 mt  570  192 L
3463 2190 mt 3463  192 L
 570 2190 mt 3463 2190 L
 570 2190 mt  570  192 L
 570 2190 mt  570 2175 L
 570  192 mt  570  206 L
 570 2190 mt  570 2161 L
 570  192 mt  570  220 L
%%IncludeResource: font Helvetica
/Helvetica /ISOLatin1Encoding 144 FMSR

 490 2358 mt 
(64) s
 973 2190 mt  973 2175 L
 973  192 mt  973  206 L
 973 2190 mt  973 2175 L
 973  192 mt  973  206 L
 973 2190 mt  973 2175 L
 973  192 mt  973  206 L
 973 2190 mt  973 2175 L
 973  192 mt  973  206 L
 973 2190 mt  973 2175 L
 973  192 mt  973  206 L
 973 2190 mt  973 2175 L
 973  192 mt  973  206 L
 973 2190 mt  973 2175 L
 973  192 mt  973  206 L
 973 2190 mt  973 2175 L
 973  192 mt  973  206 L
 973 2190 mt  973 2175 L
 973  192 mt  973  206 L
 973 2190 mt  973 2161 L
 973  192 mt  973  220 L
 853 2358 mt 
(128) s
1377 2190 mt 1377 2175 L
1377  192 mt 1377  206 L
1377 2190 mt 1377 2175 L
1377  192 mt 1377  206 L
1377 2190 mt 1377 2175 L
1377  192 mt 1377  206 L
1377 2190 mt 1377 2175 L
1377  192 mt 1377  206 L
1377 2190 mt 1377 2175 L
1377  192 mt 1377  206 L
1377 2190 mt 1377 2175 L
1377  192 mt 1377  206 L
1377 2190 mt 1377 2175 L
1377  192 mt 1377  206 L
1377 2190 mt 1377 2175 L
1377  192 mt 1377  206 L
1377 2190 mt 1377 2175 L
1377  192 mt 1377  206 L
1377 2190 mt 1377 2161 L
1377  192 mt 1377  220 L
1257 2358 mt 
(256) s
1781 2190 mt 1781 2175 L
1781  192 mt 1781  206 L
1781 2190 mt 1781 2175 L
1781  192 mt 1781  206 L
1781 2190 mt 1781 2175 L
1781  192 mt 1781  206 L
1781 2190 mt 1781 2175 L
1781  192 mt 1781  206 L
1781 2190 mt 1781 2175 L
1781  192 mt 1781  206 L
1781 2190 mt 1781 2175 L
1781  192 mt 1781  206 L
1781 2190 mt 1781 2175 L
1781  192 mt 1781  206 L
1781 2190 mt 1781 2175 L
1781  192 mt 1781  206 L
1781 2190 mt 1781 2175 L
1781  192 mt 1781  206 L
1781 2190 mt 1781 2161 L
1781  192 mt 1781  220 L
1661 2358 mt 
(512) s
2184 2190 mt 2184 2175 L
2184  192 mt 2184  206 L
2184 2190 mt 2184 2175 L
2184  192 mt 2184  206 L
2184 2190 mt 2184 2175 L
2184  192 mt 2184  206 L
2184 2190 mt 2184 2175 L
2184  192 mt 2184  206 L
2184 2190 mt 2184 2175 L
2184  192 mt 2184  206 L
2184 2190 mt 2184 2175 L
2184  192 mt 2184  206 L
2184 2190 mt 2184 2175 L
2184  192 mt 2184  206 L
2184 2190 mt 2184 2175 L
2184  192 mt 2184  206 L
2184 2190 mt 2184 2175 L
2184  192 mt 2184  206 L
2184 2190 mt 2184 2161 L
2184  192 mt 2184  220 L
2024 2358 mt 
(1024) s
2588 2190 mt 2588 2175 L
2588  192 mt 2588  206 L
2588 2190 mt 2588 2175 L
2588  192 mt 2588  206 L
2588 2190 mt 2588 2175 L
2588  192 mt 2588  206 L
2588 2190 mt 2588 2175 L
2588  192 mt 2588  206 L
2588 2190 mt 2588 2175 L
2588  192 mt 2588  206 L
2588 2190 mt 2588 2175 L
2588  192 mt 2588  206 L
2588 2190 mt 2588 2175 L
2588  192 mt 2588  206 L
2588 2190 mt 2588 2175 L
2588  192 mt 2588  206 L
2588 2190 mt 2588 2175 L
2588  192 mt 2588  206 L
2588 2190 mt 2588 2161 L
2588  192 mt 2588  220 L
2428 2358 mt 
(2048) s
2992 2190 mt 2992 2175 L
2992  192 mt 2992  206 L
2992 2190 mt 2992 2175 L
2992  192 mt 2992  206 L
2992 2190 mt 2992 2175 L
2992  192 mt 2992  206 L
2992 2190 mt 2992 2175 L
2992  192 mt 2992  206 L
2992 2190 mt 2992 2175 L
2992  192 mt 2992  206 L
2992 2190 mt 2992 2175 L
2992  192 mt 2992  206 L
2992 2190 mt 2992 2175 L
2992  192 mt 2992  206 L
2992 2190 mt 2992 2175 L
2992  192 mt 2992  206 L
2992 2190 mt 2992 2175 L
2992  192 mt 2992  206 L
2992 2190 mt 2992 2161 L
2992  192 mt 2992  220 L
2832 2358 mt 
(4096) s
3395 2190 mt 3395 2175 L
3395  192 mt 3395  206 L
3395 2190 mt 3395 2175 L
3395  192 mt 3395  206 L
3395 2190 mt 3395 2175 L
3395  192 mt 3395  206 L
3395 2190 mt 3395 2175 L
3395  192 mt 3395  206 L
3395 2190 mt 3395 2175 L
3395  192 mt 3395  206 L
3395 2190 mt 3395 2175 L
3395  192 mt 3395  206 L
3395 2190 mt 3395 2175 L
3395  192 mt 3395  206 L
3395 2190 mt 3395 2175 L
3395  192 mt 3395  206 L
3395 2190 mt 3395 2175 L
3395  192 mt 3395  206 L
3395 2190 mt 3395 2161 L
3395  192 mt 3395  220 L
3235 2358 mt 
(8192) s
 570 2190 mt  584 2190 L
3463 2190 mt 3448 2190 L
 570 2190 mt  598 2190 L
3463 2190 mt 3434 2190 L
 375 2243 mt 
(64) s
 570 1911 mt  584 1911 L
3463 1911 mt 3448 1911 L
 570 1911 mt  584 1911 L
3463 1911 mt 3448 1911 L
 570 1911 mt  584 1911 L
3463 1911 mt 3448 1911 L
 570 1911 mt  584 1911 L
3463 1911 mt 3448 1911 L
 570 1911 mt  584 1911 L
3463 1911 mt 3448 1911 L
 570 1911 mt  584 1911 L
3463 1911 mt 3448 1911 L
 570 1911 mt  584 1911 L
3463 1911 mt 3448 1911 L
 570 1911 mt  584 1911 L
3463 1911 mt 3448 1911 L
 570 1911 mt  584 1911 L
3463 1911 mt 3448 1911 L
 570 1911 mt  598 1911 L
3463 1911 mt 3434 1911 L
 295 1964 mt 
(128) s
 570 1632 mt  584 1632 L
3463 1632 mt 3448 1632 L
 570 1632 mt  584 1632 L
3463 1632 mt 3448 1632 L
 570 1632 mt  584 1632 L
3463 1632 mt 3448 1632 L
 570 1632 mt  584 1632 L
3463 1632 mt 3448 1632 L
 570 1632 mt  584 1632 L
3463 1632 mt 3448 1632 L
 570 1632 mt  584 1632 L
3463 1632 mt 3448 1632 L
 570 1632 mt  584 1632 L
3463 1632 mt 3448 1632 L
 570 1632 mt  584 1632 L
3463 1632 mt 3448 1632 L
 570 1632 mt  584 1632 L
3463 1632 mt 3448 1632 L
 570 1632 mt  598 1632 L
3463 1632 mt 3434 1632 L
 295 1685 mt 
(256) s
 570 1353 mt  584 1353 L
3463 1353 mt 3448 1353 L
 570 1353 mt  584 1353 L
3463 1353 mt 3448 1353 L
 570 1353 mt  584 1353 L
3463 1353 mt 3448 1353 L
 570 1353 mt  584 1353 L
3463 1353 mt 3448 1353 L
 570 1353 mt  584 1353 L
3463 1353 mt 3448 1353 L
 570 1353 mt  584 1353 L
3463 1353 mt 3448 1353 L
 570 1353 mt  584 1353 L
3463 1353 mt 3448 1353 L
 570 1353 mt  584 1353 L
3463 1353 mt 3448 1353 L
 570 1353 mt  584 1353 L
3463 1353 mt 3448 1353 L
 570 1353 mt  598 1353 L
3463 1353 mt 3434 1353 L
 295 1406 mt 
(512) s
 570 1074 mt  584 1074 L
3463 1074 mt 3448 1074 L
 570 1074 mt  584 1074 L
3463 1074 mt 3448 1074 L
 570 1074 mt  584 1074 L
3463 1074 mt 3448 1074 L
 570 1074 mt  584 1074 L
3463 1074 mt 3448 1074 L
 570 1074 mt  584 1074 L
3463 1074 mt 3448 1074 L
 570 1074 mt  584 1074 L
3463 1074 mt 3448 1074 L
 570 1074 mt  584 1074 L
3463 1074 mt 3448 1074 L
 570 1074 mt  584 1074 L
3463 1074 mt 3448 1074 L
 570 1074 mt  584 1074 L
3463 1074 mt 3448 1074 L
 570 1074 mt  598 1074 L
3463 1074 mt 3434 1074 L
 215 1127 mt 
(1024) s
 570  795 mt  584  795 L
3463  795 mt 3448  795 L
 570  795 mt  584  795 L
3463  795 mt 3448  795 L
 570  795 mt  584  795 L
3463  795 mt 3448  795 L
 570  795 mt  584  795 L
3463  795 mt 3448  795 L
 570  795 mt  584  795 L
3463  795 mt 3448  795 L
 570  795 mt  584  795 L
3463  795 mt 3448  795 L
 570  795 mt  584  795 L
3463  795 mt 3448  795 L
 570  795 mt  584  795 L
3463  795 mt 3448  795 L
 570  795 mt  584  795 L
3463  795 mt 3448  795 L
 570  795 mt  598  795 L
3463  795 mt 3434  795 L
 215  848 mt 
(2048) s
 570  517 mt  584  517 L
3463  517 mt 3448  517 L
 570  517 mt  584  517 L
3463  517 mt 3448  517 L
 570  517 mt  584  517 L
3463  517 mt 3448  517 L
 570  517 mt  584  517 L
3463  517 mt 3448  517 L
 570  517 mt  584  517 L
3463  517 mt 3448  517 L
 570  517 mt  584  517 L
3463  517 mt 3448  517 L
 570  517 mt  584  517 L
3463  517 mt 3448  517 L
 570  517 mt  584  517 L
3463  517 mt 3448  517 L
 570  517 mt  584  517 L
3463  517 mt 3448  517 L
 570  517 mt  598  517 L
3463  517 mt 3434  517 L
 215  570 mt 
(4096) s
 570  238 mt  584  238 L
3463  238 mt 3448  238 L
 570  238 mt  584  238 L
3463  238 mt 3448  238 L
 570  238 mt  584  238 L
3463  238 mt 3448  238 L
 570  238 mt  584  238 L
3463  238 mt 3448  238 L
 570  238 mt  584  238 L
3463  238 mt 3448  238 L
 570  238 mt  584  238 L
3463  238 mt 3448  238 L
 570  238 mt  584  238 L
3463  238 mt 3448  238 L
 570  238 mt  584  238 L
3463  238 mt 3448  238 L
 570  238 mt  584  238 L
3463  238 mt 3448  238 L
 570  238 mt  598  238 L
3463  238 mt 3434  238 L
 215  291 mt 
(8192) s
 570 2190 mt 3463 2190 L
 570  192 mt 3463  192 L
 570 2190 mt  570  192 L
3463 2190 mt 3463  192 L
gs 570 192 2894 1999 rc
12 w
/c8 { 0.000000 0.000000 1.000000 sr} bdef
c8
403 -169 404 -247 404 -264 403 -268 404 -290 404 -263 403 -271 570 2190 8 MP stroke
gr

12 w
c8
 534 2190 mt  606 2190 L
 570 2154 mt  570 2226 L
 937 1919 mt 1009 1919 L
 973 1883 mt  973 1955 L
1341 1656 mt 1413 1656 L
1377 1620 mt 1377 1692 L
1745 1366 mt 1817 1366 L
1781 1330 mt 1781 1402 L
2148 1098 mt 2220 1098 L
2184 1062 mt 2184 1134 L
2552  834 mt 2624  834 L
2588  798 mt 2588  870 L
2956  587 mt 3028  587 L
2992  551 mt 2992  623 L
3359  418 mt 3431  418 L
3395  382 mt 3395  454 L
gs 570 192 2894 1999 rc
gr

0 sg
1810 2502 mt 
(Cores) s
 128 1480 mt  -90 rotate
(Speedup) s
90 rotate
gs 570 192 2894 1999 rc
/c9 { 1.000000 0.000000 0.000000 sr} bdef
c9
403 -155 404 -247 404 -266 403 -282 404 -265 404 -276 403 -274 570 2190 8 MP stroke
gr

c9
  36   36  570 2190 FO
  36   36  973 1916 FO
  36   36 1377 1640 FO
  36   36 1781 1375 FO
  36   36 2184 1093 FO
  36   36 2588  827 FO
  36   36 2992  580 FO
  36   36 3395  425 FO
gs 570 192 2894 1999 rc
DA
6 w
0 sg
403 -279 404 -278 404 -279 403 -279 404 -279 404 -279 403 -279 570 2190 8 MP stroke
gr

6 w
0 sg
DA
%%IncludeResource: font Helvetica
/Helvetica /ISOLatin1Encoding 120 FMSR

 553 2233 mt 
( ) s
3447  234 mt 
( ) s
SO
1 sg
0 607 1346 0 0 -607 632 884 4 MP
PP
-1346 0 0 607 1346 0 0 -607 632 884 5 MP stroke
4 w
DO
SO
6 w
0 sg
 632  884 mt 1978  884 L
 632  277 mt 1978  277 L
 632  884 mt  632  277 L
1978  884 mt 1978  277 L
 632  884 mt 1978  884 L
 632  884 mt  632  277 L
 632  884 mt 1978  884 L
 632  277 mt 1978  277 L
 632  884 mt  632  277 L
1978  884 mt 1978  277 L
%%IncludeResource: font Helvetica
/Helvetica /ISOLatin1Encoding 144 FMSR

1113  443 mt 
(No Collisions) s
gs 632 277 1347 608 rc
12 w
c8
370 0 705 392 2 MP stroke
gs 817 319 147 147 rc
 854  392 mt  926  392 L
 890  356 mt  890  428 L
gr

gr

12 w
c8
0 sg
1113  632 mt 
(Collisions) s
gs 632 277 1347 608 rc
c9
370 0 705 580 2 MP stroke
gs 817 507 147 147 rc
  36   36  890  580 FO
gr

gr

c9
0 sg
1113  821 mt 
(Perfect) s
gs 632 277 1347 608 rc
DA
6 w
370 0 705 768 2 MP stroke
SO
gr

6 w
1 sg
0 2000 2728 0 0 -2000 3988 2192 4 MP
PP
-2728 0 0 2000 2728 0 0 -2000 3988 2192 5 MP stroke
4 w
DO
0 sg
3988 2192 mt 3988  192 L
3988  192 mt 3988  192 L
4368 2192 mt 4368  192 L
4368  192 mt 4368  192 L
4749 2192 mt 4749  192 L
4749  192 mt 4749  192 L
5130 2192 mt 5130  192 L
5130  192 mt 5130  192 L
5510 2192 mt 5510  192 L
5510  192 mt 5510  192 L
5891 2192 mt 5891  192 L
5891  192 mt 5891  192 L
6272 2192 mt 6272  192 L
6272  192 mt 6272  192 L
6652 2192 mt 6652  192 L
6652  192 mt 6652  192 L
3988 2192 mt 6716 2192 L
6716 2192 mt 6716 2192 L
3988 2010 mt 6716 2010 L
6716 2010 mt 6716 2010 L
3988 1828 mt 6716 1828 L
6716 1828 mt 6716 1828 L
3988 1646 mt 6716 1646 L
6716 1646 mt 6716 1646 L
3988 1464 mt 6716 1464 L
6716 1464 mt 6716 1464 L
3988 1282 mt 6716 1282 L
6716 1282 mt 6716 1282 L
3988 1101 mt 6716 1101 L
6716 1101 mt 6716 1101 L
3988  919 mt 6716  919 L
6716  919 mt 6716  919 L
3988  737 mt 6716  737 L
6716  737 mt 6716  737 L
3988  555 mt 6716  555 L
6716  555 mt 6716  555 L
3988  373 mt 6716  373 L
6716  373 mt 6716  373 L
SO
6 w
3988 2192 mt 6716 2192 L
3988  192 mt 6716  192 L
3988 2192 mt 3988  192 L
6716 2192 mt 6716  192 L
3988 2192 mt 6716 2192 L
3988 2192 mt 3988  192 L
3988 2192 mt 3988 2178 L
3988  192 mt 3988  205 L
DO
3988 2192 mt 3988  192 L
3988  192 mt 3988  192 L
SO
3988 2192 mt 3988 2164 L
3988  192 mt 3988  219 L
3908 2360 mt 
(64) s
4368 2192 mt 4368 2178 L
4368  192 mt 4368  205 L
DO
4368 2192 mt 4368  192 L
4368  192 mt 4368  192 L
SO
4368 2192 mt 4368 2178 L
4368  192 mt 4368  205 L
DO
4368 2192 mt 4368  192 L
4368  192 mt 4368  192 L
SO
4368 2192 mt 4368 2178 L
4368  192 mt 4368  205 L
DO
4368 2192 mt 4368  192 L
4368  192 mt 4368  192 L
SO
4368 2192 mt 4368 2178 L
4368  192 mt 4368  205 L
DO
4368 2192 mt 4368  192 L
4368  192 mt 4368  192 L
SO
4368 2192 mt 4368 2178 L
4368  192 mt 4368  205 L
DO
4368 2192 mt 4368  192 L
4368  192 mt 4368  192 L
SO
4368 2192 mt 4368 2178 L
4368  192 mt 4368  205 L
DO
4368 2192 mt 4368  192 L
4368  192 mt 4368  192 L
SO
4368 2192 mt 4368 2178 L
4368  192 mt 4368  205 L
DO
4368 2192 mt 4368  192 L
4368  192 mt 4368  192 L
SO
4368 2192 mt 4368 2178 L
4368  192 mt 4368  205 L
DO
4368 2192 mt 4368  192 L
4368  192 mt 4368  192 L
SO
4368 2192 mt 4368 2178 L
4368  192 mt 4368  205 L
DO
4368 2192 mt 4368  192 L
4368  192 mt 4368  192 L
SO
4368 2192 mt 4368 2164 L
4368  192 mt 4368  219 L
4248 2360 mt 
(128) s
4749 2192 mt 4749 2178 L
4749  192 mt 4749  205 L
DO
4749 2192 mt 4749  192 L
4749  192 mt 4749  192 L
SO
4749 2192 mt 4749 2178 L
4749  192 mt 4749  205 L
DO
4749 2192 mt 4749  192 L
4749  192 mt 4749  192 L
SO
4749 2192 mt 4749 2178 L
4749  192 mt 4749  205 L
DO
4749 2192 mt 4749  192 L
4749  192 mt 4749  192 L
SO
4749 2192 mt 4749 2178 L
4749  192 mt 4749  205 L
DO
4749 2192 mt 4749  192 L
4749  192 mt 4749  192 L
SO
4749 2192 mt 4749 2178 L
4749  192 mt 4749  205 L
DO
4749 2192 mt 4749  192 L
4749  192 mt 4749  192 L
SO
4749 2192 mt 4749 2178 L
4749  192 mt 4749  205 L
DO
4749 2192 mt 4749  192 L
4749  192 mt 4749  192 L
SO
4749 2192 mt 4749 2178 L
4749  192 mt 4749  205 L
DO
4749 2192 mt 4749  192 L
4749  192 mt 4749  192 L
SO
4749 2192 mt 4749 2178 L
4749  192 mt 4749  205 L
DO
4749 2192 mt 4749  192 L
4749  192 mt 4749  192 L
SO
4749 2192 mt 4749 2178 L
4749  192 mt 4749  205 L
DO
4749 2192 mt 4749  192 L
4749  192 mt 4749  192 L
SO
4749 2192 mt 4749 2164 L
4749  192 mt 4749  219 L
4629 2360 mt 
(256) s
5130 2192 mt 5130 2178 L
5130  192 mt 5130  205 L
DO
5130 2192 mt 5130  192 L
5130  192 mt 5130  192 L
SO
5130 2192 mt 5130 2178 L
5130  192 mt 5130  205 L
DO
5130 2192 mt 5130  192 L
5130  192 mt 5130  192 L
SO
5130 2192 mt 5130 2178 L
5130  192 mt 5130  205 L
DO
5130 2192 mt 5130  192 L
5130  192 mt 5130  192 L
SO
5130 2192 mt 5130 2178 L
5130  192 mt 5130  205 L
DO
5130 2192 mt 5130  192 L
5130  192 mt 5130  192 L
SO
5130 2192 mt 5130 2178 L
5130  192 mt 5130  205 L
DO
5130 2192 mt 5130  192 L
5130  192 mt 5130  192 L
SO
5130 2192 mt 5130 2178 L
5130  192 mt 5130  205 L
DO
5130 2192 mt 5130  192 L
5130  192 mt 5130  192 L
SO
5130 2192 mt 5130 2178 L
5130  192 mt 5130  205 L
DO
5130 2192 mt 5130  192 L
5130  192 mt 5130  192 L
SO
5130 2192 mt 5130 2178 L
5130  192 mt 5130  205 L
DO
5130 2192 mt 5130  192 L
5130  192 mt 5130  192 L
SO
5130 2192 mt 5130 2178 L
5130  192 mt 5130  205 L
DO
5130 2192 mt 5130  192 L
5130  192 mt 5130  192 L
SO
5130 2192 mt 5130 2164 L
5130  192 mt 5130  219 L
5010 2360 mt 
(512) s
5510 2192 mt 5510 2178 L
5510  192 mt 5510  205 L
DO
5510 2192 mt 5510  192 L
5510  192 mt 5510  192 L
SO
5510 2192 mt 5510 2178 L
5510  192 mt 5510  205 L
DO
5510 2192 mt 5510  192 L
5510  192 mt 5510  192 L
SO
5510 2192 mt 5510 2178 L
5510  192 mt 5510  205 L
DO
5510 2192 mt 5510  192 L
5510  192 mt 5510  192 L
SO
5510 2192 mt 5510 2178 L
5510  192 mt 5510  205 L
DO
5510 2192 mt 5510  192 L
5510  192 mt 5510  192 L
SO
5510 2192 mt 5510 2178 L
5510  192 mt 5510  205 L
DO
5510 2192 mt 5510  192 L
5510  192 mt 5510  192 L
SO
5510 2192 mt 5510 2178 L
5510  192 mt 5510  205 L
DO
5510 2192 mt 5510  192 L
5510  192 mt 5510  192 L
SO
5510 2192 mt 5510 2178 L
5510  192 mt 5510  205 L
DO
5510 2192 mt 5510  192 L
5510  192 mt 5510  192 L
SO
5510 2192 mt 5510 2178 L
5510  192 mt 5510  205 L
DO
5510 2192 mt 5510  192 L
5510  192 mt 5510  192 L
SO
5510 2192 mt 5510 2178 L
5510  192 mt 5510  205 L
DO
5510 2192 mt 5510  192 L
5510  192 mt 5510  192 L
SO
5510 2192 mt 5510 2164 L
5510  192 mt 5510  219 L
5350 2360 mt 
(1024) s
5891 2192 mt 5891 2178 L
5891  192 mt 5891  205 L
DO
5891 2192 mt 5891  192 L
5891  192 mt 5891  192 L
SO
5891 2192 mt 5891 2178 L
5891  192 mt 5891  205 L
DO
5891 2192 mt 5891  192 L
5891  192 mt 5891  192 L
SO
5891 2192 mt 5891 2178 L
5891  192 mt 5891  205 L
DO
5891 2192 mt 5891  192 L
5891  192 mt 5891  192 L
SO
5891 2192 mt 5891 2178 L
5891  192 mt 5891  205 L
DO
5891 2192 mt 5891  192 L
5891  192 mt 5891  192 L
SO
5891 2192 mt 5891 2178 L
5891  192 mt 5891  205 L
DO
5891 2192 mt 5891  192 L
5891  192 mt 5891  192 L
SO
5891 2192 mt 5891 2178 L
5891  192 mt 5891  205 L
DO
5891 2192 mt 5891  192 L
5891  192 mt 5891  192 L
SO
5891 2192 mt 5891 2178 L
5891  192 mt 5891  205 L
DO
5891 2192 mt 5891  192 L
5891  192 mt 5891  192 L
SO
5891 2192 mt 5891 2178 L
5891  192 mt 5891  205 L
DO
5891 2192 mt 5891  192 L
5891  192 mt 5891  192 L
SO
5891 2192 mt 5891 2178 L
5891  192 mt 5891  205 L
DO
5891 2192 mt 5891  192 L
5891  192 mt 5891  192 L
SO
5891 2192 mt 5891 2164 L
5891  192 mt 5891  219 L
5731 2360 mt 
(2048) s
6272 2192 mt 6272 2178 L
6272  192 mt 6272  205 L
DO
6272 2192 mt 6272  192 L
6272  192 mt 6272  192 L
SO
6272 2192 mt 6272 2178 L
6272  192 mt 6272  205 L
DO
6272 2192 mt 6272  192 L
6272  192 mt 6272  192 L
SO
6272 2192 mt 6272 2178 L
6272  192 mt 6272  205 L
DO
6272 2192 mt 6272  192 L
6272  192 mt 6272  192 L
SO
6272 2192 mt 6272 2178 L
6272  192 mt 6272  205 L
DO
6272 2192 mt 6272  192 L
6272  192 mt 6272  192 L
SO
6272 2192 mt 6272 2178 L
6272  192 mt 6272  205 L
DO
6272 2192 mt 6272  192 L
6272  192 mt 6272  192 L
SO
6272 2192 mt 6272 2178 L
6272  192 mt 6272  205 L
DO
6272 2192 mt 6272  192 L
6272  192 mt 6272  192 L
SO
6272 2192 mt 6272 2178 L
6272  192 mt 6272  205 L
DO
6272 2192 mt 6272  192 L
6272  192 mt 6272  192 L
SO
6272 2192 mt 6272 2178 L
6272  192 mt 6272  205 L
DO
6272 2192 mt 6272  192 L
6272  192 mt 6272  192 L
SO
6272 2192 mt 6272 2178 L
6272  192 mt 6272  205 L
DO
6272 2192 mt 6272  192 L
6272  192 mt 6272  192 L
SO
6272 2192 mt 6272 2164 L
6272  192 mt 6272  219 L
6112 2360 mt 
(4096) s
6652 2192 mt 6652 2178 L
6652  192 mt 6652  205 L
DO
6652 2192 mt 6652  192 L
6652  192 mt 6652  192 L
SO
6652 2192 mt 6652 2178 L
6652  192 mt 6652  205 L
DO
6652 2192 mt 6652  192 L
6652  192 mt 6652  192 L
SO
6652 2192 mt 6652 2178 L
6652  192 mt 6652  205 L
DO
6652 2192 mt 6652  192 L
6652  192 mt 6652  192 L
SO
6652 2192 mt 6652 2178 L
6652  192 mt 6652  205 L
DO
6652 2192 mt 6652  192 L
6652  192 mt 6652  192 L
SO
6652 2192 mt 6652 2178 L
6652  192 mt 6652  205 L
DO
6652 2192 mt 6652  192 L
6652  192 mt 6652  192 L
SO
6652 2192 mt 6652 2178 L
6652  192 mt 6652  205 L
DO
6652 2192 mt 6652  192 L
6652  192 mt 6652  192 L
SO
6652 2192 mt 6652 2178 L
6652  192 mt 6652  205 L
DO
6652 2192 mt 6652  192 L
6652  192 mt 6652  192 L
SO
6652 2192 mt 6652 2178 L
6652  192 mt 6652  205 L
DO
6652 2192 mt 6652  192 L
6652  192 mt 6652  192 L
SO
6652 2192 mt 6652 2178 L
6652  192 mt 6652  205 L
DO
6652 2192 mt 6652  192 L
6652  192 mt 6652  192 L
SO
6652 2192 mt 6652 2164 L
6652  192 mt 6652  219 L
6492 2360 mt 
(8192) s
3988 2192 mt 4015 2192 L
6716 2192 mt 6688 2192 L
3873 2245 mt 
(0) s
3988 2010 mt 4015 2010 L
6716 2010 mt 6688 2010 L
3753 2063 mt 
(0.1) s
3988 1828 mt 4015 1828 L
6716 1828 mt 6688 1828 L
3753 1881 mt 
(0.2) s
3988 1646 mt 4015 1646 L
6716 1646 mt 6688 1646 L
3753 1699 mt 
(0.3) s
3988 1464 mt 4015 1464 L
6716 1464 mt 6688 1464 L
3753 1517 mt 
(0.4) s
3988 1282 mt 4015 1282 L
6716 1282 mt 6688 1282 L
3753 1335 mt 
(0.5) s
3988 1101 mt 4015 1101 L
6716 1101 mt 6688 1101 L
3753 1154 mt 
(0.6) s
3988  919 mt 4015  919 L
6716  919 mt 6688  919 L
3753  972 mt 
(0.7) s
3988  737 mt 4015  737 L
6716  737 mt 6688  737 L
3753  790 mt 
(0.8) s
3988  555 mt 4015  555 L
6716  555 mt 6688  555 L
3753  608 mt 
(0.9) s
3988  373 mt 4015  373 L
6716  373 mt 6688  373 L
3873  426 mt 
(1) s
3988 2192 mt 6716 2192 L
3988  192 mt 6716  192 L
3988 2192 mt 3988  192 L
6716 2192 mt 6716  192 L
gs 3988 192 2729 2001 rc
12 w
c8
380 364 381 126 381 60 380 50 381 -50 381 68 0 2 380 37 
3988 373 9 MP stroke
gr

12 w
c8
3952  373 mt 4024  373 L
3988  337 mt 3988  409 L
4332  410 mt 4404  410 L
4368  374 mt 4368  446 L
4332  412 mt 4404  412 L
4368  376 mt 4368  448 L
4713  480 mt 4785  480 L
4749  444 mt 4749  516 L
5094  430 mt 5166  430 L
5130  394 mt 5130  466 L
5474  480 mt 5546  480 L
5510  444 mt 5510  516 L
5855  540 mt 5927  540 L
5891  504 mt 5891  576 L
6236  666 mt 6308  666 L
6272  630 mt 6272  702 L
6616 1030 mt 6688 1030 L
6652  994 mt 6652 1066 L
gs 3988 192 2729 2001 rc
gr

0 sg
5179 2514 mt 
(Cores) s
3666 1749 mt  -90 rotate
(Scaling efficiency) s
90 rotate
gs 3988 192 2729 2001 rc
c9
380 412 381 126 381 56 380 -12 381 60 381 11 380 24 3988 373 8 MP stroke
gr

c9
  36   36 3988  373 FO
  36   36 4368  397 FO
  36   36 4749  408 FO
  36   36 5130  468 FO
  36   36 5510  456 FO
  36   36 5891  512 FO
  36   36 6272  638 FO
  36   36 6652 1050 FO
gs 3988 192 2729 2001 rc
6 w
gr

6 w

end %%Color Dict

eplot
%%EndObject

epage
end

showpage

%%Trailer
%%EOF
