%!PS-Adobe-3.0 EPSF-3.0
%%Creator: MATLAB, The Mathworks, Inc. Version 7.9.0.529 (R2009b). Operating System: Linux 3.0.58-0.6.6-default #1 SMP Tue Feb 19 11:07:00 UTC 2013 (1576ecd) x86_64.
%%Title: /ptmp1/fjc/runs/nonspec_scaling3_clean/med2.eps
%%CreationDate: 03/28/2013  19:21:04
%%DocumentNeededFonts: Helvetica
%%DocumentProcessColors: Cyan Magenta Yellow Black
%%LanguageLevel: 2
%%Pages: 1
%%BoundingBox:    91   224   520   567
%%EndComments

%%BeginProlog
% MathWorks dictionary
/MathWorks 160 dict begin
% definition operators
/bdef {bind def} bind def
/ldef {load def} bind def
/xdef {exch def} bdef
/xstore {exch store} bdef
% operator abbreviations
/c  /clip ldef
/cc /concat ldef
/cp /closepath ldef
/gr /grestore ldef
/gs /gsave ldef
/mt /moveto ldef
/np /newpath ldef
/cm /currentmatrix ldef
/sm /setmatrix ldef
/rm /rmoveto ldef
/rl /rlineto ldef
/s {show newpath} bdef
/sc {setcmykcolor} bdef
/sr /setrgbcolor ldef
/sg /setgray ldef
/w /setlinewidth ldef
/j /setlinejoin ldef
/cap /setlinecap ldef
/rc {rectclip} bdef
/rf {rectfill} bdef
% page state control
/pgsv () def
/bpage {/pgsv save def} bdef
/epage {pgsv restore} bdef
/bplot /gsave ldef
/eplot {stroke grestore} bdef
% orientation switch
/portraitMode 0 def /landscapeMode 1 def /rotateMode 2 def
% coordinate system mappings
/dpi2point 0 def
% font control
/FontSize 0 def
/FMS {/FontSize xstore findfont [FontSize 0 0 FontSize neg 0 0]
  makefont setfont} bdef
/reencode {exch dup where {pop load} {pop StandardEncoding} ifelse
  exch dup 3 1 roll findfont dup length dict begin
  { 1 index /FID ne {def}{pop pop} ifelse } forall
  /Encoding exch def currentdict end definefont pop} bdef
/isroman {findfont /CharStrings get /Agrave known} bdef
/FMSR {3 1 roll 1 index dup isroman {reencode} {pop pop} ifelse
  exch FMS} bdef
/csm {1 dpi2point div -1 dpi2point div scale neg translate
 dup landscapeMode eq {pop -90 rotate}
  {rotateMode eq {90 rotate} if} ifelse} bdef
% line types: solid, dotted, dashed, dotdash
/SO { [] 0 setdash } bdef
/DO { [.5 dpi2point mul 4 dpi2point mul] 0 setdash } bdef
/DA { [6 dpi2point mul] 0 setdash } bdef
/DD { [.5 dpi2point mul 4 dpi2point mul 6 dpi2point mul 4
  dpi2point mul] 0 setdash } bdef
% macros for lines and objects
/L {lineto stroke} bdef
/MP {3 1 roll moveto 1 sub {rlineto} repeat} bdef
/AP {{rlineto} repeat} bdef
/PDlw -1 def
/W {/PDlw currentlinewidth def setlinewidth} def
/PP {closepath eofill} bdef
/DP {closepath stroke} bdef
/MR {4 -2 roll moveto dup  0 exch rlineto exch 0 rlineto
  neg 0 exch rlineto closepath} bdef
/FR {MR stroke} bdef
/PR {MR fill} bdef
/L1i {{currentfile picstr readhexstring pop} image} bdef
/tMatrix matrix def
/MakeOval {newpath tMatrix currentmatrix pop translate scale
0 0 1 0 360 arc tMatrix setmatrix} bdef
/FO {MakeOval stroke} bdef
/PO {MakeOval fill} bdef
/PD {currentlinewidth 2 div 0 360 arc fill
   PDlw -1 eq not {PDlw w /PDlw -1 def} if} def
/FA {newpath tMatrix currentmatrix pop translate scale
  0 0 1 5 -2 roll arc tMatrix setmatrix stroke} bdef
/PA {newpath tMatrix currentmatrix pop	translate 0 0 moveto scale
  0 0 1 5 -2 roll arc closepath tMatrix setmatrix fill} bdef
/FAn {newpath tMatrix currentmatrix pop translate scale
  0 0 1 5 -2 roll arcn tMatrix setmatrix stroke} bdef
/PAn {newpath tMatrix currentmatrix pop translate 0 0 moveto scale
  0 0 1 5 -2 roll arcn closepath tMatrix setmatrix fill} bdef
/vradius 0 def /hradius 0 def /lry 0 def
/lrx 0 def /uly 0 def /ulx 0 def /rad 0 def
/MRR {/vradius xdef /hradius xdef /lry xdef /lrx xdef /uly xdef
  /ulx xdef newpath tMatrix currentmatrix pop ulx hradius add uly
  vradius add translate hradius vradius scale 0 0 1 180 270 arc 
  tMatrix setmatrix lrx hradius sub uly vradius add translate
  hradius vradius scale 0 0 1 270 360 arc tMatrix setmatrix
  lrx hradius sub lry vradius sub translate hradius vradius scale
  0 0 1 0 90 arc tMatrix setmatrix ulx hradius add lry vradius sub
  translate hradius vradius scale 0 0 1 90 180 arc tMatrix setmatrix
  closepath} bdef
/FRR {MRR stroke } bdef
/PRR {MRR fill } bdef
/MlrRR {/lry xdef /lrx xdef /uly xdef /ulx xdef /rad lry uly sub 2 div def
  newpath tMatrix currentmatrix pop ulx rad add uly rad add translate
  rad rad scale 0 0 1 90 270 arc tMatrix setmatrix lrx rad sub lry rad
  sub translate rad rad scale 0 0 1 270 90 arc tMatrix setmatrix
  closepath} bdef
/FlrRR {MlrRR stroke } bdef
/PlrRR {MlrRR fill } bdef
/MtbRR {/lry xdef /lrx xdef /uly xdef /ulx xdef /rad lrx ulx sub 2 div def
  newpath tMatrix currentmatrix pop ulx rad add uly rad add translate
  rad rad scale 0 0 1 180 360 arc tMatrix setmatrix lrx rad sub lry rad
  sub translate rad rad scale 0 0 1 0 180 arc tMatrix setmatrix
  closepath} bdef
/FtbRR {MtbRR stroke } bdef
/PtbRR {MtbRR fill } bdef
/stri 6 array def /dtri 6 array def
/smat 6 array def /dmat 6 array def
/tmat1 6 array def /tmat2 6 array def /dif 3 array def
/asub {/ind2 exch def /ind1 exch def dup dup
  ind1 get exch ind2 get sub exch } bdef
/tri_to_matrix {
  2 0 asub 3 1 asub 4 0 asub 5 1 asub
  dup 0 get exch 1 get 7 -1 roll astore } bdef
/compute_transform {
  dmat dtri tri_to_matrix tmat1 invertmatrix 
  smat stri tri_to_matrix tmat2 concatmatrix } bdef
/ds {stri astore pop} bdef
/dt {dtri astore pop} bdef
/db {2 copy /cols xdef /rows xdef mul dup 3 mul string
  currentfile 
  3 index 0 eq {/ASCIIHexDecode filter}
  {/ASCII85Decode filter 3 index 2 eq {/RunLengthDecode filter} if }
  ifelse exch readstring pop
  dup 0 3 index getinterval /rbmap xdef
  dup 2 index dup getinterval /gbmap xdef
  1 index dup 2 mul exch getinterval /bbmap xdef pop pop}bdef
/it {gs np dtri aload pop moveto lineto lineto cp c
  cols rows 8 compute_transform 
  rbmap gbmap bbmap true 3 colorimage gr}bdef
/il {newpath moveto lineto stroke}bdef
currentdict end def
%%EndProlog

%%BeginSetup
MathWorks begin

0 cap

end
%%EndSetup

%%Page: 1 1
%%BeginPageSetup
%%PageBoundingBox:    91   224   520   567
MathWorks begin
bpage
%%EndPageSetup

%%BeginObject: obj1
bplot

/dpi2point 12 def
portraitMode 1092 6804 csm

    0     0  5155  4109 rc
85 dict begin %Colortable dictionary
/c0 { 0.000000 0.000000 0.000000 sr} bdef
/c1 { 1.000000 1.000000 1.000000 sr} bdef
/c2 { 0.900000 0.000000 0.000000 sr} bdef
/c3 { 0.000000 0.820000 0.000000 sr} bdef
/c4 { 0.000000 0.000000 0.800000 sr} bdef
/c5 { 0.910000 0.820000 0.320000 sr} bdef
/c6 { 1.000000 0.260000 0.820000 sr} bdef
/c7 { 0.000000 0.820000 0.820000 sr} bdef
c0
1 j
1 sg
   0    0 5156 4110 rf
6 w
0 2190 3995 0 0 -2190 680 3763 4 MP
PP
-3995 0 0 2190 3995 0 0 -2190 680 3763 5 MP stroke
4 w
DO
SO
6 w
0 sg
 680 3763 mt 4675 3763 L
 680 1573 mt 4675 1573 L
 680 3763 mt  680 1573 L
4675 3763 mt 4675 1573 L
 680 3763 mt 4675 3763 L
 680 3763 mt  680 1573 L
 680 3763 mt  680 3743 L
 680 1573 mt  680 1592 L
 680 3763 mt  680 3723 L
 680 1573 mt  680 1612 L
%%IncludeResource: font Helvetica
/Helvetica /ISOLatin1Encoding 132 FMSR

 607 3919 mt 
(64) s
1121 3763 mt 1121 3743 L
1121 1573 mt 1121 1592 L
1121 3763 mt 1121 3743 L
1121 1573 mt 1121 1592 L
1121 3763 mt 1121 3743 L
1121 1573 mt 1121 1592 L
1121 3763 mt 1121 3743 L
1121 1573 mt 1121 1592 L
1121 3763 mt 1121 3743 L
1121 1573 mt 1121 1592 L
1121 3763 mt 1121 3743 L
1121 1573 mt 1121 1592 L
1121 3763 mt 1121 3743 L
1121 1573 mt 1121 1592 L
1121 3763 mt 1121 3743 L
1121 1573 mt 1121 1592 L
1121 3763 mt 1121 3743 L
1121 1573 mt 1121 1592 L
1121 3763 mt 1121 3723 L
1121 1573 mt 1121 1612 L
1011 3919 mt 
(128) s
1563 3763 mt 1563 3743 L
1563 1573 mt 1563 1592 L
1563 3763 mt 1563 3743 L
1563 1573 mt 1563 1592 L
1563 3763 mt 1563 3743 L
1563 1573 mt 1563 1592 L
1563 3763 mt 1563 3743 L
1563 1573 mt 1563 1592 L
1563 3763 mt 1563 3743 L
1563 1573 mt 1563 1592 L
1563 3763 mt 1563 3743 L
1563 1573 mt 1563 1592 L
1563 3763 mt 1563 3743 L
1563 1573 mt 1563 1592 L
1563 3763 mt 1563 3743 L
1563 1573 mt 1563 1592 L
1563 3763 mt 1563 3743 L
1563 1573 mt 1563 1592 L
1563 3763 mt 1563 3723 L
1563 1573 mt 1563 1612 L
1453 3919 mt 
(256) s
2005 3763 mt 2005 3743 L
2005 1573 mt 2005 1592 L
2005 3763 mt 2005 3743 L
2005 1573 mt 2005 1592 L
2005 3763 mt 2005 3743 L
2005 1573 mt 2005 1592 L
2005 3763 mt 2005 3743 L
2005 1573 mt 2005 1592 L
2005 3763 mt 2005 3743 L
2005 1573 mt 2005 1592 L
2005 3763 mt 2005 3743 L
2005 1573 mt 2005 1592 L
2005 3763 mt 2005 3743 L
2005 1573 mt 2005 1592 L
2005 3763 mt 2005 3743 L
2005 1573 mt 2005 1592 L
2005 3763 mt 2005 3743 L
2005 1573 mt 2005 1592 L
2005 3763 mt 2005 3723 L
2005 1573 mt 2005 1612 L
1895 3919 mt 
(512) s
2447 3763 mt 2447 3743 L
2447 1573 mt 2447 1592 L
2447 3763 mt 2447 3743 L
2447 1573 mt 2447 1592 L
2447 3763 mt 2447 3743 L
2447 1573 mt 2447 1592 L
2447 3763 mt 2447 3743 L
2447 1573 mt 2447 1592 L
2447 3763 mt 2447 3743 L
2447 1573 mt 2447 1592 L
2447 3763 mt 2447 3743 L
2447 1573 mt 2447 1592 L
2447 3763 mt 2447 3743 L
2447 1573 mt 2447 1592 L
2447 3763 mt 2447 3743 L
2447 1573 mt 2447 1592 L
2447 3763 mt 2447 3743 L
2447 1573 mt 2447 1592 L
2447 3763 mt 2447 3723 L
2447 1573 mt 2447 1612 L
2301 3919 mt 
(1024) s
2888 3763 mt 2888 3743 L
2888 1573 mt 2888 1592 L
2888 3763 mt 2888 3743 L
2888 1573 mt 2888 1592 L
2888 3763 mt 2888 3743 L
2888 1573 mt 2888 1592 L
2888 3763 mt 2888 3743 L
2888 1573 mt 2888 1592 L
2888 3763 mt 2888 3743 L
2888 1573 mt 2888 1592 L
2888 3763 mt 2888 3743 L
2888 1573 mt 2888 1592 L
2888 3763 mt 2888 3743 L
2888 1573 mt 2888 1592 L
2888 3763 mt 2888 3743 L
2888 1573 mt 2888 1592 L
2888 3763 mt 2888 3743 L
2888 1573 mt 2888 1592 L
2888 3763 mt 2888 3723 L
2888 1573 mt 2888 1612 L
2742 3919 mt 
(2048) s
3330 3763 mt 3330 3743 L
3330 1573 mt 3330 1592 L
3330 3763 mt 3330 3743 L
3330 1573 mt 3330 1592 L
3330 3763 mt 3330 3743 L
3330 1573 mt 3330 1592 L
3330 3763 mt 3330 3743 L
3330 1573 mt 3330 1592 L
3330 3763 mt 3330 3743 L
3330 1573 mt 3330 1592 L
3330 3763 mt 3330 3743 L
3330 1573 mt 3330 1592 L
3330 3763 mt 3330 3743 L
3330 1573 mt 3330 1592 L
3330 3763 mt 3330 3743 L
3330 1573 mt 3330 1592 L
3330 3763 mt 3330 3743 L
3330 1573 mt 3330 1592 L
3330 3763 mt 3330 3723 L
3330 1573 mt 3330 1612 L
3184 3919 mt 
(4096) s
3772 3763 mt 3772 3743 L
3772 1573 mt 3772 1592 L
3772 3763 mt 3772 3743 L
3772 1573 mt 3772 1592 L
3772 3763 mt 3772 3743 L
3772 1573 mt 3772 1592 L
3772 3763 mt 3772 3743 L
3772 1573 mt 3772 1592 L
3772 3763 mt 3772 3743 L
3772 1573 mt 3772 1592 L
3772 3763 mt 3772 3743 L
3772 1573 mt 3772 1592 L
3772 3763 mt 3772 3743 L
3772 1573 mt 3772 1592 L
3772 3763 mt 3772 3743 L
3772 1573 mt 3772 1592 L
3772 3763 mt 3772 3743 L
3772 1573 mt 3772 1592 L
3772 3763 mt 3772 3723 L
3772 1573 mt 3772 1612 L
3626 3919 mt 
(8192) s
4214 3763 mt 4214 3743 L
4214 1573 mt 4214 1592 L
4214 3763 mt 4214 3743 L
4214 1573 mt 4214 1592 L
4214 3763 mt 4214 3743 L
4214 1573 mt 4214 1592 L
4214 3763 mt 4214 3743 L
4214 1573 mt 4214 1592 L
4214 3763 mt 4214 3743 L
4214 1573 mt 4214 1592 L
4214 3763 mt 4214 3743 L
4214 1573 mt 4214 1592 L
4214 3763 mt 4214 3743 L
4214 1573 mt 4214 1592 L
4214 3763 mt 4214 3743 L
4214 1573 mt 4214 1592 L
4214 3763 mt 4214 3743 L
4214 1573 mt 4214 1592 L
4214 3763 mt 4214 3723 L
4214 1573 mt 4214 1612 L
4031 3919 mt 
(16384) s
4655 3763 mt 4655 3743 L
4655 1573 mt 4655 1592 L
4655 3763 mt 4655 3743 L
4655 1573 mt 4655 1592 L
4655 3763 mt 4655 3743 L
4655 1573 mt 4655 1592 L
4655 3763 mt 4655 3743 L
4655 1573 mt 4655 1592 L
4655 3763 mt 4655 3743 L
4655 1573 mt 4655 1592 L
4655 3763 mt 4655 3743 L
4655 1573 mt 4655 1592 L
4655 3763 mt 4655 3743 L
4655 1573 mt 4655 1592 L
4655 3763 mt 4655 3743 L
4655 1573 mt 4655 1592 L
4655 3763 mt 4655 3743 L
4655 1573 mt 4655 1592 L
4655 3763 mt 4655 3723 L
4655 1573 mt 4655 1612 L
4472 3919 mt 
(32768) s
 680 3763 mt  699 3763 L
4675 3763 mt 4655 3763 L
 680 3763 mt  719 3763 L
4675 3763 mt 4635 3763 L
 499 3811 mt 
(64) s
 680 3520 mt  699 3520 L
4675 3520 mt 4655 3520 L
 680 3520 mt  699 3520 L
4675 3520 mt 4655 3520 L
 680 3520 mt  699 3520 L
4675 3520 mt 4655 3520 L
 680 3520 mt  699 3520 L
4675 3520 mt 4655 3520 L
 680 3520 mt  699 3520 L
4675 3520 mt 4655 3520 L
 680 3520 mt  699 3520 L
4675 3520 mt 4655 3520 L
 680 3520 mt  699 3520 L
4675 3520 mt 4655 3520 L
 680 3520 mt  699 3520 L
4675 3520 mt 4655 3520 L
 680 3520 mt  699 3520 L
4675 3520 mt 4655 3520 L
 680 3520 mt  719 3520 L
4675 3520 mt 4635 3520 L
 425 3568 mt 
(128) s
 680 3278 mt  699 3278 L
4675 3278 mt 4655 3278 L
 680 3278 mt  699 3278 L
4675 3278 mt 4655 3278 L
 680 3278 mt  699 3278 L
4675 3278 mt 4655 3278 L
 680 3278 mt  699 3278 L
4675 3278 mt 4655 3278 L
 680 3278 mt  699 3278 L
4675 3278 mt 4655 3278 L
 680 3278 mt  699 3278 L
4675 3278 mt 4655 3278 L
 680 3278 mt  699 3278 L
4675 3278 mt 4655 3278 L
 680 3278 mt  699 3278 L
4675 3278 mt 4655 3278 L
 680 3278 mt  699 3278 L
4675 3278 mt 4655 3278 L
 680 3278 mt  719 3278 L
4675 3278 mt 4635 3278 L
 425 3326 mt 
(256) s
 680 3036 mt  699 3036 L
4675 3036 mt 4655 3036 L
 680 3036 mt  699 3036 L
4675 3036 mt 4655 3036 L
 680 3036 mt  699 3036 L
4675 3036 mt 4655 3036 L
 680 3036 mt  699 3036 L
4675 3036 mt 4655 3036 L
 680 3036 mt  699 3036 L
4675 3036 mt 4655 3036 L
 680 3036 mt  699 3036 L
4675 3036 mt 4655 3036 L
 680 3036 mt  699 3036 L
4675 3036 mt 4655 3036 L
 680 3036 mt  699 3036 L
4675 3036 mt 4655 3036 L
 680 3036 mt  699 3036 L
4675 3036 mt 4655 3036 L
 680 3036 mt  719 3036 L
4675 3036 mt 4635 3036 L
 425 3084 mt 
(512) s
 680 2794 mt  699 2794 L
4675 2794 mt 4655 2794 L
 680 2794 mt  699 2794 L
4675 2794 mt 4655 2794 L
 680 2794 mt  699 2794 L
4675 2794 mt 4655 2794 L
 680 2794 mt  699 2794 L
4675 2794 mt 4655 2794 L
 680 2794 mt  699 2794 L
4675 2794 mt 4655 2794 L
 680 2794 mt  699 2794 L
4675 2794 mt 4655 2794 L
 680 2794 mt  699 2794 L
4675 2794 mt 4655 2794 L
 680 2794 mt  699 2794 L
4675 2794 mt 4655 2794 L
 680 2794 mt  699 2794 L
4675 2794 mt 4655 2794 L
 680 2794 mt  719 2794 L
4675 2794 mt 4635 2794 L
 352 2842 mt 
(1024) s
 680 2552 mt  699 2552 L
4675 2552 mt 4655 2552 L
 680 2552 mt  699 2552 L
4675 2552 mt 4655 2552 L
 680 2552 mt  699 2552 L
4675 2552 mt 4655 2552 L
 680 2552 mt  699 2552 L
4675 2552 mt 4655 2552 L
 680 2552 mt  699 2552 L
4675 2552 mt 4655 2552 L
 680 2552 mt  699 2552 L
4675 2552 mt 4655 2552 L
 680 2552 mt  699 2552 L
4675 2552 mt 4655 2552 L
 680 2552 mt  699 2552 L
4675 2552 mt 4655 2552 L
 680 2552 mt  699 2552 L
4675 2552 mt 4655 2552 L
 680 2552 mt  719 2552 L
4675 2552 mt 4635 2552 L
 352 2600 mt 
(2048) s
 680 2310 mt  699 2310 L
4675 2310 mt 4655 2310 L
 680 2310 mt  699 2310 L
4675 2310 mt 4655 2310 L
 680 2310 mt  699 2310 L
4675 2310 mt 4655 2310 L
 680 2310 mt  699 2310 L
4675 2310 mt 4655 2310 L
 680 2310 mt  699 2310 L
4675 2310 mt 4655 2310 L
 680 2310 mt  699 2310 L
4675 2310 mt 4655 2310 L
 680 2310 mt  699 2310 L
4675 2310 mt 4655 2310 L
 680 2310 mt  699 2310 L
4675 2310 mt 4655 2310 L
 680 2310 mt  699 2310 L
4675 2310 mt 4655 2310 L
 680 2310 mt  719 2310 L
4675 2310 mt 4635 2310 L
 352 2358 mt 
(4096) s
 680 2067 mt  699 2067 L
4675 2067 mt 4655 2067 L
 680 2067 mt  699 2067 L
4675 2067 mt 4655 2067 L
 680 2067 mt  699 2067 L
4675 2067 mt 4655 2067 L
 680 2067 mt  699 2067 L
4675 2067 mt 4655 2067 L
 680 2067 mt  699 2067 L
4675 2067 mt 4655 2067 L
 680 2067 mt  699 2067 L
4675 2067 mt 4655 2067 L
 680 2067 mt  699 2067 L
4675 2067 mt 4655 2067 L
 680 2067 mt  699 2067 L
4675 2067 mt 4655 2067 L
 680 2067 mt  699 2067 L
4675 2067 mt 4655 2067 L
 680 2067 mt  719 2067 L
4675 2067 mt 4635 2067 L
 352 2115 mt 
(8192) s
 680 1825 mt  699 1825 L
4675 1825 mt 4655 1825 L
 680 1825 mt  699 1825 L
4675 1825 mt 4655 1825 L
 680 1825 mt  699 1825 L
4675 1825 mt 4655 1825 L
 680 1825 mt  699 1825 L
4675 1825 mt 4655 1825 L
 680 1825 mt  699 1825 L
4675 1825 mt 4655 1825 L
 680 1825 mt  699 1825 L
4675 1825 mt 4655 1825 L
 680 1825 mt  699 1825 L
4675 1825 mt 4655 1825 L
 680 1825 mt  699 1825 L
4675 1825 mt 4655 1825 L
 680 1825 mt  699 1825 L
4675 1825 mt 4655 1825 L
 680 1825 mt  719 1825 L
4675 1825 mt 4635 1825 L
 279 1873 mt 
(16384) s
 680 1583 mt  699 1583 L
4675 1583 mt 4655 1583 L
 680 1583 mt  699 1583 L
4675 1583 mt 4655 1583 L
 680 1583 mt  699 1583 L
4675 1583 mt 4655 1583 L
 680 1583 mt  699 1583 L
4675 1583 mt 4655 1583 L
 680 1583 mt  699 1583 L
4675 1583 mt 4655 1583 L
 680 1583 mt  699 1583 L
4675 1583 mt 4655 1583 L
 680 1583 mt  699 1583 L
4675 1583 mt 4655 1583 L
 680 1583 mt  699 1583 L
4675 1583 mt 4655 1583 L
 680 1583 mt  699 1583 L
4675 1583 mt 4655 1583 L
 680 1583 mt  719 1583 L
4675 1583 mt 4635 1583 L
 279 1631 mt 
(32768) s
 680 3763 mt 4675 3763 L
 680 1573 mt 4675 1573 L
 680 3763 mt  680 1573 L
4675 3763 mt 4675 1573 L
gs 680 1573 3996 2191 rc
12 w
/c8 { 0.000000 0.000000 1.000000 sr} bdef
c8
441 -91 442 -162 442 -204 442 -228 441 -237 442 -242 442 -248 442 -223 
441 -233 680 3763 10 MP stroke
gr

12 w
c8
 644 3763 mt  716 3763 L
 680 3727 mt  680 3799 L
1085 3530 mt 1157 3530 L
1121 3494 mt 1121 3566 L
1527 3307 mt 1599 3307 L
1563 3271 mt 1563 3343 L
1969 3059 mt 2041 3059 L
2005 3023 mt 2005 3095 L
2411 2817 mt 2483 2817 L
2447 2781 mt 2447 2853 L
2852 2580 mt 2924 2580 L
2888 2544 mt 2888 2616 L
3294 2352 mt 3366 2352 L
3330 2316 mt 3330 2388 L
3736 2148 mt 3808 2148 L
3772 2112 mt 3772 2184 L
4178 1986 mt 4250 1986 L
4214 1950 mt 4214 2022 L
4619 1895 mt 4691 1895 L
4655 1859 mt 4655 1931 L
gs 680 1573 3996 2191 rc
gr

0 sg
2525 4037 mt 
(Cores) s
 195 2933 mt  -90 rotate
(Speedup) s
90 rotate
gs 680 1573 3996 2191 rc
/c9 { 1.000000 0.000000 0.000000 sr} bdef
c9
441 40 442 -191 442 -188 442 -220 441 -238 442 -241 442 -241 442 -239 
441 -238 680 3763 10 MP stroke
gr

c9
  36   36  680 3763 FO
  36   36 1121 3525 FO
  36   36 1563 3286 FO
  36   36 2005 3045 FO
  36   36 2447 2804 FO
  36   36 2888 2566 FO
  36   36 3330 2346 FO
  36   36 3772 2158 FO
  36   36 4214 1967 FO
  36   36 4655 2007 FO
gs 680 1573 3996 2191 rc
DA
6 w
0 sg
441 -242 442 -242 442 -243 442 -242 441 -242 442 -242 442 -242 442 -242 
441 -243 680 3763 10 MP stroke
gr

6 w
0 sg
DA
%%IncludeResource: font Helvetica
/Helvetica /ISOLatin1Encoding 120 FMSR

 663 3806 mt 
( ) s
4659 1615 mt 
( ) s
SO
1 sg
0 1305 3993 0 0 -1305 672 1377 4 MP
PP
-3993 0 0 1305 3993 0 0 -1305 672 1377 5 MP stroke
4 w
DO
0 sg
 672 1377 mt  672   72 L
 672   72 mt  672   72 L
1113 1377 mt 1113   72 L
1113   72 mt 1113   72 L
1555 1377 mt 1555   72 L
1555   72 mt 1555   72 L
1996 1377 mt 1996   72 L
1996   72 mt 1996   72 L
2438 1377 mt 2438   72 L
2438   72 mt 2438   72 L
2879 1377 mt 2879   72 L
2879   72 mt 2879   72 L
3321 1377 mt 3321   72 L
3321   72 mt 3321   72 L
3762 1377 mt 3762   72 L
3762   72 mt 3762   72 L
4204 1377 mt 4204   72 L
4204   72 mt 4204   72 L
4645 1377 mt 4645   72 L
4645   72 mt 4645   72 L
 672 1245 mt 4665 1245 L
4665 1245 mt 4665 1245 L
 672 1098 mt 4665 1098 L
4665 1098 mt 4665 1098 L
 672  951 mt 4665  951 L
4665  951 mt 4665  951 L
 672  805 mt 4665  805 L
4665  805 mt 4665  805 L
 672  658 mt 4665  658 L
4665  658 mt 4665  658 L
 672  511 mt 4665  511 L
4665  511 mt 4665  511 L
 672  365 mt 4665  365 L
4665  365 mt 4665  365 L
 672  218 mt 4665  218 L
4665  218 mt 4665  218 L
SO
6 w
 672 1377 mt 4665 1377 L
 672   72 mt 4665   72 L
 672 1377 mt  672   72 L
4665 1377 mt 4665   72 L
 672 1377 mt 4665 1377 L
 672 1377 mt  672   72 L
 672 1377 mt  672 1357 L
 672   72 mt  672   91 L
DO
 672 1377 mt  672   72 L
 672   72 mt  672   72 L
SO
 672 1377 mt  672 1337 L
 672   72 mt  672  111 L
%%IncludeResource: font Helvetica
/Helvetica /ISOLatin1Encoding 132 FMSR

 599 1533 mt 
(64) s
1113 1377 mt 1113 1357 L
1113   72 mt 1113   91 L
DO
1113 1377 mt 1113   72 L
1113   72 mt 1113   72 L
SO
1113 1377 mt 1113 1357 L
1113   72 mt 1113   91 L
DO
1113 1377 mt 1113   72 L
1113   72 mt 1113   72 L
SO
1113 1377 mt 1113 1357 L
1113   72 mt 1113   91 L
DO
1113 1377 mt 1113   72 L
1113   72 mt 1113   72 L
SO
1113 1377 mt 1113 1357 L
1113   72 mt 1113   91 L
DO
1113 1377 mt 1113   72 L
1113   72 mt 1113   72 L
SO
1113 1377 mt 1113 1357 L
1113   72 mt 1113   91 L
DO
1113 1377 mt 1113   72 L
1113   72 mt 1113   72 L
SO
1113 1377 mt 1113 1357 L
1113   72 mt 1113   91 L
DO
1113 1377 mt 1113   72 L
1113   72 mt 1113   72 L
SO
1113 1377 mt 1113 1357 L
1113   72 mt 1113   91 L
DO
1113 1377 mt 1113   72 L
1113   72 mt 1113   72 L
SO
1113 1377 mt 1113 1357 L
1113   72 mt 1113   91 L
DO
1113 1377 mt 1113   72 L
1113   72 mt 1113   72 L
SO
1113 1377 mt 1113 1357 L
1113   72 mt 1113   91 L
DO
1113 1377 mt 1113   72 L
1113   72 mt 1113   72 L
SO
1113 1377 mt 1113 1337 L
1113   72 mt 1113  111 L
1003 1533 mt 
(128) s
1555 1377 mt 1555 1357 L
1555   72 mt 1555   91 L
DO
1555 1377 mt 1555   72 L
1555   72 mt 1555   72 L
SO
1555 1377 mt 1555 1357 L
1555   72 mt 1555   91 L
DO
1555 1377 mt 1555   72 L
1555   72 mt 1555   72 L
SO
1555 1377 mt 1555 1357 L
1555   72 mt 1555   91 L
DO
1555 1377 mt 1555   72 L
1555   72 mt 1555   72 L
SO
1555 1377 mt 1555 1357 L
1555   72 mt 1555   91 L
DO
1555 1377 mt 1555   72 L
1555   72 mt 1555   72 L
SO
1555 1377 mt 1555 1357 L
1555   72 mt 1555   91 L
DO
1555 1377 mt 1555   72 L
1555   72 mt 1555   72 L
SO
1555 1377 mt 1555 1357 L
1555   72 mt 1555   91 L
DO
1555 1377 mt 1555   72 L
1555   72 mt 1555   72 L
SO
1555 1377 mt 1555 1357 L
1555   72 mt 1555   91 L
DO
1555 1377 mt 1555   72 L
1555   72 mt 1555   72 L
SO
1555 1377 mt 1555 1357 L
1555   72 mt 1555   91 L
DO
1555 1377 mt 1555   72 L
1555   72 mt 1555   72 L
SO
1555 1377 mt 1555 1357 L
1555   72 mt 1555   91 L
DO
1555 1377 mt 1555   72 L
1555   72 mt 1555   72 L
SO
1555 1377 mt 1555 1337 L
1555   72 mt 1555  111 L
1445 1533 mt 
(256) s
1996 1377 mt 1996 1357 L
1996   72 mt 1996   91 L
DO
1996 1377 mt 1996   72 L
1996   72 mt 1996   72 L
SO
1996 1377 mt 1996 1357 L
1996   72 mt 1996   91 L
DO
1996 1377 mt 1996   72 L
1996   72 mt 1996   72 L
SO
1996 1377 mt 1996 1357 L
1996   72 mt 1996   91 L
DO
1996 1377 mt 1996   72 L
1996   72 mt 1996   72 L
SO
1996 1377 mt 1996 1357 L
1996   72 mt 1996   91 L
DO
1996 1377 mt 1996   72 L
1996   72 mt 1996   72 L
SO
1996 1377 mt 1996 1357 L
1996   72 mt 1996   91 L
DO
1996 1377 mt 1996   72 L
1996   72 mt 1996   72 L
SO
1996 1377 mt 1996 1357 L
1996   72 mt 1996   91 L
DO
1996 1377 mt 1996   72 L
1996   72 mt 1996   72 L
SO
1996 1377 mt 1996 1357 L
1996   72 mt 1996   91 L
DO
1996 1377 mt 1996   72 L
1996   72 mt 1996   72 L
SO
1996 1377 mt 1996 1357 L
1996   72 mt 1996   91 L
DO
1996 1377 mt 1996   72 L
1996   72 mt 1996   72 L
SO
1996 1377 mt 1996 1357 L
1996   72 mt 1996   91 L
DO
1996 1377 mt 1996   72 L
1996   72 mt 1996   72 L
SO
1996 1377 mt 1996 1337 L
1996   72 mt 1996  111 L
1886 1533 mt 
(512) s
2438 1377 mt 2438 1357 L
2438   72 mt 2438   91 L
DO
2438 1377 mt 2438   72 L
2438   72 mt 2438   72 L
SO
2438 1377 mt 2438 1357 L
2438   72 mt 2438   91 L
DO
2438 1377 mt 2438   72 L
2438   72 mt 2438   72 L
SO
2438 1377 mt 2438 1357 L
2438   72 mt 2438   91 L
DO
2438 1377 mt 2438   72 L
2438   72 mt 2438   72 L
SO
2438 1377 mt 2438 1357 L
2438   72 mt 2438   91 L
DO
2438 1377 mt 2438   72 L
2438   72 mt 2438   72 L
SO
2438 1377 mt 2438 1357 L
2438   72 mt 2438   91 L
DO
2438 1377 mt 2438   72 L
2438   72 mt 2438   72 L
SO
2438 1377 mt 2438 1357 L
2438   72 mt 2438   91 L
DO
2438 1377 mt 2438   72 L
2438   72 mt 2438   72 L
SO
2438 1377 mt 2438 1357 L
2438   72 mt 2438   91 L
DO
2438 1377 mt 2438   72 L
2438   72 mt 2438   72 L
SO
2438 1377 mt 2438 1357 L
2438   72 mt 2438   91 L
DO
2438 1377 mt 2438   72 L
2438   72 mt 2438   72 L
SO
2438 1377 mt 2438 1357 L
2438   72 mt 2438   91 L
DO
2438 1377 mt 2438   72 L
2438   72 mt 2438   72 L
SO
2438 1377 mt 2438 1337 L
2438   72 mt 2438  111 L
2358 1533 mt 
(1K) s
2879 1377 mt 2879 1357 L
2879   72 mt 2879   91 L
DO
2879 1377 mt 2879   72 L
2879   72 mt 2879   72 L
SO
2879 1377 mt 2879 1357 L
2879   72 mt 2879   91 L
DO
2879 1377 mt 2879   72 L
2879   72 mt 2879   72 L
SO
2879 1377 mt 2879 1357 L
2879   72 mt 2879   91 L
DO
2879 1377 mt 2879   72 L
2879   72 mt 2879   72 L
SO
2879 1377 mt 2879 1357 L
2879   72 mt 2879   91 L
DO
2879 1377 mt 2879   72 L
2879   72 mt 2879   72 L
SO
2879 1377 mt 2879 1357 L
2879   72 mt 2879   91 L
DO
2879 1377 mt 2879   72 L
2879   72 mt 2879   72 L
SO
2879 1377 mt 2879 1357 L
2879   72 mt 2879   91 L
DO
2879 1377 mt 2879   72 L
2879   72 mt 2879   72 L
SO
2879 1377 mt 2879 1357 L
2879   72 mt 2879   91 L
DO
2879 1377 mt 2879   72 L
2879   72 mt 2879   72 L
SO
2879 1377 mt 2879 1357 L
2879   72 mt 2879   91 L
DO
2879 1377 mt 2879   72 L
2879   72 mt 2879   72 L
SO
2879 1377 mt 2879 1357 L
2879   72 mt 2879   91 L
DO
2879 1377 mt 2879   72 L
2879   72 mt 2879   72 L
SO
2879 1377 mt 2879 1337 L
2879   72 mt 2879  111 L
2799 1533 mt 
(2K) s
3321 1377 mt 3321 1357 L
3321   72 mt 3321   91 L
DO
3321 1377 mt 3321   72 L
3321   72 mt 3321   72 L
SO
3321 1377 mt 3321 1357 L
3321   72 mt 3321   91 L
DO
3321 1377 mt 3321   72 L
3321   72 mt 3321   72 L
SO
3321 1377 mt 3321 1357 L
3321   72 mt 3321   91 L
DO
3321 1377 mt 3321   72 L
3321   72 mt 3321   72 L
SO
3321 1377 mt 3321 1357 L
3321   72 mt 3321   91 L
DO
3321 1377 mt 3321   72 L
3321   72 mt 3321   72 L
SO
3321 1377 mt 3321 1357 L
3321   72 mt 3321   91 L
DO
3321 1377 mt 3321   72 L
3321   72 mt 3321   72 L
SO
3321 1377 mt 3321 1357 L
3321   72 mt 3321   91 L
DO
3321 1377 mt 3321   72 L
3321   72 mt 3321   72 L
SO
3321 1377 mt 3321 1357 L
3321   72 mt 3321   91 L
DO
3321 1377 mt 3321   72 L
3321   72 mt 3321   72 L
SO
3321 1377 mt 3321 1357 L
3321   72 mt 3321   91 L
DO
3321 1377 mt 3321   72 L
3321   72 mt 3321   72 L
SO
3321 1377 mt 3321 1357 L
3321   72 mt 3321   91 L
DO
3321 1377 mt 3321   72 L
3321   72 mt 3321   72 L
SO
3321 1377 mt 3321 1337 L
3321   72 mt 3321  111 L
3241 1533 mt 
(4K) s
3762 1377 mt 3762 1357 L
3762   72 mt 3762   91 L
DO
3762 1377 mt 3762   72 L
3762   72 mt 3762   72 L
SO
3762 1377 mt 3762 1357 L
3762   72 mt 3762   91 L
DO
3762 1377 mt 3762   72 L
3762   72 mt 3762   72 L
SO
3762 1377 mt 3762 1357 L
3762   72 mt 3762   91 L
DO
3762 1377 mt 3762   72 L
3762   72 mt 3762   72 L
SO
3762 1377 mt 3762 1357 L
3762   72 mt 3762   91 L
DO
3762 1377 mt 3762   72 L
3762   72 mt 3762   72 L
SO
3762 1377 mt 3762 1357 L
3762   72 mt 3762   91 L
DO
3762 1377 mt 3762   72 L
3762   72 mt 3762   72 L
SO
3762 1377 mt 3762 1357 L
3762   72 mt 3762   91 L
DO
3762 1377 mt 3762   72 L
3762   72 mt 3762   72 L
SO
3762 1377 mt 3762 1357 L
3762   72 mt 3762   91 L
DO
3762 1377 mt 3762   72 L
3762   72 mt 3762   72 L
SO
3762 1377 mt 3762 1357 L
3762   72 mt 3762   91 L
DO
3762 1377 mt 3762   72 L
3762   72 mt 3762   72 L
SO
3762 1377 mt 3762 1357 L
3762   72 mt 3762   91 L
DO
3762 1377 mt 3762   72 L
3762   72 mt 3762   72 L
SO
3762 1377 mt 3762 1337 L
3762   72 mt 3762  111 L
3682 1533 mt 
(8K) s
4204 1377 mt 4204 1357 L
4204   72 mt 4204   91 L
DO
4204 1377 mt 4204   72 L
4204   72 mt 4204   72 L
SO
4204 1377 mt 4204 1357 L
4204   72 mt 4204   91 L
DO
4204 1377 mt 4204   72 L
4204   72 mt 4204   72 L
SO
4204 1377 mt 4204 1357 L
4204   72 mt 4204   91 L
DO
4204 1377 mt 4204   72 L
4204   72 mt 4204   72 L
SO
4204 1377 mt 4204 1357 L
4204   72 mt 4204   91 L
DO
4204 1377 mt 4204   72 L
4204   72 mt 4204   72 L
SO
4204 1377 mt 4204 1357 L
4204   72 mt 4204   91 L
DO
4204 1377 mt 4204   72 L
4204   72 mt 4204   72 L
SO
4204 1377 mt 4204 1357 L
4204   72 mt 4204   91 L
DO
4204 1377 mt 4204   72 L
4204   72 mt 4204   72 L
SO
4204 1377 mt 4204 1357 L
4204   72 mt 4204   91 L
DO
4204 1377 mt 4204   72 L
4204   72 mt 4204   72 L
SO
4204 1377 mt 4204 1357 L
4204   72 mt 4204   91 L
DO
4204 1377 mt 4204   72 L
4204   72 mt 4204   72 L
SO
4204 1377 mt 4204 1357 L
4204   72 mt 4204   91 L
DO
4204 1377 mt 4204   72 L
4204   72 mt 4204   72 L
SO
4204 1377 mt 4204 1337 L
4204   72 mt 4204  111 L
4087 1533 mt 
(16K) s
4645 1377 mt 4645 1357 L
4645   72 mt 4645   91 L
DO
4645 1377 mt 4645   72 L
4645   72 mt 4645   72 L
SO
4645 1377 mt 4645 1357 L
4645   72 mt 4645   91 L
DO
4645 1377 mt 4645   72 L
4645   72 mt 4645   72 L
SO
4645 1377 mt 4645 1357 L
4645   72 mt 4645   91 L
DO
4645 1377 mt 4645   72 L
4645   72 mt 4645   72 L
SO
4645 1377 mt 4645 1357 L
4645   72 mt 4645   91 L
DO
4645 1377 mt 4645   72 L
4645   72 mt 4645   72 L
SO
4645 1377 mt 4645 1357 L
4645   72 mt 4645   91 L
DO
4645 1377 mt 4645   72 L
4645   72 mt 4645   72 L
SO
4645 1377 mt 4645 1357 L
4645   72 mt 4645   91 L
DO
4645 1377 mt 4645   72 L
4645   72 mt 4645   72 L
SO
4645 1377 mt 4645 1357 L
4645   72 mt 4645   91 L
DO
4645 1377 mt 4645   72 L
4645   72 mt 4645   72 L
SO
4645 1377 mt 4645 1357 L
4645   72 mt 4645   91 L
DO
4645 1377 mt 4645   72 L
4645   72 mt 4645   72 L
SO
4645 1377 mt 4645 1357 L
4645   72 mt 4645   91 L
DO
4645 1377 mt 4645   72 L
4645   72 mt 4645   72 L
SO
4645 1377 mt 4645 1337 L
4645   72 mt 4645  111 L
4528 1533 mt 
(32K) s
 672 1245 mt  711 1245 L
4665 1245 mt 4625 1245 L
 454 1293 mt 
(0.3) s
 672 1098 mt  711 1098 L
4665 1098 mt 4625 1098 L
 454 1146 mt 
(0.4) s
 672  951 mt  711  951 L
4665  951 mt 4625  951 L
 454  999 mt 
(0.5) s
 672  805 mt  711  805 L
4665  805 mt 4625  805 L
 454  853 mt 
(0.6) s
 672  658 mt  711  658 L
4665  658 mt 4625  658 L
 454  706 mt 
(0.7) s
 672  511 mt  711  511 L
4665  511 mt 4625  511 L
 454  559 mt 
(0.8) s
 672  365 mt  711  365 L
4665  365 mt 4625  365 L
 454  413 mt 
(0.9) s
 672  218 mt  711  218 L
4665  218 mt 4625  218 L
 564  266 mt 
(1) s
 672 1377 mt 4665 1377 L
 672   72 mt 4665   72 L
 672 1377 mt  672   72 L
4665 1377 mt 4665   72 L
gs 672 72 3994 1306 rc
12 w
c8
441 326 442 238 441 133 442 56 441 19 442 0 441 -22 442 75 
441 41 672 218 10 MP stroke
gr

12 w
c8
 636  218 mt  708  218 L
 672  182 mt  672  254 L
1077  259 mt 1149  259 L
1113  223 mt 1113  295 L
1519  334 mt 1591  334 L
1555  298 mt 1555  370 L
1960  312 mt 2032  312 L
1996  276 mt 1996  348 L
2402  312 mt 2474  312 L
2438  276 mt 2438  348 L
2843  331 mt 2915  331 L
2879  295 mt 2879  367 L
3285  387 mt 3357  387 L
3321  351 mt 3321  423 L
3726  520 mt 3798  520 L
3762  484 mt 3762  556 L
4168  758 mt 4240  758 L
4204  722 mt 4204  794 L
4609 1084 mt 4681 1084 L
4645 1048 mt 4645 1120 L
gs 672 72 3994 1306 rc
gr

0 sg
 187 1239 mt  -90 rotate
(Scaling efficiency) s
90 rotate
gs 672 72 3994 1306 rc
c9
441 542 442 152 441 190 442 89 441 16 442 6 441 5 442 11 
441 20 672 218 10 MP stroke
gr

c9
  36   36  672  218 FO
  36   36 1113  238 FO
  36   36 1555  249 FO
  36   36 1996  254 FO
  36   36 2438  260 FO
  36   36 2879  276 FO
  36   36 3321  365 FO
  36   36 3762  555 FO
  36   36 4204  707 FO
  36   36 4645 1249 FO
gs 672 72 3994 1306 rc
6 w
gr

6 w
1 sg
0 607 1512 0 0 -607 856 2395 4 MP
PP
-1512 0 0 607 1512 0 0 -607 856 2395 5 MP stroke
4 w
DO
SO
6 w
0 sg
 856 2395 mt 2368 2395 L
 856 1788 mt 2368 1788 L
 856 2395 mt  856 1788 L
2368 2395 mt 2368 1788 L
 856 2395 mt 2368 2395 L
 856 2395 mt  856 1788 L
 856 2395 mt 2368 2395 L
 856 1788 mt 2368 1788 L
 856 2395 mt  856 1788 L
2368 2395 mt 2368 1788 L
1324 1950 mt 
(Med ES, No Coll) s
gs 856 1788 1513 608 rc
12 w
c8
360 0 928 1903 2 MP stroke
gr

12 w
c8
1072 1903 mt 1144 1903 L
1108 1867 mt 1108 1939 L
gs 856 1788 1513 608 rc
gr

0 sg
1324 2139 mt 
(Med ES Coll) s
gs 856 1788 1513 608 rc
c9
360 0 928 2091 2 MP stroke
gr

c9
  36   36 1108 2091 FO
gs 856 1788 1513 608 rc
gr

0 sg
1324 2328 mt 
(Linear) s
gs 856 1788 1513 608 rc
DA
6 w
360 0 928 2279 2 MP stroke
SO
gr

6 w

end %%Color Dict

eplot
%%EndObject

epage
end

showpage

%%Trailer
%%EOF
