%!PS-Adobe-3.0 EPSF-3.0
%%Creator: MATLAB, The Mathworks, Inc. Version 7.9.0.529 (R2009b). Operating System: Linux 3.0.74-0.6.6-default #1 SMP Thu May 16 14:06:37 CEST 2013 x86_64.
%%Title: /afs/ipp-garching.mpg.de/home/f/fjc/gkw_clean/doc/scaling/nonspectral2/scaling-helios-large3.eps
%%CreationDate: 07/16/2013  18:39:57
%%DocumentNeededFonts: Helvetica
%%DocumentProcessColors: Cyan Magenta Yellow Black
%%LanguageLevel: 2
%%Pages: 1
%%BoundingBox:   133   205   477   587
%%EndComments

%%BeginProlog
% MathWorks dictionary
/MathWorks 160 dict begin
% definition operators
/bdef {bind def} bind def
/ldef {load def} bind def
/xdef {exch def} bdef
/xstore {exch store} bdef
% operator abbreviations
/c  /clip ldef
/cc /concat ldef
/cp /closepath ldef
/gr /grestore ldef
/gs /gsave ldef
/mt /moveto ldef
/np /newpath ldef
/cm /currentmatrix ldef
/sm /setmatrix ldef
/rm /rmoveto ldef
/rl /rlineto ldef
/s {show newpath} bdef
/sc {setcmykcolor} bdef
/sr /setrgbcolor ldef
/sg /setgray ldef
/w /setlinewidth ldef
/j /setlinejoin ldef
/cap /setlinecap ldef
/rc {rectclip} bdef
/rf {rectfill} bdef
% page state control
/pgsv () def
/bpage {/pgsv save def} bdef
/epage {pgsv restore} bdef
/bplot /gsave ldef
/eplot {stroke grestore} bdef
% orientation switch
/portraitMode 0 def /landscapeMode 1 def /rotateMode 2 def
% coordinate system mappings
/dpi2point 0 def
% font control
/FontSize 0 def
/FMS {/FontSize xstore findfont [FontSize 0 0 FontSize neg 0 0]
  makefont setfont} bdef
/reencode {exch dup where {pop load} {pop StandardEncoding} ifelse
  exch dup 3 1 roll findfont dup length dict begin
  { 1 index /FID ne {def}{pop pop} ifelse } forall
  /Encoding exch def currentdict end definefont pop} bdef
/isroman {findfont /CharStrings get /Agrave known} bdef
/FMSR {3 1 roll 1 index dup isroman {reencode} {pop pop} ifelse
  exch FMS} bdef
/csm {1 dpi2point div -1 dpi2point div scale neg translate
 dup landscapeMode eq {pop -90 rotate}
  {rotateMode eq {90 rotate} if} ifelse} bdef
% line types: solid, dotted, dashed, dotdash
/SO { [] 0 setdash } bdef
/DO { [.5 dpi2point mul 4 dpi2point mul] 0 setdash } bdef
/DA { [6 dpi2point mul] 0 setdash } bdef
/DD { [.5 dpi2point mul 4 dpi2point mul 6 dpi2point mul 4
  dpi2point mul] 0 setdash } bdef
% macros for lines and objects
/L {lineto stroke} bdef
/MP {3 1 roll moveto 1 sub {rlineto} repeat} bdef
/AP {{rlineto} repeat} bdef
/PDlw -1 def
/W {/PDlw currentlinewidth def setlinewidth} def
/PP {closepath eofill} bdef
/DP {closepath stroke} bdef
/MR {4 -2 roll moveto dup  0 exch rlineto exch 0 rlineto
  neg 0 exch rlineto closepath} bdef
/FR {MR stroke} bdef
/PR {MR fill} bdef
/L1i {{currentfile picstr readhexstring pop} image} bdef
/tMatrix matrix def
/MakeOval {newpath tMatrix currentmatrix pop translate scale
0 0 1 0 360 arc tMatrix setmatrix} bdef
/FO {MakeOval stroke} bdef
/PO {MakeOval fill} bdef
/PD {currentlinewidth 2 div 0 360 arc fill
   PDlw -1 eq not {PDlw w /PDlw -1 def} if} def
/FA {newpath tMatrix currentmatrix pop translate scale
  0 0 1 5 -2 roll arc tMatrix setmatrix stroke} bdef
/PA {newpath tMatrix currentmatrix pop	translate 0 0 moveto scale
  0 0 1 5 -2 roll arc closepath tMatrix setmatrix fill} bdef
/FAn {newpath tMatrix currentmatrix pop translate scale
  0 0 1 5 -2 roll arcn tMatrix setmatrix stroke} bdef
/PAn {newpath tMatrix currentmatrix pop translate 0 0 moveto scale
  0 0 1 5 -2 roll arcn closepath tMatrix setmatrix fill} bdef
/vradius 0 def /hradius 0 def /lry 0 def
/lrx 0 def /uly 0 def /ulx 0 def /rad 0 def
/MRR {/vradius xdef /hradius xdef /lry xdef /lrx xdef /uly xdef
  /ulx xdef newpath tMatrix currentmatrix pop ulx hradius add uly
  vradius add translate hradius vradius scale 0 0 1 180 270 arc 
  tMatrix setmatrix lrx hradius sub uly vradius add translate
  hradius vradius scale 0 0 1 270 360 arc tMatrix setmatrix
  lrx hradius sub lry vradius sub translate hradius vradius scale
  0 0 1 0 90 arc tMatrix setmatrix ulx hradius add lry vradius sub
  translate hradius vradius scale 0 0 1 90 180 arc tMatrix setmatrix
  closepath} bdef
/FRR {MRR stroke } bdef
/PRR {MRR fill } bdef
/MlrRR {/lry xdef /lrx xdef /uly xdef /ulx xdef /rad lry uly sub 2 div def
  newpath tMatrix currentmatrix pop ulx rad add uly rad add translate
  rad rad scale 0 0 1 90 270 arc tMatrix setmatrix lrx rad sub lry rad
  sub translate rad rad scale 0 0 1 270 90 arc tMatrix setmatrix
  closepath} bdef
/FlrRR {MlrRR stroke } bdef
/PlrRR {MlrRR fill } bdef
/MtbRR {/lry xdef /lrx xdef /uly xdef /ulx xdef /rad lrx ulx sub 2 div def
  newpath tMatrix currentmatrix pop ulx rad add uly rad add translate
  rad rad scale 0 0 1 180 360 arc tMatrix setmatrix lrx rad sub lry rad
  sub translate rad rad scale 0 0 1 0 180 arc tMatrix setmatrix
  closepath} bdef
/FtbRR {MtbRR stroke } bdef
/PtbRR {MtbRR fill } bdef
/stri 6 array def /dtri 6 array def
/smat 6 array def /dmat 6 array def
/tmat1 6 array def /tmat2 6 array def /dif 3 array def
/asub {/ind2 exch def /ind1 exch def dup dup
  ind1 get exch ind2 get sub exch } bdef
/tri_to_matrix {
  2 0 asub 3 1 asub 4 0 asub 5 1 asub
  dup 0 get exch 1 get 7 -1 roll astore } bdef
/compute_transform {
  dmat dtri tri_to_matrix tmat1 invertmatrix 
  smat stri tri_to_matrix tmat2 concatmatrix } bdef
/ds {stri astore pop} bdef
/dt {dtri astore pop} bdef
/db {2 copy /cols xdef /rows xdef mul dup 3 mul string
  currentfile 
  3 index 0 eq {/ASCIIHexDecode filter}
  {/ASCII85Decode filter 3 index 2 eq {/RunLengthDecode filter} if }
  ifelse exch readstring pop
  dup 0 3 index getinterval /rbmap xdef
  dup 2 index dup getinterval /gbmap xdef
  1 index dup 2 mul exch getinterval /bbmap xdef pop pop}bdef
/it {gs np dtri aload pop moveto lineto lineto cp c
  cols rows 8 compute_transform 
  rbmap gbmap bbmap true 3 colorimage gr}bdef
/il {newpath moveto lineto stroke}bdef
currentdict end def
%%EndProlog

%%BeginSetup
MathWorks begin

0 cap

end
%%EndSetup

%%Page: 1 1
%%BeginPageSetup
%%PageBoundingBox:   133   205   477   587
MathWorks begin
bpage
%%EndPageSetup

%%BeginObject: obj1
bplot

/dpi2point 12 def
portraitMode 1596 7044 csm

    0     0  4128  4579 rc
85 dict begin %Colortable dictionary
/c0 { 0.000000 0.000000 0.000000 sr} bdef
/c1 { 1.000000 1.000000 1.000000 sr} bdef
/c2 { 0.900000 0.000000 0.000000 sr} bdef
/c3 { 0.000000 0.820000 0.000000 sr} bdef
/c4 { 0.000000 0.000000 0.800000 sr} bdef
/c5 { 0.910000 0.820000 0.320000 sr} bdef
/c6 { 1.000000 0.260000 0.820000 sr} bdef
/c7 { 0.000000 0.820000 0.820000 sr} bdef
c0
1 j
1 sg
   0    0 4129 4580 rf
6 w
0 2347 3280 0 0 -2347 634 4171 4 MP
PP
-3280 0 0 2347 3280 0 0 -2347 634 4171 5 MP stroke
4 w
DO
0 sg
 634 4171 mt  634 1824 L
 634 1824 mt  634 1824 L
1178 4171 mt 1178 1824 L
1178 1824 mt 1178 1824 L
1723 4171 mt 1723 1824 L
1723 1824 mt 1723 1824 L
2268 4171 mt 2268 1824 L
2268 1824 mt 2268 1824 L
2813 4171 mt 2813 1824 L
2813 1824 mt 2813 1824 L
3358 4171 mt 3358 1824 L
3358 1824 mt 3358 1824 L
3903 4171 mt 3903 1824 L
3903 1824 mt 3903 1824 L
SO
6 w
 634 4171 mt 3914 4171 L
 634 1824 mt 3914 1824 L
 634 4171 mt  634 1824 L
3914 4171 mt 3914 1824 L
 634 4171 mt 3914 4171 L
 634 4171 mt  634 1824 L
 634 4171 mt  634 4171 L
 634 4171 mt  634 4171 L
DO
 634 4171 mt  634 4171 L
 634 4171 mt  634 4171 L
SO
 634 4171 mt  634 4171 L
 634 4171 mt  634 4171 L
DO
 634 4171 mt  634 4171 L
 634 4171 mt  634 4171 L
SO
 634 4171 mt  634 4171 L
 634 4171 mt  634 4171 L
DO
 634 4171 mt  634 4171 L
 634 4171 mt  634 4171 L
SO
 634 4171 mt  634 4171 L
 634 4171 mt  634 4171 L
DO
 634 4171 mt  634 4171 L
 634 4171 mt  634 4171 L
SO
 634 4171 mt  634 4171 L
 634 4171 mt  634 4171 L
DO
 634 4171 mt  634 4171 L
 634 4171 mt  634 4171 L
SO
 634 4171 mt  634 4171 L
 634 4171 mt  634 4171 L
DO
 634 4171 mt  634 4171 L
 634 4171 mt  634 4171 L
SO
 634 4171 mt  634 4171 L
 634 4171 mt  634 4171 L
DO
 634 4171 mt  634 4171 L
 634 4171 mt  634 4171 L
SO
 634 4171 mt  634 4171 L
 634 4171 mt  634 4171 L
DO
 634 4171 mt  634 4171 L
 634 4171 mt  634 4171 L
SO
 634 4171 mt  634 4171 L
 634 4171 mt  634 4171 L
DO
 634 4171 mt  634 4171 L
 634 4171 mt  634 4171 L
SO
 634 4171 mt  634 4138 L
 634 1824 mt  634 1856 L
%%IncludeResource: font Helvetica
/Helvetica /ISOLatin1Encoding 132 FMSR

 554 4327 mt 
(1K) s
 634 4171 mt  634 4171 L
 634 4171 mt  634 4171 L
DO
 634 4171 mt  634 4171 L
 634 4171 mt  634 4171 L
SO
 634 4171 mt  634 4171 L
 634 4171 mt  634 4171 L
DO
 634 4171 mt  634 4171 L
 634 4171 mt  634 4171 L
SO
 634 4171 mt  634 4171 L
 634 4171 mt  634 4171 L
DO
 634 4171 mt  634 4171 L
 634 4171 mt  634 4171 L
SO
 634 4171 mt  634 4171 L
 634 4171 mt  634 4171 L
DO
 634 4171 mt  634 4171 L
 634 4171 mt  634 4171 L
SO
 634 4171 mt  634 4171 L
 634 4171 mt  634 4171 L
DO
 634 4171 mt  634 4171 L
 634 4171 mt  634 4171 L
SO
 634 4171 mt  634 4171 L
 634 4171 mt  634 4171 L
DO
 634 4171 mt  634 4171 L
 634 4171 mt  634 4171 L
SO
 634 4171 mt  634 4171 L
 634 4171 mt  634 4171 L
DO
 634 4171 mt  634 4171 L
 634 4171 mt  634 4171 L
SO
 634 4171 mt  634 4171 L
 634 4171 mt  634 4171 L
DO
 634 4171 mt  634 4171 L
 634 4171 mt  634 4171 L
SO
 634 4171 mt  634 4171 L
 634 4171 mt  634 4171 L
DO
 634 4171 mt  634 4171 L
 634 4171 mt  634 4171 L
SO
1178 4171 mt 1178 4138 L
1178 1824 mt 1178 1856 L
1098 4327 mt 
(2K) s
 634 4171 mt  634 4171 L
 634 4171 mt  634 4171 L
DO
 634 4171 mt  634 4171 L
 634 4171 mt  634 4171 L
SO
 634 4171 mt  634 4171 L
 634 4171 mt  634 4171 L
DO
 634 4171 mt  634 4171 L
 634 4171 mt  634 4171 L
SO
 634 4171 mt  634 4171 L
 634 4171 mt  634 4171 L
DO
 634 4171 mt  634 4171 L
 634 4171 mt  634 4171 L
SO
 634 4171 mt  634 4171 L
 634 4171 mt  634 4171 L
DO
 634 4171 mt  634 4171 L
 634 4171 mt  634 4171 L
SO
 634 4171 mt  634 4171 L
 634 4171 mt  634 4171 L
DO
 634 4171 mt  634 4171 L
 634 4171 mt  634 4171 L
SO
 634 4171 mt  634 4171 L
 634 4171 mt  634 4171 L
DO
 634 4171 mt  634 4171 L
 634 4171 mt  634 4171 L
SO
 634 4171 mt  634 4171 L
 634 4171 mt  634 4171 L
DO
 634 4171 mt  634 4171 L
 634 4171 mt  634 4171 L
SO
 634 4171 mt  634 4171 L
 634 4171 mt  634 4171 L
DO
 634 4171 mt  634 4171 L
 634 4171 mt  634 4171 L
SO
 634 4171 mt  634 4171 L
 634 4171 mt  634 4171 L
DO
 634 4171 mt  634 4171 L
 634 4171 mt  634 4171 L
SO
1723 4171 mt 1723 4138 L
1723 1824 mt 1723 1856 L
1643 4327 mt 
(4K) s
 634 4171 mt  634 4171 L
 634 4171 mt  634 4171 L
DO
 634 4171 mt  634 4171 L
 634 4171 mt  634 4171 L
SO
 634 4171 mt  634 4171 L
 634 4171 mt  634 4171 L
DO
 634 4171 mt  634 4171 L
 634 4171 mt  634 4171 L
SO
 634 4171 mt  634 4171 L
 634 4171 mt  634 4171 L
DO
 634 4171 mt  634 4171 L
 634 4171 mt  634 4171 L
SO
 634 4171 mt  634 4171 L
 634 4171 mt  634 4171 L
DO
 634 4171 mt  634 4171 L
 634 4171 mt  634 4171 L
SO
 634 4171 mt  634 4171 L
 634 4171 mt  634 4171 L
DO
 634 4171 mt  634 4171 L
 634 4171 mt  634 4171 L
SO
 634 4171 mt  634 4171 L
 634 4171 mt  634 4171 L
DO
 634 4171 mt  634 4171 L
 634 4171 mt  634 4171 L
SO
 634 4171 mt  634 4171 L
 634 4171 mt  634 4171 L
DO
 634 4171 mt  634 4171 L
 634 4171 mt  634 4171 L
SO
 634 4171 mt  634 4171 L
 634 4171 mt  634 4171 L
DO
 634 4171 mt  634 4171 L
 634 4171 mt  634 4171 L
SO
 634 4171 mt  634 4171 L
 634 4171 mt  634 4171 L
DO
 634 4171 mt  634 4171 L
 634 4171 mt  634 4171 L
SO
2268 4171 mt 2268 4138 L
2268 1824 mt 2268 1856 L
2188 4327 mt 
(8K) s
 634 4171 mt  634 4171 L
 634 4171 mt  634 4171 L
DO
 634 4171 mt  634 4171 L
 634 4171 mt  634 4171 L
SO
 634 4171 mt  634 4171 L
 634 4171 mt  634 4171 L
DO
 634 4171 mt  634 4171 L
 634 4171 mt  634 4171 L
SO
 634 4171 mt  634 4171 L
 634 4171 mt  634 4171 L
DO
 634 4171 mt  634 4171 L
 634 4171 mt  634 4171 L
SO
 634 4171 mt  634 4171 L
 634 4171 mt  634 4171 L
DO
 634 4171 mt  634 4171 L
 634 4171 mt  634 4171 L
SO
 634 4171 mt  634 4171 L
 634 4171 mt  634 4171 L
DO
 634 4171 mt  634 4171 L
 634 4171 mt  634 4171 L
SO
 634 4171 mt  634 4171 L
 634 4171 mt  634 4171 L
DO
 634 4171 mt  634 4171 L
 634 4171 mt  634 4171 L
SO
 634 4171 mt  634 4171 L
 634 4171 mt  634 4171 L
DO
 634 4171 mt  634 4171 L
 634 4171 mt  634 4171 L
SO
 634 4171 mt  634 4171 L
 634 4171 mt  634 4171 L
DO
 634 4171 mt  634 4171 L
 634 4171 mt  634 4171 L
SO
 634 4171 mt  634 4171 L
 634 4171 mt  634 4171 L
DO
 634 4171 mt  634 4171 L
 634 4171 mt  634 4171 L
SO
2813 4171 mt 2813 4138 L
2813 1824 mt 2813 1856 L
2696 4327 mt 
(16K) s
 634 4171 mt  634 4171 L
 634 4171 mt  634 4171 L
DO
 634 4171 mt  634 4171 L
 634 4171 mt  634 4171 L
SO
 634 4171 mt  634 4171 L
 634 4171 mt  634 4171 L
DO
 634 4171 mt  634 4171 L
 634 4171 mt  634 4171 L
SO
 634 4171 mt  634 4171 L
 634 4171 mt  634 4171 L
DO
 634 4171 mt  634 4171 L
 634 4171 mt  634 4171 L
SO
 634 4171 mt  634 4171 L
 634 4171 mt  634 4171 L
DO
 634 4171 mt  634 4171 L
 634 4171 mt  634 4171 L
SO
 634 4171 mt  634 4171 L
 634 4171 mt  634 4171 L
DO
 634 4171 mt  634 4171 L
 634 4171 mt  634 4171 L
SO
 634 4171 mt  634 4171 L
 634 4171 mt  634 4171 L
DO
 634 4171 mt  634 4171 L
 634 4171 mt  634 4171 L
SO
 634 4171 mt  634 4171 L
 634 4171 mt  634 4171 L
DO
 634 4171 mt  634 4171 L
 634 4171 mt  634 4171 L
SO
 634 4171 mt  634 4171 L
 634 4171 mt  634 4171 L
DO
 634 4171 mt  634 4171 L
 634 4171 mt  634 4171 L
SO
 634 4171 mt  634 4171 L
 634 4171 mt  634 4171 L
DO
 634 4171 mt  634 4171 L
 634 4171 mt  634 4171 L
SO
3358 4171 mt 3358 4138 L
3358 1824 mt 3358 1856 L
3241 4327 mt 
(32K) s
 634 4171 mt  634 4171 L
 634 4171 mt  634 4171 L
DO
 634 4171 mt  634 4171 L
 634 4171 mt  634 4171 L
SO
 634 4171 mt  634 4171 L
 634 4171 mt  634 4171 L
DO
 634 4171 mt  634 4171 L
 634 4171 mt  634 4171 L
SO
 634 4171 mt  634 4171 L
 634 4171 mt  634 4171 L
DO
 634 4171 mt  634 4171 L
 634 4171 mt  634 4171 L
SO
 634 4171 mt  634 4171 L
 634 4171 mt  634 4171 L
DO
 634 4171 mt  634 4171 L
 634 4171 mt  634 4171 L
SO
 634 4171 mt  634 4171 L
 634 4171 mt  634 4171 L
DO
 634 4171 mt  634 4171 L
 634 4171 mt  634 4171 L
SO
 634 4171 mt  634 4171 L
 634 4171 mt  634 4171 L
DO
 634 4171 mt  634 4171 L
 634 4171 mt  634 4171 L
SO
 634 4171 mt  634 4171 L
 634 4171 mt  634 4171 L
DO
 634 4171 mt  634 4171 L
 634 4171 mt  634 4171 L
SO
 634 4171 mt  634 4171 L
 634 4171 mt  634 4171 L
DO
 634 4171 mt  634 4171 L
 634 4171 mt  634 4171 L
SO
 634 4171 mt  634 4171 L
 634 4171 mt  634 4171 L
DO
 634 4171 mt  634 4171 L
 634 4171 mt  634 4171 L
SO
3903 4171 mt 3903 4138 L
3903 1824 mt 3903 1856 L
3786 4327 mt 
(64K) s
 634 4171 mt  634 4171 L
 634 4171 mt  634 4171 L
DO
 634 4171 mt  634 4171 L
 634 4171 mt  634 4171 L
SO
 634 4171 mt  634 4171 L
 634 4171 mt  634 4171 L
DO
 634 4171 mt  634 4171 L
 634 4171 mt  634 4171 L
SO
 634 4171 mt  634 4171 L
 634 4171 mt  634 4171 L
DO
 634 4171 mt  634 4171 L
 634 4171 mt  634 4171 L
SO
 634 4171 mt  634 4171 L
 634 4171 mt  634 4171 L
DO
 634 4171 mt  634 4171 L
 634 4171 mt  634 4171 L
SO
 634 4171 mt  634 4171 L
 634 4171 mt  634 4171 L
DO
 634 4171 mt  634 4171 L
 634 4171 mt  634 4171 L
SO
 634 4171 mt  634 4171 L
 634 4171 mt  634 4171 L
DO
 634 4171 mt  634 4171 L
 634 4171 mt  634 4171 L
SO
 634 4171 mt  634 4171 L
 634 4171 mt  634 4171 L
DO
 634 4171 mt  634 4171 L
 634 4171 mt  634 4171 L
SO
 634 4171 mt  634 4171 L
 634 4171 mt  634 4171 L
DO
 634 4171 mt  634 4171 L
 634 4171 mt  634 4171 L
SO
 634 4171 mt  634 4171 L
 634 4171 mt  634 4171 L
DO
 634 4171 mt  634 4171 L
 634 4171 mt  634 4171 L
SO
 634 4171 mt  634 4171 L
 634 4171 mt  634 4171 L
 634 4171 mt  634 4171 L
 634 4171 mt  634 4171 L
 634 4171 mt  634 4171 L
 634 4171 mt  634 4171 L
 634 4171 mt  634 4171 L
 634 4171 mt  634 4171 L
 634 4171 mt  634 4171 L
 634 4171 mt  634 4171 L
 634 4171 mt  634 4171 L
 634 4171 mt  634 4171 L
 634 4171 mt  634 4171 L
 634 4171 mt  634 4171 L
 634 4171 mt  634 4171 L
 634 4171 mt  634 4171 L
 634 4171 mt  634 4171 L
 634 4171 mt  634 4171 L
 634 4171 mt  666 4171 L
3915 4171 mt 3882 4171 L
 306 4219 mt 
(1024) s
 634 4171 mt  634 4171 L
 634 4171 mt  634 4171 L
 634 4171 mt  634 4171 L
 634 4171 mt  634 4171 L
 634 4171 mt  634 4171 L
 634 4171 mt  634 4171 L
 634 4171 mt  634 4171 L
 634 4171 mt  634 4171 L
 634 4171 mt  634 4171 L
 634 4171 mt  634 4171 L
 634 4171 mt  634 4171 L
 634 4171 mt  634 4171 L
 634 4171 mt  634 4171 L
 634 4171 mt  634 4171 L
 634 4171 mt  634 4171 L
 634 4171 mt  634 4171 L
 634 4171 mt  634 4171 L
 634 4171 mt  634 4171 L
 634 3781 mt  666 3781 L
3915 3781 mt 3882 3781 L
 306 3829 mt 
(2048) s
 634 4171 mt  634 4171 L
 634 4171 mt  634 4171 L
 634 4171 mt  634 4171 L
 634 4171 mt  634 4171 L
 634 4171 mt  634 4171 L
 634 4171 mt  634 4171 L
 634 4171 mt  634 4171 L
 634 4171 mt  634 4171 L
 634 4171 mt  634 4171 L
 634 4171 mt  634 4171 L
 634 4171 mt  634 4171 L
 634 4171 mt  634 4171 L
 634 4171 mt  634 4171 L
 634 4171 mt  634 4171 L
 634 4171 mt  634 4171 L
 634 4171 mt  634 4171 L
 634 4171 mt  634 4171 L
 634 4171 mt  634 4171 L
 634 3391 mt  666 3391 L
3915 3391 mt 3882 3391 L
 306 3439 mt 
(4096) s
 634 4171 mt  634 4171 L
 634 4171 mt  634 4171 L
 634 4171 mt  634 4171 L
 634 4171 mt  634 4171 L
 634 4171 mt  634 4171 L
 634 4171 mt  634 4171 L
 634 4171 mt  634 4171 L
 634 4171 mt  634 4171 L
 634 4171 mt  634 4171 L
 634 4171 mt  634 4171 L
 634 4171 mt  634 4171 L
 634 4171 mt  634 4171 L
 634 4171 mt  634 4171 L
 634 4171 mt  634 4171 L
 634 4171 mt  634 4171 L
 634 4171 mt  634 4171 L
 634 4171 mt  634 4171 L
 634 4171 mt  634 4171 L
 634 3001 mt  666 3001 L
3915 3001 mt 3882 3001 L
 306 3049 mt 
(8192) s
 634 4171 mt  634 4171 L
 634 4171 mt  634 4171 L
 634 4171 mt  634 4171 L
 634 4171 mt  634 4171 L
 634 4171 mt  634 4171 L
 634 4171 mt  634 4171 L
 634 4171 mt  634 4171 L
 634 4171 mt  634 4171 L
 634 4171 mt  634 4171 L
 634 4171 mt  634 4171 L
 634 4171 mt  634 4171 L
 634 4171 mt  634 4171 L
 634 4171 mt  634 4171 L
 634 4171 mt  634 4171 L
 634 4171 mt  634 4171 L
 634 4171 mt  634 4171 L
 634 4171 mt  634 4171 L
 634 4171 mt  634 4171 L
 634 2612 mt  666 2612 L
3915 2612 mt 3882 2612 L
 233 2660 mt 
(16384) s
 634 4171 mt  634 4171 L
 634 4171 mt  634 4171 L
 634 4171 mt  634 4171 L
 634 4171 mt  634 4171 L
 634 4171 mt  634 4171 L
 634 4171 mt  634 4171 L
 634 4171 mt  634 4171 L
 634 4171 mt  634 4171 L
 634 4171 mt  634 4171 L
 634 4171 mt  634 4171 L
 634 4171 mt  634 4171 L
 634 4171 mt  634 4171 L
 634 4171 mt  634 4171 L
 634 4171 mt  634 4171 L
 634 4171 mt  634 4171 L
 634 4171 mt  634 4171 L
 634 4171 mt  634 4171 L
 634 4171 mt  634 4171 L
 634 2222 mt  666 2222 L
3915 2222 mt 3882 2222 L
 233 2270 mt 
(32768) s
 634 4171 mt  634 4171 L
 634 4171 mt  634 4171 L
 634 4171 mt  634 4171 L
 634 4171 mt  634 4171 L
 634 4171 mt  634 4171 L
 634 4171 mt  634 4171 L
 634 4171 mt  634 4171 L
 634 4171 mt  634 4171 L
 634 4171 mt  634 4171 L
 634 4171 mt  634 4171 L
 634 4171 mt  634 4171 L
 634 4171 mt  634 4171 L
 634 4171 mt  634 4171 L
 634 4171 mt  634 4171 L
 634 4171 mt  634 4171 L
 634 4171 mt  634 4171 L
 634 4171 mt  634 4171 L
 634 4171 mt  634 4171 L
 634 1832 mt  666 1832 L
3915 1832 mt 3882 1832 L
 233 1880 mt 
(65536) s
 634 4171 mt  634 4171 L
 634 4171 mt  634 4171 L
 634 4171 mt  634 4171 L
 634 4171 mt  634 4171 L
 634 4171 mt  634 4171 L
 634 4171 mt  634 4171 L
 634 4171 mt  634 4171 L
 634 4171 mt  634 4171 L
 634 4171 mt  634 4171 L
 634 4171 mt  634 4171 L
 634 4171 mt  634 4171 L
 634 4171 mt  634 4171 L
 634 4171 mt  634 4171 L
 634 4171 mt  634 4171 L
 634 4171 mt  634 4171 L
 634 4171 mt  634 4171 L
 634 4171 mt  634 4171 L
 634 4171 mt  634 4171 L
 634 4171 mt 3914 4171 L
 634 1824 mt 3914 1824 L
 634 4171 mt  634 1824 L
3914 4171 mt 3914 1824 L
gs 634 1824 3282 2348 rc
12 w
/c8 { 0.000000 0.000000 1.000000 sr} bdef
c8
545 -224 545 -361 545 -348 545 -394 545 -394 544 -395 634 4171 7 MP stroke
gr

12 w
c8
  36   36  634 4171 FO
  36   36 1178 3776 FO
  36   36 1723 3382 FO
  36   36 2268 2988 FO
  36   36 2813 2640 FO
  36   36 3358 2279 FO
  36   36 3903 2055 FO
gs 634 1824 3282 2348 rc
gr

0 sg
2084 4503 mt 
(Cores) s
 149 3262 mt  -90 rotate
(Speedup) s
90 rotate
gs 634 1824 3282 2348 rc
/c9 { 1.000000 0.000000 0.000000 sr} bdef
c9
545 -135 545 -326 545 -317 545 -376 545 -417 1178 3781 6 MP stroke
gr

c9
0 j
36 47 -36 47 -36 -47 36 -47 1178 3828 5 MP
DP
36 47 -36 47 -36 -47 36 -47 1723 3411 5 MP
DP
36 47 -36 47 -36 -47 36 -47 2268 3035 5 MP
DP
36 47 -36 47 -36 -47 36 -47 2813 2718 5 MP
DP
36 47 -36 47 -36 -47 36 -47 3358 2392 5 MP
DP
36 47 -36 47 -36 -47 36 -47 3903 2257 5 MP
DP
gs 634 1824 3282 2348 rc
gr

0 sg
%%IncludeResource: font Helvetica
/Helvetica /ISOLatin1Encoding 120 FMSR

 617 4214 mt 
( ) s
3899 1866 mt 
( ) s
gs 634 1824 3282 2348 rc
DA
6 w
c9
545 -265 3358 2335 2 MP stroke
gr

6 w
c9
DA
SO
36 47 -36 47 -36 -47 36 -47 3358 2382 5 MP
gs
PP
gr
DP
36 47 -36 47 -36 -47 36 -47 3903 2117 5 MP
gs
PP
gr
DP
DA
gs 634 1824 3282 2348 rc
0 sg
545 -390 545 -390 545 -389 545 -390 545 -390 544 -390 634 4171 7 MP stroke
SO
gr

0 sg
SO
1 sg
0 1632 3279 0 0 -1632 635 1824 4 MP
PP
-3279 0 0 1632 3279 0 0 -1632 635 1824 5 MP stroke
4 w
DO
0 sg
 635 1824 mt  635  192 L
 635  192 mt  635  192 L
1179 1824 mt 1179  192 L
1179  192 mt 1179  192 L
1724 1824 mt 1724  192 L
1724  192 mt 1724  192 L
2269 1824 mt 2269  192 L
2269  192 mt 2269  192 L
2813 1824 mt 2813  192 L
2813  192 mt 2813  192 L
3358 1824 mt 3358  192 L
3358  192 mt 3358  192 L
3903 1824 mt 3903  192 L
3903  192 mt 3903  192 L
 635 1824 mt 3915 1824 L
3915 1824 mt 3915 1824 L
 635 1590 mt 3915 1590 L
3915 1590 mt 3915 1590 L
 635 1357 mt 3915 1357 L
3915 1357 mt 3915 1357 L
 635 1124 mt 3915 1124 L
3915 1124 mt 3915 1124 L
 635  891 mt 3915  891 L
3915  891 mt 3915  891 L
 635  658 mt 3915  658 L
3915  658 mt 3915  658 L
 635  425 mt 3915  425 L
3915  425 mt 3915  425 L
SO
6 w
 635 1824 mt 3914 1824 L
 635  192 mt 3914  192 L
 635 1824 mt  635  192 L
3914 1824 mt 3914  192 L
 635 1824 mt 3914 1824 L
 635 1824 mt  635  192 L
 635 1824 mt  635 1824 L
 635 1824 mt  635 1824 L
DO
 635 1824 mt  635 1824 L
 635 1824 mt  635 1824 L
SO
 635 1824 mt  635 1824 L
 635 1824 mt  635 1824 L
DO
 635 1824 mt  635 1824 L
 635 1824 mt  635 1824 L
SO
 635 1824 mt  635 1824 L
 635 1824 mt  635 1824 L
DO
 635 1824 mt  635 1824 L
 635 1824 mt  635 1824 L
SO
 635 1824 mt  635 1824 L
 635 1824 mt  635 1824 L
DO
 635 1824 mt  635 1824 L
 635 1824 mt  635 1824 L
SO
 635 1824 mt  635 1824 L
 635 1824 mt  635 1824 L
DO
 635 1824 mt  635 1824 L
 635 1824 mt  635 1824 L
SO
 635 1824 mt  635 1824 L
 635 1824 mt  635 1824 L
DO
 635 1824 mt  635 1824 L
 635 1824 mt  635 1824 L
SO
 635 1824 mt  635 1824 L
 635 1824 mt  635 1824 L
DO
 635 1824 mt  635 1824 L
 635 1824 mt  635 1824 L
SO
 635 1824 mt  635 1824 L
 635 1824 mt  635 1824 L
DO
 635 1824 mt  635 1824 L
 635 1824 mt  635 1824 L
SO
 635 1824 mt  635 1824 L
 635 1824 mt  635 1824 L
DO
 635 1824 mt  635 1824 L
 635 1824 mt  635 1824 L
SO
 635 1824 mt  635 1791 L
 635  192 mt  635  224 L
 635 1824 mt  635 1824 L
 635 1824 mt  635 1824 L
DO
 635 1824 mt  635 1824 L
 635 1824 mt  635 1824 L
SO
 635 1824 mt  635 1824 L
 635 1824 mt  635 1824 L
DO
 635 1824 mt  635 1824 L
 635 1824 mt  635 1824 L
SO
 635 1824 mt  635 1824 L
 635 1824 mt  635 1824 L
DO
 635 1824 mt  635 1824 L
 635 1824 mt  635 1824 L
SO
 635 1824 mt  635 1824 L
 635 1824 mt  635 1824 L
DO
 635 1824 mt  635 1824 L
 635 1824 mt  635 1824 L
SO
 635 1824 mt  635 1824 L
 635 1824 mt  635 1824 L
DO
 635 1824 mt  635 1824 L
 635 1824 mt  635 1824 L
SO
 635 1824 mt  635 1824 L
 635 1824 mt  635 1824 L
DO
 635 1824 mt  635 1824 L
 635 1824 mt  635 1824 L
SO
 635 1824 mt  635 1824 L
 635 1824 mt  635 1824 L
DO
 635 1824 mt  635 1824 L
 635 1824 mt  635 1824 L
SO
 635 1824 mt  635 1824 L
 635 1824 mt  635 1824 L
DO
 635 1824 mt  635 1824 L
 635 1824 mt  635 1824 L
SO
 635 1824 mt  635 1824 L
 635 1824 mt  635 1824 L
DO
 635 1824 mt  635 1824 L
 635 1824 mt  635 1824 L
SO
1179 1824 mt 1179 1791 L
1179  192 mt 1179  224 L
%%IncludeResource: font Helvetica
/Helvetica /ISOLatin1Encoding 132 FMSR

1099 1980 mt 
(2K) s
 635 1824 mt  635 1824 L
 635 1824 mt  635 1824 L
DO
 635 1824 mt  635 1824 L
 635 1824 mt  635 1824 L
SO
 635 1824 mt  635 1824 L
 635 1824 mt  635 1824 L
DO
 635 1824 mt  635 1824 L
 635 1824 mt  635 1824 L
SO
 635 1824 mt  635 1824 L
 635 1824 mt  635 1824 L
DO
 635 1824 mt  635 1824 L
 635 1824 mt  635 1824 L
SO
 635 1824 mt  635 1824 L
 635 1824 mt  635 1824 L
DO
 635 1824 mt  635 1824 L
 635 1824 mt  635 1824 L
SO
 635 1824 mt  635 1824 L
 635 1824 mt  635 1824 L
DO
 635 1824 mt  635 1824 L
 635 1824 mt  635 1824 L
SO
 635 1824 mt  635 1824 L
 635 1824 mt  635 1824 L
DO
 635 1824 mt  635 1824 L
 635 1824 mt  635 1824 L
SO
 635 1824 mt  635 1824 L
 635 1824 mt  635 1824 L
DO
 635 1824 mt  635 1824 L
 635 1824 mt  635 1824 L
SO
 635 1824 mt  635 1824 L
 635 1824 mt  635 1824 L
DO
 635 1824 mt  635 1824 L
 635 1824 mt  635 1824 L
SO
 635 1824 mt  635 1824 L
 635 1824 mt  635 1824 L
DO
 635 1824 mt  635 1824 L
 635 1824 mt  635 1824 L
SO
1724 1824 mt 1724 1791 L
1724  192 mt 1724  224 L
1644 1980 mt 
(4K) s
 635 1824 mt  635 1824 L
 635 1824 mt  635 1824 L
DO
 635 1824 mt  635 1824 L
 635 1824 mt  635 1824 L
SO
 635 1824 mt  635 1824 L
 635 1824 mt  635 1824 L
DO
 635 1824 mt  635 1824 L
 635 1824 mt  635 1824 L
SO
 635 1824 mt  635 1824 L
 635 1824 mt  635 1824 L
DO
 635 1824 mt  635 1824 L
 635 1824 mt  635 1824 L
SO
 635 1824 mt  635 1824 L
 635 1824 mt  635 1824 L
DO
 635 1824 mt  635 1824 L
 635 1824 mt  635 1824 L
SO
 635 1824 mt  635 1824 L
 635 1824 mt  635 1824 L
DO
 635 1824 mt  635 1824 L
 635 1824 mt  635 1824 L
SO
 635 1824 mt  635 1824 L
 635 1824 mt  635 1824 L
DO
 635 1824 mt  635 1824 L
 635 1824 mt  635 1824 L
SO
 635 1824 mt  635 1824 L
 635 1824 mt  635 1824 L
DO
 635 1824 mt  635 1824 L
 635 1824 mt  635 1824 L
SO
 635 1824 mt  635 1824 L
 635 1824 mt  635 1824 L
DO
 635 1824 mt  635 1824 L
 635 1824 mt  635 1824 L
SO
 635 1824 mt  635 1824 L
 635 1824 mt  635 1824 L
DO
 635 1824 mt  635 1824 L
 635 1824 mt  635 1824 L
SO
2269 1824 mt 2269 1791 L
2269  192 mt 2269  224 L
2189 1980 mt 
(8K) s
 635 1824 mt  635 1824 L
 635 1824 mt  635 1824 L
DO
 635 1824 mt  635 1824 L
 635 1824 mt  635 1824 L
SO
 635 1824 mt  635 1824 L
 635 1824 mt  635 1824 L
DO
 635 1824 mt  635 1824 L
 635 1824 mt  635 1824 L
SO
 635 1824 mt  635 1824 L
 635 1824 mt  635 1824 L
DO
 635 1824 mt  635 1824 L
 635 1824 mt  635 1824 L
SO
 635 1824 mt  635 1824 L
 635 1824 mt  635 1824 L
DO
 635 1824 mt  635 1824 L
 635 1824 mt  635 1824 L
SO
 635 1824 mt  635 1824 L
 635 1824 mt  635 1824 L
DO
 635 1824 mt  635 1824 L
 635 1824 mt  635 1824 L
SO
 635 1824 mt  635 1824 L
 635 1824 mt  635 1824 L
DO
 635 1824 mt  635 1824 L
 635 1824 mt  635 1824 L
SO
 635 1824 mt  635 1824 L
 635 1824 mt  635 1824 L
DO
 635 1824 mt  635 1824 L
 635 1824 mt  635 1824 L
SO
 635 1824 mt  635 1824 L
 635 1824 mt  635 1824 L
DO
 635 1824 mt  635 1824 L
 635 1824 mt  635 1824 L
SO
 635 1824 mt  635 1824 L
 635 1824 mt  635 1824 L
DO
 635 1824 mt  635 1824 L
 635 1824 mt  635 1824 L
SO
2813 1824 mt 2813 1791 L
2813  192 mt 2813  224 L
2696 1980 mt 
(16K) s
 635 1824 mt  635 1824 L
 635 1824 mt  635 1824 L
DO
 635 1824 mt  635 1824 L
 635 1824 mt  635 1824 L
SO
 635 1824 mt  635 1824 L
 635 1824 mt  635 1824 L
DO
 635 1824 mt  635 1824 L
 635 1824 mt  635 1824 L
SO
 635 1824 mt  635 1824 L
 635 1824 mt  635 1824 L
DO
 635 1824 mt  635 1824 L
 635 1824 mt  635 1824 L
SO
 635 1824 mt  635 1824 L
 635 1824 mt  635 1824 L
DO
 635 1824 mt  635 1824 L
 635 1824 mt  635 1824 L
SO
 635 1824 mt  635 1824 L
 635 1824 mt  635 1824 L
DO
 635 1824 mt  635 1824 L
 635 1824 mt  635 1824 L
SO
 635 1824 mt  635 1824 L
 635 1824 mt  635 1824 L
DO
 635 1824 mt  635 1824 L
 635 1824 mt  635 1824 L
SO
 635 1824 mt  635 1824 L
 635 1824 mt  635 1824 L
DO
 635 1824 mt  635 1824 L
 635 1824 mt  635 1824 L
SO
 635 1824 mt  635 1824 L
 635 1824 mt  635 1824 L
DO
 635 1824 mt  635 1824 L
 635 1824 mt  635 1824 L
SO
 635 1824 mt  635 1824 L
 635 1824 mt  635 1824 L
DO
 635 1824 mt  635 1824 L
 635 1824 mt  635 1824 L
SO
3358 1824 mt 3358 1791 L
3358  192 mt 3358  224 L
3241 1980 mt 
(32K) s
 635 1824 mt  635 1824 L
 635 1824 mt  635 1824 L
DO
 635 1824 mt  635 1824 L
 635 1824 mt  635 1824 L
SO
 635 1824 mt  635 1824 L
 635 1824 mt  635 1824 L
DO
 635 1824 mt  635 1824 L
 635 1824 mt  635 1824 L
SO
 635 1824 mt  635 1824 L
 635 1824 mt  635 1824 L
DO
 635 1824 mt  635 1824 L
 635 1824 mt  635 1824 L
SO
 635 1824 mt  635 1824 L
 635 1824 mt  635 1824 L
DO
 635 1824 mt  635 1824 L
 635 1824 mt  635 1824 L
SO
 635 1824 mt  635 1824 L
 635 1824 mt  635 1824 L
DO
 635 1824 mt  635 1824 L
 635 1824 mt  635 1824 L
SO
 635 1824 mt  635 1824 L
 635 1824 mt  635 1824 L
DO
 635 1824 mt  635 1824 L
 635 1824 mt  635 1824 L
SO
 635 1824 mt  635 1824 L
 635 1824 mt  635 1824 L
DO
 635 1824 mt  635 1824 L
 635 1824 mt  635 1824 L
SO
 635 1824 mt  635 1824 L
 635 1824 mt  635 1824 L
DO
 635 1824 mt  635 1824 L
 635 1824 mt  635 1824 L
SO
 635 1824 mt  635 1824 L
 635 1824 mt  635 1824 L
DO
 635 1824 mt  635 1824 L
 635 1824 mt  635 1824 L
SO
3903 1824 mt 3903 1791 L
3903  192 mt 3903  224 L
 635 1824 mt  635 1824 L
 635 1824 mt  635 1824 L
DO
 635 1824 mt  635 1824 L
 635 1824 mt  635 1824 L
SO
 635 1824 mt  635 1824 L
 635 1824 mt  635 1824 L
DO
 635 1824 mt  635 1824 L
 635 1824 mt  635 1824 L
SO
 635 1824 mt  635 1824 L
 635 1824 mt  635 1824 L
DO
 635 1824 mt  635 1824 L
 635 1824 mt  635 1824 L
SO
 635 1824 mt  635 1824 L
 635 1824 mt  635 1824 L
DO
 635 1824 mt  635 1824 L
 635 1824 mt  635 1824 L
SO
 635 1824 mt  635 1824 L
 635 1824 mt  635 1824 L
DO
 635 1824 mt  635 1824 L
 635 1824 mt  635 1824 L
SO
 635 1824 mt  635 1824 L
 635 1824 mt  635 1824 L
DO
 635 1824 mt  635 1824 L
 635 1824 mt  635 1824 L
SO
 635 1824 mt  635 1824 L
 635 1824 mt  635 1824 L
DO
 635 1824 mt  635 1824 L
 635 1824 mt  635 1824 L
SO
 635 1824 mt  635 1824 L
 635 1824 mt  635 1824 L
DO
 635 1824 mt  635 1824 L
 635 1824 mt  635 1824 L
SO
 635 1824 mt  635 1824 L
 635 1824 mt  635 1824 L
DO
 635 1824 mt  635 1824 L
 635 1824 mt  635 1824 L
SO
 635 1824 mt  667 1824 L
3915 1824 mt 3882 1824 L
 635 1590 mt  667 1590 L
3915 1590 mt 3882 1590 L
 417 1638 mt 
(0.5) s
 635 1357 mt  667 1357 L
3915 1357 mt 3882 1357 L
 417 1405 mt 
(0.6) s
 635 1124 mt  667 1124 L
3915 1124 mt 3882 1124 L
 417 1172 mt 
(0.7) s
 635  891 mt  667  891 L
3915  891 mt 3882  891 L
 417  939 mt 
(0.8) s
 635  658 mt  667  658 L
3915  658 mt 3882  658 L
 417  706 mt 
(0.9) s
 635  425 mt  667  425 L
3915  425 mt 3882  425 L
 527  473 mt 
(1) s
 635 1824 mt 3914 1824 L
 635  192 mt 3914  192 L
 635 1824 mt  635  192 L
3914 1824 mt 3914  192 L
gs 635 191 3281 1633 rc
12 w
c8
545 536 545 111 544 173 545 -20 545 -18 544 -19 635 425 7 MP stroke
gr

12 w
c8
  36   36  635  425 FO
  36   36 1179  406 FO
  36   36 1724  388 FO
  36   36 2269  368 FO
  36   36 2813  541 FO
  36   36 3358  652 FO
  36   36 3903 1188 FO
gs 635 191 3281 1633 rc
gr

0 sg
 180 1507 mt  -90 rotate
(Scaling efficiency) s
90 rotate
gs 635 191 3281 1633 rc
c9
545 682 545 225 544 288 545 63 545 -117 1179 425 6 MP stroke
gr

c9
36 47 -36 47 -36 -47 36 -47 1179 472 5 MP
DP
36 47 -36 47 -36 -47 36 -47 1724 355 5 MP
DP
36 47 -36 47 -36 -47 36 -47 2269 418 5 MP
DP
36 47 -36 47 -36 -47 36 -47 2813 706 5 MP
DP
36 47 -36 47 -36 -47 36 -47 3358 931 5 MP
DP
36 47 -36 47 -36 -47 36 -47 3903 1613 5 MP
DP
gs 635 191 3281 1633 rc
DA
6 w
545 377 3358 851 2 MP stroke
gr

6 w
DA
SO
36 47 -36 47 -36 -47 36 -47 3358 898 5 MP
gs
PP
gr
DP
36 47 -36 47 -36 -47 36 -47 3903 1275 5 MP
gs
PP
gr
DP
DA
gs 635 191 3281 1633 rc
SO
gr

SO
1 sg
0 607 2241 0 0 -607 866 1637 4 MP
PP
-2241 0 0 607 2241 0 0 -607 866 1637 5 MP stroke
4 w
DO
SO
6 w
0 sg
 866 1637 mt 3107 1637 L
 866 1030 mt 3107 1030 L
 866 1637 mt  866 1030 L
3107 1637 mt 3107 1030 L
 866 1637 mt 3107 1637 L
 866 1637 mt  866 1030 L
 866 1637 mt 3107 1637 L
 866 1030 mt 3107 1030 L
 866 1637 mt  866 1030 L
3107 1637 mt 3107 1030 L
1334 1192 mt 
(Large ES, No Coll, BullX MPI) s
gs 866 1030 2242 608 rc
12 w
c8
360 0 937 1145 2 MP stroke
gr

12 w
c8
  36   36 1117 1145 FO
gs 866 1030 2242 608 rc
gr

0 sg
1334 1381 mt 
(Large EM, Coll, BullX MPI) s
gs 866 1030 2242 608 rc
c9
360 0 937 1333 2 MP stroke
gr

c9
36 47 -36 47 -36 -47 36 -47 1117 1380 5 MP
DP
gs 866 1030 2242 608 rc
gr

0 sg
1334 1570 mt 
(Large EM, Coll, Intel MPI) s
gs 866 1030 2242 608 rc
DA
6 w
c9
360 0 937 1521 2 MP stroke
SO
gr

6 w
c9
36 47 -36 47 -36 -47 36 -47 1117 1568 5 MP
gs
PP
gr
DP
gs 866 1030 2242 608 rc
gr


end %%Color Dict

eplot
%%EndObject

epage
end

showpage

%%Trailer
%%EOF
