%!PS-Adobe-3.0 EPSF-3.0
%%Creator: MATLAB, The Mathworks, Inc. Version 7.9.0.529 (R2009b). Operating System: Linux 3.0.74-0.6.6-default #1 SMP Thu May 16 14:06:37 CEST 2013 x86_64.
%%Title: /afs/ipp-garching.mpg.de/home/f/fjc/gkw_clean/doc/scaling/nonspectral2/scaling-helios-med3.eps
%%CreationDate: 07/15/2013  19:18:31
%%DocumentNeededFonts: Helvetica
%%DocumentProcessColors: Cyan Magenta Yellow Black
%%LanguageLevel: 2
%%Pages: 1
%%BoundingBox:   135   204   476   588
%%EndComments

%%BeginProlog
% MathWorks dictionary
/MathWorks 160 dict begin
% definition operators
/bdef {bind def} bind def
/ldef {load def} bind def
/xdef {exch def} bdef
/xstore {exch store} bdef
% operator abbreviations
/c  /clip ldef
/cc /concat ldef
/cp /closepath ldef
/gr /grestore ldef
/gs /gsave ldef
/mt /moveto ldef
/np /newpath ldef
/cm /currentmatrix ldef
/sm /setmatrix ldef
/rm /rmoveto ldef
/rl /rlineto ldef
/s {show newpath} bdef
/sc {setcmykcolor} bdef
/sr /setrgbcolor ldef
/sg /setgray ldef
/w /setlinewidth ldef
/j /setlinejoin ldef
/cap /setlinecap ldef
/rc {rectclip} bdef
/rf {rectfill} bdef
% page state control
/pgsv () def
/bpage {/pgsv save def} bdef
/epage {pgsv restore} bdef
/bplot /gsave ldef
/eplot {stroke grestore} bdef
% orientation switch
/portraitMode 0 def /landscapeMode 1 def /rotateMode 2 def
% coordinate system mappings
/dpi2point 0 def
% font control
/FontSize 0 def
/FMS {/FontSize xstore findfont [FontSize 0 0 FontSize neg 0 0]
  makefont setfont} bdef
/reencode {exch dup where {pop load} {pop StandardEncoding} ifelse
  exch dup 3 1 roll findfont dup length dict begin
  { 1 index /FID ne {def}{pop pop} ifelse } forall
  /Encoding exch def currentdict end definefont pop} bdef
/isroman {findfont /CharStrings get /Agrave known} bdef
/FMSR {3 1 roll 1 index dup isroman {reencode} {pop pop} ifelse
  exch FMS} bdef
/csm {1 dpi2point div -1 dpi2point div scale neg translate
 dup landscapeMode eq {pop -90 rotate}
  {rotateMode eq {90 rotate} if} ifelse} bdef
% line types: solid, dotted, dashed, dotdash
/SO { [] 0 setdash } bdef
/DO { [.5 dpi2point mul 4 dpi2point mul] 0 setdash } bdef
/DA { [6 dpi2point mul] 0 setdash } bdef
/DD { [.5 dpi2point mul 4 dpi2point mul 6 dpi2point mul 4
  dpi2point mul] 0 setdash } bdef
% macros for lines and objects
/L {lineto stroke} bdef
/MP {3 1 roll moveto 1 sub {rlineto} repeat} bdef
/AP {{rlineto} repeat} bdef
/PDlw -1 def
/W {/PDlw currentlinewidth def setlinewidth} def
/PP {closepath eofill} bdef
/DP {closepath stroke} bdef
/MR {4 -2 roll moveto dup  0 exch rlineto exch 0 rlineto
  neg 0 exch rlineto closepath} bdef
/FR {MR stroke} bdef
/PR {MR fill} bdef
/L1i {{currentfile picstr readhexstring pop} image} bdef
/tMatrix matrix def
/MakeOval {newpath tMatrix currentmatrix pop translate scale
0 0 1 0 360 arc tMatrix setmatrix} bdef
/FO {MakeOval stroke} bdef
/PO {MakeOval fill} bdef
/PD {currentlinewidth 2 div 0 360 arc fill
   PDlw -1 eq not {PDlw w /PDlw -1 def} if} def
/FA {newpath tMatrix currentmatrix pop translate scale
  0 0 1 5 -2 roll arc tMatrix setmatrix stroke} bdef
/PA {newpath tMatrix currentmatrix pop	translate 0 0 moveto scale
  0 0 1 5 -2 roll arc closepath tMatrix setmatrix fill} bdef
/FAn {newpath tMatrix currentmatrix pop translate scale
  0 0 1 5 -2 roll arcn tMatrix setmatrix stroke} bdef
/PAn {newpath tMatrix currentmatrix pop translate 0 0 moveto scale
  0 0 1 5 -2 roll arcn closepath tMatrix setmatrix fill} bdef
/vradius 0 def /hradius 0 def /lry 0 def
/lrx 0 def /uly 0 def /ulx 0 def /rad 0 def
/MRR {/vradius xdef /hradius xdef /lry xdef /lrx xdef /uly xdef
  /ulx xdef newpath tMatrix currentmatrix pop ulx hradius add uly
  vradius add translate hradius vradius scale 0 0 1 180 270 arc 
  tMatrix setmatrix lrx hradius sub uly vradius add translate
  hradius vradius scale 0 0 1 270 360 arc tMatrix setmatrix
  lrx hradius sub lry vradius sub translate hradius vradius scale
  0 0 1 0 90 arc tMatrix setmatrix ulx hradius add lry vradius sub
  translate hradius vradius scale 0 0 1 90 180 arc tMatrix setmatrix
  closepath} bdef
/FRR {MRR stroke } bdef
/PRR {MRR fill } bdef
/MlrRR {/lry xdef /lrx xdef /uly xdef /ulx xdef /rad lry uly sub 2 div def
  newpath tMatrix currentmatrix pop ulx rad add uly rad add translate
  rad rad scale 0 0 1 90 270 arc tMatrix setmatrix lrx rad sub lry rad
  sub translate rad rad scale 0 0 1 270 90 arc tMatrix setmatrix
  closepath} bdef
/FlrRR {MlrRR stroke } bdef
/PlrRR {MlrRR fill } bdef
/MtbRR {/lry xdef /lrx xdef /uly xdef /ulx xdef /rad lrx ulx sub 2 div def
  newpath tMatrix currentmatrix pop ulx rad add uly rad add translate
  rad rad scale 0 0 1 180 360 arc tMatrix setmatrix lrx rad sub lry rad
  sub translate rad rad scale 0 0 1 0 180 arc tMatrix setmatrix
  closepath} bdef
/FtbRR {MtbRR stroke } bdef
/PtbRR {MtbRR fill } bdef
/stri 6 array def /dtri 6 array def
/smat 6 array def /dmat 6 array def
/tmat1 6 array def /tmat2 6 array def /dif 3 array def
/asub {/ind2 exch def /ind1 exch def dup dup
  ind1 get exch ind2 get sub exch } bdef
/tri_to_matrix {
  2 0 asub 3 1 asub 4 0 asub 5 1 asub
  dup 0 get exch 1 get 7 -1 roll astore } bdef
/compute_transform {
  dmat dtri tri_to_matrix tmat1 invertmatrix 
  smat stri tri_to_matrix tmat2 concatmatrix } bdef
/ds {stri astore pop} bdef
/dt {dtri astore pop} bdef
/db {2 copy /cols xdef /rows xdef mul dup 3 mul string
  currentfile 
  3 index 0 eq {/ASCIIHexDecode filter}
  {/ASCII85Decode filter 3 index 2 eq {/RunLengthDecode filter} if }
  ifelse exch readstring pop
  dup 0 3 index getinterval /rbmap xdef
  dup 2 index dup getinterval /gbmap xdef
  1 index dup 2 mul exch getinterval /bbmap xdef pop pop}bdef
/it {gs np dtri aload pop moveto lineto lineto cp c
  cols rows 8 compute_transform 
  rbmap gbmap bbmap true 3 colorimage gr}bdef
/il {newpath moveto lineto stroke}bdef
currentdict end def
%%EndProlog

%%BeginSetup
MathWorks begin

0 cap

end
%%EndSetup

%%Page: 1 1
%%BeginPageSetup
%%PageBoundingBox:   135   204   476   588
MathWorks begin
bpage
%%EndPageSetup

%%BeginObject: obj1
bplot

/dpi2point 12 def
portraitMode 1620 7056 csm

    0     0  4099  4599 rc
85 dict begin %Colortable dictionary
/c0 { 0.000000 0.000000 0.000000 sr} bdef
/c1 { 1.000000 1.000000 1.000000 sr} bdef
/c2 { 0.900000 0.000000 0.000000 sr} bdef
/c3 { 0.000000 0.820000 0.000000 sr} bdef
/c4 { 0.000000 0.000000 0.800000 sr} bdef
/c5 { 0.910000 0.820000 0.320000 sr} bdef
/c6 { 1.000000 0.260000 0.820000 sr} bdef
/c7 { 0.000000 0.820000 0.820000 sr} bdef
c0
1 j
1 sg
   0    0 4100 4600 rf
6 w
0 2395 3177 0 0 -2395 702 4138 4 MP
PP
-3177 0 0 2395 3177 0 0 -2395 702 4138 5 MP stroke
4 w
DO
0 sg
 702 4138 mt  702 1743 L
 702 1743 mt  702 1743 L
1053 4138 mt 1053 1743 L
1053 1743 mt 1053 1743 L
1404 4138 mt 1404 1743 L
1404 1743 mt 1404 1743 L
1755 4138 mt 1755 1743 L
1755 1743 mt 1755 1743 L
2107 4138 mt 2107 1743 L
2107 1743 mt 2107 1743 L
2458 4138 mt 2458 1743 L
2458 1743 mt 2458 1743 L
2809 4138 mt 2809 1743 L
2809 1743 mt 2809 1743 L
3161 4138 mt 3161 1743 L
3161 1743 mt 3161 1743 L
3512 4138 mt 3512 1743 L
3512 1743 mt 3512 1743 L
3863 4138 mt 3863 1743 L
3863 1743 mt 3863 1743 L
SO
6 w
 702 4138 mt 3879 4138 L
 702 1743 mt 3879 1743 L
 702 4138 mt  702 1743 L
3879 4138 mt 3879 1743 L
 702 4138 mt 3879 4138 L
 702 4138 mt  702 1743 L
 702 4138 mt  702 4122 L
 702 1743 mt  702 1758 L
DO
 702 4138 mt  702 1743 L
 702 1743 mt  702 1743 L
SO
 702 4138 mt  702 4106 L
 702 1743 mt  702 1774 L
%%IncludeResource: font Helvetica
/Helvetica /ISOLatin1Encoding 132 FMSR

 629 4294 mt 
(64) s
1053 4138 mt 1053 4122 L
1053 1743 mt 1053 1758 L
DO
1053 4138 mt 1053 1743 L
1053 1743 mt 1053 1743 L
SO
1053 4138 mt 1053 4122 L
1053 1743 mt 1053 1758 L
DO
1053 4138 mt 1053 1743 L
1053 1743 mt 1053 1743 L
SO
1053 4138 mt 1053 4122 L
1053 1743 mt 1053 1758 L
DO
1053 4138 mt 1053 1743 L
1053 1743 mt 1053 1743 L
SO
1053 4138 mt 1053 4122 L
1053 1743 mt 1053 1758 L
DO
1053 4138 mt 1053 1743 L
1053 1743 mt 1053 1743 L
SO
1053 4138 mt 1053 4122 L
1053 1743 mt 1053 1758 L
DO
1053 4138 mt 1053 1743 L
1053 1743 mt 1053 1743 L
SO
1053 4138 mt 1053 4122 L
1053 1743 mt 1053 1758 L
DO
1053 4138 mt 1053 1743 L
1053 1743 mt 1053 1743 L
SO
1053 4138 mt 1053 4122 L
1053 1743 mt 1053 1758 L
DO
1053 4138 mt 1053 1743 L
1053 1743 mt 1053 1743 L
SO
1053 4138 mt 1053 4122 L
1053 1743 mt 1053 1758 L
DO
1053 4138 mt 1053 1743 L
1053 1743 mt 1053 1743 L
SO
1053 4138 mt 1053 4122 L
1053 1743 mt 1053 1758 L
DO
1053 4138 mt 1053 1743 L
1053 1743 mt 1053 1743 L
SO
1053 4138 mt 1053 4106 L
1053 1743 mt 1053 1774 L
 943 4294 mt 
(128) s
1404 4138 mt 1404 4122 L
1404 1743 mt 1404 1758 L
DO
1404 4138 mt 1404 1743 L
1404 1743 mt 1404 1743 L
SO
1404 4138 mt 1404 4122 L
1404 1743 mt 1404 1758 L
DO
1404 4138 mt 1404 1743 L
1404 1743 mt 1404 1743 L
SO
1404 4138 mt 1404 4122 L
1404 1743 mt 1404 1758 L
DO
1404 4138 mt 1404 1743 L
1404 1743 mt 1404 1743 L
SO
1404 4138 mt 1404 4122 L
1404 1743 mt 1404 1758 L
DO
1404 4138 mt 1404 1743 L
1404 1743 mt 1404 1743 L
SO
1404 4138 mt 1404 4122 L
1404 1743 mt 1404 1758 L
DO
1404 4138 mt 1404 1743 L
1404 1743 mt 1404 1743 L
SO
1404 4138 mt 1404 4122 L
1404 1743 mt 1404 1758 L
DO
1404 4138 mt 1404 1743 L
1404 1743 mt 1404 1743 L
SO
1404 4138 mt 1404 4122 L
1404 1743 mt 1404 1758 L
DO
1404 4138 mt 1404 1743 L
1404 1743 mt 1404 1743 L
SO
1404 4138 mt 1404 4122 L
1404 1743 mt 1404 1758 L
DO
1404 4138 mt 1404 1743 L
1404 1743 mt 1404 1743 L
SO
1404 4138 mt 1404 4122 L
1404 1743 mt 1404 1758 L
DO
1404 4138 mt 1404 1743 L
1404 1743 mt 1404 1743 L
SO
1404 4138 mt 1404 4106 L
1404 1743 mt 1404 1774 L
1294 4294 mt 
(256) s
1755 4138 mt 1755 4122 L
1755 1743 mt 1755 1758 L
DO
1755 4138 mt 1755 1743 L
1755 1743 mt 1755 1743 L
SO
1755 4138 mt 1755 4122 L
1755 1743 mt 1755 1758 L
DO
1755 4138 mt 1755 1743 L
1755 1743 mt 1755 1743 L
SO
1755 4138 mt 1755 4122 L
1755 1743 mt 1755 1758 L
DO
1755 4138 mt 1755 1743 L
1755 1743 mt 1755 1743 L
SO
1755 4138 mt 1755 4122 L
1755 1743 mt 1755 1758 L
DO
1755 4138 mt 1755 1743 L
1755 1743 mt 1755 1743 L
SO
1755 4138 mt 1755 4122 L
1755 1743 mt 1755 1758 L
DO
1755 4138 mt 1755 1743 L
1755 1743 mt 1755 1743 L
SO
1755 4138 mt 1755 4122 L
1755 1743 mt 1755 1758 L
DO
1755 4138 mt 1755 1743 L
1755 1743 mt 1755 1743 L
SO
1755 4138 mt 1755 4122 L
1755 1743 mt 1755 1758 L
DO
1755 4138 mt 1755 1743 L
1755 1743 mt 1755 1743 L
SO
1755 4138 mt 1755 4122 L
1755 1743 mt 1755 1758 L
DO
1755 4138 mt 1755 1743 L
1755 1743 mt 1755 1743 L
SO
1755 4138 mt 1755 4122 L
1755 1743 mt 1755 1758 L
DO
1755 4138 mt 1755 1743 L
1755 1743 mt 1755 1743 L
SO
1755 4138 mt 1755 4106 L
1755 1743 mt 1755 1774 L
1645 4294 mt 
(512) s
2107 4138 mt 2107 4122 L
2107 1743 mt 2107 1758 L
DO
2107 4138 mt 2107 1743 L
2107 1743 mt 2107 1743 L
SO
2107 4138 mt 2107 4122 L
2107 1743 mt 2107 1758 L
DO
2107 4138 mt 2107 1743 L
2107 1743 mt 2107 1743 L
SO
2107 4138 mt 2107 4122 L
2107 1743 mt 2107 1758 L
DO
2107 4138 mt 2107 1743 L
2107 1743 mt 2107 1743 L
SO
2107 4138 mt 2107 4122 L
2107 1743 mt 2107 1758 L
DO
2107 4138 mt 2107 1743 L
2107 1743 mt 2107 1743 L
SO
2107 4138 mt 2107 4122 L
2107 1743 mt 2107 1758 L
DO
2107 4138 mt 2107 1743 L
2107 1743 mt 2107 1743 L
SO
2107 4138 mt 2107 4122 L
2107 1743 mt 2107 1758 L
DO
2107 4138 mt 2107 1743 L
2107 1743 mt 2107 1743 L
SO
2107 4138 mt 2107 4122 L
2107 1743 mt 2107 1758 L
DO
2107 4138 mt 2107 1743 L
2107 1743 mt 2107 1743 L
SO
2107 4138 mt 2107 4122 L
2107 1743 mt 2107 1758 L
DO
2107 4138 mt 2107 1743 L
2107 1743 mt 2107 1743 L
SO
2107 4138 mt 2107 4122 L
2107 1743 mt 2107 1758 L
DO
2107 4138 mt 2107 1743 L
2107 1743 mt 2107 1743 L
SO
2107 4138 mt 2107 4106 L
2107 1743 mt 2107 1774 L
1942 4294 mt 
(1,024) s
2458 4138 mt 2458 4122 L
2458 1743 mt 2458 1758 L
DO
2458 4138 mt 2458 1743 L
2458 1743 mt 2458 1743 L
SO
2458 4138 mt 2458 4122 L
2458 1743 mt 2458 1758 L
DO
2458 4138 mt 2458 1743 L
2458 1743 mt 2458 1743 L
SO
2458 4138 mt 2458 4122 L
2458 1743 mt 2458 1758 L
DO
2458 4138 mt 2458 1743 L
2458 1743 mt 2458 1743 L
SO
2458 4138 mt 2458 4122 L
2458 1743 mt 2458 1758 L
DO
2458 4138 mt 2458 1743 L
2458 1743 mt 2458 1743 L
SO
2458 4138 mt 2458 4122 L
2458 1743 mt 2458 1758 L
DO
2458 4138 mt 2458 1743 L
2458 1743 mt 2458 1743 L
SO
2458 4138 mt 2458 4122 L
2458 1743 mt 2458 1758 L
DO
2458 4138 mt 2458 1743 L
2458 1743 mt 2458 1743 L
SO
2458 4138 mt 2458 4122 L
2458 1743 mt 2458 1758 L
DO
2458 4138 mt 2458 1743 L
2458 1743 mt 2458 1743 L
SO
2458 4138 mt 2458 4122 L
2458 1743 mt 2458 1758 L
DO
2458 4138 mt 2458 1743 L
2458 1743 mt 2458 1743 L
SO
2458 4138 mt 2458 4122 L
2458 1743 mt 2458 1758 L
DO
2458 4138 mt 2458 1743 L
2458 1743 mt 2458 1743 L
SO
2458 4138 mt 2458 4106 L
2458 1743 mt 2458 1774 L
2378 4294 mt 
(2K) s
2809 4138 mt 2809 4122 L
2809 1743 mt 2809 1758 L
DO
2809 4138 mt 2809 1743 L
2809 1743 mt 2809 1743 L
SO
2809 4138 mt 2809 4122 L
2809 1743 mt 2809 1758 L
DO
2809 4138 mt 2809 1743 L
2809 1743 mt 2809 1743 L
SO
2809 4138 mt 2809 4122 L
2809 1743 mt 2809 1758 L
DO
2809 4138 mt 2809 1743 L
2809 1743 mt 2809 1743 L
SO
2809 4138 mt 2809 4122 L
2809 1743 mt 2809 1758 L
DO
2809 4138 mt 2809 1743 L
2809 1743 mt 2809 1743 L
SO
2809 4138 mt 2809 4122 L
2809 1743 mt 2809 1758 L
DO
2809 4138 mt 2809 1743 L
2809 1743 mt 2809 1743 L
SO
2809 4138 mt 2809 4122 L
2809 1743 mt 2809 1758 L
DO
2809 4138 mt 2809 1743 L
2809 1743 mt 2809 1743 L
SO
2809 4138 mt 2809 4122 L
2809 1743 mt 2809 1758 L
DO
2809 4138 mt 2809 1743 L
2809 1743 mt 2809 1743 L
SO
2809 4138 mt 2809 4122 L
2809 1743 mt 2809 1758 L
DO
2809 4138 mt 2809 1743 L
2809 1743 mt 2809 1743 L
SO
2809 4138 mt 2809 4122 L
2809 1743 mt 2809 1758 L
DO
2809 4138 mt 2809 1743 L
2809 1743 mt 2809 1743 L
SO
2809 4138 mt 2809 4106 L
2809 1743 mt 2809 1774 L
2729 4294 mt 
(4K) s
3161 4138 mt 3161 4122 L
3161 1743 mt 3161 1758 L
DO
3161 4138 mt 3161 1743 L
3161 1743 mt 3161 1743 L
SO
3161 4138 mt 3161 4122 L
3161 1743 mt 3161 1758 L
DO
3161 4138 mt 3161 1743 L
3161 1743 mt 3161 1743 L
SO
3161 4138 mt 3161 4122 L
3161 1743 mt 3161 1758 L
DO
3161 4138 mt 3161 1743 L
3161 1743 mt 3161 1743 L
SO
3161 4138 mt 3161 4122 L
3161 1743 mt 3161 1758 L
DO
3161 4138 mt 3161 1743 L
3161 1743 mt 3161 1743 L
SO
3161 4138 mt 3161 4122 L
3161 1743 mt 3161 1758 L
DO
3161 4138 mt 3161 1743 L
3161 1743 mt 3161 1743 L
SO
3161 4138 mt 3161 4122 L
3161 1743 mt 3161 1758 L
DO
3161 4138 mt 3161 1743 L
3161 1743 mt 3161 1743 L
SO
3161 4138 mt 3161 4122 L
3161 1743 mt 3161 1758 L
DO
3161 4138 mt 3161 1743 L
3161 1743 mt 3161 1743 L
SO
3161 4138 mt 3161 4122 L
3161 1743 mt 3161 1758 L
DO
3161 4138 mt 3161 1743 L
3161 1743 mt 3161 1743 L
SO
3161 4138 mt 3161 4122 L
3161 1743 mt 3161 1758 L
DO
3161 4138 mt 3161 1743 L
3161 1743 mt 3161 1743 L
SO
3161 4138 mt 3161 4106 L
3161 1743 mt 3161 1774 L
3081 4294 mt 
(8K) s
3512 4138 mt 3512 4122 L
3512 1743 mt 3512 1758 L
DO
3512 4138 mt 3512 1743 L
3512 1743 mt 3512 1743 L
SO
3512 4138 mt 3512 4122 L
3512 1743 mt 3512 1758 L
DO
3512 4138 mt 3512 1743 L
3512 1743 mt 3512 1743 L
SO
3512 4138 mt 3512 4122 L
3512 1743 mt 3512 1758 L
DO
3512 4138 mt 3512 1743 L
3512 1743 mt 3512 1743 L
SO
3512 4138 mt 3512 4122 L
3512 1743 mt 3512 1758 L
DO
3512 4138 mt 3512 1743 L
3512 1743 mt 3512 1743 L
SO
3512 4138 mt 3512 4122 L
3512 1743 mt 3512 1758 L
DO
3512 4138 mt 3512 1743 L
3512 1743 mt 3512 1743 L
SO
3512 4138 mt 3512 4122 L
3512 1743 mt 3512 1758 L
DO
3512 4138 mt 3512 1743 L
3512 1743 mt 3512 1743 L
SO
3512 4138 mt 3512 4122 L
3512 1743 mt 3512 1758 L
DO
3512 4138 mt 3512 1743 L
3512 1743 mt 3512 1743 L
SO
3512 4138 mt 3512 4122 L
3512 1743 mt 3512 1758 L
DO
3512 4138 mt 3512 1743 L
3512 1743 mt 3512 1743 L
SO
3512 4138 mt 3512 4122 L
3512 1743 mt 3512 1758 L
DO
3512 4138 mt 3512 1743 L
3512 1743 mt 3512 1743 L
SO
3512 4138 mt 3512 4106 L
3512 1743 mt 3512 1774 L
3395 4294 mt 
(16K) s
3863 4138 mt 3863 4122 L
3863 1743 mt 3863 1758 L
DO
3863 4138 mt 3863 1743 L
3863 1743 mt 3863 1743 L
SO
3863 4138 mt 3863 4122 L
3863 1743 mt 3863 1758 L
DO
3863 4138 mt 3863 1743 L
3863 1743 mt 3863 1743 L
SO
3863 4138 mt 3863 4122 L
3863 1743 mt 3863 1758 L
DO
3863 4138 mt 3863 1743 L
3863 1743 mt 3863 1743 L
SO
3863 4138 mt 3863 4122 L
3863 1743 mt 3863 1758 L
DO
3863 4138 mt 3863 1743 L
3863 1743 mt 3863 1743 L
SO
3863 4138 mt 3863 4122 L
3863 1743 mt 3863 1758 L
DO
3863 4138 mt 3863 1743 L
3863 1743 mt 3863 1743 L
SO
3863 4138 mt 3863 4122 L
3863 1743 mt 3863 1758 L
DO
3863 4138 mt 3863 1743 L
3863 1743 mt 3863 1743 L
SO
3863 4138 mt 3863 4122 L
3863 1743 mt 3863 1758 L
DO
3863 4138 mt 3863 1743 L
3863 1743 mt 3863 1743 L
SO
3863 4138 mt 3863 4122 L
3863 1743 mt 3863 1758 L
DO
3863 4138 mt 3863 1743 L
3863 1743 mt 3863 1743 L
SO
3863 4138 mt 3863 4122 L
3863 1743 mt 3863 1758 L
DO
3863 4138 mt 3863 1743 L
3863 1743 mt 3863 1743 L
SO
3863 4138 mt 3863 4106 L
3863 1743 mt 3863 1774 L
3746 4294 mt 
(32K) s
 702 4138 mt  717 4138 L
3879 4138 mt 3863 4138 L
 702 4138 mt  733 4138 L
3879 4138 mt 3847 4138 L
 521 4186 mt 
(64) s
 702 3873 mt  717 3873 L
3879 3873 mt 3863 3873 L
 702 3873 mt  717 3873 L
3879 3873 mt 3863 3873 L
 702 3873 mt  717 3873 L
3879 3873 mt 3863 3873 L
 702 3873 mt  717 3873 L
3879 3873 mt 3863 3873 L
 702 3873 mt  717 3873 L
3879 3873 mt 3863 3873 L
 702 3873 mt  717 3873 L
3879 3873 mt 3863 3873 L
 702 3873 mt  717 3873 L
3879 3873 mt 3863 3873 L
 702 3873 mt  717 3873 L
3879 3873 mt 3863 3873 L
 702 3873 mt  717 3873 L
3879 3873 mt 3863 3873 L
 702 3873 mt  733 3873 L
3879 3873 mt 3847 3873 L
 447 3921 mt 
(128) s
 702 3608 mt  717 3608 L
3879 3608 mt 3863 3608 L
 702 3608 mt  717 3608 L
3879 3608 mt 3863 3608 L
 702 3608 mt  717 3608 L
3879 3608 mt 3863 3608 L
 702 3608 mt  717 3608 L
3879 3608 mt 3863 3608 L
 702 3608 mt  717 3608 L
3879 3608 mt 3863 3608 L
 702 3608 mt  717 3608 L
3879 3608 mt 3863 3608 L
 702 3608 mt  717 3608 L
3879 3608 mt 3863 3608 L
 702 3608 mt  717 3608 L
3879 3608 mt 3863 3608 L
 702 3608 mt  717 3608 L
3879 3608 mt 3863 3608 L
 702 3608 mt  733 3608 L
3879 3608 mt 3847 3608 L
 447 3656 mt 
(256) s
 702 3343 mt  717 3343 L
3879 3343 mt 3863 3343 L
 702 3343 mt  717 3343 L
3879 3343 mt 3863 3343 L
 702 3343 mt  717 3343 L
3879 3343 mt 3863 3343 L
 702 3343 mt  717 3343 L
3879 3343 mt 3863 3343 L
 702 3343 mt  717 3343 L
3879 3343 mt 3863 3343 L
 702 3343 mt  717 3343 L
3879 3343 mt 3863 3343 L
 702 3343 mt  717 3343 L
3879 3343 mt 3863 3343 L
 702 3343 mt  717 3343 L
3879 3343 mt 3863 3343 L
 702 3343 mt  717 3343 L
3879 3343 mt 3863 3343 L
 702 3343 mt  733 3343 L
3879 3343 mt 3847 3343 L
 447 3391 mt 
(512) s
 702 3078 mt  717 3078 L
3879 3078 mt 3863 3078 L
 702 3078 mt  717 3078 L
3879 3078 mt 3863 3078 L
 702 3078 mt  717 3078 L
3879 3078 mt 3863 3078 L
 702 3078 mt  717 3078 L
3879 3078 mt 3863 3078 L
 702 3078 mt  717 3078 L
3879 3078 mt 3863 3078 L
 702 3078 mt  717 3078 L
3879 3078 mt 3863 3078 L
 702 3078 mt  717 3078 L
3879 3078 mt 3863 3078 L
 702 3078 mt  717 3078 L
3879 3078 mt 3863 3078 L
 702 3078 mt  717 3078 L
3879 3078 mt 3863 3078 L
 702 3078 mt  733 3078 L
3879 3078 mt 3847 3078 L
 374 3126 mt 
(1024) s
 702 2813 mt  717 2813 L
3879 2813 mt 3863 2813 L
 702 2813 mt  717 2813 L
3879 2813 mt 3863 2813 L
 702 2813 mt  717 2813 L
3879 2813 mt 3863 2813 L
 702 2813 mt  717 2813 L
3879 2813 mt 3863 2813 L
 702 2813 mt  717 2813 L
3879 2813 mt 3863 2813 L
 702 2813 mt  717 2813 L
3879 2813 mt 3863 2813 L
 702 2813 mt  717 2813 L
3879 2813 mt 3863 2813 L
 702 2813 mt  717 2813 L
3879 2813 mt 3863 2813 L
 702 2813 mt  717 2813 L
3879 2813 mt 3863 2813 L
 702 2813 mt  733 2813 L
3879 2813 mt 3847 2813 L
 374 2861 mt 
(2048) s
 702 2548 mt  717 2548 L
3879 2548 mt 3863 2548 L
 702 2548 mt  717 2548 L
3879 2548 mt 3863 2548 L
 702 2548 mt  717 2548 L
3879 2548 mt 3863 2548 L
 702 2548 mt  717 2548 L
3879 2548 mt 3863 2548 L
 702 2548 mt  717 2548 L
3879 2548 mt 3863 2548 L
 702 2548 mt  717 2548 L
3879 2548 mt 3863 2548 L
 702 2548 mt  717 2548 L
3879 2548 mt 3863 2548 L
 702 2548 mt  717 2548 L
3879 2548 mt 3863 2548 L
 702 2548 mt  717 2548 L
3879 2548 mt 3863 2548 L
 702 2548 mt  733 2548 L
3879 2548 mt 3847 2548 L
 374 2596 mt 
(4096) s
 702 2284 mt  717 2284 L
3879 2284 mt 3863 2284 L
 702 2284 mt  717 2284 L
3879 2284 mt 3863 2284 L
 702 2284 mt  717 2284 L
3879 2284 mt 3863 2284 L
 702 2284 mt  717 2284 L
3879 2284 mt 3863 2284 L
 702 2284 mt  717 2284 L
3879 2284 mt 3863 2284 L
 702 2284 mt  717 2284 L
3879 2284 mt 3863 2284 L
 702 2284 mt  717 2284 L
3879 2284 mt 3863 2284 L
 702 2284 mt  717 2284 L
3879 2284 mt 3863 2284 L
 702 2284 mt  717 2284 L
3879 2284 mt 3863 2284 L
 702 2284 mt  733 2284 L
3879 2284 mt 3847 2284 L
 374 2332 mt 
(8192) s
 702 2019 mt  717 2019 L
3879 2019 mt 3863 2019 L
 702 2019 mt  717 2019 L
3879 2019 mt 3863 2019 L
 702 2019 mt  717 2019 L
3879 2019 mt 3863 2019 L
 702 2019 mt  717 2019 L
3879 2019 mt 3863 2019 L
 702 2019 mt  717 2019 L
3879 2019 mt 3863 2019 L
 702 2019 mt  717 2019 L
3879 2019 mt 3863 2019 L
 702 2019 mt  717 2019 L
3879 2019 mt 3863 2019 L
 702 2019 mt  717 2019 L
3879 2019 mt 3863 2019 L
 702 2019 mt  717 2019 L
3879 2019 mt 3863 2019 L
 702 2019 mt  733 2019 L
3879 2019 mt 3847 2019 L
 301 2067 mt 
(16384) s
 702 1754 mt  717 1754 L
3879 1754 mt 3863 1754 L
 702 1754 mt  717 1754 L
3879 1754 mt 3863 1754 L
 702 1754 mt  717 1754 L
3879 1754 mt 3863 1754 L
 702 1754 mt  717 1754 L
3879 1754 mt 3863 1754 L
 702 1754 mt  717 1754 L
3879 1754 mt 3863 1754 L
 702 1754 mt  717 1754 L
3879 1754 mt 3863 1754 L
 702 1754 mt  717 1754 L
3879 1754 mt 3863 1754 L
 702 1754 mt  717 1754 L
3879 1754 mt 3863 1754 L
 702 1754 mt  717 1754 L
3879 1754 mt 3863 1754 L
 702 1754 mt  733 1754 L
3879 1754 mt 3847 1754 L
 301 1802 mt 
(32768) s
 702 4138 mt 3879 4138 L
 702 1743 mt 3879 1743 L
 702 4138 mt  702 1743 L
3879 4138 mt 3879 1743 L
gs 702 1743 3178 2396 rc
12 w
/c8 { 0.000000 0.000000 1.000000 sr} bdef
c8
351 -38 351 -45 352 -205 351 -188 351 -236 352 -280 351 -263 351 -309 
351 -257 702 4138 10 MP stroke
gr

12 w
c8
gs 629 2244 3308 1968 rc
 666 4138 mt  738 4138 L
 702 4102 mt  702 4174 L
1017 3881 mt 1089 3881 L
1053 3845 mt 1053 3917 L
1368 3572 mt 1440 3572 L
1404 3536 mt 1404 3608 L
1719 3309 mt 1791 3309 L
1755 3273 mt 1755 3345 L
2071 3029 mt 2143 3029 L
2107 2993 mt 2107 3065 L
2422 2793 mt 2494 2793 L
2458 2757 mt 2458 2829 L
2773 2605 mt 2845 2605 L
2809 2569 mt 2809 2641 L
3125 2400 mt 3197 2400 L
3161 2364 mt 3161 2436 L
3476 2355 mt 3548 2355 L
3512 2319 mt 3512 2391 L
3827 2317 mt 3899 2317 L
3863 2281 mt 3863 2353 L
gr

gs 702 1743 3178 2396 rc
gr

0 sg
%%IncludeResource: font Helvetica
/Helvetica /ISOLatin1Encoding 144 FMSR

2088 4489 mt 
(Cores) s
 185 3288 mt  -90 rotate
(Speedup) s
90 rotate
gs 702 1743 3178 2396 rc
DA
6 w
351 -265 351 -265 352 -264 351 -265 351 -265 352 -265 351 -265 351 -265 
351 -265 702 4138 10 MP stroke
SO
12 w
/c9 { 1.000000 0.000000 0.000000 sr} bdef
c9
351 -50 351 -209 352 -191 351 -245 351 -245 352 -264 351 -271 351 -269 
351 -270 702 4138 10 MP stroke
gr

c9
gs 629 2051 3308 2161 rc
  36   36  702 4138 FO
  36   36 1053 3868 FO
  36   36 1404 3599 FO
  36   36 1755 3328 FO
  36   36 2107 3064 FO
  36   36 2458 2819 FO
  36   36 2809 2574 FO
  36   36 3161 2383 FO
  36   36 3512 2174 FO
  36   36 3863 2124 FO
gr

gs 702 1743 3178 2396 rc
DA
6 w
0 sg
351 -265 351 -265 352 -264 351 -265 351 -265 352 -265 351 -265 351 -265 
351 -265 702 4138 10 MP stroke
SO
gr

6 w
0 sg
1 sg
0 1569 3177 0 0 -1569 702 1749 4 MP
PP
-3177 0 0 1569 3177 0 0 -1569 702 1749 5 MP stroke
4 w
DO
0 sg
 702 1749 mt  702  180 L
 702  180 mt  702  180 L
1053 1749 mt 1053  180 L
1053  180 mt 1053  180 L
1404 1749 mt 1404  180 L
1404  180 mt 1404  180 L
1755 1749 mt 1755  180 L
1755  180 mt 1755  180 L
2107 1749 mt 2107  180 L
2107  180 mt 2107  180 L
2458 1749 mt 2458  180 L
2458  180 mt 2458  180 L
2809 1749 mt 2809  180 L
2809  180 mt 2809  180 L
3161 1749 mt 3161  180 L
3161  180 mt 3161  180 L
3512 1749 mt 3512  180 L
3512  180 mt 3512  180 L
3863 1749 mt 3863  180 L
3863  180 mt 3863  180 L
 702 1749 mt 3879 1749 L
3879 1749 mt 3879 1749 L
 702 1588 mt 3879 1588 L
3879 1588 mt 3879 1588 L
 702 1428 mt 3879 1428 L
3879 1428 mt 3879 1428 L
 702 1268 mt 3879 1268 L
3879 1268 mt 3879 1268 L
 702 1108 mt 3879 1108 L
3879 1108 mt 3879 1108 L
 702  948 mt 3879  948 L
3879  948 mt 3879  948 L
 702  788 mt 3879  788 L
3879  788 mt 3879  788 L
 702  628 mt 3879  628 L
3879  628 mt 3879  628 L
 702  468 mt 3879  468 L
3879  468 mt 3879  468 L
 702  308 mt 3879  308 L
3879  308 mt 3879  308 L
SO
6 w
 702 1749 mt 3879 1749 L
 702  180 mt 3879  180 L
 702 1749 mt  702  180 L
3879 1749 mt 3879  180 L
 702 1749 mt 3879 1749 L
 702 1749 mt  702  180 L
 702 1749 mt  702 1733 L
 702  180 mt  702  195 L
DO
 702 1749 mt  702  180 L
 702  180 mt  702  180 L
SO
 702 1749 mt  702 1717 L
 702  180 mt  702  211 L
1053 1749 mt 1053 1733 L
1053  180 mt 1053  195 L
DO
1053 1749 mt 1053  180 L
1053  180 mt 1053  180 L
SO
1053 1749 mt 1053 1733 L
1053  180 mt 1053  195 L
DO
1053 1749 mt 1053  180 L
1053  180 mt 1053  180 L
SO
1053 1749 mt 1053 1733 L
1053  180 mt 1053  195 L
DO
1053 1749 mt 1053  180 L
1053  180 mt 1053  180 L
SO
1053 1749 mt 1053 1733 L
1053  180 mt 1053  195 L
DO
1053 1749 mt 1053  180 L
1053  180 mt 1053  180 L
SO
1053 1749 mt 1053 1733 L
1053  180 mt 1053  195 L
DO
1053 1749 mt 1053  180 L
1053  180 mt 1053  180 L
SO
1053 1749 mt 1053 1733 L
1053  180 mt 1053  195 L
DO
1053 1749 mt 1053  180 L
1053  180 mt 1053  180 L
SO
1053 1749 mt 1053 1733 L
1053  180 mt 1053  195 L
DO
1053 1749 mt 1053  180 L
1053  180 mt 1053  180 L
SO
1053 1749 mt 1053 1733 L
1053  180 mt 1053  195 L
DO
1053 1749 mt 1053  180 L
1053  180 mt 1053  180 L
SO
1053 1749 mt 1053 1733 L
1053  180 mt 1053  195 L
DO
1053 1749 mt 1053  180 L
1053  180 mt 1053  180 L
SO
1053 1749 mt 1053 1717 L
1053  180 mt 1053  211 L
%%IncludeResource: font Helvetica
/Helvetica /ISOLatin1Encoding 132 FMSR

 943 1905 mt 
(128) s
1404 1749 mt 1404 1733 L
1404  180 mt 1404  195 L
DO
1404 1749 mt 1404  180 L
1404  180 mt 1404  180 L
SO
1404 1749 mt 1404 1733 L
1404  180 mt 1404  195 L
DO
1404 1749 mt 1404  180 L
1404  180 mt 1404  180 L
SO
1404 1749 mt 1404 1733 L
1404  180 mt 1404  195 L
DO
1404 1749 mt 1404  180 L
1404  180 mt 1404  180 L
SO
1404 1749 mt 1404 1733 L
1404  180 mt 1404  195 L
DO
1404 1749 mt 1404  180 L
1404  180 mt 1404  180 L
SO
1404 1749 mt 1404 1733 L
1404  180 mt 1404  195 L
DO
1404 1749 mt 1404  180 L
1404  180 mt 1404  180 L
SO
1404 1749 mt 1404 1733 L
1404  180 mt 1404  195 L
DO
1404 1749 mt 1404  180 L
1404  180 mt 1404  180 L
SO
1404 1749 mt 1404 1733 L
1404  180 mt 1404  195 L
DO
1404 1749 mt 1404  180 L
1404  180 mt 1404  180 L
SO
1404 1749 mt 1404 1733 L
1404  180 mt 1404  195 L
DO
1404 1749 mt 1404  180 L
1404  180 mt 1404  180 L
SO
1404 1749 mt 1404 1733 L
1404  180 mt 1404  195 L
DO
1404 1749 mt 1404  180 L
1404  180 mt 1404  180 L
SO
1404 1749 mt 1404 1717 L
1404  180 mt 1404  211 L
1294 1905 mt 
(256) s
1755 1749 mt 1755 1733 L
1755  180 mt 1755  195 L
DO
1755 1749 mt 1755  180 L
1755  180 mt 1755  180 L
SO
1755 1749 mt 1755 1733 L
1755  180 mt 1755  195 L
DO
1755 1749 mt 1755  180 L
1755  180 mt 1755  180 L
SO
1755 1749 mt 1755 1733 L
1755  180 mt 1755  195 L
DO
1755 1749 mt 1755  180 L
1755  180 mt 1755  180 L
SO
1755 1749 mt 1755 1733 L
1755  180 mt 1755  195 L
DO
1755 1749 mt 1755  180 L
1755  180 mt 1755  180 L
SO
1755 1749 mt 1755 1733 L
1755  180 mt 1755  195 L
DO
1755 1749 mt 1755  180 L
1755  180 mt 1755  180 L
SO
1755 1749 mt 1755 1733 L
1755  180 mt 1755  195 L
DO
1755 1749 mt 1755  180 L
1755  180 mt 1755  180 L
SO
1755 1749 mt 1755 1733 L
1755  180 mt 1755  195 L
DO
1755 1749 mt 1755  180 L
1755  180 mt 1755  180 L
SO
1755 1749 mt 1755 1733 L
1755  180 mt 1755  195 L
DO
1755 1749 mt 1755  180 L
1755  180 mt 1755  180 L
SO
1755 1749 mt 1755 1733 L
1755  180 mt 1755  195 L
DO
1755 1749 mt 1755  180 L
1755  180 mt 1755  180 L
SO
1755 1749 mt 1755 1717 L
1755  180 mt 1755  211 L
1645 1905 mt 
(512) s
2107 1749 mt 2107 1733 L
2107  180 mt 2107  195 L
DO
2107 1749 mt 2107  180 L
2107  180 mt 2107  180 L
SO
2107 1749 mt 2107 1733 L
2107  180 mt 2107  195 L
DO
2107 1749 mt 2107  180 L
2107  180 mt 2107  180 L
SO
2107 1749 mt 2107 1733 L
2107  180 mt 2107  195 L
DO
2107 1749 mt 2107  180 L
2107  180 mt 2107  180 L
SO
2107 1749 mt 2107 1733 L
2107  180 mt 2107  195 L
DO
2107 1749 mt 2107  180 L
2107  180 mt 2107  180 L
SO
2107 1749 mt 2107 1733 L
2107  180 mt 2107  195 L
DO
2107 1749 mt 2107  180 L
2107  180 mt 2107  180 L
SO
2107 1749 mt 2107 1733 L
2107  180 mt 2107  195 L
DO
2107 1749 mt 2107  180 L
2107  180 mt 2107  180 L
SO
2107 1749 mt 2107 1733 L
2107  180 mt 2107  195 L
DO
2107 1749 mt 2107  180 L
2107  180 mt 2107  180 L
SO
2107 1749 mt 2107 1733 L
2107  180 mt 2107  195 L
DO
2107 1749 mt 2107  180 L
2107  180 mt 2107  180 L
SO
2107 1749 mt 2107 1733 L
2107  180 mt 2107  195 L
DO
2107 1749 mt 2107  180 L
2107  180 mt 2107  180 L
SO
2107 1749 mt 2107 1717 L
2107  180 mt 2107  211 L
1942 1905 mt 
(1,024) s
2458 1749 mt 2458 1733 L
2458  180 mt 2458  195 L
DO
2458 1749 mt 2458  180 L
2458  180 mt 2458  180 L
SO
2458 1749 mt 2458 1733 L
2458  180 mt 2458  195 L
DO
2458 1749 mt 2458  180 L
2458  180 mt 2458  180 L
SO
2458 1749 mt 2458 1733 L
2458  180 mt 2458  195 L
DO
2458 1749 mt 2458  180 L
2458  180 mt 2458  180 L
SO
2458 1749 mt 2458 1733 L
2458  180 mt 2458  195 L
DO
2458 1749 mt 2458  180 L
2458  180 mt 2458  180 L
SO
2458 1749 mt 2458 1733 L
2458  180 mt 2458  195 L
DO
2458 1749 mt 2458  180 L
2458  180 mt 2458  180 L
SO
2458 1749 mt 2458 1733 L
2458  180 mt 2458  195 L
DO
2458 1749 mt 2458  180 L
2458  180 mt 2458  180 L
SO
2458 1749 mt 2458 1733 L
2458  180 mt 2458  195 L
DO
2458 1749 mt 2458  180 L
2458  180 mt 2458  180 L
SO
2458 1749 mt 2458 1733 L
2458  180 mt 2458  195 L
DO
2458 1749 mt 2458  180 L
2458  180 mt 2458  180 L
SO
2458 1749 mt 2458 1733 L
2458  180 mt 2458  195 L
DO
2458 1749 mt 2458  180 L
2458  180 mt 2458  180 L
SO
2458 1749 mt 2458 1717 L
2458  180 mt 2458  211 L
2378 1905 mt 
(2K) s
2809 1749 mt 2809 1733 L
2809  180 mt 2809  195 L
DO
2809 1749 mt 2809  180 L
2809  180 mt 2809  180 L
SO
2809 1749 mt 2809 1733 L
2809  180 mt 2809  195 L
DO
2809 1749 mt 2809  180 L
2809  180 mt 2809  180 L
SO
2809 1749 mt 2809 1733 L
2809  180 mt 2809  195 L
DO
2809 1749 mt 2809  180 L
2809  180 mt 2809  180 L
SO
2809 1749 mt 2809 1733 L
2809  180 mt 2809  195 L
DO
2809 1749 mt 2809  180 L
2809  180 mt 2809  180 L
SO
2809 1749 mt 2809 1733 L
2809  180 mt 2809  195 L
DO
2809 1749 mt 2809  180 L
2809  180 mt 2809  180 L
SO
2809 1749 mt 2809 1733 L
2809  180 mt 2809  195 L
DO
2809 1749 mt 2809  180 L
2809  180 mt 2809  180 L
SO
2809 1749 mt 2809 1733 L
2809  180 mt 2809  195 L
DO
2809 1749 mt 2809  180 L
2809  180 mt 2809  180 L
SO
2809 1749 mt 2809 1733 L
2809  180 mt 2809  195 L
DO
2809 1749 mt 2809  180 L
2809  180 mt 2809  180 L
SO
2809 1749 mt 2809 1733 L
2809  180 mt 2809  195 L
DO
2809 1749 mt 2809  180 L
2809  180 mt 2809  180 L
SO
2809 1749 mt 2809 1717 L
2809  180 mt 2809  211 L
2729 1905 mt 
(4K) s
3161 1749 mt 3161 1733 L
3161  180 mt 3161  195 L
DO
3161 1749 mt 3161  180 L
3161  180 mt 3161  180 L
SO
3161 1749 mt 3161 1733 L
3161  180 mt 3161  195 L
DO
3161 1749 mt 3161  180 L
3161  180 mt 3161  180 L
SO
3161 1749 mt 3161 1733 L
3161  180 mt 3161  195 L
DO
3161 1749 mt 3161  180 L
3161  180 mt 3161  180 L
SO
3161 1749 mt 3161 1733 L
3161  180 mt 3161  195 L
DO
3161 1749 mt 3161  180 L
3161  180 mt 3161  180 L
SO
3161 1749 mt 3161 1733 L
3161  180 mt 3161  195 L
DO
3161 1749 mt 3161  180 L
3161  180 mt 3161  180 L
SO
3161 1749 mt 3161 1733 L
3161  180 mt 3161  195 L
DO
3161 1749 mt 3161  180 L
3161  180 mt 3161  180 L
SO
3161 1749 mt 3161 1733 L
3161  180 mt 3161  195 L
DO
3161 1749 mt 3161  180 L
3161  180 mt 3161  180 L
SO
3161 1749 mt 3161 1733 L
3161  180 mt 3161  195 L
DO
3161 1749 mt 3161  180 L
3161  180 mt 3161  180 L
SO
3161 1749 mt 3161 1733 L
3161  180 mt 3161  195 L
DO
3161 1749 mt 3161  180 L
3161  180 mt 3161  180 L
SO
3161 1749 mt 3161 1717 L
3161  180 mt 3161  211 L
3081 1905 mt 
(8K) s
3512 1749 mt 3512 1733 L
3512  180 mt 3512  195 L
DO
3512 1749 mt 3512  180 L
3512  180 mt 3512  180 L
SO
3512 1749 mt 3512 1733 L
3512  180 mt 3512  195 L
DO
3512 1749 mt 3512  180 L
3512  180 mt 3512  180 L
SO
3512 1749 mt 3512 1733 L
3512  180 mt 3512  195 L
DO
3512 1749 mt 3512  180 L
3512  180 mt 3512  180 L
SO
3512 1749 mt 3512 1733 L
3512  180 mt 3512  195 L
DO
3512 1749 mt 3512  180 L
3512  180 mt 3512  180 L
SO
3512 1749 mt 3512 1733 L
3512  180 mt 3512  195 L
DO
3512 1749 mt 3512  180 L
3512  180 mt 3512  180 L
SO
3512 1749 mt 3512 1733 L
3512  180 mt 3512  195 L
DO
3512 1749 mt 3512  180 L
3512  180 mt 3512  180 L
SO
3512 1749 mt 3512 1733 L
3512  180 mt 3512  195 L
DO
3512 1749 mt 3512  180 L
3512  180 mt 3512  180 L
SO
3512 1749 mt 3512 1733 L
3512  180 mt 3512  195 L
DO
3512 1749 mt 3512  180 L
3512  180 mt 3512  180 L
SO
3512 1749 mt 3512 1733 L
3512  180 mt 3512  195 L
DO
3512 1749 mt 3512  180 L
3512  180 mt 3512  180 L
SO
3512 1749 mt 3512 1717 L
3512  180 mt 3512  211 L
3395 1905 mt 
(16K) s
3863 1749 mt 3863 1733 L
3863  180 mt 3863  195 L
DO
3863 1749 mt 3863  180 L
3863  180 mt 3863  180 L
SO
3863 1749 mt 3863 1733 L
3863  180 mt 3863  195 L
DO
3863 1749 mt 3863  180 L
3863  180 mt 3863  180 L
SO
3863 1749 mt 3863 1733 L
3863  180 mt 3863  195 L
DO
3863 1749 mt 3863  180 L
3863  180 mt 3863  180 L
SO
3863 1749 mt 3863 1733 L
3863  180 mt 3863  195 L
DO
3863 1749 mt 3863  180 L
3863  180 mt 3863  180 L
SO
3863 1749 mt 3863 1733 L
3863  180 mt 3863  195 L
DO
3863 1749 mt 3863  180 L
3863  180 mt 3863  180 L
SO
3863 1749 mt 3863 1733 L
3863  180 mt 3863  195 L
DO
3863 1749 mt 3863  180 L
3863  180 mt 3863  180 L
SO
3863 1749 mt 3863 1733 L
3863  180 mt 3863  195 L
DO
3863 1749 mt 3863  180 L
3863  180 mt 3863  180 L
SO
3863 1749 mt 3863 1733 L
3863  180 mt 3863  195 L
DO
3863 1749 mt 3863  180 L
3863  180 mt 3863  180 L
SO
3863 1749 mt 3863 1733 L
3863  180 mt 3863  195 L
DO
3863 1749 mt 3863  180 L
3863  180 mt 3863  180 L
SO
3863 1749 mt 3863 1717 L
3863  180 mt 3863  211 L
 702 1749 mt  733 1749 L
3879 1749 mt 3847 1749 L
 702 1588 mt  733 1588 L
3879 1588 mt 3847 1588 L
 484 1636 mt 
(0.3) s
 702 1428 mt  733 1428 L
3879 1428 mt 3847 1428 L
 484 1476 mt 
(0.4) s
 702 1268 mt  733 1268 L
3879 1268 mt 3847 1268 L
 484 1316 mt 
(0.5) s
 702 1108 mt  733 1108 L
3879 1108 mt 3847 1108 L
 484 1156 mt 
(0.6) s
 702  948 mt  733  948 L
3879  948 mt 3847  948 L
 484  996 mt 
(0.7) s
 702  788 mt  733  788 L
3879  788 mt 3847  788 L
 484  836 mt 
(0.8) s
 702  628 mt  733  628 L
3879  628 mt 3847  628 L
 484  676 mt 
(0.9) s
 702  468 mt  733  468 L
3879  468 mt 3847  468 L
 594  516 mt 
(1) s
 702  308 mt  733  308 L
3879  308 mt 3847  308 L
 484  356 mt 
(1.1) s
 702 1749 mt 3879 1749 L
 702  180 mt 3879  180 L
 702 1749 mt  702  180 L
3879 1749 mt 3879  180 L
gs 702 179 3178 1570 rc
12 w
c8
351 297 351 518 352 200 351 306 351 134 352 -71 351 9 351 -193 
351 34 702 468 10 MP stroke
gr

12 w
c8
 666  468 mt  738  468 L
 702  432 mt  702  504 L
1017  502 mt 1089  502 L
1053  466 mt 1053  538 L
1368  309 mt 1440  309 L
1404  273 mt 1404  345 L
1719  318 mt 1791  318 L
1755  282 mt 1755  354 L
2071  247 mt 2143  247 L
2107  211 mt 2107  283 L
2422  381 mt 2494  381 L
2458  345 mt 2458  417 L
2773  687 mt 2845  687 L
2809  651 mt 2809  723 L
3125  887 mt 3197  887 L
3161  851 mt 3161  923 L
3476 1405 mt 3548 1405 L
3512 1369 mt 3512 1441 L
3827 1702 mt 3899 1702 L
3863 1666 mt 3863 1738 L
gs 702 179 3178 1570 rc
gr

0 sg
%%IncludeResource: font Helvetica
/Helvetica /ISOLatin1Encoding 144 FMSR

 208 1511 mt  -90 rotate
(Scaling efficiency) s
90 rotate
gs 702 179 3178 1570 rc
c9
351 460 351 166 352 264 351 78 351 88 352 0 351 -25 351 -18 
351 -20 702 468 10 MP stroke
gr

c9
  36   36  702  468 FO
  36   36 1053  448 FO
  36   36 1404  430 FO
  36   36 1755  405 FO
  36   36 2107  405 FO
  36   36 2458  493 FO
  36   36 2809  571 FO
  36   36 3161  835 FO
  36   36 3512 1001 FO
  36   36 3863 1461 FO
gs 702 179 3178 1570 rc
gr

0 sg
%%IncludeResource: font Helvetica
/Helvetica /ISOLatin1Encoding 120 FMSR

 685 1791 mt 
( ) s
3863  221 mt 
( ) s
6 w
1 sg
0 419 1915 0 0 -419 844 2470 4 MP
PP
-1915 0 0 419 1915 0 0 -419 844 2470 5 MP stroke
4 w
DO
SO
6 w
0 sg
 844 2470 mt 2759 2470 L
 844 2051 mt 2759 2051 L
 844 2470 mt  844 2051 L
2759 2470 mt 2759 2051 L
 844 2470 mt 2759 2470 L
 844 2470 mt  844 2051 L
 844 2470 mt 2759 2470 L
 844 2051 mt 2759 2051 L
 844 2470 mt  844 2051 L
2759 2470 mt 2759 2051 L
%%IncludeResource: font Helvetica
/Helvetica /ISOLatin1Encoding 132 FMSR

1312 2214 mt 
(Med ES Coll, Intel MPI) s
gs 844 2051 1916 420 rc
12 w
c8
360 0 915 2166 2 MP stroke
gr

12 w
c8
1059 2166 mt 1131 2166 L
1095 2130 mt 1095 2202 L
gs 844 2051 1916 420 rc
gr

0 sg
1312 2402 mt 
(Med ES Coll, BullX MPI) s
gs 844 2051 1916 420 rc
c9
360 0 915 2354 2 MP stroke
gr

c9
  36   36 1095 2354 FO
gs 844 2051 1916 420 rc
6 w
gr

6 w

end %%Color Dict

eplot
%%EndObject

epage
end

showpage

%%Trailer
%%EOF
