%!PS-Adobe-3.0 EPSF-3.0
%%Creator: MATLAB, The Mathworks, Inc. Version 7.3.0.298 (R2006b). Operating System: Linux 2.6.18.8-0.5-default #1 SMP Fri Jun 22 12:17:53 UTC 2007 i686.
%%Title: /home/space/phsfar/codes/gkw_old/ben/etg/etg04/shear_scan3.eps
%%CreationDate: 10/12/2007  14:17:01
%%DocumentNeededFonts: Helvetica
%%DocumentProcessColors: Cyan Magenta Yellow Black
%%LanguageLevel: 2
%%Pages: 1
%%BoundingBox: 66 322 517 515
%%EndComments

%%BeginProlog
% MathWorks dictionary
/MathWorks 160 dict begin
% definition operators
/bdef {bind def} bind def
/ldef {load def} bind def
/xdef {exch def} bdef
/xstore {exch store} bdef
% operator abbreviations
/c  /clip ldef
/cc /concat ldef
/cp /closepath ldef
/gr /grestore ldef
/gs /gsave ldef
/mt /moveto ldef
/np /newpath ldef
/cm /currentmatrix ldef
/sm /setmatrix ldef
/rm /rmoveto ldef
/rl /rlineto ldef
/s {show newpath} bdef
/sc {setcmykcolor} bdef
/sr /setrgbcolor ldef
/sg /setgray ldef
/w /setlinewidth ldef
/j /setlinejoin ldef
/cap /setlinecap ldef
/rc {rectclip} bdef
/rf {rectfill} bdef
% page state control
/pgsv () def
/bpage {/pgsv save def} bdef
/epage {pgsv restore} bdef
/bplot /gsave ldef
/eplot {stroke grestore} bdef
% orientation switch
/portraitMode 0 def /landscapeMode 1 def /rotateMode 2 def
% coordinate system mappings
/dpi2point 0 def
% font control
/FontSize 0 def
/FMS {/FontSize xstore findfont [FontSize 0 0 FontSize neg 0 0]
  makefont setfont} bdef
/reencode {exch dup where {pop load} {pop StandardEncoding} ifelse
  exch dup 3 1 roll findfont dup length dict begin
  { 1 index /FID ne {def}{pop pop} ifelse } forall
  /Encoding exch def currentdict end definefont pop} bdef
/isroman {findfont /CharStrings get /Agrave known} bdef
/FMSR {3 1 roll 1 index dup isroman {reencode} {pop pop} ifelse
  exch FMS} bdef
/csm {1 dpi2point div -1 dpi2point div scale neg translate
 dup landscapeMode eq {pop -90 rotate}
  {rotateMode eq {90 rotate} if} ifelse} bdef
% line types: solid, dotted, dashed, dotdash
/SO { [] 0 setdash } bdef
/DO { [.5 dpi2point mul 4 dpi2point mul] 0 setdash } bdef
/DA { [6 dpi2point mul] 0 setdash } bdef
/DD { [.5 dpi2point mul 4 dpi2point mul 6 dpi2point mul 4
  dpi2point mul] 0 setdash } bdef
% macros for lines and objects
/L {lineto stroke} bdef
/MP {3 1 roll moveto 1 sub {rlineto} repeat} bdef
/AP {{rlineto} repeat} bdef
/PDlw -1 def
/W {/PDlw currentlinewidth def setlinewidth} def
/PP {closepath eofill} bdef
/DP {closepath stroke} bdef
/MR {4 -2 roll moveto dup  0 exch rlineto exch 0 rlineto
  neg 0 exch rlineto closepath} bdef
/FR {MR stroke} bdef
/PR {MR fill} bdef
/L1i {{currentfile picstr readhexstring pop} image} bdef
/tMatrix matrix def
/MakeOval {newpath tMatrix currentmatrix pop translate scale
0 0 1 0 360 arc tMatrix setmatrix} bdef
/FO {MakeOval stroke} bdef
/PO {MakeOval fill} bdef
/PD {currentlinewidth 2 div 0 360 arc fill
   PDlw -1 eq not {PDlw w /PDlw -1 def} if} def
/FA {newpath tMatrix currentmatrix pop translate scale
  0 0 1 5 -2 roll arc tMatrix setmatrix stroke} bdef
/PA {newpath tMatrix currentmatrix pop	translate 0 0 moveto scale
  0 0 1 5 -2 roll arc closepath tMatrix setmatrix fill} bdef
/FAn {newpath tMatrix currentmatrix pop translate scale
  0 0 1 5 -2 roll arcn tMatrix setmatrix stroke} bdef
/PAn {newpath tMatrix currentmatrix pop translate 0 0 moveto scale
  0 0 1 5 -2 roll arcn closepath tMatrix setmatrix fill} bdef
/vradius 0 def /hradius 0 def /lry 0 def
/lrx 0 def /uly 0 def /ulx 0 def /rad 0 def
/MRR {/vradius xdef /hradius xdef /lry xdef /lrx xdef /uly xdef
  /ulx xdef newpath tMatrix currentmatrix pop ulx hradius add uly
  vradius add translate hradius vradius scale 0 0 1 180 270 arc 
  tMatrix setmatrix lrx hradius sub uly vradius add translate
  hradius vradius scale 0 0 1 270 360 arc tMatrix setmatrix
  lrx hradius sub lry vradius sub translate hradius vradius scale
  0 0 1 0 90 arc tMatrix setmatrix ulx hradius add lry vradius sub
  translate hradius vradius scale 0 0 1 90 180 arc tMatrix setmatrix
  closepath} bdef
/FRR {MRR stroke } bdef
/PRR {MRR fill } bdef
/MlrRR {/lry xdef /lrx xdef /uly xdef /ulx xdef /rad lry uly sub 2 div def
  newpath tMatrix currentmatrix pop ulx rad add uly rad add translate
  rad rad scale 0 0 1 90 270 arc tMatrix setmatrix lrx rad sub lry rad
  sub translate rad rad scale 0 0 1 270 90 arc tMatrix setmatrix
  closepath} bdef
/FlrRR {MlrRR stroke } bdef
/PlrRR {MlrRR fill } bdef
/MtbRR {/lry xdef /lrx xdef /uly xdef /ulx xdef /rad lrx ulx sub 2 div def
  newpath tMatrix currentmatrix pop ulx rad add uly rad add translate
  rad rad scale 0 0 1 180 360 arc tMatrix setmatrix lrx rad sub lry rad
  sub translate rad rad scale 0 0 1 0 180 arc tMatrix setmatrix
  closepath} bdef
/FtbRR {MtbRR stroke } bdef
/PtbRR {MtbRR fill } bdef
/stri 6 array def /dtri 6 array def
/smat 6 array def /dmat 6 array def
/tmat1 6 array def /tmat2 6 array def /dif 3 array def
/asub {/ind2 exch def /ind1 exch def dup dup
  ind1 get exch ind2 get sub exch } bdef
/tri_to_matrix {
  2 0 asub 3 1 asub 4 0 asub 5 1 asub
  dup 0 get exch 1 get 7 -1 roll astore } bdef
/compute_transform {
  dmat dtri tri_to_matrix tmat1 invertmatrix 
  smat stri tri_to_matrix tmat2 concatmatrix } bdef
/ds {stri astore pop} bdef
/dt {dtri astore pop} bdef
/db {2 copy /cols xdef /rows xdef mul dup 3 mul string
  currentfile 
  3 index 0 eq {/ASCIIHexDecode filter}
  {/ASCII85Decode filter 3 index 2 eq {/RunLengthDecode filter} if }
  ifelse exch readstring pop
  dup 0 3 index getinterval /rbmap xdef
  dup 2 index dup getinterval /gbmap xdef
  1 index dup 2 mul exch getinterval /bbmap xdef pop pop}bdef
/it {gs np dtri aload pop moveto lineto lineto cp c
  cols rows 8 compute_transform 
  rbmap gbmap bbmap true 3 colorimage gr}bdef
/il {newpath moveto lineto stroke}bdef
currentdict end def
%%EndProlog

%%BeginSetup
MathWorks begin

0 cap

end
%%EndSetup

%%Page: 1 1
%%BeginPageSetup
%%PageBoundingBox: 66 322 517 515
MathWorks begin
bpage
%%EndPageSetup

%%BeginObject: obj1
bplot

/dpi2point 12 def
portraitMode 0492 6240 csm

    0     0  6145  2392 rc
86 dict begin %Colortable dictionary
/c0 { 0.000000 0.000000 0.000000 sr} bdef
/c1 { 1.000000 1.000000 1.000000 sr} bdef
/c2 { 0.900000 0.000000 0.000000 sr} bdef
/c3 { 0.000000 0.820000 0.000000 sr} bdef
/c4 { 0.000000 0.000000 0.800000 sr} bdef
/c5 { 0.910000 0.820000 0.320000 sr} bdef
/c6 { 1.000000 0.260000 0.820000 sr} bdef
/c7 { 0.000000 0.820000 0.820000 sr} bdef
c0
1 j
1 sg
   0    0 6146 2393 rf
6 w
0 1864 4762 0 0 -1864 799 2043 4 MP
PP
-4762 0 0 1864 4762 0 0 -1864 799 2043 5 MP stroke
4 w
DO
SO
6 w
0 sg
 799 2043 mt 5561 2043 L
 799  179 mt 5561  179 L
 799 2043 mt  799  179 L
5561 2043 mt 5561  179 L
 799 2043 mt 5561 2043 L
 799 2043 mt  799  179 L
 799 2043 mt  799 1995 L
 799  179 mt  799  226 L
%%IncludeResource: font Helvetica
/Helvetica /ISOLatin1Encoding 120 FMSR

 766 2188 mt 
(0) s
1275 2043 mt 1275 1995 L
1275  179 mt 1275  226 L
1175 2188 mt 
(500) s
1751 2043 mt 1751 1995 L
1751  179 mt 1751  226 L
1618 2188 mt 
(1000) s
2227 2043 mt 2227 1995 L
2227  179 mt 2227  226 L
2094 2188 mt 
(1500) s
2703 2043 mt 2703 1995 L
2703  179 mt 2703  226 L
2570 2188 mt 
(2000) s
3180 2043 mt 3180 1995 L
3180  179 mt 3180  226 L
3047 2188 mt 
(2500) s
3656 2043 mt 3656 1995 L
3656  179 mt 3656  226 L
3523 2188 mt 
(3000) s
4132 2043 mt 4132 1995 L
4132  179 mt 4132  226 L
3999 2188 mt 
(3500) s
4608 2043 mt 4608 1995 L
4608  179 mt 4608  226 L
4475 2188 mt 
(4000) s
5084 2043 mt 5084 1995 L
5084  179 mt 5084  226 L
4951 2188 mt 
(4500) s
5561 2043 mt 5561 1995 L
5561  179 mt 5561  226 L
5428 2188 mt 
(5000) s
 799 2043 mt  822 2043 L
5561 2043 mt 5537 2043 L
 799 2043 mt  846 2043 L
5561 2043 mt 5513 2043 L
 587 2087 mt 
(10) s
%%IncludeResource: font Helvetica
/Helvetica /ISOLatin1Encoding 80 FMSR

 720 2013 mt 
(0) s
 799 1762 mt  822 1762 L
5561 1762 mt 5537 1762 L
 799 1598 mt  822 1598 L
5561 1598 mt 5537 1598 L
 799 1481 mt  822 1481 L
5561 1481 mt 5537 1481 L
 799 1391 mt  822 1391 L
5561 1391 mt 5537 1391 L
 799 1317 mt  822 1317 L
5561 1317 mt 5537 1317 L
 799 1255 mt  822 1255 L
5561 1255 mt 5537 1255 L
 799 1201 mt  822 1201 L
5561 1201 mt 5537 1201 L
 799 1153 mt  822 1153 L
5561 1153 mt 5537 1153 L
 799 1111 mt  822 1111 L
5561 1111 mt 5537 1111 L
 799 1111 mt  846 1111 L
5561 1111 mt 5513 1111 L
%%IncludeResource: font Helvetica
/Helvetica /ISOLatin1Encoding 120 FMSR

 587 1155 mt 
(10) s
%%IncludeResource: font Helvetica
/Helvetica /ISOLatin1Encoding 80 FMSR

 720 1081 mt 
(1) s
 799  830 mt  822  830 L
5561  830 mt 5537  830 L
 799  666 mt  822  666 L
5561  666 mt 5537  666 L
 799  549 mt  822  549 L
5561  549 mt 5537  549 L
 799  459 mt  822  459 L
5561  459 mt 5537  459 L
 799  385 mt  822  385 L
5561  385 mt 5537  385 L
 799  323 mt  822  323 L
5561  323 mt 5537  323 L
 799  269 mt  822  269 L
5561  269 mt 5537  269 L
 799  221 mt  822  221 L
5561  221 mt 5537  221 L
 799  179 mt  822  179 L
5561  179 mt 5537  179 L
 799  179 mt  846  179 L
5561  179 mt 5513  179 L
%%IncludeResource: font Helvetica
/Helvetica /ISOLatin1Encoding 120 FMSR

 587  223 mt 
(10) s
%%IncludeResource: font Helvetica
/Helvetica /ISOLatin1Encoding 80 FMSR

 720  149 mt 
(2) s
 799 2043 mt 5561 2043 L
 799  179 mt 5561  179 L
 799 2043 mt  799  179 L
5561 2043 mt 5561  179 L
gs 799 179 4763 1865 rc
/c8 { 1.000000 0.000000 0.000000 sr} bdef
c8
5 -3 5 0 6 37 5 11 6 9 5 0 6 4 5 1 
5 10 6 0 5 16 6 4 5 -15 6 -3 5 17 6 15 
5 -1 6 2 5 28 6 10 5 -1 6 -19 5 -18 6 -31 
5 -20 6 -33 5 -23 6 -14 5 -13 6 0 5 -3 6 2 
5 -19 6 -15 5 -18 6 -14 5 -21 6 -39 5 -18 6 -12 
5 -14 6 -5 5 2 6 14 5 20 6 3 5 -5 6 7 
5 3 6 13 5 25 6 8 5 -6 6 34 5 46 6 48 
5 29 6 9 5 -11 6 -2 5 1 6 -6 5 9 6 1 
5 0 6 -1 5 -2 6 -27 5 -21 6 -12 5 6 6 17 
5 -13 6 -22 5 -1 6 0 5 -14 6 -7 5 -1 6 2 
5 -11 6 -12 5 -1 6 2 5 -4 6 2 5 -15 6 -12 
5 0 6 24 5 20 6 9 5 11 6 30 5 31 6 18 
5 17 6 -4 5 4 6 12 5 24 6 20 5 1 6 13 
5 -1 6 -24 5 -30 6 -22 5 -16 6 -26 5 -25 6 -19 
5 -10 6 -18 5 -23 5 -14 6 -18 5 -15 6 -8 5 16 
6 1 5 7 6 -3 5 -4 6 -2 5 -7 6 13 5 14 
6 2 5 1 6 -17 5 -20 6 -3 5 -18 6 -25 5 1 
6 8 5 5 6 12 5 6 6 11 5 12 6 16 5 7 
6 4 5 -3 6 10 5 -4 6 15 5 37 6 12 5 9 
6 16 5 4 6 -21 5 -4 6 -4 5 -7 6 8 5 0 
6 -20 5 -4 6 14 5 3 6 -2 5 26 6 13 5 15 
6 -7 5 -10 6 -4 5 16 6 -7 5 -16 6 13 5 -4 
6 -16 5 -7 6 0 5 14 6 4 5 2 6 7 5 -1 
6 18 5 27 6 12 5 11 6 7 5 -7 6 15 5 20 
6 12 5 -4 6 25 5 28 6 8 5 22 6 16 5 5 
6 4 5 7 6 13 5 -14 6 -20 5 -21 6 -5 5 3 
6 -1 5 -8 6 -13 5 -8 6 0 5 10 6 -12 5 -12 
6 -4 5 18 6 4 5 7 6 -7 5 -15 6 -22 5 -19 
5 -28 6 -12 5 24 6 3 5 -13 6 -11 5 -1 6 -2 
5 -23 6 -40 5 -28 6 -16 5 -7 6 -24 5 -15 6 -13 
5 -4 6 -6 5 10 6 7 5 4 6 5 5 4 6 4 
5 -8 6 -33 5 -9 6 12 5 4 6 11 5 36 6 15 
5 8 6 9 5 29 6 32 5 16 6 22 5 38 6 21 
5 13 6 -2 5 -10 6 -8 5 -2 6 -2 5 8 6 0 
5 -7 6 -29 5 -11 6 8 5 39 6 22 5 6 6 -13 
5 -8 6 -16 5 -2 6 -12 5 -3 6 -14 5 -11 6 6 
5 17 6 4 5 -14 6 -16 5 -12 6 22 5 25 6 10 
5 6 6 -6 5 -19 3920 1560 300 MP stroke
6 -14 5 -13 6 -16 5 14 6 9 5 15 6 32 5 31 
6 17 5 -8 6 14 5 4 6 -8 5 -11 6 4 5 12 
6 8 5 -2 6 -18 5 4 6 -9 5 -19 6 -26 5 -31 
6 -15 5 -19 6 -12 5 -20 6 -10 5 -4 6 -4 5 3 
5 -9 6 -18 5 -24 6 -10 5 -5 6 1 5 -21 6 -21 
5 -24 6 -12 5 11 6 15 5 15 6 10 5 -19 6 -19 
5 -26 6 -22 5 8 6 2 5 11 6 6 5 11 6 9 
5 16 6 25 5 13 6 -6 5 16 6 25 5 23 6 24 
5 17 6 18 5 -5 6 11 5 20 6 2 5 -16 6 -10 
5 1 6 0 5 11 6 17 5 2 6 -7 5 0 6 -3 
5 -2 6 -26 5 -16 6 -19 5 -29 6 -23 5 5 6 4 
5 6 6 10 5 20 6 36 5 18 6 15 5 17 6 -1 
5 -3 6 7 5 13 6 17 5 4 6 3 5 8 6 -10 
5 -5 6 -13 5 -29 6 -22 5 3 6 -13 5 6 6 20 
5 1 6 -10 5 -6 6 2 5 7 6 8 5 -12 6 -11 
5 -7 6 3 5 -17 6 -12 5 -14 6 -11 5 9 6 16 
5 -5 6 3 5 4 6 -8 5 -12 6 -2 5 3 6 0 
5 -14 6 -10 5 16 5 19 6 33 5 17 6 -6 5 4 
6 1 5 -15 6 -21 5 -13 6 5 5 16 6 -1 5 6 
6 -14 5 -11 6 2 5 -5 6 -5 5 -24 6 -9 5 2 
6 7 5 7 6 12 5 -1 6 9 5 5 6 2 5 -8 
6 -13 5 -29 6 -20 5 -4 6 4 5 -9 6 -4 5 8 
6 24 5 21 6 7 5 7 6 29 5 17 6 26 5 15 
6 24 5 23 6 11 5 -12 6 -6 5 6 6 -8 5 7 
6 33 5 -5 6 -17 5 4 6 6 5 1 6 -9 5 -15 
6 -28 5 -28 6 -24 5 -20 6 -11 5 2 6 13 5 17 
6 13 5 17 6 37 5 21 6 -4 5 -12 6 10 5 36 
6 28 5 19 6 -1 5 -4 6 -18 5 -23 6 -12 5 2 
6 -9 5 15 6 -5 5 -13 6 -6 5 4 6 -12 5 -18 
6 4 5 0 6 -10 5 -16 6 -24 5 -19 6 -14 5 -9 
6 -3 5 14 6 12 5 8 6 -7 5 -14 5 -3 6 35 
5 20 6 12 5 26 6 8 5 -6 6 -20 5 -16 6 -10 
5 3 6 -5 5 -10 6 -21 5 -14 6 -14 5 -18 6 -11 
5 -8 6 -26 5 -18 6 -6 5 13 6 13 5 0 6 13 
5 4 6 19 5 23 6 2 5 -10 6 11 5 -6 6 -2 
5 8 6 -5 5 -2 6 15 5 14 6 29 5 5 6 3 
5 22 6 4 5 -4 6 2 5 4 6 -4 5 -13 6 -17 
5 12 6 24 5 6 2277 1542 300 MP stroke
6 32 5 35 6 35 5 21 6 7 5 2 6 0 5 3 
6 -2 5 1 6 8 5 -11 6 -31 5 -21 6 -10 5 -12 
6 0 5 3 6 0 5 -22 6 -19 5 3 6 -4 5 1 
6 -1 5 -10 6 7 5 11 6 10 5 0 6 8 5 -8 
6 15 5 10 6 12 5 20 6 18 5 6 6 0 5 -5 
6 17 5 3 6 -2 5 5 6 23 5 22 6 19 5 -2 
6 -7 5 -21 6 -16 5 -8 6 2 5 -13 5 2 6 8 
5 -13 6 -25 5 -26 6 -13 5 -17 6 -25 5 -11 6 -9 
5 -20 6 -11 5 -22 6 -14 5 -6 6 -16 5 -8 6 -17 
5 -8 6 12 5 32 6 9 5 11 6 12 5 9 6 1 
5 9 6 7 5 17 6 20 5 6 6 2 5 11 6 26 
5 17 6 6 5 1 6 -15 5 -30 6 -38 5 -26 6 -15 
5 -2 6 -18 5 -20 6 -14 5 -9 6 10 5 2 6 -24 
5 -28 6 -12 5 7 6 26 5 30 6 17 5 5 6 -7 
5 -8 6 28 5 5 6 5 5 -7 6 25 5 7 6 2 
5 9 6 -1 5 19 6 18 5 38 6 -2 5 -9 6 -18 
5 -2 6 1 5 -15 6 -3 5 -13 6 -12 5 -1 6 -9 
5 -10 6 -2 5 9 6 -11 5 -10 6 -26 5 -29 6 -11 
5 10 6 8 5 -12 6 -19 5 -6 6 0 5 12 6 -14 
5 -17 6 -5 5 -16 6 -6 5 -4 6 9 5 3 6 -1 
5 30 5 14 6 -14 5 -6 6 7 5 -25 6 -5 5 11 
6 8 5 6 6 -3 5 18 6 11 5 -5 6 9 5 4 
6 -6 5 5 6 0 5 -5 6 -7 5 -15 6 -9 5 -14 
6 3 5 -10 6 -23 5 -20 6 -7 5 4 6 17 5 13 
6 -4 5 -4 6 -7 5 -19 6 -5 5 6 6 -4 5 12 
6 -1 5 7 6 -1 5 -8 6 -20 5 -23 6 -7 5 -1 
6 15 5 1 6 31 5 12 6 -18 5 -14 6 -21 5 -15 
6 -7 5 0 6 -3 5 -5 6 2 5 1 6 1 5 10 
6 29 5 31 6 2 5 3 6 7 5 2 6 12 5 8 
6 18 5 14 6 16 5 -33 6 -47 5 -55 6 -31 5 -12 
6 -9 5 -11 6 -25 5 -43 6 -63 3 -51 927 2044 247 MP stroke
/c9 { 0.000000 0.000000 1.000000 sr} bdef
c9
5 -12 5 -22 6 -11 5 4 6 2 5 -12 6 -8 5 5 
5 -16 6 -2 5 13 6 20 5 36 6 18 5 15 6 4 
5 -19 6 -27 5 -34 6 -8 5 10 6 22 5 5 6 -8 
5 -5 6 -35 5 -32 6 -17 5 -9 6 1 5 12 6 -7 
5 -2 6 -18 5 -18 6 0 5 16 6 9 5 -7 6 0 
5 5 6 -7 5 6 6 7 5 -8 6 -16 5 -11 6 -1 
5 -11 6 -16 5 -25 6 -13 5 -3 6 16 5 4 6 12 
5 31 6 16 5 -6 6 -3 5 9 6 2 5 -2 6 -16 
5 1 6 3 5 -11 6 20 5 13 6 4 5 11 6 13 
5 12 6 9 5 2 6 3 5 20 6 16 5 3 6 14 
5 10 6 28 5 51 6 -1 5 -1 6 -6 5 -9 6 -16 
5 -16 6 -6 5 -23 6 -23 5 -23 6 -9 5 -21 6 -21 
5 -14 6 -3 5 2 6 -6 5 1 6 24 5 18 6 5 
5 -2 6 21 5 15 6 11 5 9 6 -11 5 -6 6 34 
5 39 6 25 5 -3 5 -10 6 -19 5 -23 6 -29 5 -14 
6 13 5 4 6 -2 5 -12 6 0 5 -4 6 4 5 -2 
6 -16 5 1 6 5 5 11 6 -12 5 -5 6 -3 5 -14 
6 -23 5 -5 6 6 5 -4 6 -18 5 -15 6 -22 5 -23 
6 -8 5 6 6 18 5 19 6 -9 5 -21 6 -8 5 -9 
6 -2 5 10 6 15 5 28 6 7 5 1 6 -10 5 -1 
6 14 5 24 6 26 5 36 6 23 5 -3 6 -12 5 -20 
6 1 5 -10 6 -27 5 -28 6 -19 5 8 6 1 5 12 
6 11 5 -7 6 -14 5 2 6 -1 5 3 6 -7 5 -15 
6 -10 5 9 6 0 5 -4 6 -2 5 -15 6 -1 5 10 
6 7 5 17 6 7 5 3 6 -1 5 -4 6 1 5 4 
6 12 5 -8 6 1 5 3 6 0 5 -7 6 -22 5 -33 
6 2 5 19 6 7 5 11 6 2 5 5 6 9 5 12 
6 -9 5 8 6 38 5 22 6 14 5 4 6 8 5 -4 
5 9 6 22 5 -3 6 7 5 27 6 17 5 -6 6 0 
5 6 6 14 5 10 6 -9 5 1 6 -11 5 -10 6 -9 
5 -20 6 -32 5 -23 6 -17 5 8 6 10 5 24 6 30 
5 20 6 38 5 37 6 13 5 11 6 -10 5 -11 6 -16 
5 -3 6 2 5 0 6 7 5 -14 6 -19 5 -16 6 -6 
5 11 6 9 5 3 6 0 5 21 6 9 5 -8 6 6 
5 -3 6 3 5 -6 6 -20 5 -16 6 -24 5 -13 6 -17 
5 -3 6 17 5 10 6 -11 5 -7 6 4 5 -1 6 21 
5 9 6 5 5 15 6 4 5 17 6 19 5 8 6 9 
5 -4 6 -6 5 0 3920 1442 300 MP stroke
6 4 5 -6 6 -15 5 -18 6 -9 5 -7 6 -6 5 -14 
6 -21 5 -4 6 -22 5 -6 6 -14 5 -12 6 -8 5 -3 
6 1 5 13 6 8 5 -2 6 23 5 23 6 20 5 22 
6 23 5 13 6 4 5 6 6 0 5 5 6 7 5 5 
5 -3 6 13 5 5 6 4 5 17 6 12 5 6 6 7 
5 -5 6 3 5 40 6 13 5 -7 6 -18 5 -9 6 -23 
5 -25 6 -11 5 -16 6 4 5 7 6 -3 5 11 6 15 
5 13 6 12 5 6 6 1 5 6 6 -5 5 -7 6 4 
5 7 6 17 5 26 6 2 5 10 6 11 5 22 6 25 
5 29 6 15 5 9 6 11 5 -17 6 -19 5 -22 6 -9 
5 -2 6 -8 5 0 6 -3 5 -10 6 -10 5 16 6 -7 
5 -7 6 -2 5 -2 6 -3 5 4 6 10 5 17 6 12 
5 -2 6 -12 5 -27 6 -19 5 -19 6 -9 5 -22 6 -24 
5 -14 6 -15 5 -19 6 -27 5 -26 6 -9 5 -13 6 -8 
5 -20 6 -19 5 -16 6 -9 5 -10 6 -12 5 6 6 9 
5 3 6 10 5 16 6 6 5 -14 6 -2 5 -7 6 12 
5 20 6 26 5 29 6 29 5 33 6 24 5 17 6 26 
5 2 6 17 5 5 5 19 6 10 5 19 6 9 5 10 
6 -3 5 -18 6 -11 5 0 6 -6 5 -6 6 -6 5 -7 
6 -19 5 3 6 6 5 -16 6 -9 5 -4 6 -9 5 4 
6 8 5 -3 6 6 5 -12 6 -4 5 5 6 -24 5 8 
6 11 5 0 6 -23 5 -6 6 9 5 -3 6 6 5 10 
6 11 5 8 6 15 5 7 6 -6 5 -15 6 -15 5 -16 
6 -11 5 -18 6 -17 5 3 6 -1 5 -19 6 -14 5 -19 
6 -33 5 -15 6 -13 5 0 6 -1 5 13 6 -3 5 11 
6 20 5 -1 6 -27 5 -23 6 -17 5 -27 6 -23 5 8 
6 -1 5 1 6 -5 5 -19 6 -29 5 -15 6 0 5 -1 
6 -13 5 -4 6 -4 5 -6 6 7 5 7 6 -10 5 -7 
6 11 5 18 6 1 5 -7 6 1 5 21 6 16 5 -7 
6 -1 5 -12 6 -10 5 -15 6 7 5 24 6 18 5 14 
6 4 5 2 6 -8 5 -9 6 22 5 6 5 25 6 14 
5 9 6 10 5 16 6 -10 5 -6 6 -22 5 -14 6 -11 
5 -18 6 -4 5 12 6 -4 5 -2 6 -14 5 8 6 15 
5 32 6 20 5 -1 6 -9 5 1 6 25 5 0 6 3 
5 -5 6 -11 5 5 6 5 5 14 6 -4 5 -22 6 3 
5 20 6 31 5 29 6 15 5 33 6 37 5 22 6 -3 
5 -3 6 -16 5 -27 6 -16 5 -7 6 -18 5 -7 6 -22 
5 -7 6 -17 5 -7 2277 1517 300 MP stroke
6 0 5 -4 6 -6 5 -8 6 7 5 19 6 29 5 30 
6 19 5 11 6 8 5 23 6 8 5 24 6 2 5 -5 
6 -15 5 -11 6 -2 5 17 6 -1 5 -9 6 -16 5 -6 
6 -4 5 3 6 -11 5 -10 6 -10 5 -12 6 -9 5 -14 
6 -37 5 -12 6 3 5 -7 6 -18 5 -3 6 -9 5 -19 
6 4 5 3 6 -1 5 -7 6 3 5 5 6 -10 5 -5 
6 14 5 13 6 12 5 12 6 16 5 16 5 10 6 -3 
5 -3 6 12 5 10 6 14 5 13 6 12 5 18 6 -10 
5 13 6 14 5 -1 6 8 5 10 6 4 5 -7 6 7 
5 6 6 -4 5 11 6 0 5 -8 6 -9 5 -10 6 -23 
5 -18 6 -5 5 -7 6 -9 5 -2 6 -12 5 2 6 -5 
5 -14 6 -13 5 -13 6 -5 5 -9 6 18 5 4 6 2 
5 -3 6 -10 5 -19 6 -21 5 -25 6 -11 5 1 6 -7 
5 -13 6 6 5 22 6 19 5 13 6 19 5 38 6 30 
5 12 6 21 5 16 6 12 5 -5 6 -21 5 -11 6 -19 
5 -23 6 -21 5 -10 6 -24 5 -4 6 9 5 22 6 20 
5 2 6 -7 5 -3 6 -14 5 -16 6 -6 5 -9 6 24 
5 12 6 13 5 -4 6 3 5 -4 6 -18 5 -7 6 1 
5 9 6 10 5 14 6 19 5 -1 6 -2 5 7 6 9 
5 -4 6 24 5 20 6 4 5 -4 6 -14 5 -13 6 -10 
5 -18 5 -26 6 -18 5 -21 6 -13 5 -19 6 -19 5 -5 
6 -2 5 10 6 16 5 -7 6 -17 5 -23 6 -4 5 4 
6 5 5 -10 6 -25 5 -26 6 -30 5 -22 6 -10 5 -4 
6 14 5 6 6 -11 5 -6 6 -3 5 18 6 27 5 27 
6 24 5 -4 6 -27 5 -8 6 13 5 3 6 5 5 -9 
6 -11 5 7 6 -4 5 -3 6 1 5 15 6 14 5 10 
6 5 5 0 6 38 5 16 6 2 5 30 6 16 5 7 
6 -5 5 -6 6 -22 5 0 6 14 5 -10 6 -36 5 -16 
6 8 5 -16 6 -41 5 -8 6 54 5 20 6 8 5 16 
6 20 5 32 6 46 5 26 6 14 5 -30 6 -65 5 -70 
6 -57 5 -40 6 -28 5 -43 6 -48 5 -62 6 -84 5 -92 
914 2044 249 MP stroke
0 sg
5 -22 5 -32 6 -6 5 -1 6 -12 5 -20 6 -3 5 -4 
5 -10 6 -20 5 -24 6 -23 5 -13 6 -25 5 -20 6 -16 
5 -17 6 -6 5 -1 6 10 5 18 6 13 5 5 6 9 
5 25 6 2 5 -7 6 8 5 51 6 7 5 -1 6 -2 
5 -6 6 34 5 19 6 -4 5 22 6 30 5 30 6 30 
5 14 6 14 5 14 6 11 5 -5 6 6 5 2 6 -4 
5 8 6 -9 5 0 6 12 5 16 6 5 5 7 6 -9 
5 -18 6 -28 5 -1 6 -16 5 -4 6 -32 5 -20 6 -25 
5 -19 6 -25 5 -25 6 -38 5 -43 6 -40 5 -17 6 -15 
5 -15 6 -14 5 -8 6 -3 5 -7 6 1 5 -11 6 1 
5 11 6 10 5 20 6 7 5 2 6 -6 5 5 6 13 
5 13 6 11 5 3 6 -1 5 -20 6 2 5 5 6 2 
5 11 6 15 5 16 6 4 5 -20 6 -20 5 -24 6 -20 
5 -25 6 -14 5 -9 6 -10 5 -6 6 6 5 2 6 -11 
5 -23 6 -11 5 -7 5 -20 6 -11 5 -2 6 -16 5 -21 
6 -11 5 -14 6 -12 5 2 6 6 5 1 6 12 5 2 
6 11 5 9 6 9 5 1 6 -4 5 -8 6 15 5 19 
6 5 5 16 6 7 5 -16 6 5 5 11 6 -2 5 6 
6 -6 5 -13 6 -21 5 -9 6 -3 5 -4 6 -1 5 19 
6 4 5 -11 6 -15 5 -5 6 2 5 -7 6 4 5 26 
6 23 5 18 6 16 5 10 6 2 5 9 6 11 5 1 
6 -7 5 -7 6 -8 5 7 6 18 5 15 6 27 5 20 
6 13 5 -3 6 -7 5 1 6 -13 5 -24 6 16 5 -24 
6 -23 5 -20 6 2 5 12 6 21 5 -4 6 -8 5 -14 
6 -23 5 -17 6 -17 5 -18 6 -14 5 -16 6 -16 5 6 
6 2 5 -19 6 -10 5 6 6 -8 5 -18 6 -5 5 -3 
6 -19 5 -22 6 -13 5 8 6 -1 5 6 6 41 5 20 
6 17 5 17 6 4 5 14 6 1 5 -2 6 -9 5 -2 
5 8 6 28 5 9 6 11 5 21 6 1 5 -14 6 -15 
5 5 6 18 5 14 6 2 5 23 6 9 5 17 6 -3 
5 -7 6 -12 5 -8 6 -23 5 -20 6 -29 5 -17 6 -4 
5 -4 6 -1 5 7 6 -9 5 -17 6 -14 5 -10 6 7 
5 -1 6 -3 5 -7 6 -3 5 10 6 25 5 23 6 14 
5 7 6 8 5 3 6 5 5 0 6 16 5 9 6 3 
5 -5 6 -19 5 -25 6 -14 5 -17 6 3 5 19 6 29 
5 22 6 -11 5 -10 6 -10 5 -10 6 -2 5 -17 6 0 
5 19 6 14 5 20 6 14 5 24 6 -3 5 7 6 17 
5 24 6 2 5 -15 3920 1554 300 MP stroke
6 5 5 -15 6 -7 5 0 6 -11 5 -10 6 0 5 6 
6 -1 5 5 6 10 5 7 6 22 5 19 6 5 5 -19 
6 -43 5 -28 6 -15 5 -17 6 -26 5 -40 6 -17 5 7 
6 18 5 6 6 9 5 -4 6 -7 5 -10 6 2 5 18 
5 10 6 -7 5 1 6 -1 5 21 6 26 5 -12 6 13 
5 5 6 14 5 6 6 9 5 -2 6 11 5 26 6 14 
5 12 6 17 5 9 6 14 5 10 6 7 5 5 6 -12 
5 -14 6 17 5 -5 6 -8 5 -19 6 -26 5 -23 6 -19 
5 -8 6 -10 5 4 6 4 5 7 6 2 5 -11 6 -3 
5 -19 6 -13 5 -9 6 -7 5 8 6 23 5 12 6 31 
5 17 6 3 5 -5 6 8 5 -3 6 -28 5 -31 6 -22 
5 -14 6 -25 5 -17 6 -25 5 -8 6 -1 5 10 6 22 
5 20 6 6 5 8 6 15 5 13 6 6 5 25 6 15 
5 -15 6 -10 5 -10 6 -2 5 -13 6 -11 5 -6 6 4 
5 30 6 34 5 39 6 16 5 4 6 4 5 31 6 10 
5 -1 6 -10 5 -20 6 -24 5 -3 6 3 5 6 6 -9 
5 -11 6 -16 5 -10 6 -10 5 9 6 -5 5 -10 6 13 
5 -1 6 -26 5 -5 5 -10 6 -2 5 -1 6 -17 5 -13 
6 -9 5 -6 6 2 5 5 6 12 5 11 6 4 5 1 
6 -4 5 12 6 9 5 -5 6 -6 5 3 6 5 5 5 
6 -3 5 -5 6 -7 5 -8 6 -5 5 12 6 6 5 -15 
6 -8 5 3 6 -11 5 3 6 11 5 3 6 -1 5 -7 
6 -11 5 8 6 30 5 21 6 5 5 6 6 10 5 7 
6 15 5 33 6 14 5 3 6 -7 5 -4 6 -8 5 -21 
6 -7 5 -3 6 -25 5 -10 6 -18 5 -24 6 -14 5 -16 
6 3 5 -5 6 5 5 6 6 26 5 9 6 -16 5 -16 
6 -25 5 -5 6 -6 5 1 6 11 5 19 6 14 5 1 
6 5 5 16 6 11 5 15 6 25 5 19 6 10 5 6 
6 -10 5 -3 6 16 5 3 6 11 5 22 6 22 5 10 
6 12 5 9 6 1 5 13 6 19 5 10 6 -16 5 -11 
6 6 5 -7 6 -29 5 -22 6 -23 5 -30 5 -11 6 -16 
5 -12 6 -9 5 -7 6 20 5 52 6 22 5 -1 6 -5 
5 -15 6 -15 5 -22 6 -19 5 -15 6 -22 5 -20 6 -31 
5 -16 6 10 5 12 6 11 5 6 6 2 5 7 6 7 
5 2 6 9 5 20 6 22 5 12 6 21 5 19 6 12 
5 13 6 13 5 7 6 20 5 18 6 12 5 19 6 12 
5 17 6 15 5 6 6 17 5 30 6 26 5 27 6 25 
5 10 6 5 5 14 2277 1195 300 MP stroke
6 2 5 -2 6 -1 5 6 6 15 5 9 6 4 5 -3 
6 -1 5 -2 6 -15 5 -13 6 -13 5 -23 6 -7 5 3 
6 -1 5 4 6 -3 5 -8 6 -4 5 -7 6 -21 5 -21 
6 1 5 -7 6 -8 5 11 6 -2 5 3 6 -6 5 -23 
6 -13 5 -22 6 1 5 3 6 0 5 -12 6 -3 5 -4 
6 0 5 -11 6 -21 5 -22 6 -26 5 -21 6 -23 5 -26 
6 -17 5 -21 6 -4 5 2 6 -15 5 -10 5 17 6 6 
5 4 6 -5 5 -4 6 0 5 4 6 -7 5 -13 6 -3 
5 14 6 12 5 7 6 5 5 7 6 10 5 35 6 35 
5 22 6 15 5 27 6 27 5 8 6 8 5 -2 6 8 
5 6 6 4 5 2 6 2 5 -12 6 -11 5 -2 6 -15 
5 -24 6 -12 5 16 6 2 5 5 6 16 5 15 6 2 
5 -3 6 -9 5 -12 6 16 5 4 6 -6 5 -10 6 -12 
5 -7 6 -11 5 1 6 -6 5 -2 6 -3 5 4 6 -2 
5 -1 6 -7 5 -10 6 -1 5 8 6 -17 5 15 6 15 
5 17 6 12 5 25 6 25 5 31 6 8 5 4 6 9 
5 -3 6 11 5 20 6 6 5 -9 6 -3 5 7 6 7 
5 15 6 0 5 -17 6 -13 5 -16 6 -16 5 -15 6 -20 
5 -16 6 -1 5 -9 6 -12 5 8 6 -13 5 -6 6 11 
5 24 6 11 5 11 6 -6 5 11 6 3 5 -12 6 -24 
5 10 5 -4 6 -28 5 -22 6 -13 5 -21 6 -24 5 -9 
6 -11 5 2 6 6 5 8 6 -10 5 -19 6 6 5 2 
6 2 5 -5 6 -6 5 11 6 5 5 2 6 -4 5 4 
6 -36 5 -26 6 -12 5 -16 6 -10 5 -13 6 -3 5 -1 
6 -3 5 -21 6 -23 5 -4 6 9 5 -3 6 5 5 41 
6 27 5 12 6 16 5 10 6 11 5 7 6 8 5 12 
6 15 5 8 6 10 5 4 6 7 5 21 6 13 5 -1 
6 28 5 10 6 -9 5 -20 6 -26 5 -10 6 -24 5 -19 
6 5 5 3 6 11 5 19 6 -13 5 -1 6 -11 5 -22 
6 -28 5 -4 6 0 5 23 6 34 5 86 6 40 5 -39 
6 -82 5 -75 6 -55 5 -37 6 -38 5 -53 6 -83 5 -106 
6 -122 0 -19 908 2044 251 MP stroke
/c10 { 1.000000 0.000000 1.000000 sr} bdef
c10
5 22 5 19 6 12 5 7 6 26 5 20 6 10 5 20 
5 13 6 1 5 17 6 13 5 18 6 11 5 12 6 15 
5 10 6 -5 5 1 6 11 5 26 6 16 5 6 6 20 
5 -1 6 0 5 -8 6 17 5 1 6 2 5 5 6 16 
5 5 6 4 5 -2 6 12 5 31 6 14 5 3 6 -6 
5 16 6 -7 5 -16 6 -18 5 -23 6 -17 5 7 6 -4 
5 14 6 13 5 -21 6 -7 5 -11 6 8 5 -2 6 10 
5 18 6 28 5 16 6 15 5 -23 6 -16 5 -32 6 4 
5 -6 6 5 5 2 6 25 5 25 6 -3 5 -6 6 -2 
5 -7 6 4 5 15 6 28 5 26 6 -6 5 -6 6 -8 
5 -12 6 -2 5 5 6 11 5 -5 6 0 5 -9 6 -6 
5 10 6 -10 5 -17 6 -17 5 11 6 2 5 -1 6 1 
5 9 6 0 5 10 6 -11 5 -5 6 -3 5 4 6 11 
5 6 6 17 5 1 6 3 5 5 6 3 5 8 6 0 
5 4 6 5 5 22 5 10 6 -2 5 -4 6 -13 5 -13 
6 3 5 -21 6 0 5 -10 6 7 5 3 6 -13 5 7 
6 -8 5 12 6 0 5 -9 6 -6 5 -4 6 -7 5 3 
6 -21 5 3 6 -10 5 1 6 -1 5 -7 6 1 5 2 
6 5 5 -9 6 1 5 -3 6 -2 5 5 6 4 5 2 
6 8 5 26 6 4 5 7 6 0 5 -5 6 5 5 1 
6 -4 5 6 6 9 5 6 6 18 5 7 6 3 5 4 
6 3 5 9 6 -3 5 -9 6 -10 5 -18 6 -16 5 -14 
6 -11 5 -11 6 -9 5 -1 6 -2 5 2 6 13 5 11 
6 3 5 8 6 19 5 -10 6 2 5 4 6 17 5 -6 
6 4 5 19 6 9 5 -1 6 4 5 8 6 10 5 19 
6 1 5 -4 6 -3 5 -4 6 -13 5 -3 6 -4 5 -11 
6 7 5 13 6 9 5 10 6 5 5 18 6 -1 5 4 
6 9 5 9 6 6 5 11 6 2 5 -3 6 -5 5 -2 
5 0 6 -1 5 -2 6 -9 5 -9 6 -6 5 -7 6 -11 
5 -13 6 5 5 -13 6 -2 5 18 6 -11 5 -8 6 -2 
5 -10 6 -4 5 -11 6 -7 5 3 6 -10 5 -2 6 -8 
5 -27 6 -6 5 -11 6 -4 5 10 6 5 5 8 6 -3 
5 -14 6 9 5 -3 6 5 5 0 6 -2 5 7 6 14 
5 7 6 17 5 6 6 -4 5 -7 6 -2 5 5 6 16 
5 2 6 -8 5 12 6 4 5 0 6 -5 5 -12 6 -7 
5 17 6 4 5 -4 6 11 5 -5 6 14 5 6 6 -3 
5 -12 6 -6 5 -13 6 6 5 -17 6 -4 5 -10 6 -1 
5 -8 6 13 5 -10 3920 452 300 MP stroke
6 -5 5 -13 6 5 5 -6 6 -6 5 9 6 -14 5 -8 
6 9 5 9 6 19 5 4 6 -3 5 10 6 16 5 12 
6 12 5 22 6 31 5 2 6 11 5 3 6 2 5 4 
6 -11 5 -11 6 9 5 -12 6 8 5 1 6 1 5 5 
5 -3 6 -11 5 -1 6 -4 5 7 6 -1 5 -5 6 -13 
5 5 6 11 5 16 6 12 5 -4 6 0 5 6 6 3 
5 -8 6 7 5 -6 6 -7 5 -5 6 -4 5 -6 6 -19 
5 -12 6 -3 5 -8 6 -12 5 -5 6 -9 5 -2 6 2 
5 -5 6 3 5 -14 6 -7 5 -17 6 -8 5 -3 6 2 
5 -6 6 12 5 0 6 11 5 6 6 4 5 11 6 0 
5 0 6 -18 5 -7 6 11 5 -3 6 -3 5 5 6 -8 
5 8 6 14 5 -2 6 -4 5 -15 6 -10 5 -10 6 6 
5 -22 6 -16 5 -17 6 -2 5 6 6 5 5 10 6 15 
5 2 6 0 5 -13 6 -3 5 -7 6 -6 5 -19 6 -9 
5 2 6 -9 5 4 6 -3 5 2 6 13 5 10 6 3 
5 -17 6 -9 5 -8 6 -7 5 -5 6 1 5 -3 6 -8 
5 14 6 19 5 4 6 -4 5 -13 6 -2 5 -7 6 2 
5 -15 6 -13 5 9 5 6 6 11 5 21 6 7 5 14 
6 20 5 18 6 23 5 22 6 6 5 19 6 14 5 14 
6 18 5 5 6 9 5 29 6 11 5 0 6 0 5 0 
6 -5 5 -7 6 -8 5 -5 6 1 5 0 6 8 5 12 
6 14 5 -3 6 0 5 6 6 4 5 -4 6 9 5 4 
6 1 5 2 6 -2 5 -8 6 -4 5 7 6 -3 5 -2 
6 -4 5 9 6 1 5 -3 6 0 5 -3 6 -4 5 -3 
6 -3 5 -4 6 -10 5 1 6 8 5 -10 6 3 5 -4 
6 -5 5 -5 6 2 5 -5 6 -9 5 -8 6 -10 5 0 
6 2 5 -13 6 -4 5 -1 6 -1 5 0 6 -9 5 -8 
6 10 5 -3 6 4 5 -2 6 3 5 -3 6 4 5 9 
6 8 5 2 6 -7 5 -4 6 -6 5 3 6 2 5 3 
6 2 5 -2 6 4 5 5 6 -9 5 4 6 0 5 -9 
6 -5 5 -9 6 8 5 -12 6 5 5 8 5 1 6 12 
5 2 6 8 5 3 6 7 5 -2 6 5 5 4 6 -10 
5 1 6 -3 5 18 6 -2 5 9 6 4 5 13 6 -1 
5 10 6 2 5 3 6 3 5 2 6 4 5 -3 6 6 
5 7 6 -7 5 -5 6 4 5 -3 6 -7 5 -14 6 0 
5 8 6 -3 5 -8 6 4 5 4 6 -3 5 12 6 13 
5 13 6 6 5 -8 6 -7 5 -3 6 -3 5 0 6 -8 
5 -18 6 -4 5 -16 2277 332 300 MP stroke
6 -8 5 -9 6 -8 5 -4 6 -6 5 -9 6 3 5 2 
6 -10 5 -3 6 -5 5 -9 6 -7 5 -3 6 -14 5 3 
6 0 5 0 6 7 5 2 6 2 5 6 6 -10 5 5 
6 2 5 -10 6 -8 5 -10 6 -1 5 -13 6 -11 5 -1 
6 -8 5 -2 6 -9 5 0 6 15 5 -9 6 17 5 7 
6 -6 5 4 6 0 5 3 6 1 5 12 6 9 5 -9 
6 5 5 9 6 9 5 2 6 -1 5 7 5 6 6 8 
5 10 6 16 5 1 6 5 5 3 6 -5 5 -10 6 -1 
5 -2 6 2 5 -13 6 0 5 -13 6 -9 5 -3 6 -7 
5 -18 6 5 5 -7 6 7 5 20 6 17 5 2 6 20 
5 5 6 6 5 -8 6 -20 5 -14 6 -16 5 -10 6 -7 
5 3 6 -3 5 -3 6 1 5 -7 6 -6 5 -10 6 -15 
5 -19 6 -15 5 -6 6 -11 5 -14 6 -9 5 -1 6 -2 
5 2 6 8 5 -9 6 -8 5 8 6 -1 5 -7 6 12 
5 26 6 -8 5 -5 6 12 5 6 6 0 5 -15 6 16 
5 7 6 7 5 15 6 2 5 7 6 -18 5 -3 6 -8 
5 0 6 6 5 -8 6 -17 5 -16 6 5 5 -4 6 -6 
5 -15 6 2 5 0 6 -1 5 -3 6 -2 5 -18 6 -2 
5 -4 6 3 5 -18 6 -10 5 -20 6 -30 5 -18 6 -19 
5 -26 6 -11 5 -19 6 -14 5 -19 6 -5 5 13 6 13 
5 11 5 3 6 0 5 6 6 -15 5 -22 6 -14 5 -14 
6 -20 5 -6 6 -5 5 -21 6 -10 5 -33 6 -12 5 -1 
6 -12 5 -13 6 -27 5 -25 6 -26 5 -35 6 -12 5 -24 
6 -8 5 -1 6 -24 5 -24 6 -10 5 -10 6 -3 5 -9 
6 -14 5 -5 6 -20 5 0 6 -25 5 -9 6 -3 5 14 
6 6 5 0 6 18 5 25 6 39 5 27 6 9 5 8 
6 -12 5 -19 6 -16 5 -31 6 -16 5 -5 6 -1 5 -7 
6 -8 5 -36 6 -44 5 -33 6 -32 5 -14 6 -14 5 -21 
6 -1 5 4 6 -9 5 -17 6 -14 5 -26 6 -3 5 29 
6 27 5 19 6 18 5 28 6 88 5 68 6 -18 5 -58 
6 -85 5 -71 6 -62 5 -52 6 -62 5 -81 6 -97 5 -117 
6 -130 908 2044 250 MP stroke
gr

c10
0 sg
%%IncludeResource: font Helvetica
/Helvetica /ISOLatin1Encoding 120 FMSR

3093 2309 mt 
(t) s
%%IncludeResource: font Helvetica
/Helvetica /ISOLatin1Encoding 96 FMSR

3126 2369 mt 
(NN) s
%%IncludeResource: font Symbol
/Symbol /ISOLatin1Encoding 120 FMSR

 451 1457 mt  -90 rotate
(c) s
90 rotate
%%IncludeResource: font Helvetica
/Helvetica /ISOLatin1Encoding 96 FMSR

 511 1392 mt  -90 rotate
(e) s
90 rotate
%%IncludeResource: font Helvetica
/Helvetica /ISOLatin1Encoding 120 FMSR

 451 1339 mt  -90 rotate
( \() s
90 rotate
%%IncludeResource: font Symbol
/Symbol /ISOLatin1Encoding 120 FMSR

 451 1266 mt  -90 rotate
(r) s
90 rotate
%%IncludeResource: font Helvetica
/Helvetica /ISOLatin1Encoding 96 FMSR

 391 1201 mt  -90 rotate
(2) s
90 rotate
%%IncludeResource: font Helvetica
/Helvetica /ISOLatin1Encoding 120 FMSR

 451 1148 mt  -90 rotate
( v) s
90 rotate
%%IncludeResource: font Helvetica
/Helvetica /ISOLatin1Encoding 96 FMSR

 511 1055 mt  -90 rotate
(t) s
90 rotate
%%IncludeResource: font Helvetica
/Helvetica /ISOLatin1Encoding 120 FMSR

 451 1029 mt  -90 rotate
( / L) s
90 rotate
%%IncludeResource: font Helvetica
/Helvetica /ISOLatin1Encoding 96 FMSR

 511  863 mt  -90 rotate
(T) s
90 rotate
%%IncludeResource: font Helvetica
/Helvetica /ISOLatin1Encoding 120 FMSR

 451  805 mt  -90 rotate
(\)) s
90 rotate
c8
1347 1829 mt 
(s = 0.1) s
c9
3277 1137 mt 
(s = 0.2) s
0 sg
2144 1089 mt 
(s = 0.3) s
c10
3507  686 mt 
(s = 0.4) s

end %%Color Dict

eplot
%%EndObject

epage
end

showpage

%%Trailer
%%EOF
