%!PS-Adobe-3.0 EPSF-3.0
%%Creator: MATLAB, The Mathworks, Inc. Version 7.9.0.529 (R2009b). Operating System: Darwin 10.8.0 Darwin Kernel Version 10.8.0: Tue Jun  7 16:33:36 PDT 2011; root:xnu-1504.15.3~1/RELEASE_I386 i386.
%%Title: /Users/camenen/Runs/gkw/SCALING/analysis/speedup_nocollisions.eps
%%CreationDate: 10/24/2011  10:07:55
%%DocumentNeededFonts: Helvetica-Bold
%%+ Helvetica
%%DocumentProcessColors: Cyan Magenta Yellow Black
%%LanguageLevel: 2
%%Pages: 1
%%BoundingBox:    59   225   535   617
%%EndComments

%%BeginProlog
% MathWorks dictionary
/MathWorks 160 dict begin
% definition operators
/bdef {bind def} bind def
/ldef {load def} bind def
/xdef {exch def} bdef
/xstore {exch store} bdef
% operator abbreviations
/c  /clip ldef
/cc /concat ldef
/cp /closepath ldef
/gr /grestore ldef
/gs /gsave ldef
/mt /moveto ldef
/np /newpath ldef
/cm /currentmatrix ldef
/sm /setmatrix ldef
/rm /rmoveto ldef
/rl /rlineto ldef
/s {show newpath} bdef
/sc {setcmykcolor} bdef
/sr /setrgbcolor ldef
/sg /setgray ldef
/w /setlinewidth ldef
/j /setlinejoin ldef
/cap /setlinecap ldef
/rc {rectclip} bdef
/rf {rectfill} bdef
% page state control
/pgsv () def
/bpage {/pgsv save def} bdef
/epage {pgsv restore} bdef
/bplot /gsave ldef
/eplot {stroke grestore} bdef
% orientation switch
/portraitMode 0 def /landscapeMode 1 def /rotateMode 2 def
% coordinate system mappings
/dpi2point 0 def
% font control
/FontSize 0 def
/FMS {/FontSize xstore findfont [FontSize 0 0 FontSize neg 0 0]
  makefont setfont} bdef
/reencode {exch dup where {pop load} {pop StandardEncoding} ifelse
  exch dup 3 1 roll findfont dup length dict begin
  { 1 index /FID ne {def}{pop pop} ifelse } forall
  /Encoding exch def currentdict end definefont pop} bdef
/isroman {findfont /CharStrings get /Agrave known} bdef
/FMSR {3 1 roll 1 index dup isroman {reencode} {pop pop} ifelse
  exch FMS} bdef
/csm {1 dpi2point div -1 dpi2point div scale neg translate
 dup landscapeMode eq {pop -90 rotate}
  {rotateMode eq {90 rotate} if} ifelse} bdef
% line types: solid, dotted, dashed, dotdash
/SO { [] 0 setdash } bdef
/DO { [.5 dpi2point mul 4 dpi2point mul] 0 setdash } bdef
/DA { [6 dpi2point mul] 0 setdash } bdef
/DD { [.5 dpi2point mul 4 dpi2point mul 6 dpi2point mul 4
  dpi2point mul] 0 setdash } bdef
% macros for lines and objects
/L {lineto stroke} bdef
/MP {3 1 roll moveto 1 sub {rlineto} repeat} bdef
/AP {{rlineto} repeat} bdef
/PDlw -1 def
/W {/PDlw currentlinewidth def setlinewidth} def
/PP {closepath eofill} bdef
/DP {closepath stroke} bdef
/MR {4 -2 roll moveto dup  0 exch rlineto exch 0 rlineto
  neg 0 exch rlineto closepath} bdef
/FR {MR stroke} bdef
/PR {MR fill} bdef
/L1i {{currentfile picstr readhexstring pop} image} bdef
/tMatrix matrix def
/MakeOval {newpath tMatrix currentmatrix pop translate scale
0 0 1 0 360 arc tMatrix setmatrix} bdef
/FO {MakeOval stroke} bdef
/PO {MakeOval fill} bdef
/PD {currentlinewidth 2 div 0 360 arc fill
   PDlw -1 eq not {PDlw w /PDlw -1 def} if} def
/FA {newpath tMatrix currentmatrix pop translate scale
  0 0 1 5 -2 roll arc tMatrix setmatrix stroke} bdef
/PA {newpath tMatrix currentmatrix pop	translate 0 0 moveto scale
  0 0 1 5 -2 roll arc closepath tMatrix setmatrix fill} bdef
/FAn {newpath tMatrix currentmatrix pop translate scale
  0 0 1 5 -2 roll arcn tMatrix setmatrix stroke} bdef
/PAn {newpath tMatrix currentmatrix pop translate 0 0 moveto scale
  0 0 1 5 -2 roll arcn closepath tMatrix setmatrix fill} bdef
/vradius 0 def /hradius 0 def /lry 0 def
/lrx 0 def /uly 0 def /ulx 0 def /rad 0 def
/MRR {/vradius xdef /hradius xdef /lry xdef /lrx xdef /uly xdef
  /ulx xdef newpath tMatrix currentmatrix pop ulx hradius add uly
  vradius add translate hradius vradius scale 0 0 1 180 270 arc 
  tMatrix setmatrix lrx hradius sub uly vradius add translate
  hradius vradius scale 0 0 1 270 360 arc tMatrix setmatrix
  lrx hradius sub lry vradius sub translate hradius vradius scale
  0 0 1 0 90 arc tMatrix setmatrix ulx hradius add lry vradius sub
  translate hradius vradius scale 0 0 1 90 180 arc tMatrix setmatrix
  closepath} bdef
/FRR {MRR stroke } bdef
/PRR {MRR fill } bdef
/MlrRR {/lry xdef /lrx xdef /uly xdef /ulx xdef /rad lry uly sub 2 div def
  newpath tMatrix currentmatrix pop ulx rad add uly rad add translate
  rad rad scale 0 0 1 90 270 arc tMatrix setmatrix lrx rad sub lry rad
  sub translate rad rad scale 0 0 1 270 90 arc tMatrix setmatrix
  closepath} bdef
/FlrRR {MlrRR stroke } bdef
/PlrRR {MlrRR fill } bdef
/MtbRR {/lry xdef /lrx xdef /uly xdef /ulx xdef /rad lrx ulx sub 2 div def
  newpath tMatrix currentmatrix pop ulx rad add uly rad add translate
  rad rad scale 0 0 1 180 360 arc tMatrix setmatrix lrx rad sub lry rad
  sub translate rad rad scale 0 0 1 0 180 arc tMatrix setmatrix
  closepath} bdef
/FtbRR {MtbRR stroke } bdef
/PtbRR {MtbRR fill } bdef
/stri 6 array def /dtri 6 array def
/smat 6 array def /dmat 6 array def
/tmat1 6 array def /tmat2 6 array def /dif 3 array def
/asub {/ind2 exch def /ind1 exch def dup dup
  ind1 get exch ind2 get sub exch } bdef
/tri_to_matrix {
  2 0 asub 3 1 asub 4 0 asub 5 1 asub
  dup 0 get exch 1 get 7 -1 roll astore } bdef
/compute_transform {
  dmat dtri tri_to_matrix tmat1 invertmatrix 
  smat stri tri_to_matrix tmat2 concatmatrix } bdef
/ds {stri astore pop} bdef
/dt {dtri astore pop} bdef
/db {2 copy /cols xdef /rows xdef mul dup 3 mul string
  currentfile 
  3 index 0 eq {/ASCIIHexDecode filter}
  {/ASCII85Decode filter 3 index 2 eq {/RunLengthDecode filter} if }
  ifelse exch readstring pop
  dup 0 3 index getinterval /rbmap xdef
  dup 2 index dup getinterval /gbmap xdef
  1 index dup 2 mul exch getinterval /bbmap xdef pop pop}bdef
/it {gs np dtri aload pop moveto lineto lineto cp c
  cols rows 8 compute_transform 
  rbmap gbmap bbmap true 3 colorimage gr}bdef
/il {newpath moveto lineto stroke}bdef
currentdict end def
%%EndProlog

%%BeginSetup
MathWorks begin

0 cap

end
%%EndSetup

%%Page: 1 1
%%BeginPageSetup
%%PageBoundingBox:    59   225   535   617
MathWorks begin
bpage
%%EndPageSetup

%%BeginObject: obj1
bplot

/dpi2point 12 def
portraitMode 0708 7404 csm

    0     0  5713  4696 rc
86 dict begin %Colortable dictionary
/c0 { 0.000000 0.000000 0.000000 sr} bdef
/c1 { 1.000000 1.000000 1.000000 sr} bdef
/c2 { 0.900000 0.000000 0.000000 sr} bdef
/c3 { 0.000000 0.820000 0.000000 sr} bdef
/c4 { 0.000000 0.000000 0.800000 sr} bdef
/c5 { 0.910000 0.820000 0.320000 sr} bdef
/c6 { 1.000000 0.260000 0.820000 sr} bdef
/c7 { 0.000000 0.820000 0.820000 sr} bdef
c0
1 j
1 sg
   0    0 5714 4697 rf
6 w
0 3827 4317 0 0 -3827 853 4179 4 MP
PP
-4317 0 0 3827 4317 0 0 -3827 853 4179 5 MP stroke
4 w
DO
0 sg
 853 4179 mt  853  352 L
 853  352 mt  853  352 L
1716 4179 mt 1716  352 L
1716  352 mt 1716  352 L
2579 4179 mt 2579  352 L
2579  352 mt 2579  352 L
3443 4179 mt 3443  352 L
3443  352 mt 3443  352 L
4306 4179 mt 4306  352 L
4306  352 mt 4306  352 L
5170 4179 mt 5170  352 L
5170  352 mt 5170  352 L
 853 4179 mt 5170 4179 L
5170 4179 mt 5170 4179 L
 853 3413 mt 5170 3413 L
5170 3413 mt 5170 3413 L
 853 2648 mt 5170 2648 L
5170 2648 mt 5170 2648 L
 853 1882 mt 5170 1882 L
5170 1882 mt 5170 1882 L
 853 1117 mt 5170 1117 L
5170 1117 mt 5170 1117 L
 853  352 mt 5170  352 L
5170  352 mt 5170  352 L
SO
6 w
 853 4179 mt 5170 4179 L
 853  352 mt 5170  352 L
 853 4179 mt  853  352 L
5170 4179 mt 5170  352 L
 853 4179 mt 5170 4179 L
 853 4179 mt  853  352 L
 853 4179 mt  853 4157 L
 853  352 mt  853  373 L
DO
 853 4179 mt  853  352 L
 853  352 mt  853  352 L
SO
 853 4179 mt  853 4135 L
 853  352 mt  853  395 L
%%IncludeResource: font Helvetica-Bold
/Helvetica-Bold /ISOLatin1Encoding 192 FMSR

 693 4397 mt 
(512) s
1716 4179 mt 1716 4157 L
1716  352 mt 1716  373 L
DO
1716 4179 mt 1716  352 L
1716  352 mt 1716  352 L
SO
1716 4179 mt 1716 4157 L
1716  352 mt 1716  373 L
DO
1716 4179 mt 1716  352 L
1716  352 mt 1716  352 L
SO
1716 4179 mt 1716 4157 L
1716  352 mt 1716  373 L
DO
1716 4179 mt 1716  352 L
1716  352 mt 1716  352 L
SO
1716 4179 mt 1716 4157 L
1716  352 mt 1716  373 L
DO
1716 4179 mt 1716  352 L
1716  352 mt 1716  352 L
SO
1716 4179 mt 1716 4157 L
1716  352 mt 1716  373 L
DO
1716 4179 mt 1716  352 L
1716  352 mt 1716  352 L
SO
1716 4179 mt 1716 4157 L
1716  352 mt 1716  373 L
DO
1716 4179 mt 1716  352 L
1716  352 mt 1716  352 L
SO
1716 4179 mt 1716 4157 L
1716  352 mt 1716  373 L
DO
1716 4179 mt 1716  352 L
1716  352 mt 1716  352 L
SO
1716 4179 mt 1716 4157 L
1716  352 mt 1716  373 L
DO
1716 4179 mt 1716  352 L
1716  352 mt 1716  352 L
SO
1716 4179 mt 1716 4157 L
1716  352 mt 1716  373 L
DO
1716 4179 mt 1716  352 L
1716  352 mt 1716  352 L
SO
1716 4179 mt 1716 4135 L
1716  352 mt 1716  395 L
1503 4397 mt 
(1024) s
2579 4179 mt 2579 4157 L
2579  352 mt 2579  373 L
DO
2579 4179 mt 2579  352 L
2579  352 mt 2579  352 L
SO
2579 4179 mt 2579 4157 L
2579  352 mt 2579  373 L
DO
2579 4179 mt 2579  352 L
2579  352 mt 2579  352 L
SO
2579 4179 mt 2579 4157 L
2579  352 mt 2579  373 L
DO
2579 4179 mt 2579  352 L
2579  352 mt 2579  352 L
SO
2579 4179 mt 2579 4157 L
2579  352 mt 2579  373 L
DO
2579 4179 mt 2579  352 L
2579  352 mt 2579  352 L
SO
2579 4179 mt 2579 4157 L
2579  352 mt 2579  373 L
DO
2579 4179 mt 2579  352 L
2579  352 mt 2579  352 L
SO
2579 4179 mt 2579 4157 L
2579  352 mt 2579  373 L
DO
2579 4179 mt 2579  352 L
2579  352 mt 2579  352 L
SO
2579 4179 mt 2579 4157 L
2579  352 mt 2579  373 L
DO
2579 4179 mt 2579  352 L
2579  352 mt 2579  352 L
SO
2579 4179 mt 2579 4157 L
2579  352 mt 2579  373 L
DO
2579 4179 mt 2579  352 L
2579  352 mt 2579  352 L
SO
2579 4179 mt 2579 4157 L
2579  352 mt 2579  373 L
DO
2579 4179 mt 2579  352 L
2579  352 mt 2579  352 L
SO
2579 4179 mt 2579 4135 L
2579  352 mt 2579  395 L
2366 4397 mt 
(2048) s
3443 4179 mt 3443 4157 L
3443  352 mt 3443  373 L
DO
3443 4179 mt 3443  352 L
3443  352 mt 3443  352 L
SO
3443 4179 mt 3443 4157 L
3443  352 mt 3443  373 L
DO
3443 4179 mt 3443  352 L
3443  352 mt 3443  352 L
SO
3443 4179 mt 3443 4157 L
3443  352 mt 3443  373 L
DO
3443 4179 mt 3443  352 L
3443  352 mt 3443  352 L
SO
3443 4179 mt 3443 4157 L
3443  352 mt 3443  373 L
DO
3443 4179 mt 3443  352 L
3443  352 mt 3443  352 L
SO
3443 4179 mt 3443 4157 L
3443  352 mt 3443  373 L
DO
3443 4179 mt 3443  352 L
3443  352 mt 3443  352 L
SO
3443 4179 mt 3443 4157 L
3443  352 mt 3443  373 L
DO
3443 4179 mt 3443  352 L
3443  352 mt 3443  352 L
SO
3443 4179 mt 3443 4157 L
3443  352 mt 3443  373 L
DO
3443 4179 mt 3443  352 L
3443  352 mt 3443  352 L
SO
3443 4179 mt 3443 4157 L
3443  352 mt 3443  373 L
DO
3443 4179 mt 3443  352 L
3443  352 mt 3443  352 L
SO
3443 4179 mt 3443 4157 L
3443  352 mt 3443  373 L
DO
3443 4179 mt 3443  352 L
3443  352 mt 3443  352 L
SO
3443 4179 mt 3443 4135 L
3443  352 mt 3443  395 L
3230 4397 mt 
(4096) s
4306 4179 mt 4306 4157 L
4306  352 mt 4306  373 L
DO
4306 4179 mt 4306  352 L
4306  352 mt 4306  352 L
SO
4306 4179 mt 4306 4157 L
4306  352 mt 4306  373 L
DO
4306 4179 mt 4306  352 L
4306  352 mt 4306  352 L
SO
4306 4179 mt 4306 4157 L
4306  352 mt 4306  373 L
DO
4306 4179 mt 4306  352 L
4306  352 mt 4306  352 L
SO
4306 4179 mt 4306 4157 L
4306  352 mt 4306  373 L
DO
4306 4179 mt 4306  352 L
4306  352 mt 4306  352 L
SO
4306 4179 mt 4306 4157 L
4306  352 mt 4306  373 L
DO
4306 4179 mt 4306  352 L
4306  352 mt 4306  352 L
SO
4306 4179 mt 4306 4157 L
4306  352 mt 4306  373 L
DO
4306 4179 mt 4306  352 L
4306  352 mt 4306  352 L
SO
4306 4179 mt 4306 4157 L
4306  352 mt 4306  373 L
DO
4306 4179 mt 4306  352 L
4306  352 mt 4306  352 L
SO
4306 4179 mt 4306 4157 L
4306  352 mt 4306  373 L
DO
4306 4179 mt 4306  352 L
4306  352 mt 4306  352 L
SO
4306 4179 mt 4306 4157 L
4306  352 mt 4306  373 L
DO
4306 4179 mt 4306  352 L
4306  352 mt 4306  352 L
SO
4306 4179 mt 4306 4135 L
4306  352 mt 4306  395 L
4093 4397 mt 
(8192) s
5170 4179 mt 5170 4157 L
5170  352 mt 5170  373 L
DO
5170 4179 mt 5170  352 L
5170  352 mt 5170  352 L
SO
5170 4179 mt 5170 4157 L
5170  352 mt 5170  373 L
DO
5170 4179 mt 5170  352 L
5170  352 mt 5170  352 L
SO
5170 4179 mt 5170 4157 L
5170  352 mt 5170  373 L
DO
5170 4179 mt 5170  352 L
5170  352 mt 5170  352 L
SO
5170 4179 mt 5170 4157 L
5170  352 mt 5170  373 L
DO
5170 4179 mt 5170  352 L
5170  352 mt 5170  352 L
SO
5170 4179 mt 5170 4157 L
5170  352 mt 5170  373 L
DO
5170 4179 mt 5170  352 L
5170  352 mt 5170  352 L
SO
5170 4179 mt 5170 4157 L
5170  352 mt 5170  373 L
DO
5170 4179 mt 5170  352 L
5170  352 mt 5170  352 L
SO
5170 4179 mt 5170 4157 L
5170  352 mt 5170  373 L
DO
5170 4179 mt 5170  352 L
5170  352 mt 5170  352 L
SO
5170 4179 mt 5170 4157 L
5170  352 mt 5170  373 L
DO
5170 4179 mt 5170  352 L
5170  352 mt 5170  352 L
SO
5170 4179 mt 5170 4157 L
5170  352 mt 5170  373 L
DO
5170 4179 mt 5170  352 L
5170  352 mt 5170  352 L
SO
5170 4179 mt 5170 4135 L
5170  352 mt 5170  395 L
4904 4397 mt 
(16384) s
 853 4179 mt  874 4179 L
5170 4179 mt 5148 4179 L
DO
 853 4179 mt 5170 4179 L
5170 4179 mt 5170 4179 L
SO
 853 4179 mt  896 4179 L
5170 4179 mt 5126 4179 L
 498 4252 mt 
(512) s
 853 3413 mt  874 3413 L
5170 3413 mt 5148 3413 L
DO
 853 3413 mt 5170 3413 L
5170 3413 mt 5170 3413 L
SO
 853 3413 mt  874 3413 L
5170 3413 mt 5148 3413 L
DO
 853 3413 mt 5170 3413 L
5170 3413 mt 5170 3413 L
SO
 853 3413 mt  874 3413 L
5170 3413 mt 5148 3413 L
DO
 853 3413 mt 5170 3413 L
5170 3413 mt 5170 3413 L
SO
 853 3413 mt  874 3413 L
5170 3413 mt 5148 3413 L
DO
 853 3413 mt 5170 3413 L
5170 3413 mt 5170 3413 L
SO
 853 3413 mt  874 3413 L
5170 3413 mt 5148 3413 L
DO
 853 3413 mt 5170 3413 L
5170 3413 mt 5170 3413 L
SO
 853 3413 mt  874 3413 L
5170 3413 mt 5148 3413 L
DO
 853 3413 mt 5170 3413 L
5170 3413 mt 5170 3413 L
SO
 853 3413 mt  874 3413 L
5170 3413 mt 5148 3413 L
DO
 853 3413 mt 5170 3413 L
5170 3413 mt 5170 3413 L
SO
 853 3413 mt  874 3413 L
5170 3413 mt 5148 3413 L
DO
 853 3413 mt 5170 3413 L
5170 3413 mt 5170 3413 L
SO
 853 3413 mt  874 3413 L
5170 3413 mt 5148 3413 L
DO
 853 3413 mt 5170 3413 L
5170 3413 mt 5170 3413 L
SO
 853 3413 mt  896 3413 L
5170 3413 mt 5126 3413 L
 391 3486 mt 
(1024) s
 853 2648 mt  874 2648 L
5170 2648 mt 5148 2648 L
DO
 853 2648 mt 5170 2648 L
5170 2648 mt 5170 2648 L
SO
 853 2648 mt  874 2648 L
5170 2648 mt 5148 2648 L
DO
 853 2648 mt 5170 2648 L
5170 2648 mt 5170 2648 L
SO
 853 2648 mt  874 2648 L
5170 2648 mt 5148 2648 L
DO
 853 2648 mt 5170 2648 L
5170 2648 mt 5170 2648 L
SO
 853 2648 mt  874 2648 L
5170 2648 mt 5148 2648 L
DO
 853 2648 mt 5170 2648 L
5170 2648 mt 5170 2648 L
SO
 853 2648 mt  874 2648 L
5170 2648 mt 5148 2648 L
DO
 853 2648 mt 5170 2648 L
5170 2648 mt 5170 2648 L
SO
 853 2648 mt  874 2648 L
5170 2648 mt 5148 2648 L
DO
 853 2648 mt 5170 2648 L
5170 2648 mt 5170 2648 L
SO
 853 2648 mt  874 2648 L
5170 2648 mt 5148 2648 L
DO
 853 2648 mt 5170 2648 L
5170 2648 mt 5170 2648 L
SO
 853 2648 mt  874 2648 L
5170 2648 mt 5148 2648 L
DO
 853 2648 mt 5170 2648 L
5170 2648 mt 5170 2648 L
SO
 853 2648 mt  874 2648 L
5170 2648 mt 5148 2648 L
DO
 853 2648 mt 5170 2648 L
5170 2648 mt 5170 2648 L
SO
 853 2648 mt  896 2648 L
5170 2648 mt 5126 2648 L
 391 2721 mt 
(2048) s
 853 1882 mt  874 1882 L
5170 1882 mt 5148 1882 L
DO
 853 1882 mt 5170 1882 L
5170 1882 mt 5170 1882 L
SO
 853 1882 mt  874 1882 L
5170 1882 mt 5148 1882 L
DO
 853 1882 mt 5170 1882 L
5170 1882 mt 5170 1882 L
SO
 853 1882 mt  874 1882 L
5170 1882 mt 5148 1882 L
DO
 853 1882 mt 5170 1882 L
5170 1882 mt 5170 1882 L
SO
 853 1882 mt  874 1882 L
5170 1882 mt 5148 1882 L
DO
 853 1882 mt 5170 1882 L
5170 1882 mt 5170 1882 L
SO
 853 1882 mt  874 1882 L
5170 1882 mt 5148 1882 L
DO
 853 1882 mt 5170 1882 L
5170 1882 mt 5170 1882 L
SO
 853 1882 mt  874 1882 L
5170 1882 mt 5148 1882 L
DO
 853 1882 mt 5170 1882 L
5170 1882 mt 5170 1882 L
SO
 853 1882 mt  874 1882 L
5170 1882 mt 5148 1882 L
DO
 853 1882 mt 5170 1882 L
5170 1882 mt 5170 1882 L
SO
 853 1882 mt  874 1882 L
5170 1882 mt 5148 1882 L
DO
 853 1882 mt 5170 1882 L
5170 1882 mt 5170 1882 L
SO
 853 1882 mt  874 1882 L
5170 1882 mt 5148 1882 L
DO
 853 1882 mt 5170 1882 L
5170 1882 mt 5170 1882 L
SO
 853 1882 mt  896 1882 L
5170 1882 mt 5126 1882 L
 391 1955 mt 
(4096) s
 853 1117 mt  874 1117 L
5170 1117 mt 5148 1117 L
DO
 853 1117 mt 5170 1117 L
5170 1117 mt 5170 1117 L
SO
 853 1117 mt  874 1117 L
5170 1117 mt 5148 1117 L
DO
 853 1117 mt 5170 1117 L
5170 1117 mt 5170 1117 L
SO
 853 1117 mt  874 1117 L
5170 1117 mt 5148 1117 L
DO
 853 1117 mt 5170 1117 L
5170 1117 mt 5170 1117 L
SO
 853 1117 mt  874 1117 L
5170 1117 mt 5148 1117 L
DO
 853 1117 mt 5170 1117 L
5170 1117 mt 5170 1117 L
SO
 853 1117 mt  874 1117 L
5170 1117 mt 5148 1117 L
DO
 853 1117 mt 5170 1117 L
5170 1117 mt 5170 1117 L
SO
 853 1117 mt  874 1117 L
5170 1117 mt 5148 1117 L
DO
 853 1117 mt 5170 1117 L
5170 1117 mt 5170 1117 L
SO
 853 1117 mt  874 1117 L
5170 1117 mt 5148 1117 L
DO
 853 1117 mt 5170 1117 L
5170 1117 mt 5170 1117 L
SO
 853 1117 mt  874 1117 L
5170 1117 mt 5148 1117 L
DO
 853 1117 mt 5170 1117 L
5170 1117 mt 5170 1117 L
SO
 853 1117 mt  874 1117 L
5170 1117 mt 5148 1117 L
DO
 853 1117 mt 5170 1117 L
5170 1117 mt 5170 1117 L
SO
 853 1117 mt  896 1117 L
5170 1117 mt 5126 1117 L
 391 1190 mt 
(8192) s
 853  352 mt  874  352 L
5170  352 mt 5148  352 L
DO
 853  352 mt 5170  352 L
5170  352 mt 5170  352 L
SO
 853  352 mt  874  352 L
5170  352 mt 5148  352 L
DO
 853  352 mt 5170  352 L
5170  352 mt 5170  352 L
SO
 853  352 mt  874  352 L
5170  352 mt 5148  352 L
DO
 853  352 mt 5170  352 L
5170  352 mt 5170  352 L
SO
 853  352 mt  874  352 L
5170  352 mt 5148  352 L
DO
 853  352 mt 5170  352 L
5170  352 mt 5170  352 L
SO
 853  352 mt  874  352 L
5170  352 mt 5148  352 L
DO
 853  352 mt 5170  352 L
5170  352 mt 5170  352 L
SO
 853  352 mt  874  352 L
5170  352 mt 5148  352 L
DO
 853  352 mt 5170  352 L
5170  352 mt 5170  352 L
SO
 853  352 mt  874  352 L
5170  352 mt 5148  352 L
DO
 853  352 mt 5170  352 L
5170  352 mt 5170  352 L
SO
 853  352 mt  874  352 L
5170  352 mt 5148  352 L
DO
 853  352 mt 5170  352 L
5170  352 mt 5170  352 L
SO
 853  352 mt  874  352 L
5170  352 mt 5148  352 L
DO
 853  352 mt 5170  352 L
5170  352 mt 5170  352 L
SO
 853  352 mt  896  352 L
5170  352 mt 5126  352 L
 285  425 mt 
(16384) s
 853 4179 mt 5170 4179 L
 853  352 mt 5170  352 L
 853 4179 mt  853  352 L
5170 4179 mt 5170  352 L
gs 853 352 4318 3828 rc
DA
12 w
864 -765 863 -765 864 -766 863 -765 863 -766 853 4179 6 MP stroke
SO
24 w
/c8 { 0.000000 1.000000 1.000000 sr} bdef
c8
864 -440 863 -571 864 -641 863 -690 863 -716 853 4179 6 MP stroke
/c9 { 0.000000 0.000000 1.000000 sr} bdef
c9
864 -154 863 -563 864 -647 863 -694 863 -727 853 4179 6 MP stroke
/c10 { 1.000000 0.000000 0.000000 sr} bdef
c10
864 -264 863 -539 864 -667 863 -727 863 -745 853 4179 6 MP stroke
gr

24 w
c10
0 sg
2493 4593 mt 
(nb of cores) s
 187 2717 mt  -90 rotate
(speed-up) s
90 rotate
%%IncludeResource: font Helvetica
/Helvetica /ISOLatin1Encoding 192 FMSR

 826 4248 mt 
( ) s
5144  420 mt 
( ) s
6 w
1 sg
0 747 1284 0 0 -747 913 1160 4 MP
PP
-1284 0 0 747 1284 0 0 -747 913 1160 5 MP stroke
4 w
DO
SO
6 w
0 sg
 913 1160 mt 2197 1160 L
 913  413 mt 2197  413 L
 913 1160 mt  913  413 L
2197 1160 mt 2197  413 L
 913 1160 mt 2197 1160 L
 913 1160 mt  913  413 L
 913 1160 mt 2197 1160 L
 913  413 mt 2197  413 L
 913 1160 mt  913  413 L
2197 1160 mt 2197  413 L
%%IncludeResource: font Helvetica-Bold
/Helvetica-Bold /ISOLatin1Encoding 192 FMSR

1375  622 mt 
(no OMP) s
gs 913 413 1285 748 rc
24 w
c8
355 0 984 550 2 MP stroke
gr

24 w
c8
0 sg
1375  858 mt 
(OMP 1th) s
gs 913 413 1285 748 rc
c9
355 0 984 786 2 MP stroke
gr

c9
0 sg
1375 1094 mt 
(OMP 2th) s
gs 913 413 1285 748 rc
c10
355 0 984 1022 2 MP stroke
6 w
gr

6 w
c10

end %%Color Dict

eplot
%%EndObject

epage
end

showpage

%%Trailer
%%EOF
