%!PS-Adobe-3.0 EPSF-3.0
%%Creator: MATLAB, The Mathworks, Inc. Version 7.5.0.338 (R2007b). Operating System: Linux 2.6.18.8-0.10-default #1 SMP Wed Jun 4 15:46:34 UTC 2008 x86_64.
%%Title: /storage/space1/phsgbo/GKWtest/svn/gkw/doc/traplowfield.eps
%%CreationDate: 06/30/2008  15:50:50
%%DocumentNeededFonts: Helvetica
%%DocumentProcessColors: Cyan Magenta Yellow Black
%%LanguageLevel: 2
%%Pages: 1
%%BoundingBox:    20   174   575   666
%%EndComments

%%BeginProlog
% MathWorks dictionary
/MathWorks 160 dict begin
% definition operators
/bdef {bind def} bind def
/ldef {load def} bind def
/xdef {exch def} bdef
/xstore {exch store} bdef
% operator abbreviations
/c  /clip ldef
/cc /concat ldef
/cp /closepath ldef
/gr /grestore ldef
/gs /gsave ldef
/mt /moveto ldef
/np /newpath ldef
/cm /currentmatrix ldef
/sm /setmatrix ldef
/rm /rmoveto ldef
/rl /rlineto ldef
/s {show newpath} bdef
/sc {setcmykcolor} bdef
/sr /setrgbcolor ldef
/sg /setgray ldef
/w /setlinewidth ldef
/j /setlinejoin ldef
/cap /setlinecap ldef
/rc {rectclip} bdef
/rf {rectfill} bdef
% page state control
/pgsv () def
/bpage {/pgsv save def} bdef
/epage {pgsv restore} bdef
/bplot /gsave ldef
/eplot {stroke grestore} bdef
% orientation switch
/portraitMode 0 def /landscapeMode 1 def /rotateMode 2 def
% coordinate system mappings
/dpi2point 0 def
% font control
/FontSize 0 def
/FMS {/FontSize xstore findfont [FontSize 0 0 FontSize neg 0 0]
  makefont setfont} bdef
/reencode {exch dup where {pop load} {pop StandardEncoding} ifelse
  exch dup 3 1 roll findfont dup length dict begin
  { 1 index /FID ne {def}{pop pop} ifelse } forall
  /Encoding exch def currentdict end definefont pop} bdef
/isroman {findfont /CharStrings get /Agrave known} bdef
/FMSR {3 1 roll 1 index dup isroman {reencode} {pop pop} ifelse
  exch FMS} bdef
/csm {1 dpi2point div -1 dpi2point div scale neg translate
 dup landscapeMode eq {pop -90 rotate}
  {rotateMode eq {90 rotate} if} ifelse} bdef
% line types: solid, dotted, dashed, dotdash
/SO { [] 0 setdash } bdef
/DO { [.5 dpi2point mul 4 dpi2point mul] 0 setdash } bdef
/DA { [6 dpi2point mul] 0 setdash } bdef
/DD { [.5 dpi2point mul 4 dpi2point mul 6 dpi2point mul 4
  dpi2point mul] 0 setdash } bdef
% macros for lines and objects
/L {lineto stroke} bdef
/MP {3 1 roll moveto 1 sub {rlineto} repeat} bdef
/AP {{rlineto} repeat} bdef
/PDlw -1 def
/W {/PDlw currentlinewidth def setlinewidth} def
/PP {closepath eofill} bdef
/DP {closepath stroke} bdef
/MR {4 -2 roll moveto dup  0 exch rlineto exch 0 rlineto
  neg 0 exch rlineto closepath} bdef
/FR {MR stroke} bdef
/PR {MR fill} bdef
/L1i {{currentfile picstr readhexstring pop} image} bdef
/tMatrix matrix def
/MakeOval {newpath tMatrix currentmatrix pop translate scale
0 0 1 0 360 arc tMatrix setmatrix} bdef
/FO {MakeOval stroke} bdef
/PO {MakeOval fill} bdef
/PD {currentlinewidth 2 div 0 360 arc fill
   PDlw -1 eq not {PDlw w /PDlw -1 def} if} def
/FA {newpath tMatrix currentmatrix pop translate scale
  0 0 1 5 -2 roll arc tMatrix setmatrix stroke} bdef
/PA {newpath tMatrix currentmatrix pop	translate 0 0 moveto scale
  0 0 1 5 -2 roll arc closepath tMatrix setmatrix fill} bdef
/FAn {newpath tMatrix currentmatrix pop translate scale
  0 0 1 5 -2 roll arcn tMatrix setmatrix stroke} bdef
/PAn {newpath tMatrix currentmatrix pop translate 0 0 moveto scale
  0 0 1 5 -2 roll arcn closepath tMatrix setmatrix fill} bdef
/vradius 0 def /hradius 0 def /lry 0 def
/lrx 0 def /uly 0 def /ulx 0 def /rad 0 def
/MRR {/vradius xdef /hradius xdef /lry xdef /lrx xdef /uly xdef
  /ulx xdef newpath tMatrix currentmatrix pop ulx hradius add uly
  vradius add translate hradius vradius scale 0 0 1 180 270 arc 
  tMatrix setmatrix lrx hradius sub uly vradius add translate
  hradius vradius scale 0 0 1 270 360 arc tMatrix setmatrix
  lrx hradius sub lry vradius sub translate hradius vradius scale
  0 0 1 0 90 arc tMatrix setmatrix ulx hradius add lry vradius sub
  translate hradius vradius scale 0 0 1 90 180 arc tMatrix setmatrix
  closepath} bdef
/FRR {MRR stroke } bdef
/PRR {MRR fill } bdef
/MlrRR {/lry xdef /lrx xdef /uly xdef /ulx xdef /rad lry uly sub 2 div def
  newpath tMatrix currentmatrix pop ulx rad add uly rad add translate
  rad rad scale 0 0 1 90 270 arc tMatrix setmatrix lrx rad sub lry rad
  sub translate rad rad scale 0 0 1 270 90 arc tMatrix setmatrix
  closepath} bdef
/FlrRR {MlrRR stroke } bdef
/PlrRR {MlrRR fill } bdef
/MtbRR {/lry xdef /lrx xdef /uly xdef /ulx xdef /rad lrx ulx sub 2 div def
  newpath tMatrix currentmatrix pop ulx rad add uly rad add translate
  rad rad scale 0 0 1 180 360 arc tMatrix setmatrix lrx rad sub lry rad
  sub translate rad rad scale 0 0 1 0 180 arc tMatrix setmatrix
  closepath} bdef
/FtbRR {MtbRR stroke } bdef
/PtbRR {MtbRR fill } bdef
/stri 6 array def /dtri 6 array def
/smat 6 array def /dmat 6 array def
/tmat1 6 array def /tmat2 6 array def /dif 3 array def
/asub {/ind2 exch def /ind1 exch def dup dup
  ind1 get exch ind2 get sub exch } bdef
/tri_to_matrix {
  2 0 asub 3 1 asub 4 0 asub 5 1 asub
  dup 0 get exch 1 get 7 -1 roll astore } bdef
/compute_transform {
  dmat dtri tri_to_matrix tmat1 invertmatrix 
  smat stri tri_to_matrix tmat2 concatmatrix } bdef
/ds {stri astore pop} bdef
/dt {dtri astore pop} bdef
/db {2 copy /cols xdef /rows xdef mul dup 3 mul string
  currentfile 
  3 index 0 eq {/ASCIIHexDecode filter}
  {/ASCII85Decode filter 3 index 2 eq {/RunLengthDecode filter} if }
  ifelse exch readstring pop
  dup 0 3 index getinterval /rbmap xdef
  dup 2 index dup getinterval /gbmap xdef
  1 index dup 2 mul exch getinterval /bbmap xdef pop pop}bdef
/it {gs np dtri aload pop moveto lineto lineto cp c
  cols rows 8 compute_transform 
  rbmap gbmap bbmap true 3 colorimage gr}bdef
/il {newpath moveto lineto stroke}bdef
currentdict end def
%%EndProlog

%%BeginSetup
MathWorks begin

0 cap

end
%%EndSetup

%%Page: 1 1
%%BeginPageSetup
%%PageBoundingBox:    20   174   575   666
MathWorks begin
bpage
%%EndPageSetup

%%BeginObject: obj1
bplot

/dpi2point 12 def
portraitMode 0240 7992 csm

    0     0  6663  5896 rc
85 dict begin %Colortable dictionary
/c0 { 0.000000 0.000000 0.000000 sr} bdef
/c1 { 1.000000 1.000000 1.000000 sr} bdef
/c2 { 0.900000 0.000000 0.000000 sr} bdef
/c3 { 0.000000 0.820000 0.000000 sr} bdef
/c4 { 0.000000 0.000000 0.800000 sr} bdef
/c5 { 0.910000 0.820000 0.320000 sr} bdef
/c6 { 1.000000 0.260000 0.820000 sr} bdef
/c7 { 0.000000 0.820000 0.820000 sr} bdef
c0
1 j
1 sg
   0    0 6664 5897 rf
6 w
0 4805 5164 0 0 -4805 866 5247 4 MP
PP
-5164 0 0 4805 5164 0 0 -4805 866 5247 5 MP stroke
4 w
DO
SO
6 w
0 sg
 866 5247 mt 6030 5247 L
 866  442 mt 6030  442 L
 866 5247 mt  866  442 L
6030 5247 mt 6030  442 L
 866 5247 mt 6030 5247 L
 866 5247 mt  866  442 L
 866 5247 mt  866 5195 L
 866  442 mt  866  493 L
%%IncludeResource: font Helvetica
/Helvetica /ISOLatin1Encoding 120 FMSR

 833 5392 mt 
(0) s
1726 5247 mt 1726 5195 L
1726  442 mt 1726  493 L
1643 5392 mt 
(0.5) s
2587 5247 mt 2587 5195 L
2587  442 mt 2587  493 L
2554 5392 mt 
(1) s
3448 5247 mt 3448 5195 L
3448  442 mt 3448  493 L
3365 5392 mt 
(1.5) s
4308 5247 mt 4308 5195 L
4308  442 mt 4308  493 L
4275 5392 mt 
(2) s
5169 5247 mt 5169 5195 L
5169  442 mt 5169  493 L
5086 5392 mt 
(2.5) s
6030 5247 mt 6030 5195 L
6030  442 mt 6030  493 L
5997 5392 mt 
(3) s
 866 5247 mt  917 5247 L
6030 5247 mt 5978 5247 L
 765 5291 mt 
(0) s
 866 4766 mt  917 4766 L
6030 4766 mt 5978 4766 L
 665 4810 mt 
(0.2) s
 866 4286 mt  917 4286 L
6030 4286 mt 5978 4286 L
 665 4330 mt 
(0.4) s
 866 3805 mt  917 3805 L
6030 3805 mt 5978 3805 L
 665 3849 mt 
(0.6) s
 866 3325 mt  917 3325 L
6030 3325 mt 5978 3325 L
 665 3369 mt 
(0.8) s
 866 2844 mt  917 2844 L
6030 2844 mt 5978 2844 L
 765 2888 mt 
(1) s
 866 2363 mt  917 2363 L
6030 2363 mt 5978 2363 L
 665 2407 mt 
(1.2) s
 866 1883 mt  917 1883 L
6030 1883 mt 5978 1883 L
 665 1927 mt 
(1.4) s
 866 1403 mt  917 1403 L
6030 1403 mt 5978 1403 L
 665 1447 mt 
(1.6) s
 866  922 mt  917  922 L
6030  922 mt 5978  922 L
 665  966 mt 
(1.8) s
 866  442 mt  917  442 L
6030  442 mt 5978  442 L
 765  486 mt 
(2) s
 866 5247 mt 6030 5247 L
 866  442 mt 6030  442 L
 866 5247 mt  866  442 L
6030 5247 mt 6030  442 L
gs 866 442 5165 4806 rc
gr

gs 829 502 5275 4394 rc
/c8 { 0.000000 0.000000 1.000000 sr} bdef
c8
  36   36  902 4822 FO
  36   36  965 4822 FO
  36   36 1026 4822 FO
  36   36 1107 4822 FO
  36   36 1117 4822 FO
  36   36 2755 4822 FO
  36   36 4392 4822 FO
  36   36 6030 4822 FO
  36   36  976 3972 FO
  36   36 1163 3972 FO
  36   36 1346 3972 FO
  36   36 1590 3972 FO
  36   36 1621 3972 FO
  36   36 3090 3972 FO
  36   36 4560 3972 FO
  36   36 6030 3972 FO
  36   36 1049 3123 FO
  36   36 1362 3123 FO
  36   36 1666 3123 FO
  36   36 2073 3123 FO
  36   36 2124 3123 FO
  36   36 3426 3123 FO
  36   36 4728 3123 FO
  36   36 6030 3123 FO
  36   36 1123 2274 FO
  36   36 1561 2274 FO
  36   36 1987 2274 FO
  36   36 2556 2274 FO
  36   36 2628 2274 FO
  36   36 3762 2274 FO
  36   36 4896 2274 FO
  36   36 6030 2274 FO
  36   36 1197 1424 FO
  36   36 1759 1424 FO
  36   36 2307 1424 FO
  36   36 3039 1424 FO
  36   36 3131 1424 FO
  36   36 4097 1424 FO
  36   36 5063 1424 FO
  36   36 6030 1424 FO
  36   36 1270  575 FO
  36   36 1958  575 FO
  36   36 2628  575 FO
  36   36 3522  575 FO
  36   36 3635  575 FO
  36   36 4433  575 FO
  36   36 5231  575 FO
  36   36 6030  575 FO
gr

c8
gs 866 442 5165 4806 rc
493 -849 493 -850 493 -849 494 -849 493 -850 1112 4822 6 MP stroke
gr

0 sg
2603 5513 mt 
(Normalised parallel velocity, v) s
%%IncludeResource: font Helvetica
/Helvetica /ISOLatin1Encoding 96 FMSR

4176 5573 mt 
(||N) s
%%IncludeResource: font Helvetica
/Helvetica /ISOLatin1Encoding 120 FMSR

 529 3752 mt  -90 rotate
(Normalised magnetic moment, ) s
90 rotate
%%IncludeResource: font Symbol
/Symbol /ISOLatin1Encoding 120 FMSR

 529 2089 mt  -90 rotate
(m) s
90 rotate
%%IncludeResource: font Helvetica
/Helvetica /ISOLatin1Encoding 96 FMSR

 589 2020 mt  -90 rotate
(N) s
90 rotate
%%IncludeResource: font Helvetica
/Helvetica /ISOLatin1Encoding 120 FMSR

 529 1951 mt  -90 rotate
( ) s
90 rotate

end %%Color Dict

eplot
%%EndObject

epage
end

showpage

%%Trailer
%%EOF
