%!PS-Adobe-3.0 EPSF-3.0
%%Creator: MATLAB, The Mathworks, Inc. Version 7.10.0.499 (R2010a). Operating System: Linux 2.6.38-11-generic #48-Ubuntu SMP Fri Jul 29 19:05:14 UTC 2011 i686.
%%Title: /data/phrhaz_home/runs/matlab_plots/impurities_bm_ftu/waltz-gr-em-sa.eps
%%CreationDate: 09/05/2011  15:09:26
%%DocumentNeededFonts: Helvetica
%%DocumentProcessColors: Cyan Magenta Yellow Black
%%LanguageLevel: 2
%%Pages: 1
%%BoundingBox:   -56   108   652   733
%%EndComments

%%BeginProlog
% MathWorks dictionary
/MathWorks 160 dict begin
% definition operators
/bdef {bind def} bind def
/ldef {load def} bind def
/xdef {exch def} bdef
/xstore {exch store} bdef
% operator abbreviations
/c  /clip ldef
/cc /concat ldef
/cp /closepath ldef
/gr /grestore ldef
/gs /gsave ldef
/mt /moveto ldef
/np /newpath ldef
/cm /currentmatrix ldef
/sm /setmatrix ldef
/rm /rmoveto ldef
/rl /rlineto ldef
/s {show newpath} bdef
/sc {setcmykcolor} bdef
/sr /setrgbcolor ldef
/sg /setgray ldef
/w /setlinewidth ldef
/j /setlinejoin ldef
/cap /setlinecap ldef
/rc {rectclip} bdef
/rf {rectfill} bdef
% page state control
/pgsv () def
/bpage {/pgsv save def} bdef
/epage {pgsv restore} bdef
/bplot /gsave ldef
/eplot {stroke grestore} bdef
% orientation switch
/portraitMode 0 def /landscapeMode 1 def /rotateMode 2 def
% coordinate system mappings
/dpi2point 0 def
% font control
/FontSize 0 def
/FMS {/FontSize xstore findfont [FontSize 0 0 FontSize neg 0 0]
  makefont setfont} bdef
/reencode {exch dup where {pop load} {pop StandardEncoding} ifelse
  exch dup 3 1 roll findfont dup length dict begin
  { 1 index /FID ne {def}{pop pop} ifelse } forall
  /Encoding exch def currentdict end definefont pop} bdef
/isroman {findfont /CharStrings get /Agrave known} bdef
/FMSR {3 1 roll 1 index dup isroman {reencode} {pop pop} ifelse
  exch FMS} bdef
/csm {1 dpi2point div -1 dpi2point div scale neg translate
 dup landscapeMode eq {pop -90 rotate}
  {rotateMode eq {90 rotate} if} ifelse} bdef
% line types: solid, dotted, dashed, dotdash
/SO { [] 0 setdash } bdef
/DO { [.5 dpi2point mul 4 dpi2point mul] 0 setdash } bdef
/DA { [6 dpi2point mul] 0 setdash } bdef
/DD { [.5 dpi2point mul 4 dpi2point mul 6 dpi2point mul 4
  dpi2point mul] 0 setdash } bdef
% macros for lines and objects
/L {lineto stroke} bdef
/MP {3 1 roll moveto 1 sub {rlineto} repeat} bdef
/AP {{rlineto} repeat} bdef
/PDlw -1 def
/W {/PDlw currentlinewidth def setlinewidth} def
/PP {closepath eofill} bdef
/DP {closepath stroke} bdef
/MR {4 -2 roll moveto dup  0 exch rlineto exch 0 rlineto
  neg 0 exch rlineto closepath} bdef
/FR {MR stroke} bdef
/PR {MR fill} bdef
/L1i {{currentfile picstr readhexstring pop} image} bdef
/tMatrix matrix def
/MakeOval {newpath tMatrix currentmatrix pop translate scale
0 0 1 0 360 arc tMatrix setmatrix} bdef
/FO {MakeOval stroke} bdef
/PO {MakeOval fill} bdef
/PD {currentlinewidth 2 div 0 360 arc fill
   PDlw -1 eq not {PDlw w /PDlw -1 def} if} def
/FA {newpath tMatrix currentmatrix pop translate scale
  0 0 1 5 -2 roll arc tMatrix setmatrix stroke} bdef
/PA {newpath tMatrix currentmatrix pop	translate 0 0 moveto scale
  0 0 1 5 -2 roll arc closepath tMatrix setmatrix fill} bdef
/FAn {newpath tMatrix currentmatrix pop translate scale
  0 0 1 5 -2 roll arcn tMatrix setmatrix stroke} bdef
/PAn {newpath tMatrix currentmatrix pop translate 0 0 moveto scale
  0 0 1 5 -2 roll arcn closepath tMatrix setmatrix fill} bdef
/vradius 0 def /hradius 0 def /lry 0 def
/lrx 0 def /uly 0 def /ulx 0 def /rad 0 def
/MRR {/vradius xdef /hradius xdef /lry xdef /lrx xdef /uly xdef
  /ulx xdef newpath tMatrix currentmatrix pop ulx hradius add uly
  vradius add translate hradius vradius scale 0 0 1 180 270 arc 
  tMatrix setmatrix lrx hradius sub uly vradius add translate
  hradius vradius scale 0 0 1 270 360 arc tMatrix setmatrix
  lrx hradius sub lry vradius sub translate hradius vradius scale
  0 0 1 0 90 arc tMatrix setmatrix ulx hradius add lry vradius sub
  translate hradius vradius scale 0 0 1 90 180 arc tMatrix setmatrix
  closepath} bdef
/FRR {MRR stroke } bdef
/PRR {MRR fill } bdef
/MlrRR {/lry xdef /lrx xdef /uly xdef /ulx xdef /rad lry uly sub 2 div def
  newpath tMatrix currentmatrix pop ulx rad add uly rad add translate
  rad rad scale 0 0 1 90 270 arc tMatrix setmatrix lrx rad sub lry rad
  sub translate rad rad scale 0 0 1 270 90 arc tMatrix setmatrix
  closepath} bdef
/FlrRR {MlrRR stroke } bdef
/PlrRR {MlrRR fill } bdef
/MtbRR {/lry xdef /lrx xdef /uly xdef /ulx xdef /rad lrx ulx sub 2 div def
  newpath tMatrix currentmatrix pop ulx rad add uly rad add translate
  rad rad scale 0 0 1 180 360 arc tMatrix setmatrix lrx rad sub lry rad
  sub translate rad rad scale 0 0 1 0 180 arc tMatrix setmatrix
  closepath} bdef
/FtbRR {MtbRR stroke } bdef
/PtbRR {MtbRR fill } bdef
/stri 6 array def /dtri 6 array def
/smat 6 array def /dmat 6 array def
/tmat1 6 array def /tmat2 6 array def /dif 3 array def
/asub {/ind2 exch def /ind1 exch def dup dup
  ind1 get exch ind2 get sub exch } bdef
/tri_to_matrix {
  2 0 asub 3 1 asub 4 0 asub 5 1 asub
  dup 0 get exch 1 get 7 -1 roll astore } bdef
/compute_transform {
  dmat dtri tri_to_matrix tmat1 invertmatrix 
  smat stri tri_to_matrix tmat2 concatmatrix } bdef
/ds {stri astore pop} bdef
/dt {dtri astore pop} bdef
/db {2 copy /cols xdef /rows xdef mul dup 3 mul string
  currentfile 
  3 index 0 eq {/ASCIIHexDecode filter}
  {/ASCII85Decode filter 3 index 2 eq {/RunLengthDecode filter} if }
  ifelse exch readstring pop
  dup 0 3 index getinterval /rbmap xdef
  dup 2 index dup getinterval /gbmap xdef
  1 index dup 2 mul exch getinterval /bbmap xdef pop pop}bdef
/it {gs np dtri aload pop moveto lineto lineto cp c
  cols rows 8 compute_transform 
  rbmap gbmap bbmap true 3 colorimage gr}bdef
/il {newpath moveto lineto stroke}bdef
currentdict end def
%%EndProlog

%%BeginSetup
MathWorks begin

0 cap

end
%%EndSetup

%%Page: 1 1
%%BeginPageSetup
%%PageBoundingBox:   -56   108   652   733
MathWorks begin
bpage
%%EndPageSetup

%%BeginObject: obj1
bplot

/dpi2point 12 def
portraitMode -0672 8796 csm

    0     0  8505  7500 rc
86 dict begin %Colortable dictionary
/c0 { 0.000000 0.000000 0.000000 sr} bdef
/c1 { 1.000000 1.000000 1.000000 sr} bdef
/c2 { 0.900000 0.000000 0.000000 sr} bdef
/c3 { 0.000000 0.820000 0.000000 sr} bdef
/c4 { 0.000000 0.000000 0.800000 sr} bdef
/c5 { 0.910000 0.820000 0.320000 sr} bdef
/c6 { 1.000000 0.260000 0.820000 sr} bdef
/c7 { 0.000000 0.820000 0.820000 sr} bdef
c0
1 j
1 sg
   0    0 8506 7501 rf
6 w
0 6112 6591 0 0 -6112 1106 6675 4 MP
PP
-6591 0 0 6112 6591 0 0 -6112 1106 6675 5 MP stroke
4 w
DO
SO
6 w
0 sg
1106 6675 mt 7697 6675 L
1106  563 mt 7697  563 L
1106 6675 mt 1106  563 L
7697 6675 mt 7697  563 L
1106 6675 mt 7697 6675 L
1106 6675 mt 1106  563 L
1106 6675 mt 1106 6609 L
1106  563 mt 1106  628 L
%%IncludeResource: font Helvetica
/Helvetica /ISOLatin1Encoding 240 FMSR

1040 6932 mt 
(0) s
3303 6675 mt 3303 6609 L
3303  563 mt 3303  628 L
3137 6932 mt 
(0.5) s
5500 6675 mt 5500 6609 L
5500  563 mt 5500  628 L
5434 6932 mt 
(1) s
7697 6675 mt 7697 6609 L
7697  563 mt 7697  628 L
7531 6932 mt 
(1.5) s
1106 6675 mt 1171 6675 L
7697 6675 mt 7631 6675 L
 738 6764 mt 
(1.5) s
1106 5147 mt 1171 5147 L
7697 5147 mt 7631 5147 L
 938 5236 mt 
(2) s
1106 3619 mt 1171 3619 L
7697 3619 mt 7631 3619 L
 738 3708 mt 
(2.5) s
1106 2091 mt 1171 2091 L
7697 2091 mt 7631 2091 L
 938 2180 mt 
(3) s
1106  563 mt 1171  563 L
7697  563 mt 7631  563 L
 738  652 mt 
(3.5) s
1106 6675 mt 7697 6675 L
1106  563 mt 7697  563 L
1106 6675 mt 1106  563 L
7697 6675 mt 7697  563 L
%%IncludeResource: font Helvetica
/Helvetica /ISOLatin1Encoding 360 FMSR

3983 7179 mt 
(k) s
%%IncludeResource: font Symbol
/Symbol /ISOLatin1Encoding 288 FMSR

4163 7359 mt 
(q) s
%%IncludeResource: font Helvetica
/Helvetica /ISOLatin1Encoding 360 FMSR

4313 7179 mt 
( ) s
%%IncludeResource: font Symbol
/Symbol /ISOLatin1Encoding 360 FMSR

4413 7179 mt 
(r) s
%%IncludeResource: font Helvetica
/Helvetica /ISOLatin1Encoding 288 FMSR

4610 7359 mt 
(D) s
%%IncludeResource: font Symbol
/Symbol /ISOLatin1Encoding 360 FMSR

 439 4272 mt  -90 rotate
(g) s
90 rotate
%%IncludeResource: font Helvetica
/Helvetica /ISOLatin1Encoding 360 FMSR

 439 4125 mt  -90 rotate
( \(R/v) s
90 rotate
%%IncludeResource: font Helvetica
/Helvetica /ISOLatin1Encoding 288 FMSR

 619 3366 mt  -90 rotate
(t) s
90 rotate
%%IncludeResource: font Helvetica
/Helvetica /ISOLatin1Encoding 360 FMSR

 439 3286 mt  -90 rotate
(h\)) s
90 rotate
%%IncludeResource: font Helvetica
/Helvetica /ISOLatin1Encoding 288 FMSR

1991  305 mt 
(Waltz test case, EM, ) s
%%IncludeResource: font Symbol
/Symbol /ISOLatin1Encoding 288 FMSR

4680  305 mt 
(b) s
%%IncludeResource: font Helvetica
/Helvetica /ISOLatin1Encoding 288 FMSR

4838  305 mt 
(=0.1, n) s
%%IncludeResource: font Helvetica
/Helvetica /ISOLatin1Encoding 228 FMSR

5726  449 mt 
(Li) s
%%IncludeResource: font Helvetica
/Helvetica /ISOLatin1Encoding 288 FMSR

5903  305 mt 
(/n) s
%%IncludeResource: font Helvetica
/Helvetica /ISOLatin1Encoding 228 FMSR

6143  449 mt 
(e) s
%%IncludeResource: font Helvetica
/Helvetica /ISOLatin1Encoding 288 FMSR

6269  305 mt 
(=0.1) s
%%IncludeResource: font Helvetica
/Helvetica /ISOLatin1Encoding 120 FMSR

1089 6718 mt 
( ) s
7681  605 mt 
( ) s
gs 1106 563 6592 6113 rc
36 w
gr

36 w
/c8 { 0.000000 0.498039 0.000000 sr} bdef
c8
1455 3658 mt 1635 3658 L
1545 3568 mt 1545 3748 L
2334 2409 mt 2514 2409 L
2424 2319 mt 2424 2499 L
3213 3855 mt 3393 3855 L
3303 3765 mt 3303 3945 L
4091 5095 mt 4271 5095 L
4181 5005 mt 4181 5185 L
4970 4362 mt 5150 4362 L
5060 4272 mt 5060 4452 L
5849 3602 mt 6029 3602 L
5939 3512 mt 5939 3692 L
6728 2848 mt 6908 2848 L
6818 2758 mt 6818 2938 L
7607 2122 mt 7787 2122 L
7697 2032 mt 7697 2212 L
gs 1106 563 6592 6113 rc
DA
879 -862 879 -908 879 -846 879 -740 878 2015 879 1774 879 803 1545 685 8 MP stroke
SO
gr

0 j
90 119 -90 119 -90 -119 90 -119 1545 5317 5 MP
/c9 { 0.000000 0.000000 1.000000 sr} bdef
c9
DP
90 119 -90 119 -90 -119 90 -119 2424 4163 5 MP
DP
90 119 -90 119 -90 -119 90 -119 3303 5678 5 MP
DP
90 119 -90 119 -90 -119 90 -119 4181 6016 5 MP
DP
90 119 -90 119 -90 -119 90 -119 5060 5060 5 MP
DP
90 119 -90 119 -90 -119 90 -119 5939 4179 5 MP
DP
90 119 -90 119 -90 -119 90 -119 6818 3349 5 MP
DP
90 119 -90 119 -90 -119 90 -119 7697 2574 5 MP
DP
gs 1106 563 6592 6113 rc
879 -742 879 -794 879 -852 879 -963 878 897 879 1775 879 711 1545 2808 8 MP stroke
6 w
gr

6 w
1 sg
0 1948 1858 0 0 -1948 3773 2825 4 MP
PP
-1858 0 0 1948 1858 0 0 -1948 3773 2825 5 MP stroke
4 w
DO
SO
6 w
0 sg
3773 2825 mt 5631 2825 L
3773  877 mt 5631  877 L
3773 2825 mt 3773  877 L
5631 2825 mt 5631  877 L
3773 2825 mt 5631 2825 L
3773 2825 mt 3773  877 L
3773 2825 mt 5631 2825 L
3773  877 mt 5631  877 L
3773 2825 mt 3773  877 L
5631 2825 mt 5631  877 L
%%IncludeResource: font Helvetica
/Helvetica /ISOLatin1Encoding 240 FMSR

4246 1121 mt 
(GKW: A) s
%%IncludeResource: font Helvetica
/Helvetica /ISOLatin1Encoding 192 FMSR

5100 1241 mt 
(||) s
%%IncludeResource: font Helvetica
/Helvetica /ISOLatin1Encoding 240 FMSR

5199 1121 mt 
(, B) s
%%IncludeResource: font Helvetica
/Helvetica /ISOLatin1Encoding 192 FMSR

5492 1241 mt 
(||) s
gs 3773 877 1859 1949 rc
36 w
gs 3809 918 437 437 rc
c8
3937 1136 mt 4117 1136 L
4027 1046 mt 4027 1226 L
gr

c8
gr

36 w
c8
0 sg
%%IncludeResource: font Helvetica
/Helvetica /ISOLatin1Encoding 240 FMSR

4246 1598 mt 
(GS2: A) s
%%IncludeResource: font Helvetica
/Helvetica /ISOLatin1Encoding 192 FMSR

5007 1718 mt 
(||) s
%%IncludeResource: font Helvetica
/Helvetica /ISOLatin1Encoding 240 FMSR

5106 1598 mt 
(, B) s
%%IncludeResource: font Helvetica
/Helvetica /ISOLatin1Encoding 192 FMSR

5399 1718 mt 
(||) s
gs 3773 877 1859 1949 rc
DA
c8
364 0 3845 1612 2 MP stroke
SO
gr

c8
0 sg
%%IncludeResource: font Helvetica
/Helvetica /ISOLatin1Encoding 240 FMSR

4246 2075 mt 
(GKW: A) s
%%IncludeResource: font Helvetica
/Helvetica /ISOLatin1Encoding 192 FMSR

5100 2195 mt 
(||) s
gs 3773 877 1859 1949 rc
gs 3809 1871 437 437 rc
90 119 -90 119 -90 -119 90 -119 4027 2208 5 MP
c9
DP
gr

c9
gr

c9
0 sg
%%IncludeResource: font Helvetica
/Helvetica /ISOLatin1Encoding 240 FMSR

4246 2552 mt 
(GS2: A) s
%%IncludeResource: font Helvetica
/Helvetica /ISOLatin1Encoding 192 FMSR

5007 2672 mt 
(||) s
gs 3773 877 1859 1949 rc
c9
364 0 3845 2565 2 MP stroke
6 w
gr

6 w
c9

end %%Color Dict

eplot
%%EndObject

epage
end

showpage

%%Trailer
%%EOF
