%!PS-Adobe-3.0 EPSF-3.0
%%Creator: MATLAB, The Mathworks, Inc. Version 7.8.0.347 (R2009a). Operating System: Linux 2.6.16.60-0.39.3-smp #1 SMP Mon May 11 11:46:34 UTC 2009 x86_64.
%%Title: /gpfs/space/phsfar/beta/zonal_residue.eps
%%CreationDate: 06/22/2009  20:37:02
%%DocumentNeededFonts: Helvetica
%%DocumentProcessColors: Cyan Magenta Yellow Black
%%LanguageLevel: 2
%%Pages: 1
%%BoundingBox:   183   255   411   585
%%EndComments

%%BeginProlog
% MathWorks dictionary
/MathWorks 160 dict begin
% definition operators
/bdef {bind def} bind def
/ldef {load def} bind def
/xdef {exch def} bdef
/xstore {exch store} bdef
% operator abbreviations
/c  /clip ldef
/cc /concat ldef
/cp /closepath ldef
/gr /grestore ldef
/gs /gsave ldef
/mt /moveto ldef
/np /newpath ldef
/cm /currentmatrix ldef
/sm /setmatrix ldef
/rm /rmoveto ldef
/rl /rlineto ldef
/s {show newpath} bdef
/sc {setcmykcolor} bdef
/sr /setrgbcolor ldef
/sg /setgray ldef
/w /setlinewidth ldef
/j /setlinejoin ldef
/cap /setlinecap ldef
/rc {rectclip} bdef
/rf {rectfill} bdef
% page state control
/pgsv () def
/bpage {/pgsv save def} bdef
/epage {pgsv restore} bdef
/bplot /gsave ldef
/eplot {stroke grestore} bdef
% orientation switch
/portraitMode 0 def /landscapeMode 1 def /rotateMode 2 def
% coordinate system mappings
/dpi2point 0 def
% font control
/FontSize 0 def
/FMS {/FontSize xstore findfont [FontSize 0 0 FontSize neg 0 0]
  makefont setfont} bdef
/reencode {exch dup where {pop load} {pop StandardEncoding} ifelse
  exch dup 3 1 roll findfont dup length dict begin
  { 1 index /FID ne {def}{pop pop} ifelse } forall
  /Encoding exch def currentdict end definefont pop} bdef
/isroman {findfont /CharStrings get /Agrave known} bdef
/FMSR {3 1 roll 1 index dup isroman {reencode} {pop pop} ifelse
  exch FMS} bdef
/csm {1 dpi2point div -1 dpi2point div scale neg translate
 dup landscapeMode eq {pop -90 rotate}
  {rotateMode eq {90 rotate} if} ifelse} bdef
% line types: solid, dotted, dashed, dotdash
/SO { [] 0 setdash } bdef
/DO { [.5 dpi2point mul 4 dpi2point mul] 0 setdash } bdef
/DA { [6 dpi2point mul] 0 setdash } bdef
/DD { [.5 dpi2point mul 4 dpi2point mul 6 dpi2point mul 4
  dpi2point mul] 0 setdash } bdef
% macros for lines and objects
/L {lineto stroke} bdef
/MP {3 1 roll moveto 1 sub {rlineto} repeat} bdef
/AP {{rlineto} repeat} bdef
/PDlw -1 def
/W {/PDlw currentlinewidth def setlinewidth} def
/PP {closepath eofill} bdef
/DP {closepath stroke} bdef
/MR {4 -2 roll moveto dup  0 exch rlineto exch 0 rlineto
  neg 0 exch rlineto closepath} bdef
/FR {MR stroke} bdef
/PR {MR fill} bdef
/L1i {{currentfile picstr readhexstring pop} image} bdef
/tMatrix matrix def
/MakeOval {newpath tMatrix currentmatrix pop translate scale
0 0 1 0 360 arc tMatrix setmatrix} bdef
/FO {MakeOval stroke} bdef
/PO {MakeOval fill} bdef
/PD {currentlinewidth 2 div 0 360 arc fill
   PDlw -1 eq not {PDlw w /PDlw -1 def} if} def
/FA {newpath tMatrix currentmatrix pop translate scale
  0 0 1 5 -2 roll arc tMatrix setmatrix stroke} bdef
/PA {newpath tMatrix currentmatrix pop	translate 0 0 moveto scale
  0 0 1 5 -2 roll arc closepath tMatrix setmatrix fill} bdef
/FAn {newpath tMatrix currentmatrix pop translate scale
  0 0 1 5 -2 roll arcn tMatrix setmatrix stroke} bdef
/PAn {newpath tMatrix currentmatrix pop translate 0 0 moveto scale
  0 0 1 5 -2 roll arcn closepath tMatrix setmatrix fill} bdef
/vradius 0 def /hradius 0 def /lry 0 def
/lrx 0 def /uly 0 def /ulx 0 def /rad 0 def
/MRR {/vradius xdef /hradius xdef /lry xdef /lrx xdef /uly xdef
  /ulx xdef newpath tMatrix currentmatrix pop ulx hradius add uly
  vradius add translate hradius vradius scale 0 0 1 180 270 arc 
  tMatrix setmatrix lrx hradius sub uly vradius add translate
  hradius vradius scale 0 0 1 270 360 arc tMatrix setmatrix
  lrx hradius sub lry vradius sub translate hradius vradius scale
  0 0 1 0 90 arc tMatrix setmatrix ulx hradius add lry vradius sub
  translate hradius vradius scale 0 0 1 90 180 arc tMatrix setmatrix
  closepath} bdef
/FRR {MRR stroke } bdef
/PRR {MRR fill } bdef
/MlrRR {/lry xdef /lrx xdef /uly xdef /ulx xdef /rad lry uly sub 2 div def
  newpath tMatrix currentmatrix pop ulx rad add uly rad add translate
  rad rad scale 0 0 1 90 270 arc tMatrix setmatrix lrx rad sub lry rad
  sub translate rad rad scale 0 0 1 270 90 arc tMatrix setmatrix
  closepath} bdef
/FlrRR {MlrRR stroke } bdef
/PlrRR {MlrRR fill } bdef
/MtbRR {/lry xdef /lrx xdef /uly xdef /ulx xdef /rad lrx ulx sub 2 div def
  newpath tMatrix currentmatrix pop ulx rad add uly rad add translate
  rad rad scale 0 0 1 180 360 arc tMatrix setmatrix lrx rad sub lry rad
  sub translate rad rad scale 0 0 1 0 180 arc tMatrix setmatrix
  closepath} bdef
/FtbRR {MtbRR stroke } bdef
/PtbRR {MtbRR fill } bdef
/stri 6 array def /dtri 6 array def
/smat 6 array def /dmat 6 array def
/tmat1 6 array def /tmat2 6 array def /dif 3 array def
/asub {/ind2 exch def /ind1 exch def dup dup
  ind1 get exch ind2 get sub exch } bdef
/tri_to_matrix {
  2 0 asub 3 1 asub 4 0 asub 5 1 asub
  dup 0 get exch 1 get 7 -1 roll astore } bdef
/compute_transform {
  dmat dtri tri_to_matrix tmat1 invertmatrix 
  smat stri tri_to_matrix tmat2 concatmatrix } bdef
/ds {stri astore pop} bdef
/dt {dtri astore pop} bdef
/db {2 copy /cols xdef /rows xdef mul dup 3 mul string
  currentfile 
  3 index 0 eq {/ASCIIHexDecode filter}
  {/ASCII85Decode filter 3 index 2 eq {/RunLengthDecode filter} if }
  ifelse exch readstring pop
  dup 0 3 index getinterval /rbmap xdef
  dup 2 index dup getinterval /gbmap xdef
  1 index dup 2 mul exch getinterval /bbmap xdef pop pop}bdef
/it {gs np dtri aload pop moveto lineto lineto cp c
  cols rows 8 compute_transform 
  rbmap gbmap bbmap true 3 colorimage gr}bdef
/il {newpath moveto lineto stroke}bdef
currentdict end def
%%EndProlog

%%BeginSetup
MathWorks begin

0 cap

end
%%EndSetup

%%Page: 1 1
%%BeginPageSetup
%%PageBoundingBox:   183   255   411   585
MathWorks begin
bpage
%%EndPageSetup

%%BeginObject: obj1
bplot

/dpi2point 12 def
portraitMode 2196 7020 csm

    0     0  2746  3956 rc
85 dict begin %Colortable dictionary
/c0 { 0.000000 0.000000 0.000000 sr} bdef
/c1 { 1.000000 1.000000 1.000000 sr} bdef
/c2 { 0.900000 0.000000 0.000000 sr} bdef
/c3 { 0.000000 0.820000 0.000000 sr} bdef
/c4 { 0.000000 0.000000 0.800000 sr} bdef
/c5 { 0.910000 0.820000 0.320000 sr} bdef
/c6 { 1.000000 0.260000 0.820000 sr} bdef
/c7 { 0.000000 0.820000 0.820000 sr} bdef
c0
1 j
1 sg
   0    0 2747 3957 rf
6 w
0 3224 2003 0 0 -3224 482 3521 4 MP
PP
-2003 0 0 3224 2003 0 0 -3224 482 3521 5 MP stroke
4 w
DO
SO
6 w
0 sg
 482 3521 mt 2485 3521 L
 482  297 mt 2485  297 L
 482 3521 mt  482  297 L
2485 3521 mt 2485  297 L
 482 3521 mt 2485 3521 L
 482 3521 mt  482  297 L
 482 3521 mt  482 3488 L
 482  297 mt  482  329 L
%%IncludeResource: font Helvetica
/Helvetica /ISOLatin1Encoding 120 FMSR

 449 3666 mt 
(0) s
 927 3521 mt  927 3488 L
 927  297 mt  927  329 L
 844 3666 mt 
(0.1) s
1372 3521 mt 1372 3488 L
1372  297 mt 1372  329 L
1289 3666 mt 
(0.2) s
1817 3521 mt 1817 3488 L
1817  297 mt 1817  329 L
1734 3666 mt 
(0.3) s
2262 3521 mt 2262 3488 L
2262  297 mt 2262  329 L
2179 3666 mt 
(0.4) s
 482 3521 mt  514 3521 L
2485 3521 mt 2452 3521 L
 381 3565 mt 
(0) s
 482 3198 mt  514 3198 L
2485 3198 mt 2452 3198 L
 214 3242 mt 
(0.02) s
 482 2876 mt  514 2876 L
2485 2876 mt 2452 2876 L
 214 2920 mt 
(0.04) s
 482 2553 mt  514 2553 L
2485 2553 mt 2452 2553 L
 214 2597 mt 
(0.06) s
 482 2231 mt  514 2231 L
2485 2231 mt 2452 2231 L
 214 2275 mt 
(0.08) s
 482 1909 mt  514 1909 L
2485 1909 mt 2452 1909 L
 281 1953 mt 
(0.1) s
 482 1586 mt  514 1586 L
2485 1586 mt 2452 1586 L
 214 1630 mt 
(0.12) s
 482 1264 mt  514 1264 L
2485 1264 mt 2452 1264 L
 214 1308 mt 
(0.14) s
 482  941 mt  514  941 L
2485  941 mt 2452  941 L
 214  985 mt 
(0.16) s
 482  619 mt  514  619 L
2485  619 mt 2452  619 L
 214  663 mt 
(0.18) s
 482  297 mt  514  297 L
2485  297 mt 2452  297 L
 281  341 mt 
(0.2) s
 482 3521 mt 2485 3521 L
 482  297 mt 2485  297 L
 482 3521 mt  482  297 L
2485 3521 mt 2485  297 L
gs 482 297 2004 3225 rc
gs 631 966 1705 1479 rc
/c8 { 0.000000 0.000000 1.000000 sr} bdef
c8
  36   36  704 2371 FO
  36   36  927 1997 FO
  36   36 1149 1768 FO
  36   36 1372 1569 FO
  36   36 1594 1411 FO
  36   36 1817 1314 FO
  36   36 2039 1225 FO
  36   36 2262 1039 FO
gr

c8
DA
/c9 { 1.000000 0.000000 0.000000 sr} bdef
c9
4 -2 22 -14 23 -15 22 -15 23 -14 22 -15 23 -15 22 -16 
23 -15 22 -15 23 -16 22 -16 23 -16 22 -16 22 -16 23 -16 
22 -16 23 -17 22 -17 23 -17 22 -17 23 -17 22 -18 23 -17 
22 -18 23 -18 22 -18 23 -19 22 -18 23 -19 22 -19 23 -19 
22 -19 23 -20 22 -20 23 -20 22 -21 23 -20 22 -21 22 -21 
23 -22 22 -21 23 -22 22 -23 23 -22 22 -23 23 -24 22 -23 
23 -24 22 -25 23 -25 22 -25 23 -26 22 -26 23 -26 22 -27 
23 -28 22 -28 23 -29 22 -29 23 -30 22 -30 23 -32 22 -32 
22 -32 23 -34 22 -34 23 -35 22 -37 23 -37 22 -39 23 -39 
22 -41 23 -43 22 -44 23 -46 22 -48 23 -50 22 -53 23 -56 
22 -58 23 -63 22 -67 23 -73 22 -81 23 -89 22 -104 23 -124 
22 -165 22 -413 482 3521 91 MP stroke
SO
4 -1 22 -8 23 -9 22 -8 23 -9 22 -9 23 -9 22 -9 
23 -9 22 -9 23 -9 22 -10 23 -9 22 -10 22 -10 23 -10 
22 -10 23 -10 22 -10 23 -11 22 -11 23 -10 22 -11 23 -11 
22 -12 23 -11 22 -12 23 -11 22 -12 23 -13 22 -12 23 -12 
22 -13 23 -13 22 -13 23 -13 22 -14 23 -14 22 -14 22 -14 
23 -15 22 -15 23 -15 22 -15 23 -16 22 -16 23 -16 22 -17 
23 -17 22 -17 23 -17 22 -19 23 -18 22 -19 23 -19 22 -20 
23 -20 22 -21 23 -21 22 -22 23 -22 22 -23 23 -24 22 -25 
22 -25 23 -26 22 -26 23 -28 22 -28 23 -30 22 -31 23 -32 
22 -33 23 -34 22 -37 23 -38 22 -39 23 -42 22 -45 23 -47 
22 -51 23 -54 22 -59 23 -65 22 -71 23 -81 22 -95 23 -115 
22 -156 504 3117 90 MP stroke
gs 631 966 1705 1479 rc
c8
  36   36  704 2371 FO
  36   36  927 1997 FO
  36   36 1149 1768 FO
  36   36 1372 1569 FO
  36   36 1594 1411 FO
  36   36 1817 1314 FO
  36   36 2039 1225 FO
  36   36 2262 1039 FO
gr

c8
DA
c9
4 -2 22 -14 23 -15 22 -15 23 -14 22 -15 23 -15 22 -16 
23 -15 22 -15 23 -16 22 -16 23 -16 22 -16 22 -16 23 -16 
22 -16 23 -17 22 -17 23 -17 22 -17 23 -17 22 -18 23 -17 
22 -18 23 -18 22 -18 23 -19 22 -18 23 -19 22 -19 23 -19 
22 -19 23 -20 22 -20 23 -20 22 -21 23 -20 22 -21 22 -21 
23 -22 22 -21 23 -22 22 -23 23 -22 22 -23 23 -24 22 -23 
23 -24 22 -25 23 -25 22 -25 23 -26 22 -26 23 -26 22 -27 
23 -28 22 -28 23 -29 22 -29 23 -30 22 -30 23 -32 22 -32 
22 -32 23 -34 22 -34 23 -35 22 -37 23 -37 22 -39 23 -39 
22 -41 23 -43 22 -44 23 -46 22 -48 23 -50 22 -53 23 -56 
22 -58 23 -63 22 -67 23 -73 22 -81 23 -89 22 -104 23 -124 
22 -165 22 -413 482 3521 91 MP stroke
SO
4 -1 22 -8 23 -9 22 -8 23 -9 22 -9 23 -9 22 -9 
23 -9 22 -9 23 -9 22 -10 23 -9 22 -10 22 -10 23 -10 
22 -10 23 -10 22 -10 23 -11 22 -11 23 -10 22 -11 23 -11 
22 -12 23 -11 22 -12 23 -11 22 -12 23 -13 22 -12 23 -12 
22 -13 23 -13 22 -13 23 -13 22 -14 23 -14 22 -14 22 -14 
23 -15 22 -15 23 -15 22 -15 23 -16 22 -16 23 -16 22 -17 
23 -17 22 -17 23 -17 22 -19 23 -18 22 -19 23 -19 22 -20 
23 -20 22 -21 23 -21 22 -22 23 -22 22 -23 23 -24 22 -25 
22 -25 23 -26 22 -26 23 -28 22 -28 23 -30 22 -31 23 -32 
22 -33 23 -34 22 -37 23 -38 22 -39 23 -42 22 -45 23 -47 
22 -51 23 -54 22 -59 23 -65 22 -71 23 -81 22 -95 23 -115 
22 -156 504 3117 90 MP stroke
gs 631 966 1705 1479 rc
c8
  36   36  704 2371 FO
  36   36  927 1997 FO
  36   36 1149 1768 FO
  36   36 1372 1569 FO
  36   36 1594 1411 FO
  36   36 1817 1314 FO
  36   36 2039 1225 FO
  36   36 2262 1039 FO
gr

c8
DA
c9
4 -2 22 -14 23 -15 22 -15 23 -14 22 -15 23 -15 22 -16 
23 -15 22 -15 23 -16 22 -16 23 -16 22 -16 22 -16 23 -16 
22 -16 23 -17 22 -17 23 -17 22 -17 23 -17 22 -18 23 -17 
22 -18 23 -18 22 -18 23 -19 22 -18 23 -19 22 -19 23 -19 
22 -19 23 -20 22 -20 23 -20 22 -21 23 -20 22 -21 22 -21 
23 -22 22 -21 23 -22 22 -23 23 -22 22 -23 23 -24 22 -23 
23 -24 22 -25 23 -25 22 -25 23 -26 22 -26 23 -26 22 -27 
23 -28 22 -28 23 -29 22 -29 23 -30 22 -30 23 -32 22 -32 
22 -32 23 -34 22 -34 23 -35 22 -37 23 -37 22 -39 23 -39 
22 -41 23 -43 22 -44 23 -46 22 -48 23 -50 22 -53 23 -56 
22 -58 23 -63 22 -67 23 -73 22 -81 23 -89 22 -104 23 -124 
22 -165 22 -413 482 3521 91 MP stroke
SO
4 -1 22 -8 23 -9 22 -8 23 -9 22 -9 23 -9 22 -9 
23 -9 22 -9 23 -9 22 -10 23 -9 22 -10 22 -10 23 -10 
22 -10 23 -10 22 -10 23 -11 22 -11 23 -10 22 -11 23 -11 
22 -12 23 -11 22 -12 23 -11 22 -12 23 -13 22 -12 23 -12 
22 -13 23 -13 22 -13 23 -13 22 -14 23 -14 22 -14 22 -14 
23 -15 22 -15 23 -15 22 -15 23 -16 22 -16 23 -16 22 -17 
23 -17 22 -17 23 -17 22 -19 23 -18 22 -19 23 -19 22 -20 
23 -20 22 -21 23 -21 22 -22 23 -22 22 -23 23 -24 22 -25 
22 -25 23 -26 22 -26 23 -28 22 -28 23 -30 22 -31 23 -32 
22 -33 23 -34 22 -37 23 -38 22 -39 23 -42 22 -45 23 -47 
22 -51 23 -54 22 -59 23 -65 22 -71 23 -81 22 -95 23 -115 
22 -156 504 3117 90 MP stroke
gr

c9
0 sg
%%IncludeResource: font Symbol
/Symbol /ISOLatin1Encoding 120 FMSR

1456 3803 mt 
(e) s
%%IncludeResource: font Helvetica
/Helvetica /ISOLatin1Encoding 120 FMSR

 124 2489 mt  -90 rotate
(| ) s
90 rotate
%%IncludeResource: font Symbol
/Symbol /ISOLatin1Encoding 120 FMSR

 124 2425 mt  -90 rotate
(f) s
90 rotate
%%IncludeResource: font Helvetica
/Helvetica /ISOLatin1Encoding 120 FMSR

 124 2363 mt  -90 rotate
( \(t = ) s
90 rotate
%%IncludeResource: font Symbol
/Symbol /ISOLatin1Encoding 120 FMSR

 124 2120 mt  -90 rotate
(\245) s
90 rotate
%%IncludeResource: font Helvetica
/Helvetica /ISOLatin1Encoding 120 FMSR

 124 2035 mt  -90 rotate
(\) | / | ) s
90 rotate
%%IncludeResource: font Symbol
/Symbol /ISOLatin1Encoding 120 FMSR

 124 1766 mt  -90 rotate
(f) s
90 rotate
%%IncludeResource: font Helvetica
/Helvetica /ISOLatin1Encoding 120 FMSR

 124 1704 mt  -90 rotate
(\( t = 0\)|) s
90 rotate
gs 482 297 2004 3225 rc
gs 583 918 1801 1575 rc
c8
  60   60  704 2371 FO
  60   60  927 1997 FO
  60   60 1149 1768 FO
  60   60 1372 1569 FO
  60   60 1594 1411 FO
  60   60 1817 1314 FO
  60   60 2039 1225 FO
  60   60 2262 1039 FO
gr

c8
DA
12 w
c9
4 -2 22 -14 23 -15 22 -15 23 -14 22 -15 23 -15 22 -16 
23 -15 22 -15 23 -16 22 -16 23 -16 22 -16 22 -16 23 -16 
22 -16 23 -17 22 -17 23 -17 22 -17 23 -17 22 -18 23 -17 
22 -18 23 -18 22 -18 23 -19 22 -18 23 -19 22 -19 23 -19 
22 -19 23 -20 22 -20 23 -20 22 -21 23 -20 22 -21 22 -21 
23 -22 22 -21 23 -22 22 -23 23 -22 22 -23 23 -24 22 -23 
23 -24 22 -25 23 -25 22 -25 23 -26 22 -26 23 -26 22 -27 
23 -28 22 -28 23 -29 22 -29 23 -30 22 -30 23 -32 22 -32 
22 -32 23 -34 22 -34 23 -35 22 -37 23 -37 22 -39 23 -39 
22 -41 23 -43 22 -44 23 -46 22 -48 23 -50 22 -53 23 -56 
22 -58 23 -63 22 -67 23 -73 22 -81 23 -89 22 -104 23 -124 
22 -165 22 -413 482 3521 91 MP stroke
SO
4 -1 22 -8 23 -9 22 -8 23 -9 22 -9 23 -9 22 -9 
23 -9 22 -9 23 -9 22 -10 23 -9 22 -10 22 -10 23 -10 
22 -10 23 -10 22 -10 23 -11 22 -11 23 -10 22 -11 23 -11 
22 -12 23 -11 22 -12 23 -11 22 -12 23 -13 22 -12 23 -12 
22 -13 23 -13 22 -13 23 -13 22 -14 23 -14 22 -14 22 -14 
23 -15 22 -15 23 -15 22 -15 23 -16 22 -16 23 -16 22 -17 
23 -17 22 -17 23 -17 22 -19 23 -18 22 -19 23 -19 22 -20 
23 -20 22 -21 23 -21 22 -22 23 -22 22 -23 23 -24 22 -25 
22 -25 23 -26 22 -26 23 -28 22 -28 23 -30 22 -31 23 -32 
22 -33 23 -34 22 -37 23 -38 22 -39 23 -42 22 -45 23 -47 
22 -51 23 -54 22 -59 23 -65 22 -71 23 -81 22 -95 23 -115 
22 -156 504 3117 90 MP stroke
6 w
gr

c9
0 sg
 869  705 mt 
(Rosenbluth-Hinton) s
 895 2428 mt 
(Xiao-Cato) s
1743 1607 mt 
(GKW) s

end %%Color Dict

eplot
%%EndObject

epage
end

showpage

%%Trailer
%%EOF
