%!PS-Adobe-3.0 EPSF-3.0
%%Creator: MATLAB, The Mathworks, Inc. Version 7.9.0.529 (R2009b). Operating System: Linux 2.6.32.46-0.3-default #1 SMP 2011-09-29 17:49:31 +0200 x86_64.
%%Title: /ptmp1/fjc/tmp/nonspec_nl_bench/fluxes.eps
%%CreationDate: 03/13/2012  17:34:01
%%DocumentNeededFonts: Helvetica
%%DocumentProcessColors: Cyan Magenta Yellow Black
%%LanguageLevel: 2
%%Pages: 1
%%BoundingBox:   -62   214   675   576
%%EndComments

%%BeginProlog
% MathWorks dictionary
/MathWorks 160 dict begin
% definition operators
/bdef {bind def} bind def
/ldef {load def} bind def
/xdef {exch def} bdef
/xstore {exch store} bdef
% operator abbreviations
/c  /clip ldef
/cc /concat ldef
/cp /closepath ldef
/gr /grestore ldef
/gs /gsave ldef
/mt /moveto ldef
/np /newpath ldef
/cm /currentmatrix ldef
/sm /setmatrix ldef
/rm /rmoveto ldef
/rl /rlineto ldef
/s {show newpath} bdef
/sc {setcmykcolor} bdef
/sr /setrgbcolor ldef
/sg /setgray ldef
/w /setlinewidth ldef
/j /setlinejoin ldef
/cap /setlinecap ldef
/rc {rectclip} bdef
/rf {rectfill} bdef
% page state control
/pgsv () def
/bpage {/pgsv save def} bdef
/epage {pgsv restore} bdef
/bplot /gsave ldef
/eplot {stroke grestore} bdef
% orientation switch
/portraitMode 0 def /landscapeMode 1 def /rotateMode 2 def
% coordinate system mappings
/dpi2point 0 def
% font control
/FontSize 0 def
/FMS {/FontSize xstore findfont [FontSize 0 0 FontSize neg 0 0]
  makefont setfont} bdef
/reencode {exch dup where {pop load} {pop StandardEncoding} ifelse
  exch dup 3 1 roll findfont dup length dict begin
  { 1 index /FID ne {def}{pop pop} ifelse } forall
  /Encoding exch def currentdict end definefont pop} bdef
/isroman {findfont /CharStrings get /Agrave known} bdef
/FMSR {3 1 roll 1 index dup isroman {reencode} {pop pop} ifelse
  exch FMS} bdef
/csm {1 dpi2point div -1 dpi2point div scale neg translate
 dup landscapeMode eq {pop -90 rotate}
  {rotateMode eq {90 rotate} if} ifelse} bdef
% line types: solid, dotted, dashed, dotdash
/SO { [] 0 setdash } bdef
/DO { [.5 dpi2point mul 4 dpi2point mul] 0 setdash } bdef
/DA { [6 dpi2point mul] 0 setdash } bdef
/DD { [.5 dpi2point mul 4 dpi2point mul 6 dpi2point mul 4
  dpi2point mul] 0 setdash } bdef
% macros for lines and objects
/L {lineto stroke} bdef
/MP {3 1 roll moveto 1 sub {rlineto} repeat} bdef
/AP {{rlineto} repeat} bdef
/PDlw -1 def
/W {/PDlw currentlinewidth def setlinewidth} def
/PP {closepath eofill} bdef
/DP {closepath stroke} bdef
/MR {4 -2 roll moveto dup  0 exch rlineto exch 0 rlineto
  neg 0 exch rlineto closepath} bdef
/FR {MR stroke} bdef
/PR {MR fill} bdef
/L1i {{currentfile picstr readhexstring pop} image} bdef
/tMatrix matrix def
/MakeOval {newpath tMatrix currentmatrix pop translate scale
0 0 1 0 360 arc tMatrix setmatrix} bdef
/FO {MakeOval stroke} bdef
/PO {MakeOval fill} bdef
/PD {currentlinewidth 2 div 0 360 arc fill
   PDlw -1 eq not {PDlw w /PDlw -1 def} if} def
/FA {newpath tMatrix currentmatrix pop translate scale
  0 0 1 5 -2 roll arc tMatrix setmatrix stroke} bdef
/PA {newpath tMatrix currentmatrix pop	translate 0 0 moveto scale
  0 0 1 5 -2 roll arc closepath tMatrix setmatrix fill} bdef
/FAn {newpath tMatrix currentmatrix pop translate scale
  0 0 1 5 -2 roll arcn tMatrix setmatrix stroke} bdef
/PAn {newpath tMatrix currentmatrix pop translate 0 0 moveto scale
  0 0 1 5 -2 roll arcn closepath tMatrix setmatrix fill} bdef
/vradius 0 def /hradius 0 def /lry 0 def
/lrx 0 def /uly 0 def /ulx 0 def /rad 0 def
/MRR {/vradius xdef /hradius xdef /lry xdef /lrx xdef /uly xdef
  /ulx xdef newpath tMatrix currentmatrix pop ulx hradius add uly
  vradius add translate hradius vradius scale 0 0 1 180 270 arc 
  tMatrix setmatrix lrx hradius sub uly vradius add translate
  hradius vradius scale 0 0 1 270 360 arc tMatrix setmatrix
  lrx hradius sub lry vradius sub translate hradius vradius scale
  0 0 1 0 90 arc tMatrix setmatrix ulx hradius add lry vradius sub
  translate hradius vradius scale 0 0 1 90 180 arc tMatrix setmatrix
  closepath} bdef
/FRR {MRR stroke } bdef
/PRR {MRR fill } bdef
/MlrRR {/lry xdef /lrx xdef /uly xdef /ulx xdef /rad lry uly sub 2 div def
  newpath tMatrix currentmatrix pop ulx rad add uly rad add translate
  rad rad scale 0 0 1 90 270 arc tMatrix setmatrix lrx rad sub lry rad
  sub translate rad rad scale 0 0 1 270 90 arc tMatrix setmatrix
  closepath} bdef
/FlrRR {MlrRR stroke } bdef
/PlrRR {MlrRR fill } bdef
/MtbRR {/lry xdef /lrx xdef /uly xdef /ulx xdef /rad lrx ulx sub 2 div def
  newpath tMatrix currentmatrix pop ulx rad add uly rad add translate
  rad rad scale 0 0 1 180 360 arc tMatrix setmatrix lrx rad sub lry rad
  sub translate rad rad scale 0 0 1 0 180 arc tMatrix setmatrix
  closepath} bdef
/FtbRR {MtbRR stroke } bdef
/PtbRR {MtbRR fill } bdef
/stri 6 array def /dtri 6 array def
/smat 6 array def /dmat 6 array def
/tmat1 6 array def /tmat2 6 array def /dif 3 array def
/asub {/ind2 exch def /ind1 exch def dup dup
  ind1 get exch ind2 get sub exch } bdef
/tri_to_matrix {
  2 0 asub 3 1 asub 4 0 asub 5 1 asub
  dup 0 get exch 1 get 7 -1 roll astore } bdef
/compute_transform {
  dmat dtri tri_to_matrix tmat1 invertmatrix 
  smat stri tri_to_matrix tmat2 concatmatrix } bdef
/ds {stri astore pop} bdef
/dt {dtri astore pop} bdef
/db {2 copy /cols xdef /rows xdef mul dup 3 mul string
  currentfile 
  3 index 0 eq {/ASCIIHexDecode filter}
  {/ASCII85Decode filter 3 index 2 eq {/RunLengthDecode filter} if }
  ifelse exch readstring pop
  dup 0 3 index getinterval /rbmap xdef
  dup 2 index dup getinterval /gbmap xdef
  1 index dup 2 mul exch getinterval /bbmap xdef pop pop}bdef
/it {gs np dtri aload pop moveto lineto lineto cp c
  cols rows 8 compute_transform 
  rbmap gbmap bbmap true 3 colorimage gr}bdef
/il {newpath moveto lineto stroke}bdef
currentdict end def
%%EndProlog

%%BeginSetup
MathWorks begin

0 cap

end
%%EndSetup

%%Page: 1 1
%%BeginPageSetup
%%PageBoundingBox:   -62   214   675   576
MathWorks begin
bpage
%%EndPageSetup

%%BeginObject: obj1
bplot

/dpi2point 12 def
portraitMode -0744 6912 csm

    0     0  8850  4339 rc
85 dict begin %Colortable dictionary
/c0 { 0.000000 0.000000 0.000000 sr} bdef
/c1 { 1.000000 1.000000 1.000000 sr} bdef
/c2 { 0.900000 0.000000 0.000000 sr} bdef
/c3 { 0.000000 0.820000 0.000000 sr} bdef
/c4 { 0.000000 0.000000 0.800000 sr} bdef
/c5 { 0.910000 0.820000 0.320000 sr} bdef
/c6 { 1.000000 0.260000 0.820000 sr} bdef
/c7 { 0.000000 0.820000 0.820000 sr} bdef
c0
1 j
1 sg
   0    0 8851 4340 rf
6 w
0 3537 6859 0 0 -3537 1150 3862 4 MP
PP
-6859 0 0 3537 6859 0 0 -3537 1150 3862 5 MP stroke
4 w
DO
SO
6 w
0 sg
1150 3862 mt 8009 3862 L
1150  325 mt 8009  325 L
1150 3862 mt 1150  325 L
8009 3862 mt 8009  325 L
1150 3862 mt 8009 3862 L
1150 3862 mt 1150  325 L
1150 3862 mt 1150 3793 L
1150  325 mt 1150  393 L
%%IncludeResource: font Helvetica
/Helvetica /ISOLatin1Encoding 132 FMSR

1114 4018 mt 
(0) s
1493 3862 mt 1493 3827 L
1493  325 mt 1493  359 L
1836 3862 mt 1836 3827 L
1836  325 mt 1836  359 L
1836 3862 mt 1836 3827 L
1836  325 mt 1836  359 L
1836 3862 mt 1836 3827 L
1836  325 mt 1836  359 L
1836 3862 mt 1836 3827 L
1836  325 mt 1836  359 L
1836 3862 mt 1836 3827 L
1836  325 mt 1836  359 L
1836 3862 mt 1836 3827 L
1836  325 mt 1836  359 L
1836 3862 mt 1836 3827 L
1836  325 mt 1836  359 L
1836 3862 mt 1836 3827 L
1836  325 mt 1836  359 L
1836 3862 mt 1836 3793 L
1836  325 mt 1836  393 L
1726 4018 mt 
(200) s
2179 3862 mt 2179 3827 L
2179  325 mt 2179  359 L
2522 3862 mt 2522 3827 L
2522  325 mt 2522  359 L
2522 3862 mt 2522 3827 L
2522  325 mt 2522  359 L
2522 3862 mt 2522 3827 L
2522  325 mt 2522  359 L
2522 3862 mt 2522 3827 L
2522  325 mt 2522  359 L
2522 3862 mt 2522 3827 L
2522  325 mt 2522  359 L
2522 3862 mt 2522 3827 L
2522  325 mt 2522  359 L
2522 3862 mt 2522 3827 L
2522  325 mt 2522  359 L
2522 3862 mt 2522 3827 L
2522  325 mt 2522  359 L
2522 3862 mt 2522 3793 L
2522  325 mt 2522  393 L
2412 4018 mt 
(400) s
2865 3862 mt 2865 3827 L
2865  325 mt 2865  359 L
3208 3862 mt 3208 3827 L
3208  325 mt 3208  359 L
3208 3862 mt 3208 3827 L
3208  325 mt 3208  359 L
3208 3862 mt 3208 3827 L
3208  325 mt 3208  359 L
3208 3862 mt 3208 3827 L
3208  325 mt 3208  359 L
3208 3862 mt 3208 3827 L
3208  325 mt 3208  359 L
3208 3862 mt 3208 3827 L
3208  325 mt 3208  359 L
3208 3862 mt 3208 3827 L
3208  325 mt 3208  359 L
3208 3862 mt 3208 3827 L
3208  325 mt 3208  359 L
3208 3862 mt 3208 3793 L
3208  325 mt 3208  393 L
3098 4018 mt 
(600) s
3551 3862 mt 3551 3827 L
3551  325 mt 3551  359 L
3894 3862 mt 3894 3827 L
3894  325 mt 3894  359 L
3894 3862 mt 3894 3827 L
3894  325 mt 3894  359 L
3894 3862 mt 3894 3827 L
3894  325 mt 3894  359 L
3894 3862 mt 3894 3827 L
3894  325 mt 3894  359 L
3894 3862 mt 3894 3827 L
3894  325 mt 3894  359 L
3894 3862 mt 3894 3827 L
3894  325 mt 3894  359 L
3894 3862 mt 3894 3827 L
3894  325 mt 3894  359 L
3894 3862 mt 3894 3827 L
3894  325 mt 3894  359 L
3894 3862 mt 3894 3793 L
3894  325 mt 3894  393 L
3784 4018 mt 
(800) s
4237 3862 mt 4237 3827 L
4237  325 mt 4237  359 L
4580 3862 mt 4580 3827 L
4580  325 mt 4580  359 L
4580 3862 mt 4580 3827 L
4580  325 mt 4580  359 L
4580 3862 mt 4580 3827 L
4580  325 mt 4580  359 L
4580 3862 mt 4580 3827 L
4580  325 mt 4580  359 L
4580 3862 mt 4580 3827 L
4580  325 mt 4580  359 L
4580 3862 mt 4580 3827 L
4580  325 mt 4580  359 L
4580 3862 mt 4580 3827 L
4580  325 mt 4580  359 L
4580 3862 mt 4580 3827 L
4580  325 mt 4580  359 L
4580 3862 mt 4580 3793 L
4580  325 mt 4580  393 L
4434 4018 mt 
(1000) s
4922 3862 mt 4922 3827 L
4922  325 mt 4922  359 L
5265 3862 mt 5265 3827 L
5265  325 mt 5265  359 L
5265 3862 mt 5265 3827 L
5265  325 mt 5265  359 L
5265 3862 mt 5265 3827 L
5265  325 mt 5265  359 L
5265 3862 mt 5265 3827 L
5265  325 mt 5265  359 L
5265 3862 mt 5265 3827 L
5265  325 mt 5265  359 L
5265 3862 mt 5265 3827 L
5265  325 mt 5265  359 L
5265 3862 mt 5265 3827 L
5265  325 mt 5265  359 L
5265 3862 mt 5265 3827 L
5265  325 mt 5265  359 L
5265 3862 mt 5265 3793 L
5265  325 mt 5265  393 L
5119 4018 mt 
(1200) s
5608 3862 mt 5608 3827 L
5608  325 mt 5608  359 L
5951 3862 mt 5951 3827 L
5951  325 mt 5951  359 L
5951 3862 mt 5951 3827 L
5951  325 mt 5951  359 L
5951 3862 mt 5951 3827 L
5951  325 mt 5951  359 L
5951 3862 mt 5951 3827 L
5951  325 mt 5951  359 L
5951 3862 mt 5951 3827 L
5951  325 mt 5951  359 L
5951 3862 mt 5951 3827 L
5951  325 mt 5951  359 L
5951 3862 mt 5951 3827 L
5951  325 mt 5951  359 L
5951 3862 mt 5951 3827 L
5951  325 mt 5951  359 L
5951 3862 mt 5951 3793 L
5951  325 mt 5951  393 L
5805 4018 mt 
(1400) s
6294 3862 mt 6294 3827 L
6294  325 mt 6294  359 L
6637 3862 mt 6637 3827 L
6637  325 mt 6637  359 L
6637 3862 mt 6637 3827 L
6637  325 mt 6637  359 L
6637 3862 mt 6637 3827 L
6637  325 mt 6637  359 L
6637 3862 mt 6637 3827 L
6637  325 mt 6637  359 L
6637 3862 mt 6637 3827 L
6637  325 mt 6637  359 L
6637 3862 mt 6637 3827 L
6637  325 mt 6637  359 L
6637 3862 mt 6637 3827 L
6637  325 mt 6637  359 L
6637 3862 mt 6637 3827 L
6637  325 mt 6637  359 L
6637 3862 mt 6637 3793 L
6637  325 mt 6637  393 L
6491 4018 mt 
(1600) s
6980 3862 mt 6980 3827 L
6980  325 mt 6980  359 L
7323 3862 mt 7323 3827 L
7323  325 mt 7323  359 L
7323 3862 mt 7323 3827 L
7323  325 mt 7323  359 L
7323 3862 mt 7323 3827 L
7323  325 mt 7323  359 L
7323 3862 mt 7323 3827 L
7323  325 mt 7323  359 L
7323 3862 mt 7323 3827 L
7323  325 mt 7323  359 L
7323 3862 mt 7323 3827 L
7323  325 mt 7323  359 L
7323 3862 mt 7323 3827 L
7323  325 mt 7323  359 L
7323 3862 mt 7323 3827 L
7323  325 mt 7323  359 L
7323 3862 mt 7323 3793 L
7323  325 mt 7323  393 L
7177 4018 mt 
(1800) s
7666 3862 mt 7666 3827 L
7666  325 mt 7666  359 L
8009 3862 mt 8009 3827 L
8009  325 mt 8009  359 L
8009 3862 mt 8009 3827 L
8009  325 mt 8009  359 L
8009 3862 mt 8009 3827 L
8009  325 mt 8009  359 L
8009 3862 mt 8009 3827 L
8009  325 mt 8009  359 L
8009 3862 mt 8009 3827 L
8009  325 mt 8009  359 L
8009 3862 mt 8009 3827 L
8009  325 mt 8009  359 L
8009 3862 mt 8009 3827 L
8009  325 mt 8009  359 L
8009 3862 mt 8009 3827 L
8009  325 mt 8009  359 L
8009 3862 mt 8009 3793 L
8009  325 mt 8009  393 L
7863 4018 mt 
(2000) s
1150 3862 mt 1219 3862 L
8009 3862 mt 7940 3862 L
1043 3910 mt 
(0) s
1150 3609 mt 1185 3609 L
8009 3609 mt 7974 3609 L
1150 3356 mt 1185 3356 L
8009 3356 mt 7974 3356 L
1150 3356 mt 1185 3356 L
8009 3356 mt 7974 3356 L
1150 3356 mt 1185 3356 L
8009 3356 mt 7974 3356 L
1150 3356 mt 1185 3356 L
8009 3356 mt 7974 3356 L
1150 3356 mt 1185 3356 L
8009 3356 mt 7974 3356 L
1150 3356 mt 1185 3356 L
8009 3356 mt 7974 3356 L
1150 3356 mt 1185 3356 L
8009 3356 mt 7974 3356 L
1150 3356 mt 1185 3356 L
8009 3356 mt 7974 3356 L
1150 3356 mt 1219 3356 L
8009 3356 mt 7940 3356 L
1043 3404 mt 
(1) s
1150 3104 mt 1185 3104 L
8009 3104 mt 7974 3104 L
1150 2851 mt 1185 2851 L
8009 2851 mt 7974 2851 L
1150 2851 mt 1185 2851 L
8009 2851 mt 7974 2851 L
1150 2851 mt 1185 2851 L
8009 2851 mt 7974 2851 L
1150 2851 mt 1185 2851 L
8009 2851 mt 7974 2851 L
1150 2851 mt 1185 2851 L
8009 2851 mt 7974 2851 L
1150 2851 mt 1185 2851 L
8009 2851 mt 7974 2851 L
1150 2851 mt 1185 2851 L
8009 2851 mt 7974 2851 L
1150 2851 mt 1185 2851 L
8009 2851 mt 7974 2851 L
1150 2851 mt 1219 2851 L
8009 2851 mt 7940 2851 L
1043 2899 mt 
(2) s
1150 2598 mt 1185 2598 L
8009 2598 mt 7974 2598 L
1150 2346 mt 1185 2346 L
8009 2346 mt 7974 2346 L
1150 2346 mt 1185 2346 L
8009 2346 mt 7974 2346 L
1150 2346 mt 1185 2346 L
8009 2346 mt 7974 2346 L
1150 2346 mt 1185 2346 L
8009 2346 mt 7974 2346 L
1150 2346 mt 1185 2346 L
8009 2346 mt 7974 2346 L
1150 2346 mt 1185 2346 L
8009 2346 mt 7974 2346 L
1150 2346 mt 1185 2346 L
8009 2346 mt 7974 2346 L
1150 2346 mt 1185 2346 L
8009 2346 mt 7974 2346 L
1150 2346 mt 1219 2346 L
8009 2346 mt 7940 2346 L
1043 2394 mt 
(3) s
1150 2093 mt 1185 2093 L
8009 2093 mt 7974 2093 L
1150 1840 mt 1185 1840 L
8009 1840 mt 7974 1840 L
1150 1840 mt 1185 1840 L
8009 1840 mt 7974 1840 L
1150 1840 mt 1185 1840 L
8009 1840 mt 7974 1840 L
1150 1840 mt 1185 1840 L
8009 1840 mt 7974 1840 L
1150 1840 mt 1185 1840 L
8009 1840 mt 7974 1840 L
1150 1840 mt 1185 1840 L
8009 1840 mt 7974 1840 L
1150 1840 mt 1185 1840 L
8009 1840 mt 7974 1840 L
1150 1840 mt 1185 1840 L
8009 1840 mt 7974 1840 L
1150 1840 mt 1219 1840 L
8009 1840 mt 7940 1840 L
1043 1888 mt 
(4) s
1150 1588 mt 1185 1588 L
8009 1588 mt 7974 1588 L
1150 1335 mt 1185 1335 L
8009 1335 mt 7974 1335 L
1150 1335 mt 1185 1335 L
8009 1335 mt 7974 1335 L
1150 1335 mt 1185 1335 L
8009 1335 mt 7974 1335 L
1150 1335 mt 1185 1335 L
8009 1335 mt 7974 1335 L
1150 1335 mt 1185 1335 L
8009 1335 mt 7974 1335 L
1150 1335 mt 1185 1335 L
8009 1335 mt 7974 1335 L
1150 1335 mt 1185 1335 L
8009 1335 mt 7974 1335 L
1150 1335 mt 1185 1335 L
8009 1335 mt 7974 1335 L
1150 1335 mt 1219 1335 L
8009 1335 mt 7940 1335 L
1043 1383 mt 
(5) s
1150 1082 mt 1185 1082 L
8009 1082 mt 7974 1082 L
1150  830 mt 1185  830 L
8009  830 mt 7974  830 L
1150  830 mt 1185  830 L
8009  830 mt 7974  830 L
1150  830 mt 1185  830 L
8009  830 mt 7974  830 L
1150  830 mt 1185  830 L
8009  830 mt 7974  830 L
1150  830 mt 1185  830 L
8009  830 mt 7974  830 L
1150  830 mt 1185  830 L
8009  830 mt 7974  830 L
1150  830 mt 1185  830 L
8009  830 mt 7974  830 L
1150  830 mt 1185  830 L
8009  830 mt 7974  830 L
1150  830 mt 1219  830 L
8009  830 mt 7940  830 L
1043  878 mt 
(6) s
1150  577 mt 1185  577 L
8009  577 mt 7974  577 L
1150  325 mt 1185  325 L
8009  325 mt 7974  325 L
1150  325 mt 1185  325 L
8009  325 mt 7974  325 L
1150  325 mt 1185  325 L
8009  325 mt 7974  325 L
1150  325 mt 1185  325 L
8009  325 mt 7974  325 L
1150  325 mt 1185  325 L
8009  325 mt 7974  325 L
1150  325 mt 1185  325 L
8009  325 mt 7974  325 L
1150  325 mt 1185  325 L
8009  325 mt 7974  325 L
1150  325 mt 1185  325 L
8009  325 mt 7974  325 L
1150  325 mt 1219  325 L
8009  325 mt 7940  325 L
1043  373 mt 
(7) s
1150 3862 mt 8009 3862 L
1150  325 mt 8009  325 L
1150 3862 mt 1150  325 L
8009 3862 mt 8009  325 L
gs 1151 325 6859 3538 rc
12 w
/c8 { 0.000000 0.000000 1.000000 sr} bdef
c8
7 -85 8 -44 7 2 7 65 7 19 8 -3 7 8 7 1 
8 17 7 -7 7 -34 7 -40 8 -100 7 -79 7 36 7 101 
8 22 7 59 7 11 8 4 7 57 7 145 7 154 8 -41 
7 -81 7 -28 7 -50 8 -75 7 -31 7 -7 8 26 7 -25 
7 -88 7 -38 8 65 7 56 7 4 7 -42 8 -26 7 22 
7 9 8 14 7 36 7 110 7 127 8 -9 7 109 7 -37 
7 -100 8 94 7 164 7 -46 8 -40 7 -58 7 -40 7 -48 
8 -70 7 -23 7 -19 7 -53 8 -125 7 -55 7 -27 8 23 
7 48 7 -19 7 -41 8 113 7 42 7 -13 7 -29 8 -34 
7 -61 7 -41 8 60 7 199 7 171 7 139 8 -4 7 -78 
7 -11 8 -32 7 -126 7 -49 7 -42 8 -131 7 -134 7 -115 
7 -56 8 47 7 96 7 36 8 41 7 74 7 27 7 18 
8 -23 7 15 7 24 7 -48 8 -59 7 -79 7 -55 8 -60 
7 -29 7 21 7 13 8 140 7 150 7 4 7 -77 8 -78 
7 -40 7 -32 8 20 7 99 7 138 7 150 8 64 7 -33 
7 -65 7 -82 8 -94 7 -25 7 -8 8 56 7 92 7 154 
7 128 8 -16 7 -31 7 -35 7 -64 8 -79 7 33 7 -54 
8 13 7 -51 7 -49 7 39 8 -35 7 -94 7 -12 8 -30 
7 -56 7 -17 7 10 8 -35 7 -6 7 -32 7 12 8 70 
7 20 7 -14 8 87 7 81 7 74 7 83 8 -7 7 54 
7 14 7 -18 8 -35 7 -88 7 2 8 106 7 88 7 -72 
7 -116 8 -78 7 59 7 98 7 112 8 92 7 124 7 76 
8 -40 7 -72 7 -86 7 -86 8 -76 7 -85 7 -83 7 -52 
8 44 7 95 7 112 8 -14 7 -97 7 -99 7 -57 8 22 
7 39 7 -40 7 23 8 146 7 43 7 -48 8 -22 7 -36 
7 10 7 196 8 65 7 -45 7 -161 7 -195 8 -116 7 -16 
7 38 8 -15 7 -25 7 -19 7 -6 8 30 7 34 7 92 
8 97 7 -73 7 -60 7 -82 8 -66 7 -36 7 -27 7 -68 
8 -5 7 29 7 -19 8 -13 7 25 7 9 7 26 8 -1 
7 -60 7 -15 7 42 8 63 7 109 7 43 8 76 7 49 
7 46 7 -4 8 6 7 145 7 130 7 -34 8 -81 7 14 
7 -51 8 -79 7 -86 7 -39 7 -32 8 -89 7 -117 7 -113 
7 -60 8 -20 7 -6 7 40 8 55 7 58 7 81 7 -64 
8 -79 7 -56 7 105 7 117 8 60 7 31 7 42 8 79 
7 -93 7 -59 7 20 8 -68 7 30 7 73 7 -64 8 -71 
7 51 7 70 8 -5 7 -34 7 -40 7 -31 8 30 7 -2 
7 -50 8 50 7 24 7 -20 7 19 8 50 7 94 7 99 
7 -25 8 -68 7 -41 5704 2120 300 MP stroke
7 -78 8 -15 7 -55 7 -111 7 -67 8 -31 7 -57 7 39 
7 84 8 -8 7 -49 7 -46 8 -94 7 -66 7 11 7 93 
8 76 7 9 7 34 7 59 8 -47 7 -62 7 51 8 36 
7 57 7 0 7 -32 8 -39 7 -30 7 -41 7 23 8 17 
7 0 7 117 8 28 7 -17 7 -10 7 -11 8 8 7 -31 
7 26 7 106 8 130 7 80 7 72 8 13 7 48 7 103 
7 135 8 45 7 19 7 -104 7 -149 8 -117 7 -74 7 -97 
8 -87 7 -37 7 1 7 33 8 46 7 -18 7 -24 8 7 
7 -55 7 -16 7 -8 8 1 7 100 7 100 7 -35 8 -42 
7 2 7 -16 8 -76 7 -17 7 138 7 86 8 69 7 -4 
7 2 7 -19 8 -83 7 25 7 66 8 -41 7 -52 7 -10 
7 17 8 -10 7 -40 7 25 7 -47 8 -60 7 -35 7 -42 
8 7 7 -38 7 -99 7 -27 8 53 7 13 7 19 7 30 
8 51 7 101 7 61 8 22 7 -20 7 41 7 43 8 -22 
7 -55 7 -39 7 -27 8 1 7 6 7 29 8 18 7 -25 
7 157 7 96 8 82 7 -27 7 -78 7 -56 8 -45 7 -44 
7 -29 8 11 7 -102 7 -61 7 -35 8 -71 7 -53 7 7 
8 62 7 86 7 28 7 48 8 49 7 71 7 95 7 -40 
8 -94 7 -64 7 12 8 40 7 -27 7 -20 7 -69 8 -38 
7 -56 7 -93 7 16 8 111 7 192 7 62 8 -51 7 -50 
7 11 7 -1 8 -96 7 -64 7 -74 7 -76 8 -9 7 -11 
7 -10 8 1 7 -46 7 -39 7 29 8 -2 7 8 7 76 
7 30 8 46 7 90 7 1 8 -63 7 40 7 55 7 66 
8 30 7 79 7 122 7 87 8 30 7 129 7 100 8 146 
7 31 7 -73 7 -36 8 -113 7 -54 7 16 7 -55 8 -138 
7 -109 7 -111 8 -138 7 -102 7 -58 7 -40 8 43 7 91 
7 95 8 181 7 152 7 -18 7 -10 8 -122 7 -136 7 -40 
7 38 8 27 7 21 7 54 8 -5 7 -99 7 -131 7 0 
8 14 7 -108 7 -49 7 -20 8 -6 7 -19 7 -8 8 55 
7 89 7 10 7 -68 8 -111 7 -62 7 15 7 75 8 109 
7 45 7 -18 8 -41 7 -57 7 -73 7 42 8 18 7 -4 
7 65 7 60 8 11 7 -29 7 -34 8 47 7 -13 7 -76 
7 -81 8 -61 7 -2 7 58 7 97 8 162 7 87 7 6 
8 2 7 -45 7 -26 7 -38 8 -24 7 47 7 -20 8 -16 
7 -21 7 64 7 84 8 49 7 0 7 -2 7 37 8 -32 
7 -56 7 39 8 66 7 39 7 62 7 71 8 2 7 72 
7 12 7 -38 8 43 7 6 7 -47 8 34 7 33 7 21 
7 132 8 56 7 -8 3529 1561 300 MP stroke
7 -90 7 -110 8 -73 7 -116 7 -107 8 -51 7 -4 7 -29 
7 12 8 -67 7 -103 7 -14 7 65 8 19 7 51 7 84 
8 70 7 37 7 -62 7 -67 8 -70 7 -145 7 -116 7 -34 
8 40 7 82 7 43 8 138 7 153 7 12 7 13 8 68 
7 59 7 80 7 31 8 -21 7 -128 7 -58 8 -40 7 -100 
7 0 7 -24 8 -28 7 38 7 -52 8 -37 7 45 7 26 
7 67 8 93 7 108 7 66 7 44 8 10 7 61 7 51 
8 -61 7 -142 7 -182 7 -116 8 -70 7 27 7 -3 7 -85 
8 -46 7 -34 7 -74 8 -83 7 -29 7 -33 7 -10 8 60 
7 57 7 46 7 10 8 33 7 83 7 39 8 -53 7 -15 
7 180 7 172 8 -1 7 -57 7 -105 7 -51 8 -42 7 -9 
7 18 8 40 7 -38 7 12 7 53 8 22 7 54 7 50 
7 31 8 106 7 41 7 -17 8 59 7 -80 7 -174 7 -78 
8 -18 7 20 7 -8 7 -85 8 7 7 63 7 -79 8 -86 
7 -43 7 -11 7 48 8 134 7 121 7 73 8 78 7 125 
7 56 7 -46 8 -86 7 -100 7 -29 7 1 8 6 7 66 
7 61 8 92 7 -18 7 -201 7 -167 8 -88 7 -57 7 -12 
7 -40 8 -3 7 42 7 57 8 52 7 87 7 34 7 -6 
8 -57 7 -33 7 -20 7 -12 8 -24 7 -75 7 15 8 67 
7 -13 7 -54 7 -54 8 -43 7 -51 7 -66 7 -61 8 -6 
7 64 7 73 8 86 7 153 7 39 7 -84 8 -61 7 0 
7 18 7 16 8 48 7 61 7 39 8 6 7 37 7 72 
7 7 8 92 7 65 7 -41 7 -75 8 -51 7 -62 7 -50 
8 -47 7 -65 7 -39 7 -21 8 44 7 83 7 45 8 36 
7 65 7 76 7 -37 8 112 7 137 7 -41 7 -45 8 -85 
7 -13 7 15 8 -11 7 -44 7 5 7 97 8 56 7 152 
7 172 7 -11 8 -83 7 -40 7 0 8 24 7 -12 7 -17 
7 15 8 -57 7 -84 7 22 7 70 8 -13 7 -23 7 -83 
8 -174 7 -93 7 10 7 82 8 146 7 -8 7 -99 7 -38 
8 -81 7 -62 7 -51 8 -37 7 -30 7 -19 7 -93 8 -9 
7 76 7 45 7 63 8 24 7 26 7 8 8 40 7 -13 
7 -39 7 38 8 -10 7 -53 7 18 7 6 8 30 7 160 
7 68 8 -25 7 -73 7 -62 7 -106 8 -51 7 -44 7 -76 
8 -44 7 -51 7 -107 7 -77 8 146 7 264 7 112 7 75 
8 -29 7 -75 7 -76 8 -90 7 -23 7 -38 7 -63 8 -2 
7 -34 7 56 7 56 8 107 7 71 7 -11 8 -73 7 -43 
7 -80 7 -123 8 -31 7 95 7 17 7 -103 8 -79 7 -24 
7 -10 8 -25 7 14 1354 2580 300 MP stroke
7 43 7 34 8 76 7 230 7 94 7 94 8 0 7 -239 
7 -369 8 -364 7 -292 7 -211 7 -142 8 -91 7 -58 7 -34 
7 -21 8 -13 7 -7 7 -5 8 -2 7 -2 7 -1 7 -1 
8 0 7 0 7 0 1158 3861 28 MP stroke
/c9 { 0.000000 0.500000 0.000000 sr} bdef
c9
7 -39 8 68 7 -23 7 -28 7 -83 8 -26 7 -17 7 33 
8 25 7 -8 7 -59 7 -109 8 -76 7 1 7 0 7 -34 
8 -75 7 -70 7 -49 8 -27 7 -57 7 -31 7 50 8 83 
7 55 7 61 7 -6 8 -65 7 -54 7 25 8 101 7 56 
7 34 7 61 8 84 7 -61 7 -46 7 40 8 16 7 -35 
7 -98 8 -55 7 5 7 71 7 92 8 53 7 -18 7 -12 
7 -51 8 -20 7 -76 7 -88 8 -5 7 7 7 -10 7 -47 
8 30 7 38 7 -8 7 -4 8 5 7 26 7 126 8 61 
7 -47 7 -42 7 -39 8 -12 7 11 7 -3 7 14 8 -20 
7 -31 7 -63 8 -25 7 48 7 76 7 7 8 -31 7 -47 
7 -80 8 22 7 76 7 108 7 91 8 83 7 78 7 85 
7 -1 8 48 7 -11 7 -50 8 -105 7 -103 7 -61 7 32 
8 54 7 -62 7 -46 7 0 8 -39 7 40 7 175 8 199 
7 53 7 -65 7 -42 8 -64 7 3 7 66 7 20 8 -39 
7 -65 7 -40 8 -78 7 -30 7 61 7 12 8 -80 7 -58 
7 5 7 -100 8 -116 7 38 7 109 8 85 7 52 7 13 
7 -11 8 -37 7 -35 7 -62 7 -33 8 6 7 28 7 2 
8 27 7 61 7 -37 7 -100 8 63 7 109 7 58 8 -54 
7 -74 7 -32 7 -59 8 -49 7 -21 7 11 7 30 8 83 
7 41 7 -10 8 69 7 148 7 113 7 5 8 -42 7 50 
7 201 7 -20 8 -87 7 -29 7 -101 8 -139 7 -120 7 -18 
7 -54 8 -76 7 -53 7 129 7 174 8 52 7 60 7 41 
8 -102 7 -153 7 -108 7 -100 8 -108 7 -39 7 19 7 -34 
8 -10 7 26 7 36 8 85 7 29 7 4 7 -31 8 -30 
7 4 7 26 7 -18 8 2 7 10 7 -6 8 27 7 16 
7 -62 7 -45 8 -25 7 26 7 24 7 -55 8 -48 7 1 
7 -33 8 -95 7 -39 7 84 7 75 8 76 7 180 7 161 
8 54 7 99 7 70 7 36 8 14 7 21 7 64 7 -28 
8 -19 7 -35 7 58 8 66 7 -20 7 -10 7 -7 8 -26 
7 76 7 106 7 -27 8 -62 7 4 7 6 8 -81 7 -124 
7 -32 7 29 8 -109 7 -100 7 37 7 42 8 -26 7 -44 
7 -22 8 58 7 73 7 61 7 -33 8 -11 7 123 7 76 
7 145 8 128 7 81 7 76 8 22 7 -89 7 -102 7 -73 
8 -30 7 92 7 -8 7 -95 8 20 7 43 7 44 8 -6 
7 -53 7 -32 7 -29 8 -13 7 -23 7 24 7 25 8 22 
7 -53 7 -103 8 -110 7 -146 7 -132 7 -70 8 8 7 86 
7 93 8 169 7 298 7 81 7 -83 8 -72 7 -22 7 -52 
7 -1 8 -2 7 -73 5704 1801 300 MP stroke
7 -88 8 -25 7 -32 7 -25 7 -53 8 -72 7 -107 7 -12 
7 -2 8 -23 7 -41 7 11 8 58 7 120 7 210 7 159 
8 -115 7 -83 7 -7 7 3 8 14 7 -77 7 -141 8 -138 
7 -89 7 -15 7 16 8 56 7 89 7 67 7 27 8 76 
7 -52 7 -17 8 41 7 91 7 71 7 -95 8 -74 7 0 
7 -8 7 -64 8 -46 7 110 7 80 8 8 7 -38 7 -43 
7 -57 8 -53 7 -38 7 -11 7 -17 8 50 7 59 7 47 
8 40 7 23 7 6 7 -52 8 -79 7 -102 7 -69 8 -3 
7 69 7 81 7 94 8 -17 7 -113 7 -59 7 -6 8 18 
7 45 7 -19 8 -53 7 87 7 65 7 49 8 117 7 243 
7 122 7 -57 8 -68 7 0 7 -40 8 -77 7 -77 7 -79 
7 -41 8 -8 7 39 7 -1 7 -63 8 -54 7 55 7 59 
8 55 7 -4 7 -34 7 51 8 27 7 -8 7 22 7 2 
8 -17 7 -34 7 -5 8 22 7 129 7 261 7 198 8 -28 
7 -118 7 -115 7 -179 8 -52 7 -38 7 -71 8 -20 7 -40 
7 -65 7 29 8 33 7 41 7 71 7 -31 8 -51 7 -26 
7 -35 8 18 7 -50 7 -86 7 -29 8 3 7 56 7 69 
8 85 7 153 7 -6 7 -49 8 -29 7 -22 7 -5 7 27 
8 75 7 -12 7 -106 8 -87 7 -105 7 -74 7 -64 8 -104 
7 -68 7 -14 7 87 8 108 7 64 7 126 8 66 7 -47 
7 -82 7 -118 8 -78 7 -113 7 -81 7 -25 8 -41 7 -2 
7 39 8 -14 7 8 7 -9 7 9 8 28 7 -47 7 -42 
7 20 8 -1 7 -6 7 3 8 -5 7 -1 7 18 7 70 
8 73 7 115 7 4 7 -30 8 -31 7 -8 7 33 8 67 
7 53 7 48 7 63 8 78 7 150 7 115 7 -100 8 -145 
7 -144 7 -73 8 17 7 16 7 18 7 10 8 -81 7 -30 
7 20 8 1 7 -43 7 33 7 95 8 -14 7 -45 7 135 
7 120 8 -51 7 -69 7 49 8 136 7 32 7 5 7 10 
8 -48 7 -69 7 -26 7 -20 8 -21 7 -23 7 6 8 -19 
7 -35 7 -43 7 3 8 102 7 133 7 33 7 29 8 -29 
7 -71 7 -47 8 48 7 62 7 68 7 37 8 54 7 -5 
7 -3 7 52 8 46 7 23 7 39 8 -5 7 -54 7 -61 
7 -54 8 -26 7 -37 7 -65 7 -76 8 -13 7 80 7 56 
8 -6 7 -25 7 -30 7 -23 8 22 7 72 7 46 8 -8 
7 -93 7 -132 7 -106 8 -90 7 -29 7 20 7 49 8 8 
7 66 7 82 8 28 7 20 7 -6 7 -51 8 22 7 6 
7 -37 7 -4 8 -2 7 36 7 59 8 31 7 -2 7 38 
7 72 8 18 7 16 3529 1821 300 MP stroke
7 74 7 151 8 102 7 20 7 -7 8 -27 7 -65 7 -36 
7 -14 8 -17 7 -113 7 -40 7 -12 8 -120 7 -65 7 1 
8 25 7 53 7 32 7 25 8 -91 7 -77 7 24 7 1 
8 -116 7 -97 7 -26 8 -9 7 -59 7 -70 7 -68 8 -12 
7 88 7 167 7 132 8 39 7 12 7 25 8 -47 7 45 
7 89 7 -59 8 -154 7 -121 7 -44 8 -51 7 -65 7 29 
7 59 8 -2 7 3 7 -7 7 -4 8 -8 7 28 7 119 
8 156 7 155 7 216 7 60 8 -18 7 -6 7 -80 7 -55 
8 -18 7 -44 7 73 8 118 7 -2 7 -45 7 -93 8 -96 
7 -69 7 -102 7 -90 8 -13 7 -51 7 -6 8 68 7 -45 
7 -41 7 48 8 34 7 -14 7 -5 7 -55 8 -78 7 -30 
7 22 8 -46 7 21 7 116 7 96 8 -2 7 -4 7 25 
7 80 8 70 7 -34 7 -21 8 -81 7 -80 7 149 7 9 
8 -150 7 -139 7 -116 7 -50 8 14 7 -14 7 -5 8 18 
7 15 7 26 7 28 8 24 7 19 7 113 8 150 7 20 
7 46 7 65 8 -11 7 -60 7 -30 7 36 8 13 7 -56 
7 -35 8 58 7 38 7 -85 7 -81 8 -86 7 -59 7 4 
7 40 8 33 7 92 7 28 8 10 7 -35 7 8 7 3 
8 116 7 122 7 -103 7 -85 8 -44 7 -86 7 -44 8 21 
7 0 7 2 7 11 8 17 7 12 7 -7 7 -19 8 -64 
7 -40 7 19 8 -3 7 -67 7 19 7 142 8 -20 7 -104 
7 -101 7 -44 8 -21 7 -16 7 7 8 50 7 -9 7 -48 
7 4 8 -6 7 -16 7 5 7 89 8 41 7 -29 7 63 
8 48 7 6 7 25 7 12 8 99 7 153 7 148 8 80 
7 -93 7 -82 7 71 8 121 7 127 7 24 7 -76 8 -20 
7 14 7 14 8 -33 7 -82 7 -99 7 -160 8 -101 7 26 
7 -54 7 -108 8 -34 7 -66 7 60 8 91 7 -2 7 13 
7 148 8 178 7 52 7 73 7 96 8 70 7 0 7 25 
8 89 7 32 7 -77 7 -88 8 -54 7 -24 7 13 7 16 
8 39 7 -67 7 -125 8 -58 7 -52 7 -52 7 0 8 41 
7 53 7 -7 7 -20 8 -49 7 -36 7 -61 8 71 7 89 
7 -128 7 -23 8 117 7 6 7 -41 7 77 8 96 7 87 
7 -31 8 -134 7 -145 7 -127 7 -99 8 -115 7 -49 7 -11 
8 -50 7 -69 7 -64 7 26 8 43 7 -42 7 -28 7 -14 
8 -42 7 -10 7 29 8 43 7 61 7 59 7 37 8 154 
7 251 7 -9 7 -64 8 -19 7 -35 7 -97 8 -65 7 48 
7 20 7 -68 8 -132 7 -122 7 -54 7 -3 8 37 7 -52 
7 -10 8 116 7 64 1354 2480 300 MP stroke
7 52 7 26 8 125 7 133 7 45 7 75 8 -68 7 -263 
7 -361 8 -339 7 -268 7 -193 7 -129 8 -84 7 -52 7 -32 
7 -19 8 -12 7 -7 7 -4 8 -3 7 -1 7 -1 7 -1 
8 0 7 0 7 0 1158 3861 28 MP stroke
6 w
/c10 { 1.000000 0.000000 0.000000 sr} bdef
c10
7 -78 8 -119 7 -131 7 -99 7 -62 8 -67 7 -24 7 44 
8 100 7 20 7 -47 7 23 8 130 7 109 7 24 7 114 
8 -7 7 7 7 -42 8 -14 7 176 7 226 7 -30 8 62 
7 103 7 -63 7 46 8 36 7 2 7 114 8 -91 7 -100 
7 77 7 -58 8 -8 7 10 7 3 7 25 8 -75 7 -136 
7 -172 8 -128 7 -179 7 -112 7 -25 8 16 7 1 7 -2 
7 -53 8 49 7 145 7 142 8 139 7 64 7 19 7 -106 
8 -105 7 -87 7 -101 7 -75 8 -54 7 -12 7 -2 8 41 
7 103 7 96 7 70 8 -53 7 -128 7 -123 7 49 8 100 
7 -80 7 -135 8 -74 7 -30 7 -37 7 -30 8 -47 7 3 
7 165 8 73 7 -90 7 -75 7 -54 8 30 7 92 7 149 
7 110 8 -30 7 -47 7 -46 8 -24 7 19 7 -35 7 -102 
8 -44 7 144 7 11 7 -106 8 -73 7 -95 7 9 8 100 
7 36 7 94 7 191 8 105 7 -78 7 -131 7 -48 8 0 
7 31 7 18 8 65 7 -28 7 -35 7 -38 8 -64 7 -24 
7 -11 7 19 8 22 7 115 7 132 8 -15 7 -9 7 -43 
7 75 8 117 7 69 7 166 7 130 8 34 7 15 7 -35 
8 -56 7 -66 7 -39 7 -27 8 -46 7 -49 7 -47 8 -71 
7 -126 7 -171 7 -99 8 -50 7 -42 7 8 7 41 8 -54 
7 -98 7 -59 8 2 7 60 7 110 7 78 8 -32 7 81 
7 179 7 101 8 -3 7 116 7 166 8 57 7 0 7 -173 
7 -197 8 -102 7 -53 7 -19 7 -111 8 -77 7 15 7 23 
8 -41 7 -47 7 14 7 -21 8 -58 7 -22 7 -20 7 -15 
8 15 7 53 7 38 8 51 7 29 7 21 7 26 8 28 
7 9 7 176 7 84 8 -43 7 -70 7 -43 8 -79 7 -69 
7 -53 7 23 8 63 7 106 7 163 7 58 8 32 7 46 
7 -9 8 -17 7 -15 7 -18 7 -34 8 -16 7 -13 7 -64 
8 -69 7 -15 7 -31 7 -52 8 -36 7 -8 7 -7 7 39 
8 67 7 -14 7 -40 8 -58 7 -59 7 -48 7 26 8 26 
7 -8 7 73 7 6 8 69 7 83 7 -11 8 -46 7 -70 
7 -48 7 17 8 -3 7 -11 7 8 7 10 8 27 7 5 
7 18 8 48 7 12 7 37 7 34 8 -26 7 -39 7 -80 
7 -126 8 -67 7 -32 7 30 8 67 7 38 7 131 7 173 
8 90 7 -26 7 11 7 10 8 27 7 -14 7 -18 8 9 
7 -10 7 -74 7 -96 8 -113 7 -35 7 66 7 192 8 109 
7 -14 7 -42 8 31 7 24 7 39 7 26 8 -32 7 -85 
7 -104 8 -66 7 54 7 37 7 -81 8 -108 7 -51 7 -44 
7 -17 8 -12 7 38 5704 2100 300 MP stroke
7 -5 8 -60 7 -29 7 37 7 81 8 25 7 -12 7 48 
7 108 8 108 7 31 7 65 8 48 7 8 7 -54 7 87 
8 80 7 -77 7 -63 7 -66 8 -54 7 -76 7 5 8 80 
7 -4 7 41 7 101 8 -69 7 -126 7 -12 7 16 8 -33 
7 62 7 132 8 150 7 80 7 88 7 115 8 99 7 70 
7 -122 7 -145 8 -93 7 -46 7 24 8 115 7 96 7 -61 
7 -128 8 -27 7 80 7 -19 7 -91 8 -175 7 -163 7 -86 
8 -52 7 26 7 59 7 -37 8 -10 7 32 7 36 8 -14 
7 50 7 121 7 105 8 75 7 51 7 -20 7 -26 8 3 
7 15 7 5 8 -101 7 -104 7 60 7 83 8 -54 7 -70 
7 -68 7 30 8 -66 7 -93 7 -17 8 -39 7 84 7 218 
7 -20 8 -126 7 -130 7 -91 7 27 8 4 7 -109 7 -65 
8 -42 7 41 7 81 7 -26 8 62 7 141 7 42 7 336 
8 117 7 -66 7 45 8 -21 7 -151 7 -9 7 88 8 69 
7 -29 7 -59 7 40 8 76 7 -50 7 -65 8 -43 7 71 
7 57 7 27 8 29 7 -30 7 -16 7 -112 8 -94 7 -121 
7 -50 8 -25 7 -30 7 -42 7 3 8 22 7 100 7 171 
8 161 7 86 7 -73 7 0 8 -30 7 -48 7 -111 7 -94 
8 -18 7 64 7 -55 8 -74 7 11 7 -5 7 -54 8 -57 
7 -74 7 -79 7 -94 8 -13 7 59 7 34 8 98 7 28 
7 -12 7 65 8 42 7 84 7 73 7 -33 8 49 7 -5 
7 99 8 183 7 25 7 256 7 151 8 -28 7 -107 7 -78 
7 -47 8 -118 7 -167 7 -42 8 101 7 114 7 86 7 -2 
8 -85 7 -18 7 -82 7 -147 8 -133 7 -93 7 -13 8 -1 
7 7 7 25 7 -21 8 -61 7 10 7 -52 7 -138 8 -150 
7 -79 7 34 8 53 7 51 7 84 7 110 8 95 7 76 
7 -62 8 -85 7 -127 7 -48 7 12 8 -82 7 -68 7 -23 
7 31 8 51 7 -13 7 -58 8 -1 7 76 7 63 7 -20 
8 -41 7 -45 7 7 7 6 8 -33 7 -15 7 -4 8 32 
7 95 7 26 7 54 8 57 7 -41 7 -118 7 -86 8 -15 
7 59 7 29 8 -6 7 94 7 175 7 146 8 -81 7 -105 
7 -34 7 -27 8 24 7 -96 7 -67 8 56 7 21 7 18 
7 36 8 59 7 61 7 105 7 80 8 79 7 71 7 -35 
8 -40 7 -24 7 -18 7 13 8 14 7 -20 7 2 8 -41 
7 -60 7 14 7 33 8 14 7 47 7 156 7 154 8 40 
7 59 7 21 8 -104 7 -89 7 -19 7 -3 8 -58 7 -72 
7 37 7 -23 8 -37 7 59 7 117 8 73 7 167 7 92 
7 -53 8 -137 7 -178 3529 1461 300 MP stroke
7 -173 7 -74 8 -77 7 -75 7 -46 8 21 7 115 7 88 
7 -20 8 -30 7 10 7 77 7 119 8 29 7 -33 7 84 
8 119 7 -19 7 -31 7 -6 8 -31 7 -92 7 -128 7 -56 
8 -31 7 -68 7 -9 8 56 7 69 7 -26 7 -60 8 -50 
7 -65 7 -3 7 23 8 88 7 94 7 200 8 96 7 -95 
7 -157 7 -146 8 -147 7 -71 7 77 8 42 7 6 7 65 
7 16 8 41 7 88 7 99 7 -11 8 -84 7 -63 7 -78 
8 20 7 92 7 10 7 -34 8 1 7 -53 7 -41 7 94 
8 113 7 95 7 54 8 -31 7 -45 7 -79 7 -77 8 -47 
7 -14 7 34 7 -41 8 -12 7 20 7 24 8 -34 7 -93 
7 -63 7 -41 8 -82 7 -45 7 -34 7 -24 8 47 7 42 
7 3 8 58 7 45 7 41 7 18 8 72 7 70 7 0 
7 -65 8 -77 7 19 7 12 8 -18 7 27 7 101 7 42 
8 -2 7 47 7 -125 7 -119 8 -12 7 55 7 83 8 44 
7 66 7 54 7 -105 8 -146 7 -106 7 -80 8 -103 7 -96 
7 -35 7 3 8 -14 7 -27 7 -48 7 -58 8 29 7 55 
7 66 8 75 7 87 7 68 7 50 8 23 7 75 7 66 
7 57 8 -20 7 -106 7 -136 8 -91 7 -51 7 -49 7 -6 
8 -33 7 -1 7 63 7 42 8 -3 7 -5 7 -24 8 88 
7 218 7 75 7 -63 8 52 7 29 7 -68 7 -68 8 -90 
7 14 7 61 8 58 7 69 7 159 7 147 8 135 7 106 
7 28 7 -37 8 -142 7 -94 7 -49 8 -121 7 -181 7 -140 
7 -96 8 -44 7 -24 7 152 7 137 8 31 7 -21 7 -130 
8 -130 7 -5 7 129 7 -9 8 -78 7 -49 7 -36 8 -42 
7 -12 7 27 7 15 8 35 7 121 7 85 7 14 8 -29 
7 -127 7 -144 8 -71 7 1 7 12 7 3 8 -1 7 31 
7 63 7 52 8 32 7 -44 7 -126 8 -81 7 62 7 32 
7 82 8 38 7 -69 7 -89 7 -52 8 18 7 91 7 69 
8 -12 7 -65 7 7 7 156 8 62 7 -57 7 -48 7 -9 
8 52 7 355 7 189 8 20 7 -53 7 -136 7 -142 8 -48 
7 19 7 -47 7 35 8 58 7 -9 7 -87 8 -45 7 5 
7 -49 7 63 8 147 7 286 7 238 7 197 8 223 7 232 
7 120 8 -95 7 -62 7 -29 7 -192 8 -141 7 -91 7 -109 
8 -129 7 -56 7 -110 7 -199 8 -162 7 -90 7 -127 7 -124 
8 -69 7 66 7 77 8 51 7 -8 7 -45 7 -50 8 -61 
7 -159 7 -99 7 33 8 145 7 112 7 101 8 -51 7 -111 
7 -96 7 -18 8 24 7 133 7 104 7 13 8 -83 7 -112 
7 -48 8 13 7 63 1354 2308 300 MP stroke
7 90 7 247 8 160 7 -226 7 -263 7 -140 8 23 7 71 
7 -28 8 -202 7 -231 7 -224 7 -212 8 -179 7 -137 7 -98 
7 -69 8 -45 7 -31 7 -20 8 -12 7 -8 7 -6 7 -4 
8 -3 7 -3 7 -1 1158 3859 28 MP stroke
/c11 { 0.000000 0.750000 0.750000 sr} bdef
c11
7 -17 8 -29 7 85 7 44 7 -1 8 -107 7 -90 7 -55 
8 -3 7 78 7 29 7 -32 8 54 7 204 7 117 7 39 
8 32 7 -50 7 -74 8 69 7 144 7 124 7 179 8 33 
7 -151 7 -151 7 -98 8 18 7 93 7 -10 8 17 7 -58 
7 -43 7 -35 8 -49 7 7 7 10 7 -1 8 -23 7 -54 
7 -23 8 -49 7 47 7 33 7 6 8 21 7 23 7 100 
7 74 8 48 7 32 7 70 8 16 7 -50 7 -72 7 -58 
8 -84 7 -61 7 -26 7 -52 8 -110 7 -90 7 -83 8 -87 
7 16 7 91 7 31 8 -20 7 -64 7 -24 7 -20 8 24 
7 67 7 -35 8 19 7 100 7 96 7 19 8 -42 7 8 
7 -21 8 -8 7 62 7 11 7 25 8 6 7 13 7 48 
7 119 8 15 7 10 7 2 8 -148 7 -79 7 -2 7 83 
8 150 7 57 7 132 7 86 8 -56 7 -85 7 -40 8 22 
7 66 7 58 7 -16 8 111 7 138 7 109 7 15 8 137 
7 21 7 -44 8 54 7 -114 7 -157 7 -78 8 -135 7 -153 
7 -96 7 -71 8 12 7 -56 7 -61 8 -88 7 -144 7 -89 
7 -24 8 101 7 107 7 -24 7 -42 8 19 7 56 7 15 
8 50 7 93 7 -41 7 32 8 88 7 63 7 12 8 80 
7 105 7 -59 7 -136 8 -37 7 55 7 32 7 -59 8 -46 
7 28 7 101 8 -31 7 -62 7 -3 7 -18 8 -39 7 -78 
7 -45 7 89 8 174 7 -15 7 127 8 164 7 6 7 10 
7 77 8 -55 7 -48 7 -67 7 -153 8 -72 7 -89 7 -112 
8 -73 7 -65 7 -85 7 -24 8 153 7 117 7 171 7 170 
8 132 7 129 7 -44 8 -70 7 11 7 -42 7 -88 8 -86 
7 -168 7 -74 7 -7 8 -90 7 -64 7 -18 8 6 7 41 
7 53 7 61 8 -13 7 -33 7 14 7 -6 8 -42 7 0 
7 -59 8 -51 7 37 7 11 7 71 8 21 7 -40 7 -59 
8 13 7 155 7 104 7 92 8 158 7 -24 7 -49 7 -59 
8 -178 7 -155 7 -81 8 -21 7 59 7 78 7 22 8 -12 
7 -17 7 -47 7 -29 8 -91 7 -78 7 12 8 5 7 -26 
7 39 7 51 8 36 7 -48 7 26 7 67 8 -20 7 102 
7 59 8 90 7 68 7 -1 7 44 8 -22 7 -15 7 71 
7 58 8 0 7 -44 7 6 8 -46 7 -52 7 -34 7 -11 
8 -51 7 -34 7 47 7 6 8 -41 7 -63 7 -56 8 -52 
7 -23 7 18 7 127 8 136 7 70 7 57 7 8 8 -8 
7 -4 7 -74 8 -40 7 -32 7 -11 7 97 8 71 7 129 
7 50 8 -210 7 -9 7 181 7 198 8 37 7 -136 7 -151 
7 -159 8 -164 7 -112 5704 1936 300 MP stroke
7 72 8 52 7 -10 7 -30 7 38 8 -53 7 99 7 64 
7 -127 8 107 7 158 7 -2 8 -85 7 -53 7 -49 7 -43 
8 -54 7 -81 7 -89 7 -34 8 98 7 102 7 60 8 27 
7 -55 7 86 7 -44 8 4 7 -78 7 -81 7 -15 8 -18 
7 6 7 86 8 10 7 -32 7 8 7 17 8 83 7 84 
7 126 7 144 8 12 7 -93 7 -75 8 29 7 142 7 11 
7 81 8 37 7 75 7 120 7 98 8 112 7 17 7 8 
8 -54 7 -80 7 -114 7 -136 8 -49 7 -51 7 -102 8 -197 
7 -140 7 -59 7 -56 8 -93 7 -81 7 -31 7 54 8 30 
7 -57 7 55 8 147 7 13 7 7 7 55 8 123 7 139 
7 31 7 -112 8 -113 7 -90 7 -168 8 -159 7 -24 7 53 
7 111 8 18 7 -81 7 -15 7 27 8 5 7 201 7 89 
8 -27 7 -71 7 -79 7 -40 8 -35 7 -11 7 80 7 134 
8 126 7 116 7 -89 8 -210 7 -108 7 69 7 45 8 -20 
7 90 7 63 7 1 8 -131 7 -89 7 53 8 2 7 -83 
7 -5 7 70 8 50 7 -28 7 27 7 68 8 57 7 23 
7 1 8 50 7 5 7 7 7 94 8 70 7 53 7 23 
8 -32 7 8 7 -27 7 -42 8 -38 7 12 7 -2 7 -2 
8 1 7 -93 7 -142 8 6 7 116 7 163 7 5 8 -53 
7 -17 7 35 7 -2 8 -1 7 71 7 -88 8 -193 7 -81 
7 62 7 25 8 -81 7 -60 7 -85 7 -83 8 0 7 65 
7 44 8 1 7 13 7 -45 7 -121 8 -136 7 -80 7 -52 
7 6 8 8 7 -24 7 70 8 104 7 89 7 159 7 178 
8 -45 7 32 7 41 7 11 8 -12 7 -104 7 -86 8 -79 
7 -2 7 97 7 214 8 45 7 -116 7 -76 7 -29 8 -35 
7 -45 7 -28 8 0 7 -29 7 55 7 96 8 -28 7 -81 
7 -14 8 16 7 8 7 34 7 26 8 86 7 -32 7 -41 
7 -77 8 -116 7 -82 7 -12 8 78 7 1 7 -66 7 53 
8 104 7 77 7 90 7 105 8 98 7 96 7 33 8 -6 
7 19 7 -49 7 -107 8 -73 7 36 7 55 7 82 8 87 
7 100 7 324 8 259 7 33 7 -62 7 -41 8 -71 7 -120 
7 -77 7 -115 8 -140 7 -183 7 -104 8 -4 7 -73 7 -150 
7 -101 8 -82 7 -68 7 -20 7 9 8 -10 7 18 7 89 
8 17 7 -15 7 -43 7 -2 8 -54 7 5 7 68 8 2 
7 84 7 43 7 -27 8 -47 7 -84 7 -19 7 122 8 212 
7 98 7 -68 8 -165 7 -90 7 -17 7 12 8 237 7 88 
7 -125 7 -72 8 -13 7 17 7 -12 8 46 7 -56 7 -69 
7 26 8 43 7 -68 3529 1966 300 MP stroke
7 -76 7 -120 8 4 7 66 7 88 8 75 7 17 7 -113 
7 -57 8 -5 7 17 7 30 7 -14 8 -56 7 -84 7 -26 
8 1 7 -6 7 -21 7 117 8 187 7 83 7 32 7 -1 
8 -93 7 -10 7 22 8 -39 7 -33 7 -50 7 -88 8 -81 
7 -39 7 10 7 115 8 171 7 135 7 192 8 17 7 -25 
7 -89 7 -154 8 -79 7 -8 7 -19 8 10 7 35 7 56 
7 -54 8 -67 7 -4 7 71 7 13 8 -56 7 -18 7 -43 
8 -50 7 2 7 11 7 -9 8 4 7 11 7 51 7 37 
8 -17 7 -21 7 58 8 73 7 63 7 -91 7 -25 8 93 
7 -6 7 -46 7 -59 8 -47 7 -33 7 -17 8 -92 7 -25 
7 141 7 37 8 39 7 78 7 8 7 46 8 29 7 -4 
7 -85 8 -162 7 -60 7 84 7 79 8 33 7 3 7 48 
7 62 8 64 7 21 7 -42 8 -92 7 -71 7 -8 7 -10 
8 9 7 3 7 -31 7 -67 8 -64 7 68 7 100 8 139 
7 178 7 55 7 -25 8 -17 7 -60 7 -95 8 -65 7 -110 
7 -113 7 -97 8 -134 7 -67 7 39 7 61 8 186 7 77 
7 -24 8 -15 7 -11 7 -51 7 -59 8 -13 7 -50 7 -70 
7 -29 8 -24 7 6 7 58 8 117 7 46 7 -42 7 -15 
8 41 7 30 7 -12 7 7 8 -25 7 -25 7 -22 8 -34 
7 -15 7 18 7 51 8 -14 7 -32 7 -32 7 -42 8 -1 
7 69 7 65 8 18 7 41 7 96 7 242 8 195 7 102 
7 -15 7 -112 8 -8 7 59 7 -25 8 -60 7 -47 7 38 
7 -3 8 -64 7 -55 7 78 7 173 8 -15 7 -61 7 27 
8 15 7 52 7 -42 7 -117 8 -108 7 -70 7 -7 8 10 
7 32 7 1 7 -20 8 -29 7 -52 7 -81 7 -120 8 -119 
7 22 7 70 8 -17 7 -19 7 -34 7 -85 8 -44 7 78 
7 67 7 36 8 115 7 66 7 12 8 120 7 57 7 -42 
7 -17 8 24 7 -60 7 -125 7 -70 8 -53 7 -63 7 8 
8 11 7 -30 7 -51 7 77 8 176 7 -28 7 -67 7 41 
8 -36 7 7 7 -1 8 -64 7 -16 7 -17 7 50 8 118 
7 74 7 51 7 44 8 -35 7 -56 7 -24 8 -37 7 -70 
7 -2 7 87 8 101 7 141 7 155 7 126 8 83 7 -49 
7 -134 8 -52 7 -83 7 -121 7 34 8 -1 7 -76 7 -32 
8 168 7 180 7 113 7 -84 8 -77 7 -134 7 -180 7 -189 
8 -138 7 -97 7 -47 8 3 7 -2 7 117 7 88 8 63 
7 44 7 163 7 202 8 39 7 -58 7 -110 8 -94 7 4 
7 85 7 82 8 -20 7 -145 7 -130 7 -93 8 -139 7 -116 
7 -58 8 59 7 74 1354 2244 300 MP stroke
7 123 7 -8 8 -131 7 -167 7 -76 7 18 8 -6 7 -16 
7 -89 8 -144 7 -173 7 -190 7 -187 8 -159 7 -124 7 -92 
7 -65 8 -43 7 -29 7 -19 8 -13 7 -8 7 -6 7 -4 
8 -2 7 -3 7 0 1158 3857 28 MP stroke
gr

c11
0 sg
4388 4137 mt 
(t \(c) s
%%IncludeResource: font Helvetica
/Helvetica /ISOLatin1Encoding 96 FMSR

4571 4203 mt 
(s) s
%%IncludeResource: font Helvetica
/Helvetica /ISOLatin1Encoding 132 FMSR

4619 4137 mt 
(/a\)) s
%%IncludeResource: font Symbol
/Symbol /ISOLatin1Encoding 132 FMSR

 901 2300 mt  -90 rotate
(c) s
90 rotate
%%IncludeResource: font Helvetica
/Helvetica /ISOLatin1Encoding 96 FMSR

 967 2228 mt  -90 rotate
(i) s
90 rotate
%%IncludeResource: font Helvetica
/Helvetica /ISOLatin1Encoding 132 FMSR

 901 2207 mt  -90 rotate
( / ) s
90 rotate
%%IncludeResource: font Symbol
/Symbol /ISOLatin1Encoding 132 FMSR

 901 2097 mt  -90 rotate
(c) s
90 rotate
%%IncludeResource: font Helvetica
/Helvetica /ISOLatin1Encoding 96 FMSR

 967 2025 mt  -90 rotate
(GB) s
90 rotate
%%IncludeResource: font Helvetica
/Helvetica /ISOLatin1Encoding 132 FMSR

2568  222 mt 
(GKW non-spectral adiabatic electrostatic benchmark: GA-STD \
case) s
1493 3403 mt 
(Averages taken from t = 200) s
1493 3050 mt 
(nmod = 21, ns = 16, lx = 85) s
1493 3226 mt 
(ly = 89, nvpar = 16, nmu = 8) s
%%IncludeResource: font Helvetica
/Helvetica /ISOLatin1Encoding 120 FMSR

1134 3905 mt 
( ) s
7993  367 mt 
( ) s
1 sg
0 796 2693 0 0 -796 5232 3689 4 MP
PP
-2693 0 0 796 2693 0 0 -796 5232 3689 5 MP stroke
4 w
DO
SO
6 w
0 sg
5232 3689 mt 7925 3689 L
5232 2893 mt 7925 2893 L
5232 3689 mt 5232 2893 L
7925 3689 mt 7925 2893 L
5232 3689 mt 7925 3689 L
5232 3689 mt 5232 2893 L
5232 3689 mt 7925 3689 L
5232 2893 mt 7925 2893 L
5232 3689 mt 5232 2893 L
7925 3689 mt 7925 2893 L
%%IncludeResource: font Helvetica
/Helvetica /ISOLatin1Encoding 132 FMSR

5719 3056 mt 
(nx=320, non-spectral: 3.44 ) s
%%IncludeResource: font Symbol
/Symbol /ISOLatin1Encoding 132 FMSR

7347 3056 mt 
(\261) s
%%IncludeResource: font Helvetica
/Helvetica /ISOLatin1Encoding 132 FMSR

7419 3056 mt 
( 0.46) s
gs 5232 2893 2694 797 rc
12 w
c8
375 0 5306 3008 2 MP stroke
gr

12 w
c8
0 sg
5719 3245 mt 
(nx=160, non-spectral: 3.51 ) s
%%IncludeResource: font Symbol
/Symbol /ISOLatin1Encoding 132 FMSR

7347 3245 mt 
(\261) s
%%IncludeResource: font Helvetica
/Helvetica /ISOLatin1Encoding 132 FMSR

7419 3245 mt 
( 0.52) s
gs 5232 2893 2694 797 rc
c9
375 0 5306 3196 2 MP stroke
gr

c9
0 sg
5719 3434 mt 
(nx=83,   spectral:         4.01 ) s
%%IncludeResource: font Symbol
/Symbol /ISOLatin1Encoding 132 FMSR

7343 3434 mt 
(\261) s
%%IncludeResource: font Helvetica
/Helvetica /ISOLatin1Encoding 132 FMSR

7415 3434 mt 
( 0.58) s
gs 5232 2893 2694 797 rc
6 w
c10
375 0 5306 3385 2 MP stroke
gr

6 w
c10
0 sg
5719 3623 mt 
(nx=167, spectral:         4.01 ) s
%%IncludeResource: font Symbol
/Symbol /ISOLatin1Encoding 132 FMSR

7343 3623 mt 
(\261) s
%%IncludeResource: font Helvetica
/Helvetica /ISOLatin1Encoding 132 FMSR

7415 3623 mt 
( 0.54) s
gs 5232 2893 2694 797 rc
c11
375 0 5306 3573 2 MP stroke
gr

c11

end %%Color Dict

eplot
%%EndObject

epage
end

showpage

%%Trailer
%%EOF
