%!PS-Adobe-3.0 EPSF-3.0
%%Creator: MATLAB, The Mathworks, Inc.
%%Title: /home/fcasson/jcitrin/geom_bench_cs_wQLK.eps
%%CreationDate: 10/21/2014  16:01:28
%%DocumentNeededFonts: Helvetica
%%DocumentProcessColors: Cyan Magenta Yellow Black
%%LanguageLevel: 2
%%Pages: 1
%%BoundingBox:   110   259   483   582
%%EndComments

%%BeginProlog
% MathWorks dictionary
/MathWorks 160 dict begin
% definition operators
/bdef {bind def} bind def
/ldef {load def} bind def
/xdef {exch def} bdef
/xstore {exch store} bdef
% operator abbreviations
/c  /clip ldef
/cc /concat ldef
/cp /closepath ldef
/gr /grestore ldef
/gs /gsave ldef
/mt /moveto ldef
/np /newpath ldef
/cm /currentmatrix ldef
/sm /setmatrix ldef
/rm /rmoveto ldef
/rl /rlineto ldef
/s {show newpath} bdef
/sc {setcmykcolor} bdef
/sr /setrgbcolor ldef
/sg /setgray ldef
/w /setlinewidth ldef
/j /setlinejoin ldef
/cap /setlinecap ldef
/rc {rectclip} bdef
/rf {rectfill} bdef
% page state control
/pgsv () def
/bpage {/pgsv save def} bdef
/epage {pgsv restore} bdef
/bplot /gsave ldef
/eplot {stroke grestore} bdef
% orientation switch
/portraitMode 0 def /landscapeMode 1 def /rotateMode 2 def
% coordinate system mappings
/dpi2point 0 def
% font control
/FontSize 0 def
/FMS {/FontSize xstore findfont [FontSize 0 0 FontSize neg 0 0]
  makefont setfont} bdef
/reencode {exch dup where {pop load} {pop StandardEncoding} ifelse
  exch dup 3 1 roll findfont dup length dict begin
  { 1 index /FID ne {def}{pop pop} ifelse } forall
  /Encoding exch def currentdict end definefont pop} bdef
/isroman {findfont /CharStrings get /Agrave known} bdef
/FMSR {3 1 roll 1 index dup isroman {reencode} {pop pop} ifelse
  exch FMS} bdef
/csm {1 dpi2point div -1 dpi2point div scale neg translate
 dup landscapeMode eq {pop -90 rotate}
  {rotateMode eq {90 rotate} if} ifelse} bdef
% line types: solid, dotted, dashed, dotdash
/SO { [] 0 setdash } bdef
/DO { [.5 dpi2point mul 4 dpi2point mul] 0 setdash } bdef
/DA { [6 dpi2point mul] 0 setdash } bdef
/DD { [.5 dpi2point mul 4 dpi2point mul 6 dpi2point mul 4
  dpi2point mul] 0 setdash } bdef
% macros for lines and objects
/L {lineto stroke} bdef
/MP {3 1 roll moveto 1 sub {rlineto} repeat} bdef
/AP {{rlineto} repeat} bdef
/PDlw -1 def
/W {/PDlw currentlinewidth def setlinewidth} def
/PP {closepath eofill} bdef
/DP {closepath stroke} bdef
/MR {4 -2 roll moveto dup  0 exch rlineto exch 0 rlineto
  neg 0 exch rlineto closepath} bdef
/FR {MR stroke} bdef
/PR {MR fill} bdef
/L1i {{currentfile picstr readhexstring pop} image} bdef
/tMatrix matrix def
/MakeOval {newpath tMatrix currentmatrix pop translate scale
0 0 1 0 360 arc tMatrix setmatrix} bdef
/FO {MakeOval stroke} bdef
/PO {MakeOval fill} bdef
/PD {currentlinewidth 2 div 0 360 arc fill
   PDlw -1 eq not {PDlw w /PDlw -1 def} if} def
/FA {newpath tMatrix currentmatrix pop translate scale
  0 0 1 5 -2 roll arc tMatrix setmatrix stroke} bdef
/PA {newpath tMatrix currentmatrix pop	translate 0 0 moveto scale
  0 0 1 5 -2 roll arc closepath tMatrix setmatrix fill} bdef
/FAn {newpath tMatrix currentmatrix pop translate scale
  0 0 1 5 -2 roll arcn tMatrix setmatrix stroke} bdef
/PAn {newpath tMatrix currentmatrix pop translate 0 0 moveto scale
  0 0 1 5 -2 roll arcn closepath tMatrix setmatrix fill} bdef
/vradius 0 def /hradius 0 def /lry 0 def
/lrx 0 def /uly 0 def /ulx 0 def /rad 0 def
/MRR {/vradius xdef /hradius xdef /lry xdef /lrx xdef /uly xdef
  /ulx xdef newpath tMatrix currentmatrix pop ulx hradius add uly
  vradius add translate hradius vradius scale 0 0 1 180 270 arc 
  tMatrix setmatrix lrx hradius sub uly vradius add translate
  hradius vradius scale 0 0 1 270 360 arc tMatrix setmatrix
  lrx hradius sub lry vradius sub translate hradius vradius scale
  0 0 1 0 90 arc tMatrix setmatrix ulx hradius add lry vradius sub
  translate hradius vradius scale 0 0 1 90 180 arc tMatrix setmatrix
  closepath} bdef
/FRR {MRR stroke } bdef
/PRR {MRR fill } bdef
/MlrRR {/lry xdef /lrx xdef /uly xdef /ulx xdef /rad lry uly sub 2 div def
  newpath tMatrix currentmatrix pop ulx rad add uly rad add translate
  rad rad scale 0 0 1 90 270 arc tMatrix setmatrix lrx rad sub lry rad
  sub translate rad rad scale 0 0 1 270 90 arc tMatrix setmatrix
  closepath} bdef
/FlrRR {MlrRR stroke } bdef
/PlrRR {MlrRR fill } bdef
/MtbRR {/lry xdef /lrx xdef /uly xdef /ulx xdef /rad lrx ulx sub 2 div def
  newpath tMatrix currentmatrix pop ulx rad add uly rad add translate
  rad rad scale 0 0 1 180 360 arc tMatrix setmatrix lrx rad sub lry rad
  sub translate rad rad scale 0 0 1 0 180 arc tMatrix setmatrix
  closepath} bdef
/FtbRR {MtbRR stroke } bdef
/PtbRR {MtbRR fill } bdef
/stri 6 array def /dtri 6 array def
/smat 6 array def /dmat 6 array def
/tmat1 6 array def /tmat2 6 array def /dif 3 array def
/asub {/ind2 exch def /ind1 exch def dup dup
  ind1 get exch ind2 get sub exch } bdef
/tri_to_matrix {
  2 0 asub 3 1 asub 4 0 asub 5 1 asub
  dup 0 get exch 1 get 7 -1 roll astore } bdef
/compute_transform {
  dmat dtri tri_to_matrix tmat1 invertmatrix 
  smat stri tri_to_matrix tmat2 concatmatrix } bdef
/ds {stri astore pop} bdef
/dt {dtri astore pop} bdef
/db {2 copy /cols xdef /rows xdef mul dup 3 mul string
  currentfile 
  3 index 0 eq {/ASCIIHexDecode filter}
  {/ASCII85Decode filter 3 index 2 eq {/RunLengthDecode filter} if }
  ifelse exch readstring pop
  dup 0 3 index getinterval /rbmap xdef
  dup 2 index dup getinterval /gbmap xdef
  1 index dup 2 mul exch getinterval /bbmap xdef pop pop}bdef
/it {gs np dtri aload pop moveto lineto lineto cp c
  cols rows 8 compute_transform 
  rbmap gbmap bbmap true 3 colorimage gr}bdef
/il {newpath moveto lineto stroke}bdef
currentdict end def
%%EndProlog

%%BeginSetup
MathWorks begin

0 cap

end
%%EndSetup

%%Page: 1 1
%%BeginPageSetup
%%PageBoundingBox:   110   259   483   582
MathWorks begin
bpage
%%EndPageSetup

%%BeginObject: obj1
bplot

/dpi2point 12 def
portraitMode 1320 6984 csm

    0     0  4484  3870 rc
85 dict begin %Colortable dictionary
/c0 { 0.000000 0.000000 0.000000 sr} bdef
/c1 { 1.000000 1.000000 1.000000 sr} bdef
/c2 { 0.900000 0.000000 0.000000 sr} bdef
/c3 { 0.000000 0.820000 0.000000 sr} bdef
/c4 { 0.000000 0.000000 0.800000 sr} bdef
/c5 { 0.910000 0.820000 0.320000 sr} bdef
/c6 { 1.000000 0.260000 0.820000 sr} bdef
/c7 { 0.000000 0.820000 0.820000 sr} bdef
c0
1 j
1 sg
   0    0 4485 3871 rf
6 w
0 3154 3475 0 0 -3154 583 3444 4 MP
PP
-3475 0 0 3154 3475 0 0 -3154 583 3444 5 MP stroke
4 w
DO
SO
6 w
0 sg
 583 3444 mt 4058 3444 L
 583  290 mt 4058  290 L
 583 3444 mt  583  290 L
4058 3444 mt 4058  290 L
 583 3444 mt 4058 3444 L
 583 3444 mt  583  290 L
 583 3444 mt  583 3409 L
 583  290 mt  583  324 L
%%IncludeResource: font Helvetica
/Helvetica /ISOLatin1Encoding 120 FMSR

 500 3589 mt 
(0.1) s
1017 3444 mt 1017 3409 L
1017  290 mt 1017  324 L
 934 3589 mt 
(0.2) s
1451 3444 mt 1451 3409 L
1451  290 mt 1451  324 L
1368 3589 mt 
(0.3) s
1886 3444 mt 1886 3409 L
1886  290 mt 1886  324 L
1803 3589 mt 
(0.4) s
2320 3444 mt 2320 3409 L
2320  290 mt 2320  324 L
2237 3589 mt 
(0.5) s
2754 3444 mt 2754 3409 L
2754  290 mt 2754  324 L
2671 3589 mt 
(0.6) s
3189 3444 mt 3189 3409 L
3189  290 mt 3189  324 L
3106 3589 mt 
(0.7) s
3623 3444 mt 3623 3409 L
3623  290 mt 3623  324 L
3540 3589 mt 
(0.8) s
4058 3444 mt 4058 3409 L
4058  290 mt 4058  324 L
3975 3589 mt 
(0.9) s
 583 3444 mt  617 3444 L
4058 3444 mt 4023 3444 L
 482 3488 mt 
(0) s
 583 3049 mt  617 3049 L
4058 3049 mt 4023 3049 L
 315 3093 mt 
(0.05) s
 583 2655 mt  617 2655 L
4058 2655 mt 4023 2655 L
 382 2699 mt 
(0.1) s
 583 2261 mt  617 2261 L
4058 2261 mt 4023 2261 L
 315 2305 mt 
(0.15) s
 583 1867 mt  617 1867 L
4058 1867 mt 4023 1867 L
 382 1911 mt 
(0.2) s
 583 1472 mt  617 1472 L
4058 1472 mt 4023 1472 L
 315 1516 mt 
(0.25) s
 583 1078 mt  617 1078 L
4058 1078 mt 4023 1078 L
 382 1122 mt 
(0.3) s
 583  684 mt  617  684 L
4058  684 mt 4023  684 L
 315  728 mt 
(0.35) s
 583  290 mt  617  290 L
4058  290 mt 4023  290 L
 382  334 mt 
(0.4) s
 583 3444 mt 4058 3444 L
 583  290 mt 4058  290 L
 583 3444 mt  583  290 L
4058 3444 mt 4058  290 L
gs 583 290 3476 3155 rc
/c8 { 0.000000 0.000000 1.000000 sr} bdef
c8
254 442 434 656 435 553 434 343 434 54 435 -304 434 -624 434 -723 
583 3048 9 MP stroke
gr

c8
gs 510 1324 3441 2195 rc
 547 3048 mt  619 3048 L
 583 3012 mt  583 3084 L
 981 2325 mt 1053 2325 L
1017 2289 mt 1017 2361 L
1415 1701 mt 1487 1701 L
1451 1665 mt 1451 1737 L
1850 1397 mt 1922 1397 L
1886 1361 mt 1886 1433 L
2284 1451 mt 2356 1451 L
2320 1415 mt 2320 1487 L
2718 1794 mt 2790 1794 L
2754 1758 mt 2754 1830 L
3153 2347 mt 3225 2347 L
3189 2311 mt 3189 2383 L
3587 3003 mt 3659 3003 L
3623 2967 mt 3623 3039 L
gr

gs 583 290 3476 3155 rc
gr

0 sg
2204 3707 mt 
(k) s
%%IncludeResource: font Symbol
/Symbol /ISOLatin1Encoding 96 FMSR

2264 3767 mt 
(q) s
%%IncludeResource: font Helvetica
/Helvetica /ISOLatin1Encoding 120 FMSR

2314 3707 mt 
( ) s
%%IncludeResource: font Symbol
/Symbol /ISOLatin1Encoding 120 FMSR

2347 3707 mt 
(r) s
%%IncludeResource: font Helvetica
/Helvetica /ISOLatin1Encoding 96 FMSR

2412 3767 mt 
(i) s
%%IncludeResource: font Symbol
/Symbol /ISOLatin1Encoding 120 FMSR

 179 2062 mt  -90 rotate
(g) s
90 rotate
%%IncludeResource: font Helvetica
/Helvetica /ISOLatin1Encoding 120 FMSR

 179 2013 mt  -90 rotate
( \(R/c) s
90 rotate
%%IncludeResource: font Helvetica
/Helvetica /ISOLatin1Encoding 96 FMSR

 239 1760 mt  -90 rotate
(s) s
90 rotate
%%IncludeResource: font Helvetica
/Helvetica /ISOLatin1Encoding 120 FMSR

 179 1712 mt  -90 rotate
(\)) s
90 rotate
gs 583 290 3476 3155 rc
/c9 { 0.000000 0.500000 0.000000 sr} bdef
c9
435 656 434 939 435 596 434 258 434 -122 435 -519 434 -832 434 -880 
583 2937 9 MP stroke
gr

c9
gs 510 511 3622 2596 rc
 547 2937 mt  619 2937 L
 583 2901 mt  583 2973 L
 981 2057 mt 1053 2057 L
1017 2021 mt 1017 2093 L
1415 1225 mt 1487 1225 L
1451 1189 mt 1451 1261 L
1850  706 mt 1922  706 L
1886  670 mt 1886  742 L
2284  584 mt 2356  584 L
2320  548 mt 2320  620 L
2718  842 mt 2790  842 L
2754  806 mt 2754  878 L
3153 1438 mt 3225 1438 L
3189 1402 mt 3189 1474 L
3587 2377 mt 3659 2377 L
3623 2341 mt 3623 2413 L
4022 3033 mt 4094 3033 L
4058 2997 mt 4058 3069 L
gr

gs 583 290 3476 3155 rc
/c10 { 1.000000 0.000000 0.000000 sr} bdef
c10
435 805 434 645 435 429 434 146 434 -185 435 -541 434 -847 434 -908 
583 2891 9 MP stroke
gr

c10
gs 510 337 3622 2628 rc
 547 2891 mt  619 2891 L
 583 2855 mt  583 2927 L
 981 1983 mt 1053 1983 L
1017 1947 mt 1017 2019 L
1415 1136 mt 1487 1136 L
1451 1100 mt 1451 1172 L
1850  595 mt 1922  595 L
1886  559 mt 1886  631 L
2284  410 mt 2356  410 L
2320  374 mt 2320  446 L
2718  556 mt 2790  556 L
2754  520 mt 2754  592 L
3153  985 mt 3225  985 L
3189  949 mt 3189 1021 L
3587 1630 mt 3659 1630 L
3623 1594 mt 3623 1666 L
4022 2435 mt 4094 2435 L
4058 2399 mt 4058 2471 L
gr

gs 583 290 3476 3155 rc
gr

0 sg
1523  195 mt 
(GKW CBC adiabatic electrons) s
 566 3487 mt 
( ) s
4042  332 mt 
( ) s
gs 583 290 3476 3155 rc
435 189 434 619 435 474 434 220 434 -35 435 -287 434 -468 434 -492 
583 3224 9 MP stroke
gr

gs 510 1869 3622 1649 rc
 547 3224 mt  619 3224 L
 583 3188 mt  583 3260 L
 981 2732 mt 1053 2732 L
1017 2696 mt 1017 2768 L
1415 2264 mt 1487 2264 L
1451 2228 mt 1451 2300 L
1850 1977 mt 1922 1977 L
1886 1941 mt 1886 2013 L
2284 1942 mt 2356 1942 L
2320 1906 mt 2320 1978 L
2718 2162 mt 2790 2162 L
2754 2126 mt 2754 2198 L
3153 2636 mt 3225 2636 L
3189 2600 mt 3189 2672 L
3587 3255 mt 3659 3255 L
3623 3219 mt 3623 3291 L
4022 3444 mt 4094 3444 L
4058 3408 mt 4058 3480 L
gr

gs 583 290 3476 3155 rc
gr

1 sg
0 719 1013 0 0 -719 1799 3292 4 MP
PP
-1013 0 0 719 1013 0 0 -719 1799 3292 5 MP stroke
4 w
DO
SO
6 w
0 sg
1799 3292 mt 2812 3292 L
1799 2573 mt 2812 2573 L
1799 3292 mt 1799 2573 L
2812 3292 mt 2812 2573 L
1799 3292 mt 2812 3292 L
1799 3292 mt 1799 2573 L
1799 3292 mt 2812 3292 L
1799 2573 mt 2812 2573 L
1799 3292 mt 1799 2573 L
2812 3292 mt 2812 2573 L
2268 2722 mt 
(s-) s
%%IncludeResource: font Symbol
/Symbol /ISOLatin1Encoding 120 FMSR

2398 2722 mt 
(a) s
gs 1799 2573 1014 720 rc
c8
360 0 1871 2678 2 MP stroke
gr

c8
2015 2678 mt 2087 2678 L
2051 2642 mt 2051 2714 L
gs 1799 2573 1014 720 rc
gr

0 sg
%%IncludeResource: font Helvetica
/Helvetica /ISOLatin1Encoding 120 FMSR

2268 2891 mt 
(s-) s
%%IncludeResource: font Symbol
/Symbol /ISOLatin1Encoding 120 FMSR

2398 2891 mt 
(a) s
%%IncludeResource: font Helvetica
/Helvetica /ISOLatin1Encoding 120 FMSR

2473 2891 mt 
(-) s
%%IncludeResource: font Symbol
/Symbol /ISOLatin1Encoding 120 FMSR

2543 2891 mt 
(e) s
gs 1799 2573 1014 720 rc
c9
360 0 1871 2847 2 MP stroke
gr

c9
2015 2847 mt 2087 2847 L
2051 2811 mt 2051 2883 L
gs 1799 2573 1014 720 rc
gr

0 sg
%%IncludeResource: font Helvetica
/Helvetica /ISOLatin1Encoding 120 FMSR

2268 3060 mt 
(circ) s
gs 1799 2573 1014 720 rc
c10
360 0 1871 3017 2 MP stroke
gr

c10
2015 3017 mt 2087 3017 L
2051 2981 mt 2051 3053 L
gs 1799 2573 1014 720 rc
gr

0 sg
2268 3229 mt 
(QuaLiKiz) s
gs 1799 2573 1014 720 rc
360 0 1871 3186 2 MP stroke
gr

2015 3186 mt 2087 3186 L
2051 3150 mt 2051 3222 L
gs 1799 2573 1014 720 rc
gr


end %%Color Dict

eplot
%%EndObject

epage
end

showpage

%%Trailer
%%EOF
